{"failedCount":1,"prefixedPath":"src\/main\/java\/first_test_k.feature","packageQualifiedName":"src.main.java.first_test_k","loopIndex":-1,"relativePath":"src\/main\/java\/first_test_k.feature","scenarioResults":[{"sectionIndex":0,"stepResults":[{"result":{"nanos":66384400,"millis":66.3844,"status":"passed"},"step":{"line":4,"prefix":"Given","index":0,"text":"url \"https:\/\/reqres.in\/api\/users?page=2\""}},{"result":{"nanos":736539200,"millis":736.5392,"status":"passed"},"step":{"line":5,"prefix":"When","index":1,"text":"method GET"},"stepLog":"18:07:08.505 request:\n1 > GET https:\/\/reqres.in\/api\/users?page=2\n1 > Host: reqres.in\n1 > Connection: Keep-Alive\n1 > User-Agent: Apache-HttpClient\/4.5.13 (Java\/17.0.1)\n1 > Accept-Encoding: gzip,deflate\n\n\n18:07:08.951 response time in milliseconds: 444\n1 < 200\n1 < Date: Thu, 27 Jan 2022 17:07:08 GMT\n1 < Content-Type: application\/json; charset=utf-8\n1 < Transfer-Encoding: chunked\n1 < Connection: keep-alive\n1 < x-powered-by: Express\n1 < access-control-allow-origin: *\n1 < etag: W\/\"406-ut0vzoCuidvyMf8arZpMpJ6ZRDw\"\n1 < via: 1.1 vegur\n1 < Cache-Control: max-age=14400\n1 < CF-Cache-Status: HIT\n1 < Age: 2718\n1 < Expect-CT: max-age=604800, report-uri=\"https:\/\/report-uri.cloudflare.com\/cdn-cgi\/beacon\/expect-ct\"\n1 < Report-To: {\"endpoints\":[{\"url\":\"https:\\\/\\\/a.nel.cloudflare.com\\\/report\\\/v3?s=%2Bg1rxWOdyQFDGwExKxrya2ybHQHH7Q5nNHzeBjHg3sOCvMvAZQaiG9L0ARMRnXJlT%2Fi5vDQdEdmuhQRQlICMmIns53fVhszA4Zoyt9sAAM7h%2FYl251T2UYJpVg8%3D\"}],\"group\":\"cf-nel\",\"max_age\":604800}\n1 < NEL: {\"success_fraction\":0,\"report_to\":\"cf-nel\",\"max_age\":604800}\n1 < Vary: Accept-Encoding\n1 < Server: cloudflare\n1 < CF-RAY: 6d43935caa67067e-LHR\n1 < alt-svc: h3=\":443\"; ma=86400, h3-29=\":443\"; ma=86400\n{\"page\":2,\"per_page\":6,\"total\":12,\"total_pages\":2,\"data\":[{\"id\":7,\"email\":\"michael.lawson@reqres.in\",\"first_name\":\"Michael\",\"last_name\":\"Lawson\",\"avatar\":\"https:\/\/reqres.in\/img\/faces\/7-image.jpg\"},{\"id\":8,\"email\":\"lindsay.ferguson@reqres.in\",\"first_name\":\"Lindsay\",\"last_name\":\"Ferguson\",\"avatar\":\"https:\/\/reqres.in\/img\/faces\/8-image.jpg\"},{\"id\":9,\"email\":\"tobias.funke@reqres.in\",\"first_name\":\"Tobias\",\"last_name\":\"Funke\",\"avatar\":\"https:\/\/reqres.in\/img\/faces\/9-image.jpg\"},{\"id\":10,\"email\":\"byron.fields@reqres.in\",\"first_name\":\"Byron\",\"last_name\":\"Fields\",\"avatar\":\"https:\/\/reqres.in\/img\/faces\/10-image.jpg\"},{\"id\":11,\"email\":\"george.edwards@reqres.in\",\"first_name\":\"George\",\"last_name\":\"Edwards\",\"avatar\":\"https:\/\/reqres.in\/img\/faces\/11-image.jpg\"},{\"id\":12,\"email\":\"rachel.howell@reqres.in\",\"first_name\":\"Rachel\",\"last_name\":\"Howell\",\"avatar\":\"https:\/\/reqres.in\/img\/faces\/12-image.jpg\"}],\"support\":{\"url\":\"https:\/\/reqres.in\/#support-heading\",\"text\":\"To keep ReqRes free, contributions towards server costs are appreciated!\"}}\n"},{"result":{"nanos":19100,"millis":0.0191,"status":"passed"},"step":{"line":6,"prefix":"Then","index":2,"text":"status 200"}}],"executorName":"main","line":3,"name":"test API get","description":"","durationMillis":802.9427,"startTime":1643303228166,"failed":false,"refId":"[1:3]","endTime":1643303228981,"exampleIndex":-1},{"sectionIndex":1,"stepResults":[{"result":{"nanos":490900,"millis":0.4909,"status":"passed"},"step":{"line":8,"prefix":"Given","index":0,"text":"url \"https:\/\/reqres.in\/api\/users\/2\""}},{"result":{"nanos":292280900,"millis":292.2809,"status":"passed"},"step":{"line":9,"prefix":"When","index":1,"text":"method POST"},"stepLog":"18:07:08.987 request:\n1 > POST https:\/\/reqres.in\/api\/users\/2\n1 > Host: reqres.in\n1 > Connection: Keep-Alive\n1 > User-Agent: Apache-HttpClient\/4.5.13 (Java\/17.0.1)\n1 > Accept-Encoding: gzip,deflate\n\n\n18:07:09.276 response time in milliseconds: 289\n1 < 201\n1 < Date: Thu, 27 Jan 2022 17:07:09 GMT\n1 < Content-Type: application\/json; charset=utf-8\n1 < Content-Length: 51\n1 < Connection: keep-alive\n1 < x-powered-by: Express\n1 < access-control-allow-origin: *\n1 < etag: W\/\"33-MC\/o+lNtQuyn\/J+vDxz3U4vpkzY\"\n1 < via: 1.1 vegur\n1 < CF-Cache-Status: DYNAMIC\n1 < Expect-CT: max-age=604800, report-uri=\"https:\/\/report-uri.cloudflare.com\/cdn-cgi\/beacon\/expect-ct\"\n1 < Report-To: {\"endpoints\":[{\"url\":\"https:\\\/\\\/a.nel.cloudflare.com\\\/report\\\/v3?s=0Vdy7lhogxcdBKOJ3f%2B0J7zVO5jkNFaym%2FADa7VmM%2BMGqMk3DrBNRHeTSYs7JFmziATNfyTaPbnv3JDIjBIRWoeYwOwyUYh4sC%2BFbPwHavNVxuKgeHmoAmk%2BWkw%3D\"}],\"group\":\"cf-nel\",\"max_age\":604800}\n1 < NEL: {\"success_fraction\":0,\"report_to\":\"cf-nel\",\"max_age\":604800}\n1 < Server: cloudflare\n1 < CF-RAY: 6d43935e5c0888c1-LHR\n1 < alt-svc: h3=\":443\"; ma=86400, h3-29=\":443\"; ma=86400\n{\"id\":\"974\",\"createdAt\":\"2022-01-27T17:07:09.228Z\"}\n"},{"result":{"nanos":213100,"errorMessage":"status code was: 201, expected: 200, response time in milliseconds: 289, url: https:\/\/reqres.in\/api\/users\/2, response: \n{\"id\":\"974\",\"createdAt\":\"2022-01-27T17:07:09.228Z\"}\nsrc\/main\/java\/first_test_k.feature:10","millis":0.2131,"status":"failed"},"step":{"line":10,"prefix":"Then","index":2,"text":"status 200"},"stepLog":"18:07:09.280 src\/main\/java\/first_test_k.feature:10\nThen status 200\nstatus code was: 201, expected: 200, response time in milliseconds: 289, url: https:\/\/reqres.in\/api\/users\/2, response: \n{\"id\":\"974\",\"createdAt\":\"2022-01-27T17:07:09.228Z\"}\nsrc\/main\/java\/first_test_k.feature:10\n"}],"line":7,"description":"","durationMillis":292.9849,"failed":true,"error":"status code was: 201, expected: 200, response time in milliseconds: 289, url: https:\/\/reqres.in\/api\/users\/2, response: \n{\"id\":\"974\",\"createdAt\":\"2022-01-27T17:07:09.228Z\"}\nsrc\/main\/java\/first_test_k.feature:10","executorName":"main","name":"test API post","startTime":1643303228986,"refId":"[2:7]","endTime":1643303229280,"exampleIndex":-1}],"callDepth":0,"name":"test sample API","description":"","resultDate":"2022-01-27 06:07:09 PM","durationMillis":1095.9276,"passedCount":1}