{"failedCount":1,"prefixedPath":"src\/test\/java\/testapi.feature","packageQualifiedName":"src.test.java.testapi","loopIndex":-1,"relativePath":"src\/test\/java\/testapi.feature","scenarioResults":[{"sectionIndex":0,"stepResults":[{"result":{"nanos":60280900,"millis":60.2809,"status":"passed"},"step":{"background":true,"line":4,"prefix":"*","index":0,"text":"url 'https:\/\/reqres.in\/api'"}},{"result":{"nanos":87748000,"millis":87.748,"status":"passed"},"step":{"background":true,"line":5,"prefix":"*","index":1,"text":"def output = read('response1.json')"}},{"result":{"nanos":1141200,"millis":1.1412,"status":"passed"},"step":{"background":true,"line":6,"prefix":"*","index":2,"text":"def request1 = read('request1.json')"}},{"result":{"nanos":400300,"millis":0.4003,"status":"passed"},"step":{"line":9,"prefix":"Given","index":0,"text":"path '\/users?page=2'"}},{"result":{"nanos":613781700,"millis":613.7817,"status":"passed"},"step":{"line":10,"prefix":"When","index":1,"text":"method GET"},"stepLog":"19:09:19.641 request:\n1 > GET https:\/\/reqres.in\/api\/users%3Fpage=2\n1 > Host: reqres.in\n1 > Connection: Keep-Alive\n1 > User-Agent: Apache-HttpClient\/4.5.13 (Java\/17.0.1)\n1 > Accept-Encoding: gzip,deflate\n\n\n19:09:20.056 response time in milliseconds: 413\n1 < 200\n1 < Date: Sat, 05 Feb 2022 18:09:14 GMT\n1 < Content-Type: application\/json; charset=utf-8\n1 < Transfer-Encoding: chunked\n1 < Connection: keep-alive\n1 < x-powered-by: Express\n1 < access-control-allow-origin: *\n1 < etag: W\/\"2c1-N6Rqerxquq2kgQhL51EiSg4x0R8\"\n1 < via: 1.1 vegur\n1 < Cache-Control: max-age=14400\n1 < CF-Cache-Status: HIT\n1 < Age: 1108\n1 < Expect-CT: max-age=604800, report-uri=\"https:\/\/report-uri.cloudflare.com\/cdn-cgi\/beacon\/expect-ct\"\n1 < Report-To: {\"endpoints\":[{\"url\":\"https:\\\/\\\/a.nel.cloudflare.com\\\/report\\\/v3?s=zpF9ldWrfRUXtHe5UkNGosKmh7pfEsXhw2VZracux%2Fr8Y1NmD%2BJkMUUx%2B16L8TzV8l%2FdKs3az1puUEdhZ7BorsuJswGueRYSv7mnORuvFgjrJBXvJDdjbZm%2BWYA%3D\"}],\"group\":\"cf-nel\",\"max_age\":604800}\n1 < NEL: {\"success_fraction\":0,\"report_to\":\"cf-nel\",\"max_age\":604800}\n1 < Vary: Accept-Encoding\n1 < Server: cloudflare\n1 < CF-RAY: 6d8e16b3dcc0d4a4-BRU\n1 < alt-svc: h3=\":443\"; ma=86400, h3-29=\":443\"; ma=86400\n{\"page\":1,\"per_page\":6,\"total\":12,\"total_pages\":2,\"data\":[{\"id\":1,\"name\":\"cerulean\",\"year\":2000,\"color\":\"#98B2D1\",\"pantone_value\":\"15-4020\"},{\"id\":2,\"name\":\"fuchsia rose\",\"year\":2001,\"color\":\"#C74375\",\"pantone_value\":\"17-2031\"},{\"id\":3,\"name\":\"true red\",\"year\":2002,\"color\":\"#BF1932\",\"pantone_value\":\"19-1664\"},{\"id\":4,\"name\":\"aqua sky\",\"year\":2003,\"color\":\"#7BC4C4\",\"pantone_value\":\"14-4811\"},{\"id\":5,\"name\":\"tigerlily\",\"year\":2004,\"color\":\"#E2583E\",\"pantone_value\":\"17-1456\"},{\"id\":6,\"name\":\"blue turquoise\",\"year\":2005,\"color\":\"#53B0AE\",\"pantone_value\":\"15-5217\"}],\"support\":{\"url\":\"https:\/\/reqres.in\/#support-heading\",\"text\":\"To keep ReqRes free, contributions towards server costs are appreciated!\"}}\n"},{"result":{"nanos":17100,"millis":0.0171,"status":"passed"},"step":{"line":11,"prefix":"Then","index":2,"text":"status 200"}},{"result":{"nanos":7096200,"millis":7.0962,"status":"passed"},"step":{"line":12,"prefix":"And","index":3,"text":"assert response.data.length == 6"}},{"result":{"nanos":13710900,"millis":13.7109,"status":"passed"},"step":{"line":13,"prefix":"And","index":4,"text":"print response.data[1].id"},"stepLog":"19:09:20.078 [print] 2 \n"},{"result":{"nanos":10759600,"millis":10.7596,"status":"passed"},"step":{"line":14,"prefix":"And","index":5,"text":"match $.data[1].id == 2"}},{"result":{"nanos":3240900,"millis":3.2409,"status":"passed"},"step":{"line":15,"prefix":"And","index":6,"text":"print response.data[1].email"},"stepLog":"19:09:20.094 [print] null \n"},{"result":{"nanos":1247800,"errorMessage":"match failed: EQUALS\n  $ | actual path does not exist (STRING:STRING)\n  '#notpresent'\n  'michael.lawson@reqres.in'\n\nsrc\/test\/java\/testapi.feature:16","millis":1.2478,"status":"failed"},"step":{"line":16,"prefix":"And","index":7,"text":"match $.data[0].email == 'michael.lawson@reqres.in'"},"stepLog":"19:09:20.095 src\/test\/java\/testapi.feature:16\nAnd match $.data[0].email == 'michael.lawson@reqres.in'\nmatch failed: EQUALS\n  $ | actual path does not exist (STRING:STRING)\n  '#notpresent'\n  'michael.lawson@reqres.in'\n\nsrc\/test\/java\/testapi.feature:16\n"}],"line":8,"description":"","durationMillis":799.4246,"failed":true,"error":"match failed: EQUALS\n  $ | actual path does not exist (STRING:STRING)\n  '#notpresent'\n  'michael.lawson@reqres.in'\n\nsrc\/test\/java\/testapi.feature:16","executorName":"main","name":"test API get 1","startTime":1644084559288,"refId":"[1:8]","endTime":1644084560096,"exampleIndex":-1},{"sectionIndex":1,"stepResults":[{"result":{"nanos":312200,"millis":0.3122,"status":"passed"},"step":{"background":true,"line":4,"prefix":"*","index":0,"text":"url 'https:\/\/reqres.in\/api'"}},{"result":{"nanos":723200,"millis":0.7232,"status":"passed"},"step":{"background":true,"line":5,"prefix":"*","index":1,"text":"def output = read('response1.json')"}},{"result":{"nanos":522600,"millis":0.5226,"status":"passed"},"step":{"background":true,"line":6,"prefix":"*","index":2,"text":"def request1 = read('request1.json')"}},{"result":{"nanos":178600,"millis":0.1786,"status":"passed"},"step":{"comments":["#Given path '\/users'"],"line":20,"prefix":"Given","index":0,"text":"path '\/users'"}},{"result":{"nanos":134200,"millis":0.1342,"status":"passed"},"step":{"line":21,"prefix":"And","index":1,"text":"request {\"name\": \"Mouad\" , \"job\": \"tester\" , \"age\": 25}"}},{"result":{"nanos":319207000,"millis":319.207,"status":"passed"},"step":{"line":22,"prefix":"When","index":2,"text":"method POST"},"stepLog":"19:09:20.129 request:\n1 > POST https:\/\/reqres.in\/api\/users\n1 > Content-Type: application\/json; charset=UTF-8\n1 > Content-Length: 40\n1 > Host: reqres.in\n1 > Connection: Keep-Alive\n1 > User-Agent: Apache-HttpClient\/4.5.13 (Java\/17.0.1)\n1 > Accept-Encoding: gzip,deflate\n{\"name\":\"Mouad\",\"job\":\"tester\",\"age\":25}\n\n19:09:20.420 response time in milliseconds: 290\n1 < 201\n1 < Date: Sat, 05 Feb 2022 18:09:15 GMT\n1 < Content-Type: application\/json; charset=utf-8\n1 < Content-Length: 90\n1 < Connection: keep-alive\n1 < x-powered-by: Express\n1 < access-control-allow-origin: *\n1 < etag: W\/\"5a-qi0raVfSjsQGAt+nPj3+W69CFiI\"\n1 < via: 1.1 vegur\n1 < CF-Cache-Status: DYNAMIC\n1 < Expect-CT: max-age=604800, report-uri=\"https:\/\/report-uri.cloudflare.com\/cdn-cgi\/beacon\/expect-ct\"\n1 < Report-To: {\"endpoints\":[{\"url\":\"https:\\\/\\\/a.nel.cloudflare.com\\\/report\\\/v3?s=fDoOQFVo%2BqKnqLr2LqCMQALD1VvgNLGl9gRRbC2YKw8qDc0U56JAsxQwRykl%2B9I1ygqTODIxUGY%2BbMIlDjME%2B4EzyqD0Wi%2Fx0ZHetyQAP2ms9Wz31F%2BQuZLdbCo%3D\"}],\"group\":\"cf-nel\",\"max_age\":604800}\n1 < NEL: {\"success_fraction\":0,\"report_to\":\"cf-nel\",\"max_age\":604800}\n1 < Server: cloudflare\n1 < CF-RAY: 6d8e16b5c8e3f961-BRU\n1 < alt-svc: h3=\":443\"; ma=86400, h3-29=\":443\"; ma=86400\n{\"name\":\"Mouad\",\"job\":\"tester\",\"age\":25,\"id\":\"668\",\"createdAt\":\"2022-02-05T18:09:15.240Z\"}\n"},{"result":{"nanos":7700,"millis":0.0077,"status":"passed"},"step":{"line":23,"prefix":"Then","index":3,"text":"status 201"}},{"result":{"nanos":469000,"millis":0.469,"status":"passed"},"step":{"line":24,"prefix":"And","index":4,"text":"match response == {\"name\":\"Mouad\",\"job\":\"tester\",\"age\":25,\"id\":\"#string\",\"createdAt\":\"#ignore\"}"}},{"result":{"nanos":1103500,"millis":1.1035,"status":"passed"},"step":{"line":25,"prefix":"And","index":5,"text":"print response"},"stepLog":"19:09:20.422 [print] {\n  \"name\": \"Mouad\",\n  \"job\": \"tester\",\n  \"age\": 25,\n  \"id\": \"668\",\n  \"createdAt\": \"2022-02-05T18:09:15.240Z\"\n}\n \n"}],"executorName":"main","line":18,"name":"test API post 2","description":"","durationMillis":322.658,"startTime":1644084560099,"failed":false,"refId":"[2:18]","endTime":1644084560422,"exampleIndex":-1},{"sectionIndex":2,"stepResults":[{"result":{"nanos":158700,"millis":0.1587,"status":"passed"},"step":{"background":true,"line":4,"prefix":"*","index":0,"text":"url 'https:\/\/reqres.in\/api'"}},{"result":{"nanos":597300,"millis":0.5973,"status":"passed"},"step":{"background":true,"line":5,"prefix":"*","index":1,"text":"def output = read('response1.json')"}},{"result":{"nanos":333200,"millis":0.3332,"status":"passed"},"step":{"background":true,"line":6,"prefix":"*","index":2,"text":"def request1 = read('request1.json')"}},{"result":{"nanos":64000,"millis":0.064,"status":"passed"},"step":{"comments":["#Given path '\/users'"],"line":29,"prefix":"Given","index":0,"text":"path '\/users'"}},{"result":{"nanos":100500,"millis":0.1005,"status":"passed"},"step":{"line":30,"prefix":"And","index":1,"text":"request {\"name\": \"Mouad\" , \"job\": \"tester\" }"}},{"result":{"nanos":265503600,"millis":265.5036,"status":"passed"},"step":{"line":31,"prefix":"When","index":2,"text":"method POST"},"stepLog":"19:09:20.427 request:\n1 > POST https:\/\/reqres.in\/api\/users\n1 > Content-Type: application\/json; charset=UTF-8\n1 > Content-Length: 31\n1 > Host: reqres.in\n1 > Connection: Keep-Alive\n1 > User-Agent: Apache-HttpClient\/4.5.13 (Java\/17.0.1)\n1 > Accept-Encoding: gzip,deflate\n{\"name\":\"Mouad\",\"job\":\"tester\"}\n\n19:09:20.692 response time in milliseconds: 265\n1 < 201\n1 < Date: Sat, 05 Feb 2022 18:09:15 GMT\n1 < Content-Type: application\/json; charset=utf-8\n1 < Content-Length: 81\n1 < Connection: keep-alive\n1 < x-powered-by: Express\n1 < access-control-allow-origin: *\n1 < etag: W\/\"51-yMUtiIlcwDVjQSDFEFRAAnqP0T4\"\n1 < via: 1.1 vegur\n1 < CF-Cache-Status: DYNAMIC\n1 < Expect-CT: max-age=604800, report-uri=\"https:\/\/report-uri.cloudflare.com\/cdn-cgi\/beacon\/expect-ct\"\n1 < Report-To: {\"endpoints\":[{\"url\":\"https:\\\/\\\/a.nel.cloudflare.com\\\/report\\\/v3?s=NYghfa8sp%2FJa4%2FLuLLJyNoljhLJqTII1PIoRRlZBK19geX0r%2F8bmlpnVxvcfGhADzkoMwhZjnynC3bqmMVtKkVyAi%2Fb3hHUokviQni2dbB7jZi1bUDL1mMFbJRQ%3D\"}],\"group\":\"cf-nel\",\"max_age\":604800}\n1 < NEL: {\"success_fraction\":0,\"report_to\":\"cf-nel\",\"max_age\":604800}\n1 < Server: cloudflare\n1 < CF-RAY: 6d8e16b79e71f95d-BRU\n1 < alt-svc: h3=\":443\"; ma=86400, h3-29=\":443\"; ma=86400\n{\"name\":\"Mouad\",\"job\":\"tester\",\"id\":\"881\",\"createdAt\":\"2022-02-05T18:09:15.512Z\"}\n"},{"result":{"nanos":6500,"millis":0.0065,"status":"passed"},"step":{"line":32,"prefix":"Then","index":3,"text":"status 201"}},{"result":{"nanos":306800,"millis":0.3068,"status":"passed"},"step":{"line":33,"prefix":"And","index":4,"text":"match response == output"}},{"result":{"nanos":345100,"millis":0.3451,"status":"passed"},"step":{"line":34,"prefix":"And","index":5,"text":"print response"},"stepLog":"19:09:20.693 [print] {\n  \"name\": \"Mouad\",\n  \"job\": \"tester\",\n  \"id\": \"881\",\n  \"createdAt\": \"2022-02-05T18:09:15.512Z\"\n}\n \n"}],"executorName":"main","line":27,"name":"test API post 3","description":"","durationMillis":267.4157,"startTime":1644084560425,"failed":false,"refId":"[3:27]","endTime":1644084560693,"exampleIndex":-1},{"sectionIndex":3,"stepResults":[{"result":{"nanos":229500,"millis":0.2295,"status":"passed"},"step":{"background":true,"line":4,"prefix":"*","index":0,"text":"url 'https:\/\/reqres.in\/api'"}},{"result":{"nanos":687600,"millis":0.6876,"status":"passed"},"step":{"background":true,"line":5,"prefix":"*","index":1,"text":"def output = read('response1.json')"}},{"result":{"nanos":492200,"millis":0.4922,"status":"passed"},"step":{"background":true,"line":6,"prefix":"*","index":2,"text":"def request1 = read('request1.json')"}},{"result":{"nanos":77000,"millis":0.077,"status":"passed"},"step":{"comments":["#Given path '\/users'"],"line":38,"prefix":"Given","index":0,"text":"path '\/users'"}},{"result":{"nanos":432100,"millis":0.4321,"status":"passed"},"step":{"line":39,"prefix":"And","index":1,"text":"request request1"}},{"result":{"nanos":290836700,"millis":290.8367,"status":"passed"},"step":{"line":40,"prefix":"When","index":2,"text":"method POST"},"stepLog":"19:09:20.699 request:\n1 > POST https:\/\/reqres.in\/api\/users\n1 > Content-Type: application\/json; charset=UTF-8\n1 > Content-Length: 31\n1 > Host: reqres.in\n1 > Connection: Keep-Alive\n1 > User-Agent: Apache-HttpClient\/4.5.13 (Java\/17.0.1)\n1 > Accept-Encoding: gzip,deflate\n{\"name\":\"Mouad\",\"job\":\"tester\"}\n\n19:09:20.987 response time in milliseconds: 287\n1 < 201\n1 < Date: Sat, 05 Feb 2022 18:09:15 GMT\n1 < Content-Type: application\/json; charset=utf-8\n1 < Content-Length: 80\n1 < Connection: keep-alive\n1 < x-powered-by: Express\n1 < access-control-allow-origin: *\n1 < etag: W\/\"50-Sokn1JDPg2P7OGA+iGzYzOIMdwE\"\n1 < via: 1.1 vegur\n1 < CF-Cache-Status: DYNAMIC\n1 < Expect-CT: max-age=604800, report-uri=\"https:\/\/report-uri.cloudflare.com\/cdn-cgi\/beacon\/expect-ct\"\n1 < Report-To: {\"endpoints\":[{\"url\":\"https:\\\/\\\/a.nel.cloudflare.com\\\/report\\\/v3?s=xFtUjTQLsqNntt3BvNAJHQ8JU2ZJujlDONyHlYOXW%2FGnvinLggLctkrjo47bKV2N3h722pqslcP9RN5k8a8k8Bz2ff%2FH4u3ptNrrGh5e09juQLdld0zhV2hW5Mk%3D\"}],\"group\":\"cf-nel\",\"max_age\":604800}\n1 < NEL: {\"success_fraction\":0,\"report_to\":\"cf-nel\",\"max_age\":604800}\n1 < Server: cloudflare\n1 < CF-RAY: 6d8e16b95ba083e4-BRU\n1 < alt-svc: h3=\":443\"; ma=86400, h3-29=\":443\"; ma=86400\n{\"name\":\"Mouad\",\"job\":\"tester\",\"id\":\"16\",\"createdAt\":\"2022-02-05T18:09:15.806Z\"}\n"},{"result":{"nanos":26100,"millis":0.0261,"status":"passed"},"step":{"line":41,"prefix":"Then","index":3,"text":"status 201"}},{"result":{"nanos":217100,"millis":0.2171,"status":"passed"},"step":{"line":42,"prefix":"And","index":4,"text":"match response == output"}},{"result":{"nanos":338800,"millis":0.3388,"status":"passed"},"step":{"line":43,"prefix":"And","index":5,"text":"print response"},"stepLog":"19:09:20.989 [print] {\n  \"name\": \"Mouad\",\n  \"job\": \"tester\",\n  \"id\": \"16\",\n  \"createdAt\": \"2022-02-05T18:09:15.806Z\"\n}\n \n"}],"executorName":"main","line":36,"name":"test API post 3","description":"","durationMillis":293.3371,"startTime":1644084560696,"failed":false,"refId":"[4:36]","endTime":1644084560989,"exampleIndex":-1}],"callDepth":0,"name":"test sample API","description":"","resultDate":"2022-02-05 07:09:20 PM","durationMillis":1682.8354,"passedCount":3}