{"failedCount":2,"prefixedPath":"src\/test\/java\/test_ResIsReq.feature","packageQualifiedName":"src.test.java.test_ResIsReq","loopIndex":-1,"relativePath":"src\/test\/java\/test_ResIsReq.feature","scenarioResults":[{"sectionIndex":0,"stepResults":[{"result":{"nanos":60582700,"millis":60.5827,"status":"passed"},"step":{"background":true,"line":4,"prefix":"*","index":0,"text":"def baseUrl = 'https:\/\/reqres.in\/api'"}},{"result":{"nanos":15317000,"millis":15.317,"status":"passed"},"step":{"line":8,"prefix":"Given","index":0,"text":"url baseUrl"}},{"result":{"nanos":387300,"millis":0.3873,"status":"passed"},"step":{"line":9,"prefix":"And","index":1,"text":"path '\/users?page=2'"}},{"result":{"nanos":661732500,"millis":661.7325,"status":"passed"},"step":{"line":10,"prefix":"When","index":2,"text":"method GET"},"stepLog":"15:44:18.487 request:\n1 > GET https:\/\/reqres.in\/api\/users%3Fpage=2\n1 > Host: reqres.in\n1 > Connection: Keep-Alive\n1 > User-Agent: Apache-HttpClient\/4.5.13 (Java\/17.0.1)\n1 > Accept-Encoding: gzip,deflate\n\n\n15:44:18.928 response time in milliseconds: 440\n1 < 200\n1 < Date: Sun, 13 Feb 2022 14:44:16 GMT\n1 < Content-Type: application\/json; charset=utf-8\n1 < Transfer-Encoding: chunked\n1 < Connection: keep-alive\n1 < X-Powered-By: Express\n1 < Access-Control-Allow-Origin: *\n1 < Etag: W\/\"2c1-N6Rqerxquq2kgQhL51EiSg4x0R8\"\n1 < Via: 1.1 vegur\n1 < Cache-Control: max-age=14400\n1 < CF-Cache-Status: HIT\n1 < Age: 2643\n1 < Expect-CT: max-age=604800, report-uri=\"https:\/\/report-uri.cloudflare.com\/cdn-cgi\/beacon\/expect-ct\"\n1 < Report-To: {\"endpoints\":[{\"url\":\"https:\\\/\\\/a.nel.cloudflare.com\\\/report\\\/v3?s=pKmtLT99NW48I0QOyUEOgD6rcLvFofqRs3SeJo98MxtSDTymxsaRoWobA9yjVAiZ4T6iRTMUYdUn7V1Q9z0QgptVohSQ4LCWMnk4PuncPbgBZWpeaws9elPbYEQ%3D\"}],\"group\":\"cf-nel\",\"max_age\":604800}\n1 < NEL: {\"success_fraction\":0,\"report_to\":\"cf-nel\",\"max_age\":604800}\n1 < Vary: Accept-Encoding\n1 < Server: cloudflare\n1 < CF-RAY: 6dced5700fd183cf-BRU\n1 < alt-svc: h3=\":443\"; ma=86400, h3-29=\":443\"; ma=86400\n{\"page\":1,\"per_page\":6,\"total\":12,\"total_pages\":2,\"data\":[{\"id\":1,\"name\":\"cerulean\",\"year\":2000,\"color\":\"#98B2D1\",\"pantone_value\":\"15-4020\"},{\"id\":2,\"name\":\"fuchsia rose\",\"year\":2001,\"color\":\"#C74375\",\"pantone_value\":\"17-2031\"},{\"id\":3,\"name\":\"true red\",\"year\":2002,\"color\":\"#BF1932\",\"pantone_value\":\"19-1664\"},{\"id\":4,\"name\":\"aqua sky\",\"year\":2003,\"color\":\"#7BC4C4\",\"pantone_value\":\"14-4811\"},{\"id\":5,\"name\":\"tigerlily\",\"year\":2004,\"color\":\"#E2583E\",\"pantone_value\":\"17-1456\"},{\"id\":6,\"name\":\"blue turquoise\",\"year\":2005,\"color\":\"#53B0AE\",\"pantone_value\":\"15-5217\"}],\"support\":{\"url\":\"https:\/\/reqres.in\/#support-heading\",\"text\":\"To keep ReqRes free, contributions towards server costs are appreciated!\"}}\n"},{"result":{"nanos":16100,"millis":0.0161,"status":"passed"},"step":{"line":11,"prefix":"Then","index":3,"text":"status 200"}},{"result":{"nanos":3074900,"millis":3.0749,"status":"passed"},"step":{"line":12,"prefix":"And","index":4,"text":"def uResponse = response"}},{"result":{"nanos":40907200,"millis":40.9072,"status":"passed"},"step":{"line":13,"prefix":"And","index":5,"text":"print uResponse"},"stepLog":"15:44:18.991 [print] {\n  \"page\": 1,\n  \"per_page\": 6,\n  \"total\": 12,\n  \"total_pages\": 2,\n  \"data\": [\n    {\n      \"id\": 1,\n      \"name\": \"cerulean\",\n      \"year\": 2000,\n      \"color\": \"#98B2D1\",\n      \"pantone_value\": \"15-4020\"\n    },\n    {\n      \"id\": 2,\n      \"name\": \"fuchsia rose\",\n      \"year\": 2001,\n      \"color\": \"#C74375\",\n      \"pantone_value\": \"17-2031\"\n    },\n    {\n      \"id\": 3,\n      \"name\": \"true red\",\n      \"year\": 2002,\n      \"color\": \"#BF1932\",\n      \"pantone_value\": \"19-1664\"\n    },\n    {\n      \"id\": 4,\n      \"name\": \"aqua sky\",\n      \"year\": 2003,\n      \"color\": \"#7BC4C4\",\n      \"pantone_value\": \"14-4811\"\n    },\n    {\n      \"id\": 5,\n      \"name\": \"tigerlily\",\n      \"year\": 2004,\n      \"color\": \"#E2583E\",\n      \"pantone_value\": \"17-1456\"\n    },\n    {\n      \"id\": 6,\n      \"name\": \"blue turquoise\",\n      \"year\": 2005,\n      \"color\": \"#53B0AE\",\n      \"pantone_value\": \"15-5217\"\n    }\n  ],\n  \"support\": {\n    \"url\": \"https:\/\/reqres.in\/#support-heading\",\n    \"text\": \"To keep ReqRes free, contributions towards server costs are appreciated!\"\n  }\n}\n \n"},{"result":{"nanos":14659200,"millis":14.6592,"status":"passed"},"step":{"line":14,"prefix":"Then","index":6,"text":"match uResponse.data[*].name contains  ['cerulean']"}},{"result":{"nanos":2269100,"millis":2.2691,"status":"passed"},"step":{"line":15,"prefix":"Then","index":7,"text":"def rec = uResponse.data.name = 'cerulean'"}}],"line":7,"description":"","durationMillis":798.946,"failed":false,"tags":["tag1"],"executorName":"main","name":"get if cerulean exist","startTime":1644763458202,"refId":"[1:7]","endTime":1644763459009,"exampleIndex":-1},{"sectionIndex":1,"stepResults":[{"result":{"nanos":370800,"millis":0.3708,"status":"passed"},"step":{"background":true,"line":4,"prefix":"*","index":0,"text":"def baseUrl = 'https:\/\/reqres.in\/api'"}},{"result":{"nanos":116800,"millis":0.1168,"status":"passed"},"step":{"line":18,"prefix":"Given","index":0,"text":"url baseUrl"}},{"result":{"nanos":197100,"millis":0.1971,"status":"passed"},"step":{"line":19,"prefix":"And","index":1,"text":"path '\/users?page=2'"}},{"result":{"nanos":372082800,"millis":372.0828,"status":"passed"},"step":{"line":20,"prefix":"When","index":2,"text":"method GET"},"stepLog":"15:44:19.014 request:\n1 > GET https:\/\/reqres.in\/api\/users%3Fpage=2\n1 > Host: reqres.in\n1 > Connection: Keep-Alive\n1 > User-Agent: Apache-HttpClient\/4.5.13 (Java\/17.0.1)\n1 > Accept-Encoding: gzip,deflate\n\n\n15:44:19.385 response time in milliseconds: 371\n1 < 200\n1 < Date: Sun, 13 Feb 2022 14:44:16 GMT\n1 < Content-Type: application\/json; charset=utf-8\n1 < Transfer-Encoding: chunked\n1 < Connection: keep-alive\n1 < X-Powered-By: Express\n1 < Access-Control-Allow-Origin: *\n1 < Etag: W\/\"2c1-N6Rqerxquq2kgQhL51EiSg4x0R8\"\n1 < Via: 1.1 vegur\n1 < Cache-Control: max-age=14400\n1 < CF-Cache-Status: HIT\n1 < Age: 2643\n1 < Expect-CT: max-age=604800, report-uri=\"https:\/\/report-uri.cloudflare.com\/cdn-cgi\/beacon\/expect-ct\"\n1 < Report-To: {\"endpoints\":[{\"url\":\"https:\\\/\\\/a.nel.cloudflare.com\\\/report\\\/v3?s=QZz5TMdRN9wLaSPy0xeSr%2FH%2B7uG0PsO7Quj01kJuV%2FW1maUgAVn94lBUYm5WEuLSbsSrc86X9ChK7ZID8sHasACmUqW3fV78znowIsot7R3tRZLd2bLia9XMIgI%3D\"}],\"group\":\"cf-nel\",\"max_age\":604800}\n1 < NEL: {\"success_fraction\":0,\"report_to\":\"cf-nel\",\"max_age\":604800}\n1 < Vary: Accept-Encoding\n1 < Server: cloudflare\n1 < CF-RAY: 6dced5726c132e0e-BRU\n1 < alt-svc: h3=\":443\"; ma=86400, h3-29=\":443\"; ma=86400\n{\"page\":1,\"per_page\":6,\"total\":12,\"total_pages\":2,\"data\":[{\"id\":1,\"name\":\"cerulean\",\"year\":2000,\"color\":\"#98B2D1\",\"pantone_value\":\"15-4020\"},{\"id\":2,\"name\":\"fuchsia rose\",\"year\":2001,\"color\":\"#C74375\",\"pantone_value\":\"17-2031\"},{\"id\":3,\"name\":\"true red\",\"year\":2002,\"color\":\"#BF1932\",\"pantone_value\":\"19-1664\"},{\"id\":4,\"name\":\"aqua sky\",\"year\":2003,\"color\":\"#7BC4C4\",\"pantone_value\":\"14-4811\"},{\"id\":5,\"name\":\"tigerlily\",\"year\":2004,\"color\":\"#E2583E\",\"pantone_value\":\"17-1456\"},{\"id\":6,\"name\":\"blue turquoise\",\"year\":2005,\"color\":\"#53B0AE\",\"pantone_value\":\"15-5217\"}],\"support\":{\"url\":\"https:\/\/reqres.in\/#support-heading\",\"text\":\"To keep ReqRes free, contributions towards server costs are appreciated!\"}}\n"},{"result":{"nanos":8200,"millis":0.0082,"status":"passed"},"step":{"line":21,"prefix":"Then","index":3,"text":"status 200"}},{"result":{"nanos":205400,"millis":0.2054,"status":"passed"},"step":{"line":22,"prefix":"And","index":4,"text":"def uResponse = response"}},{"result":{"nanos":767700,"millis":0.7677,"status":"passed"},"step":{"line":23,"prefix":"And","index":5,"text":"print uResponse"},"stepLog":"15:44:19.387 [print] {\n  \"page\": 1,\n  \"per_page\": 6,\n  \"total\": 12,\n  \"total_pages\": 2,\n  \"data\": [\n    {\n      \"id\": 1,\n      \"name\": \"cerulean\",\n      \"year\": 2000,\n      \"color\": \"#98B2D1\",\n      \"pantone_value\": \"15-4020\"\n    },\n    {\n      \"id\": 2,\n      \"name\": \"fuchsia rose\",\n      \"year\": 2001,\n      \"color\": \"#C74375\",\n      \"pantone_value\": \"17-2031\"\n    },\n    {\n      \"id\": 3,\n      \"name\": \"true red\",\n      \"year\": 2002,\n      \"color\": \"#BF1932\",\n      \"pantone_value\": \"19-1664\"\n    },\n    {\n      \"id\": 4,\n      \"name\": \"aqua sky\",\n      \"year\": 2003,\n      \"color\": \"#7BC4C4\",\n      \"pantone_value\": \"14-4811\"\n    },\n    {\n      \"id\": 5,\n      \"name\": \"tigerlily\",\n      \"year\": 2004,\n      \"color\": \"#E2583E\",\n      \"pantone_value\": \"17-1456\"\n    },\n    {\n      \"id\": 6,\n      \"name\": \"blue turquoise\",\n      \"year\": 2005,\n      \"color\": \"#53B0AE\",\n      \"pantone_value\": \"15-5217\"\n    }\n  ],\n  \"support\": {\n    \"url\": \"https:\/\/reqres.in\/#support-heading\",\n    \"text\": \"To keep ReqRes free, contributions towards server costs are appreciated!\"\n  }\n}\n \n"},{"result":{"nanos":540100,"millis":0.5401,"status":"passed"},"step":{"line":24,"prefix":"Then","index":6,"text":"match uResponse.data[*].id contains  [1]"}},{"result":{"nanos":973400,"millis":0.9734,"status":"passed"},"step":{"line":25,"prefix":"Then","index":7,"text":"def idNumber = uResponse.data.id = 1"}},{"result":{"nanos":583000,"millis":0.583,"status":"passed"},"step":{"line":26,"prefix":"And","index":8,"text":"print idNumber"},"stepLog":"15:44:19.390 [print] 1 \n"},{"result":{"nanos":60800,"millis":0.0608,"status":"passed"},"step":{"line":28,"prefix":"Given","index":9,"text":"url baseUrl"}},{"result":{"nanos":179800,"millis":0.1798,"status":"passed"},"step":{"line":29,"prefix":"And","index":10,"text":"path '\/users\/'"}}],"line":17,"description":"","durationMillis":376.0859,"failed":false,"tags":["tag2"],"executorName":"main","name":"get if id 1 exist","startTime":1644763459013,"refId":"[2:17]","endTime":1644763459390,"exampleIndex":-1},{"sectionIndex":2,"stepResults":[{"result":{"nanos":140300,"millis":0.1403,"status":"passed"},"step":{"background":true,"line":4,"prefix":"*","index":0,"text":"def baseUrl = 'https:\/\/reqres.in\/api'"}},{"result":{"nanos":196600,"millis":0.1966,"status":"passed"},"step":{"comments":["#* def getId = call read('test_ResIsReq.feature@tag2')","#* print getId"],"line":35,"prefix":"Given","index":0,"text":"path '\/users\/2'"}},{"result":{"nanos":698300,"errorMessage":"http call failed after 1 milliseconds for url: \/users\/2\nsrc\/test\/java\/test_ResIsReq.feature:36","millis":0.6983,"status":"failed"},"step":{"line":36,"prefix":"When","index":1,"text":"method GET"},"stepLog":"15:44:19.394 karate.org.apache.http.ProtocolException: Target host is not specified, http call failed after 1 milliseconds for url: \/users\/2\n15:44:19.394 src\/test\/java\/test_ResIsReq.feature:36\nWhen method GET\nhttp call failed after 1 milliseconds for url: \/users\/2\nsrc\/test\/java\/test_ResIsReq.feature:36\n"},{"result":{"nanos":0,"millis":0.0,"status":"skipped"},"step":{"line":37,"prefix":"Then","index":2,"text":"status 200"}},{"result":{"nanos":0,"millis":0.0,"status":"skipped"},"step":{"line":38,"prefix":"And","index":3,"text":"def u1Response = response"}},{"result":{"nanos":0,"millis":0.0,"status":"skipped"},"step":{"line":39,"prefix":"And","index":4,"text":"print u1Response"}},{"result":{"nanos":0,"millis":0.0,"status":"skipped"},"step":{"line":40,"prefix":"Then","index":5,"text":"match u1Response.data[*].name contains  ['cerulean']"}}],"line":32,"description":"","durationMillis":1.0352,"failed":true,"error":"http call failed after 1 milliseconds for url: \/users\/2\nsrc\/test\/java\/test_ResIsReq.feature:36","tags":["tag3"],"executorName":"main","name":"","startTime":1644763459393,"refId":"[3:32]","endTime":1644763459394,"exampleIndex":-1},{"sectionIndex":3,"stepResults":[{"result":{"nanos":160700,"millis":0.1607,"status":"passed"},"step":{"background":true,"line":4,"prefix":"*","index":0,"text":"def baseUrl = 'https:\/\/reqres.in\/api'"}},{"result":{"nanos":63300,"millis":0.0633,"status":"passed"},"step":{"line":43,"prefix":"Given","index":0,"text":"path '\/users?page=2'"}},{"result":{"nanos":519600,"errorMessage":"http call failed after 1 milliseconds for url: \/users%3Fpage=2\nsrc\/test\/java\/test_ResIsReq.feature:44","millis":0.5196,"status":"failed"},"step":{"line":44,"prefix":"When","index":1,"text":"method GET"},"stepLog":"15:44:19.398 karate.org.apache.http.ProtocolException: Target host is not specified, http call failed after 1 milliseconds for url: \/users%3Fpage=2\n15:44:19.398 src\/test\/java\/test_ResIsReq.feature:44\nWhen method GET\nhttp call failed after 1 milliseconds for url: \/users%3Fpage=2\nsrc\/test\/java\/test_ResIsReq.feature:44\n"},{"result":{"nanos":0,"millis":0.0,"status":"skipped"},"step":{"line":45,"prefix":"Then","index":2,"text":"status 200"}},{"result":{"nanos":0,"millis":0.0,"status":"skipped"},"step":{"comments":["# * def name = 'cerulean'"],"line":47,"prefix":"*","index":3,"text":"def response = response.data"}},{"result":{"nanos":0,"millis":0.0,"status":"skipped"},"step":{"comments":["#* def names = $[*].name","#* def index = names.indexOf(name)"],"line":50,"prefix":"*","index":4,"text":"def indexes = []"}},{"result":{"nanos":0,"millis":0.0,"status":"skipped"},"step":{"line":51,"prefix":"*","index":5,"text":"def fun = function(x, i){ if (x.name == 'cerulean') karate.appendTo(indexes, i) }"}},{"result":{"nanos":0,"millis":0.0,"status":"skipped"},"step":{"line":52,"prefix":"*","index":6,"text":"print i"}},{"result":{"nanos":0,"millis":0.0,"status":"skipped"},"step":{"line":53,"prefix":"*","index":7,"text":"karate.forEach(response.items, fun)"}}],"line":42,"description":"","durationMillis":0.7436,"failed":true,"error":"http call failed after 1 milliseconds for url: \/users%3Fpage=2\nsrc\/test\/java\/test_ResIsReq.feature:44","executorName":"main","name":"get index cerulean","startTime":1644763459397,"refId":"[4:42]","endTime":1644763459398,"exampleIndex":-1}],"callDepth":0,"name":"test request is response","description":"","resultDate":"2022-02-13 03:44:19 PM","durationMillis":1176.8107,"passedCount":2}