{"failedCount":1,"prefixedPath":"src\/main\/java\/first_test_k.feature","packageQualifiedName":"src.main.java.first_test_k","loopIndex":-1,"relativePath":"src\/main\/java\/first_test_k.feature","scenarioResults":[{"sectionIndex":0,"stepResults":[{"result":{"nanos":92145800,"millis":92.1458,"status":"passed"},"step":{"background":true,"line":4,"prefix":"*","index":0,"text":"url 'https:\/\/reqres.in\/api'"}},{"result":{"nanos":138739700,"millis":138.7397,"status":"passed"},"step":{"background":true,"line":5,"prefix":"*","index":1,"text":"def output = read('response1.json')"}},{"result":{"nanos":1485700,"millis":1.4857,"status":"passed"},"step":{"background":true,"line":6,"prefix":"*","index":2,"text":"def request1 = read('request1.json')"}},{"result":{"nanos":450600,"millis":0.4506,"status":"passed"},"step":{"line":9,"prefix":"Given","index":0,"text":"path '\/users?page=2'"}},{"result":{"nanos":879114500,"millis":879.1145,"status":"passed"},"step":{"line":10,"prefix":"When","index":1,"text":"method GET"},"stepLog":"21:41:23.857 request:\n1 > GET https:\/\/reqres.in\/api\/users%3Fpage=2\n1 > Host: reqres.in\n1 > Connection: Keep-Alive\n1 > User-Agent: Apache-HttpClient\/4.5.13 (Java\/17.0.1)\n1 > Accept-Encoding: gzip,deflate\n\n\n21:41:24.386 response time in milliseconds: 524\n1 < 200\n1 < Date: Fri, 28 Jan 2022 20:41:24 GMT\n1 < Content-Type: application\/json; charset=utf-8\n1 < Transfer-Encoding: chunked\n1 < Connection: keep-alive\n1 < x-powered-by: Express\n1 < access-control-allow-origin: *\n1 < etag: W\/\"2c1-N6Rqerxquq2kgQhL51EiSg4x0R8\"\n1 < via: 1.1 vegur\n1 < Cache-Control: max-age=14400\n1 < CF-Cache-Status: HIT\n1 < Age: 603\n1 < Expect-CT: max-age=604800, report-uri=\"https:\/\/report-uri.cloudflare.com\/cdn-cgi\/beacon\/expect-ct\"\n1 < Report-To: {\"endpoints\":[{\"url\":\"https:\\\/\\\/a.nel.cloudflare.com\\\/report\\\/v3?s=2FpeuAE%2FKkLBbeBthBBTHPRmiiOoKjdRjCo3xxabjsR9IAxuAPdmo1XHyMSdk%2FjynROERGCwjbg9jkVso7zsi%2FANW8BlHSOrDlWStcsq%2BcsY6m7W580mJR7ODBs%3D\"}],\"group\":\"cf-nel\",\"max_age\":604800}\n1 < NEL: {\"success_fraction\":0,\"report_to\":\"cf-nel\",\"max_age\":604800}\n1 < Vary: Accept-Encoding\n1 < Server: cloudflare\n1 < CF-RAY: 6d4d0a965d8983cb-BRU\n1 < alt-svc: h3=\":443\"; ma=86400, h3-29=\":443\"; ma=86400\n{\"page\":1,\"per_page\":6,\"total\":12,\"total_pages\":2,\"data\":[{\"id\":1,\"name\":\"cerulean\",\"year\":2000,\"color\":\"#98B2D1\",\"pantone_value\":\"15-4020\"},{\"id\":2,\"name\":\"fuchsia rose\",\"year\":2001,\"color\":\"#C74375\",\"pantone_value\":\"17-2031\"},{\"id\":3,\"name\":\"true red\",\"year\":2002,\"color\":\"#BF1932\",\"pantone_value\":\"19-1664\"},{\"id\":4,\"name\":\"aqua sky\",\"year\":2003,\"color\":\"#7BC4C4\",\"pantone_value\":\"14-4811\"},{\"id\":5,\"name\":\"tigerlily\",\"year\":2004,\"color\":\"#E2583E\",\"pantone_value\":\"17-1456\"},{\"id\":6,\"name\":\"blue turquoise\",\"year\":2005,\"color\":\"#53B0AE\",\"pantone_value\":\"15-5217\"}],\"support\":{\"url\":\"https:\/\/reqres.in\/#support-heading\",\"text\":\"To keep ReqRes free, contributions towards server costs are appreciated!\"}}\n"},{"result":{"nanos":26700,"millis":0.0267,"status":"passed"},"step":{"line":11,"prefix":"Then","index":2,"text":"status 200"}},{"result":{"nanos":11263300,"millis":11.2633,"status":"passed"},"step":{"line":12,"prefix":"And","index":3,"text":"assert response.data.length == 6"}},{"result":{"nanos":17135700,"errorMessage":"match failed: EQUALS\n  $ | actual path does not exist (STRING:STRING)\n  '#notpresent'\n  'michael.lawson@reqres.in'\n\nsrc\/main\/java\/first_test_k.feature:14","millis":17.1357,"status":"failed"},"step":{"comments":["#And match $.data[0].id == 7"],"line":14,"prefix":"And","index":4,"text":"match $.data[0].email == 'michael.lawson@reqres.in'"},"stepLog":"21:41:24.421 src\/main\/java\/first_test_k.feature:14\nAnd match $.data[0].email == 'michael.lawson@reqres.in'\nmatch failed: EQUALS\n  $ | actual path does not exist (STRING:STRING)\n  '#notpresent'\n  'michael.lawson@reqres.in'\n\nsrc\/main\/java\/first_test_k.feature:14\n"}],"line":8,"description":"","durationMillis":1140.362,"failed":true,"error":"match failed: EQUALS\n  $ | actual path does not exist (STRING:STRING)\n  '#notpresent'\n  'michael.lawson@reqres.in'\n\nsrc\/main\/java\/first_test_k.feature:14","executorName":"main","name":"test API get 1","startTime":1643402483270,"refId":"[1:8]","endTime":1643402484421,"exampleIndex":-1},{"sectionIndex":1,"stepResults":[{"result":{"nanos":424500,"millis":0.4245,"status":"passed"},"step":{"background":true,"line":4,"prefix":"*","index":0,"text":"url 'https:\/\/reqres.in\/api'"}},{"result":{"nanos":944900,"millis":0.9449,"status":"passed"},"step":{"background":true,"line":5,"prefix":"*","index":1,"text":"def output = read('response1.json')"}},{"result":{"nanos":713500,"millis":0.7135,"status":"passed"},"step":{"background":true,"line":6,"prefix":"*","index":2,"text":"def request1 = read('request1.json')"}},{"result":{"nanos":235800,"millis":0.2358,"status":"passed"},"step":{"comments":["#Given path '\/users'"],"line":18,"prefix":"Given","index":0,"text":"path '\/users'"}},{"result":{"nanos":209700,"millis":0.2097,"status":"passed"},"step":{"line":19,"prefix":"And","index":1,"text":"request {\"name\": \"Mouad\" , \"job\": \"tester\" , \"age\": 25}"}},{"result":{"nanos":361670500,"millis":361.6705,"status":"passed"},"step":{"line":20,"prefix":"When","index":2,"text":"method POST"},"stepLog":"21:41:24.467 request:\n1 > POST https:\/\/reqres.in\/api\/users\n1 > Content-Type: application\/json; charset=UTF-8\n1 > Content-Length: 40\n1 > Host: reqres.in\n1 > Connection: Keep-Alive\n1 > User-Agent: Apache-HttpClient\/4.5.13 (Java\/17.0.1)\n1 > Accept-Encoding: gzip,deflate\n{\"name\":\"Mouad\",\"job\":\"tester\",\"age\":25}\n\n21:41:24.788 response time in milliseconds: 321\n1 < 201\n1 < Date: Fri, 28 Jan 2022 20:41:24 GMT\n1 < Content-Type: application\/json; charset=utf-8\n1 < Content-Length: 90\n1 < Connection: keep-alive\n1 < x-powered-by: Express\n1 < access-control-allow-origin: *\n1 < etag: W\/\"5a-IWRRcUesTe2a\/DtIgGf4o5zCxlM\"\n1 < via: 1.1 vegur\n1 < CF-Cache-Status: DYNAMIC\n1 < Expect-CT: max-age=604800, report-uri=\"https:\/\/report-uri.cloudflare.com\/cdn-cgi\/beacon\/expect-ct\"\n1 < Report-To: {\"endpoints\":[{\"url\":\"https:\\\/\\\/a.nel.cloudflare.com\\\/report\\\/v3?s=wJVlVcMQr8nM9ZMQuAPMnvx9UCL83%2F8BTuW3Ls4cD4K4VnioWD0%2BzpAH2OjFh%2FrkSs8Xtj5%2FJIJR6HUZe%2FgegPvIxnS7fVeQa3q6PYalXmh9Wl2LR5WjSVKsEaM%3D\"}],\"group\":\"cf-nel\",\"max_age\":604800}\n1 < NEL: {\"success_fraction\":0,\"report_to\":\"cf-nel\",\"max_age\":604800}\n1 < Server: cloudflare\n1 < CF-RAY: 6d4d0a98aa57d484-BRU\n1 < alt-svc: h3=\":443\"; ma=86400, h3-29=\":443\"; ma=86400\n{\"name\":\"Mouad\",\"job\":\"tester\",\"age\":25,\"id\":\"960\",\"createdAt\":\"2022-01-28T20:41:24.657Z\"}\n"},{"result":{"nanos":23900,"millis":0.0239,"status":"passed"},"step":{"line":21,"prefix":"Then","index":3,"text":"status 201"}},{"result":{"nanos":1713700,"millis":1.7137,"status":"passed"},"step":{"line":22,"prefix":"And","index":4,"text":"match response == {\"name\":\"Mouad\",\"job\":\"tester\",\"age\":25,\"id\":\"#string\",\"createdAt\":\"#ignore\"}"}},{"result":{"nanos":32581000,"millis":32.581,"status":"passed"},"step":{"line":23,"prefix":"And","index":5,"text":"print response"},"stepLog":"21:41:24.824 [print] {\n  \"name\": \"Mouad\",\n  \"job\": \"tester\",\n  \"age\": 25,\n  \"id\": \"960\",\n  \"createdAt\": \"2022-01-28T20:41:24.657Z\"\n}\n \n"}],"executorName":"main","line":16,"name":"test API post 2","description":"","durationMillis":398.5175,"startTime":1643402484425,"failed":false,"refId":"[2:16]","endTime":1643402484826,"exampleIndex":-1},{"sectionIndex":2,"stepResults":[{"result":{"nanos":426200,"millis":0.4262,"status":"passed"},"step":{"background":true,"line":4,"prefix":"*","index":0,"text":"url 'https:\/\/reqres.in\/api'"}},{"result":{"nanos":1325200,"millis":1.3252,"status":"passed"},"step":{"background":true,"line":5,"prefix":"*","index":1,"text":"def output = read('response1.json')"}},{"result":{"nanos":1119200,"millis":1.1192,"status":"passed"},"step":{"background":true,"line":6,"prefix":"*","index":2,"text":"def request1 = read('request1.json')"}},{"result":{"nanos":163700,"millis":0.1637,"status":"passed"},"step":{"comments":["#Given path '\/users'"],"line":27,"prefix":"Given","index":0,"text":"path '\/users'"}},{"result":{"nanos":255100,"millis":0.2551,"status":"passed"},"step":{"line":28,"prefix":"And","index":1,"text":"request {\"name\": \"Mouad\" , \"job\": \"tester\" }"}},{"result":{"nanos":290733000,"millis":290.733,"status":"passed"},"step":{"line":29,"prefix":"When","index":2,"text":"method POST"},"stepLog":"21:41:24.844 request:\n1 > POST https:\/\/reqres.in\/api\/users\n1 > Content-Type: application\/json; charset=UTF-8\n1 > Content-Length: 31\n1 > Host: reqres.in\n1 > Connection: Keep-Alive\n1 > User-Agent: Apache-HttpClient\/4.5.13 (Java\/17.0.1)\n1 > Accept-Encoding: gzip,deflate\n{\"name\":\"Mouad\",\"job\":\"tester\"}\n\n21:41:25.131 response time in milliseconds: 286\n1 < 201\n1 < Date: Fri, 28 Jan 2022 20:41:25 GMT\n1 < Content-Type: application\/json; charset=utf-8\n1 < Content-Length: 81\n1 < Connection: keep-alive\n1 < x-powered-by: Express\n1 < access-control-allow-origin: *\n1 < etag: W\/\"51-dG4LdW5FCfE57mu6sroUAPIYjr0\"\n1 < via: 1.1 vegur\n1 < CF-Cache-Status: DYNAMIC\n1 < Expect-CT: max-age=604800, report-uri=\"https:\/\/report-uri.cloudflare.com\/cdn-cgi\/beacon\/expect-ct\"\n1 < Report-To: {\"endpoints\":[{\"url\":\"https:\\\/\\\/a.nel.cloudflare.com\\\/report\\\/v3?s=YQ5%2Fob0eM9ox49Z0X2Ktpo2UEqm0QX99B0tbbU7v2hoWvyFpOzETTHDOQdu9wXNW4ePEfHudDpZL9Aa5TnFx1hjKoK%2BzKHPXqXBe7LivMMFYQu5FXwbnjtonvd8%3D\"}],\"group\":\"cf-nel\",\"max_age\":604800}\n1 < NEL: {\"success_fraction\":0,\"report_to\":\"cf-nel\",\"max_age\":604800}\n1 < Server: cloudflare\n1 < CF-RAY: 6d4d0a9aebb52dd2-BRU\n1 < alt-svc: h3=\":443\"; ma=86400, h3-29=\":443\"; ma=86400\n{\"name\":\"Mouad\",\"job\":\"tester\",\"id\":\"325\",\"createdAt\":\"2022-01-28T20:41:25.002Z\"}\n"},{"result":{"nanos":22200,"millis":0.0222,"status":"passed"},"step":{"line":30,"prefix":"Then","index":3,"text":"status 201"}},{"result":{"nanos":1251100,"millis":1.2511,"status":"passed"},"step":{"line":31,"prefix":"And","index":4,"text":"match response == output"}},{"result":{"nanos":1363800,"millis":1.3638,"status":"passed"},"step":{"line":32,"prefix":"And","index":5,"text":"print response"},"stepLog":"21:41:25.136 [print] {\n  \"name\": \"Mouad\",\n  \"job\": \"tester\",\n  \"id\": \"325\",\n  \"createdAt\": \"2022-01-28T20:41:25.002Z\"\n}\n \n"}],"executorName":"main","line":25,"name":"test API post 3","description":"","durationMillis":296.6595,"startTime":1643402484838,"failed":false,"refId":"[3:25]","endTime":1643402485137,"exampleIndex":-1},{"sectionIndex":3,"stepResults":[{"result":{"nanos":520600,"millis":0.5206,"status":"passed"},"step":{"background":true,"line":4,"prefix":"*","index":0,"text":"url 'https:\/\/reqres.in\/api'"}},{"result":{"nanos":1967900,"millis":1.9679,"status":"passed"},"step":{"background":true,"line":5,"prefix":"*","index":1,"text":"def output = read('response1.json')"}},{"result":{"nanos":1571600,"millis":1.5716,"status":"passed"},"step":{"background":true,"line":6,"prefix":"*","index":2,"text":"def request1 = read('request1.json')"}},{"result":{"nanos":293800,"millis":0.2938,"status":"passed"},"step":{"comments":["#Given path '\/users'"],"line":36,"prefix":"Given","index":0,"text":"path '\/users'"}},{"result":{"nanos":1690300,"millis":1.6903,"status":"passed"},"step":{"line":37,"prefix":"And","index":1,"text":"request request1"}},{"result":{"nanos":289491900,"millis":289.4919,"status":"passed"},"step":{"line":38,"prefix":"When","index":2,"text":"method POST"},"stepLog":"21:41:25.157 request:\n1 > POST https:\/\/reqres.in\/api\/users\n1 > Content-Type: application\/json; charset=UTF-8\n1 > Content-Length: 31\n1 > Host: reqres.in\n1 > Connection: Keep-Alive\n1 > User-Agent: Apache-HttpClient\/4.5.13 (Java\/17.0.1)\n1 > Accept-Encoding: gzip,deflate\n{\"name\":\"Mouad\",\"job\":\"tester\"}\n\n21:41:25.443 response time in milliseconds: 285\n1 < 201\n1 < Date: Fri, 28 Jan 2022 20:41:25 GMT\n1 < Content-Type: application\/json; charset=utf-8\n1 < Content-Length: 81\n1 < Connection: keep-alive\n1 < x-powered-by: Express\n1 < access-control-allow-origin: *\n1 < etag: W\/\"51-\/84SWGD2KFyNLGBkvbm7z+pPXGg\"\n1 < via: 1.1 vegur\n1 < CF-Cache-Status: DYNAMIC\n1 < Expect-CT: max-age=604800, report-uri=\"https:\/\/report-uri.cloudflare.com\/cdn-cgi\/beacon\/expect-ct\"\n1 < Report-To: {\"endpoints\":[{\"url\":\"https:\\\/\\\/a.nel.cloudflare.com\\\/report\\\/v3?s=V0YmNuc63Q1jhsWS%2FvynYg5jsSSNxro3SUDDpES7c8BndrilIHQLTjSprtO6FzY0Bpb7klwOo8cMaAc59xI6xwuGcbO4tfZwMdKIol4RVkOSQsxjb7JgA3vJgi0%3D\"}],\"group\":\"cf-nel\",\"max_age\":604800}\n1 < NEL: {\"success_fraction\":0,\"report_to\":\"cf-nel\",\"max_age\":604800}\n1 < Server: cloudflare\n1 < CF-RAY: 6d4d0a9cdf712e14-BRU\n1 < alt-svc: h3=\":443\"; ma=86400, h3-29=\":443\"; ma=86400\n{\"name\":\"Mouad\",\"job\":\"tester\",\"id\":\"794\",\"createdAt\":\"2022-01-28T20:41:25.311Z\"}\n"},{"result":{"nanos":21900,"millis":0.0219,"status":"passed"},"step":{"line":39,"prefix":"Then","index":3,"text":"status 201"}},{"result":{"nanos":914200,"millis":0.9142,"status":"passed"},"step":{"line":40,"prefix":"And","index":4,"text":"match response == output"}},{"result":{"nanos":1203000,"millis":1.203,"status":"passed"},"step":{"line":41,"prefix":"And","index":5,"text":"print response"},"stepLog":"21:41:25.448 [print] {\n  \"name\": \"Mouad\",\n  \"job\": \"tester\",\n  \"id\": \"794\",\n  \"createdAt\": \"2022-01-28T20:41:25.311Z\"\n}\n \n"}],"executorName":"main","line":34,"name":"test API post 3","description":"","durationMillis":297.6752,"startTime":1643402485147,"failed":false,"refId":"[4:34]","endTime":1643402485448,"exampleIndex":-1}],"callDepth":0,"name":"test sample API","description":"","resultDate":"2022-01-28 09:41:25 PM","durationMillis":2133.2142,"passedCount":3}