{"failedCount":0,"prefixedPath":"src\/test\/java\/TestFeatures\/week3\/matchFromAllData.feature","packageQualifiedName":"src.test.java.TestFeatures.week3.matchFromAllData","loopIndex":-1,"relativePath":"src\/test\/java\/TestFeatures\/week3\/matchFromAllData.feature","scenarioResults":[{"sectionIndex":0,"stepResults":[{"result":{"nanos":44224400,"millis":44.2244,"status":"passed"},"step":{"background":true,"line":4,"prefix":"*","index":0,"text":"def exp1 = read('classpath:\/TestData\/AllDataCc.csv')"},"stepLog":"17:49:58.907 \n"},{"result":{"nanos":708600,"millis":0.7086,"status":"passed"},"step":{"line":7,"prefix":"Given","index":0,"text":"url 'https:\/\/reqres.in\/api\/users?page=1'"}},{"result":{"nanos":592218600,"millis":592.2186,"status":"passed"},"step":{"line":8,"prefix":"When","index":1,"text":"method GET"},"stepLog":"17:49:59.170 request:\n1 > GET https:\/\/reqres.in\/api\/users?page=1\n1 > Host: reqres.in\n1 > Connection: Keep-Alive\n1 > User-Agent: Apache-HttpClient\/4.5.13 (Java\/17.0.1)\n1 > Accept-Encoding: gzip,deflate\n\n\n17:49:59.566 response time in milliseconds: 394\n1 < 200\n1 < Date: Sun, 20 Feb 2022 16:49:51 GMT\n1 < Content-Type: application\/json; charset=utf-8\n1 < Transfer-Encoding: chunked\n1 < Connection: keep-alive\n1 < X-Powered-By: Express\n1 < Access-Control-Allow-Origin: *\n1 < Etag: W\/\"3e4-2RLXvr5wTg9YQ6aH95CkYoFNuO8\"\n1 < Via: 1.1 vegur\n1 < Cache-Control: max-age=14400\n1 < CF-Cache-Status: HIT\n1 < Age: 1882\n1 < Expect-CT: max-age=604800, report-uri=\"https:\/\/report-uri.cloudflare.com\/cdn-cgi\/beacon\/expect-ct\"\n1 < Report-To: {\"endpoints\":[{\"url\":\"https:\\\/\\\/a.nel.cloudflare.com\\\/report\\\/v3?s=V046VK7nIJLamHZE7QmSg%2FchirQ%2FoUdX3OpplSBs5MCZUGzWWNrHmSPkmaY0%2BhIIfudiBIKGjGExHutDgkchaI83O4dmvoMJmoORaGhee8Pku8IylBG617ih%2FII%3D\"}],\"group\":\"cf-nel\",\"max_age\":604800}\n1 < NEL: {\"success_fraction\":0,\"report_to\":\"cf-nel\",\"max_age\":604800}\n1 < Vary: Accept-Encoding\n1 < Server: cloudflare\n1 < CF-RAY: 6e093b09dc21e918-MRS\n1 < alt-svc: h3=\":443\"; ma=86400, h3-29=\":443\"; ma=86400\n{\"page\":1,\"per_page\":6,\"total\":12,\"total_pages\":2,\"data\":[{\"id\":1,\"email\":\"george.bluth@reqres.in\",\"first_name\":\"George\",\"last_name\":\"Bluth\",\"avatar\":\"https:\/\/reqres.in\/img\/faces\/1-image.jpg\"},{\"id\":2,\"email\":\"janet.weaver@reqres.in\",\"first_name\":\"Janet\",\"last_name\":\"Weaver\",\"avatar\":\"https:\/\/reqres.in\/img\/faces\/2-image.jpg\"},{\"id\":3,\"email\":\"emma.wong@reqres.in\",\"first_name\":\"Emma\",\"last_name\":\"Wong\",\"avatar\":\"https:\/\/reqres.in\/img\/faces\/3-image.jpg\"},{\"id\":4,\"email\":\"eve.holt@reqres.in\",\"first_name\":\"Eve\",\"last_name\":\"Holt\",\"avatar\":\"https:\/\/reqres.in\/img\/faces\/4-image.jpg\"},{\"id\":5,\"email\":\"charles.morris@reqres.in\",\"first_name\":\"Charles\",\"last_name\":\"Morris\",\"avatar\":\"https:\/\/reqres.in\/img\/faces\/5-image.jpg\"},{\"id\":6,\"email\":\"tracey.ramos@reqres.in\",\"first_name\":\"Tracey\",\"last_name\":\"Ramos\",\"avatar\":\"https:\/\/reqres.in\/img\/faces\/6-image.jpg\"}],\"support\":{\"url\":\"https:\/\/reqres.in\/#support-heading\",\"text\":\"To keep ReqRes free, contributions towards server costs are appreciated!\"}}\n"},{"result":{"nanos":16000,"millis":0.016,"status":"passed"},"step":{"line":9,"prefix":"Then","index":2,"text":"status 200"}},{"result":{"nanos":897200,"millis":0.8972,"status":"passed"},"step":{"line":10,"prefix":"And","index":3,"text":"def acc = response"}},{"result":{"nanos":2222900,"millis":2.2229,"status":"passed"},"step":{"line":11,"prefix":"*","index":4,"text":"def fun = function(x){ x.id = ~~x.id; return x }"}},{"result":{"nanos":9671500,"millis":9.6715,"status":"passed"},"step":{"line":12,"prefix":"*","index":5,"text":"def exp1 = karate.map(exp1, fun)"}},{"result":{"nanos":1133000,"millis":1.133,"status":"passed"},"step":{"line":13,"prefix":"*","index":6,"text":"print exp1"},"stepLog":"17:49:59.582 [print] [\n  {\n    \"id\": 1,\n    \"email\": \"george.bluth@reqres.in\",\n    \"first_name\": \"George\",\n    \"last_name\": \"Bluth\",\n    \"avatar\": \"https:\/\/reqres.in\/img\/faces\/1-image.jpg\"\n  }\n]\n \n"},{"result":{"nanos":14902200,"millis":14.9022,"status":"passed"},"step":{"line":14,"prefix":"*","index":7,"text":"match  acc.data[*] contains deep exp1"}}],"executorName":"main","line":6,"name":"check if response contains csv values emails","description":"","durationMillis":665.9944,"startTime":1645375798787,"failed":false,"refId":"[1:6]","endTime":1645375799597,"exampleIndex":-1}],"callDepth":0,"name":"verify if elements exists in csv file","description":"","resultDate":"2022-02-20 05:49:59 PM","durationMillis":665.9944,"passedCount":1}