{"failedCount":0,"prefixedPath":"src\/main\/java\/first_test_k.feature","packageQualifiedName":"src.main.java.first_test_k","loopIndex":-1,"relativePath":"src\/main\/java\/first_test_k.feature","scenarioResults":[{"sectionIndex":0,"stepResults":[{"result":{"nanos":59206100,"millis":59.2061,"status":"passed"},"step":{"line":8,"prefix":"Given","index":0,"text":"url \"https:\/\/reqres.in\/api\/users?page=2\""}},{"result":{"nanos":609804100,"millis":609.8041,"status":"passed"},"step":{"line":9,"prefix":"When","index":1,"text":"method GET"},"stepLog":"18:26:20.674 request:\n1 > GET https:\/\/reqres.in\/api\/users?page=2\n1 > Host: reqres.in\n1 > Connection: Keep-Alive\n1 > User-Agent: Apache-HttpClient\/4.5.13 (Java\/17.0.1)\n1 > Accept-Encoding: gzip,deflate\n\n\n18:26:21.052 response time in milliseconds: 376\n1 < 200\n1 < Date: Fri, 28 Jan 2022 17:26:21 GMT\n1 < Content-Type: application\/json; charset=utf-8\n1 < Transfer-Encoding: chunked\n1 < Connection: keep-alive\n1 < x-powered-by: Express\n1 < access-control-allow-origin: *\n1 < etag: W\/\"406-ut0vzoCuidvyMf8arZpMpJ6ZRDw\"\n1 < via: 1.1 vegur\n1 < Cache-Control: max-age=14400\n1 < CF-Cache-Status: HIT\n1 < Age: 1219\n1 < Expect-CT: max-age=604800, report-uri=\"https:\/\/report-uri.cloudflare.com\/cdn-cgi\/beacon\/expect-ct\"\n1 < Report-To: {\"endpoints\":[{\"url\":\"https:\\\/\\\/a.nel.cloudflare.com\\\/report\\\/v3?s=%2BccezjM4KvVsHK3wo%2BVOsLnnrHWbT836441Mf4elr9QDuBl3gcLlG4I%2FL9X4EhelTBxqPJ7n0nKfEz5RdN1qEfL1ZKlrD3fWrYLPPpbZ0iuHEGtdVYYKyGCrv4Y%3D\"}],\"group\":\"cf-nel\",\"max_age\":604800}\n1 < NEL: {\"success_fraction\":0,\"report_to\":\"cf-nel\",\"max_age\":604800}\n1 < Vary: Accept-Encoding\n1 < Server: cloudflare\n1 < CF-RAY: 6d4becdd3b4011bf-BCN\n1 < alt-svc: h3=\":443\"; ma=86400, h3-29=\":443\"; ma=86400\n{\"page\":2,\"per_page\":6,\"total\":12,\"total_pages\":2,\"data\":[{\"id\":7,\"email\":\"michael.lawson@reqres.in\",\"first_name\":\"Michael\",\"last_name\":\"Lawson\",\"avatar\":\"https:\/\/reqres.in\/img\/faces\/7-image.jpg\"},{\"id\":8,\"email\":\"lindsay.ferguson@reqres.in\",\"first_name\":\"Lindsay\",\"last_name\":\"Ferguson\",\"avatar\":\"https:\/\/reqres.in\/img\/faces\/8-image.jpg\"},{\"id\":9,\"email\":\"tobias.funke@reqres.in\",\"first_name\":\"Tobias\",\"last_name\":\"Funke\",\"avatar\":\"https:\/\/reqres.in\/img\/faces\/9-image.jpg\"},{\"id\":10,\"email\":\"byron.fields@reqres.in\",\"first_name\":\"Byron\",\"last_name\":\"Fields\",\"avatar\":\"https:\/\/reqres.in\/img\/faces\/10-image.jpg\"},{\"id\":11,\"email\":\"george.edwards@reqres.in\",\"first_name\":\"George\",\"last_name\":\"Edwards\",\"avatar\":\"https:\/\/reqres.in\/img\/faces\/11-image.jpg\"},{\"id\":12,\"email\":\"rachel.howell@reqres.in\",\"first_name\":\"Rachel\",\"last_name\":\"Howell\",\"avatar\":\"https:\/\/reqres.in\/img\/faces\/12-image.jpg\"}],\"support\":{\"url\":\"https:\/\/reqres.in\/#support-heading\",\"text\":\"To keep ReqRes free, contributions towards server costs are appreciated!\"}}\n"},{"result":{"nanos":42600,"millis":0.0426,"status":"passed"},"step":{"line":10,"prefix":"Then","index":2,"text":"status 200"}},{"result":{"nanos":42610200,"millis":42.6102,"status":"passed"},"step":{"line":11,"prefix":"And","index":3,"text":"assert response.data.length == 6"}},{"result":{"nanos":40808300,"millis":40.8083,"status":"passed"},"step":{"line":12,"prefix":"And","index":4,"text":"match $.data[0].id == 7"}},{"result":{"nanos":859000,"millis":0.859,"status":"passed"},"step":{"line":13,"prefix":"And","index":5,"text":"match $.data[0].email == 'michael.lawson@reqres.in'"}}],"executorName":"main","line":7,"name":"test API get","description":"","durationMillis":753.3303,"startTime":1643390780398,"failed":false,"refId":"[1:7]","endTime":1643390781159,"exampleIndex":-1},{"sectionIndex":1,"stepResults":[{"result":{"nanos":342400,"millis":0.3424,"status":"passed"},"step":{"comments":["#Given path '\/users'"],"line":17,"prefix":"Given","index":0,"text":"url \"https:\/\/reqres.in\/api\/users\""}},{"result":{"nanos":3480400,"millis":3.4804,"status":"passed"},"step":{"line":18,"prefix":"And","index":1,"text":"request {\"name\": \"Mouad\" , \"job\": \"tester\" , \"age\": 25}"}},{"result":{"nanos":423309000,"millis":423.309,"status":"passed"},"step":{"line":19,"prefix":"When","index":2,"text":"method POST"},"stepLog":"18:26:21.197 request:\n1 > POST https:\/\/reqres.in\/api\/users\n1 > Content-Type: application\/json; charset=UTF-8\n1 > Content-Length: 40\n1 > Host: reqres.in\n1 > Connection: Keep-Alive\n1 > User-Agent: Apache-HttpClient\/4.5.13 (Java\/17.0.1)\n1 > Accept-Encoding: gzip,deflate\n{\"name\":\"Mouad\",\"job\":\"tester\",\"age\":25}\n\n18:26:21.590 response time in milliseconds: 393\n1 < 201\n1 < Date: Fri, 28 Jan 2022 17:26:21 GMT\n1 < Content-Type: application\/json; charset=utf-8\n1 < Content-Length: 90\n1 < Connection: keep-alive\n1 < x-powered-by: Express\n1 < access-control-allow-origin: *\n1 < etag: W\/\"5a-Dg5NRgQBYqtCRLeF1JhplB4YGhk\"\n1 < via: 1.1 vegur\n1 < CF-Cache-Status: DYNAMIC\n1 < Expect-CT: max-age=604800, report-uri=\"https:\/\/report-uri.cloudflare.com\/cdn-cgi\/beacon\/expect-ct\"\n1 < Report-To: {\"endpoints\":[{\"url\":\"https:\\\/\\\/a.nel.cloudflare.com\\\/report\\\/v3?s=0qouPFmxYy84m0Uyo%2FP2m4jaB7nrVagN6HKXk3vrf%2Be2cE3c%2FZ9nwGoxwL%2Bsrn0wnxzgRiY0QH%2Bs1dnsY%2FItCl4QlaLgD%2FgukZkWQNWTZ4YCU70gz%2F8NKHHdg1k%3D\"}],\"group\":\"cf-nel\",\"max_age\":604800}\n1 < NEL: {\"success_fraction\":0,\"report_to\":\"cf-nel\",\"max_age\":604800}\n1 < Server: cloudflare\n1 < CF-RAY: 6d4becdf884d1946-BCN\n1 < alt-svc: h3=\":443\"; ma=86400, h3-29=\":443\"; ma=86400\n{\"name\":\"Mouad\",\"job\":\"tester\",\"age\":25,\"id\":\"428\",\"createdAt\":\"2022-01-28T17:26:21.475Z\"}\n"},{"result":{"nanos":6300,"millis":0.0063,"status":"passed"},"step":{"line":20,"prefix":"Then","index":3,"text":"status 201"}},{"result":{"nanos":31636700,"millis":31.6367,"status":"passed"},"step":{"line":21,"prefix":"And","index":4,"text":"print response"},"stepLog":"18:26:21.622 [print] {\n  \"name\": \"Mouad\",\n  \"job\": \"tester\",\n  \"age\": 25,\n  \"id\": \"428\",\n  \"createdAt\": \"2022-01-28T17:26:21.475Z\"\n}\n \n"}],"executorName":"main","line":15,"name":"test API post","description":"","durationMillis":458.7748,"startTime":1643390781163,"failed":false,"refId":"[2:15]","endTime":1643390781622,"exampleIndex":-1}],"callDepth":0,"name":"test sample API","description":"","resultDate":"2022-01-28 06:26:21 PM","durationMillis":1212.1051,"passedCount":2}