{"failedCount":1,"prefixedPath":"src\/test\/java\/TestFeatures\/week3\/callGetPerson.feature","packageQualifiedName":"src.test.java.TestFeatures.week3.callGetPerson","loopIndex":-1,"relativePath":"src\/test\/java\/TestFeatures\/week3\/callGetPerson.feature","scenarioResults":[{"sectionIndex":0,"stepResults":[{"result":{"nanos":1300000,"millis":1.3,"status":"passed"},"step":{"line":9,"prefix":"Given","index":0,"text":"url 'https:\/\/reqres.in\/api\/users?page=1'"},"stepLog":"14:58:12.986 \n"},{"result":{"nanos":580462100,"millis":580.4621,"status":"passed"},"step":{"line":10,"prefix":"When","index":1,"text":"method GET"},"stepLog":"14:58:13.200 request:\n1 > GET https:\/\/reqres.in\/api\/users?page=1\n1 > Host: reqres.in\n1 > Connection: Keep-Alive\n1 > User-Agent: Apache-HttpClient\/4.5.13 (Java\/17.0.1)\n1 > Accept-Encoding: gzip,deflate\n\n\n14:58:13.566 response time in milliseconds: 363\n1 < 200\n1 < Date: Sun, 20 Feb 2022 13:58:05 GMT\n1 < Content-Type: application\/json; charset=utf-8\n1 < Transfer-Encoding: chunked\n1 < Connection: keep-alive\n1 < X-Powered-By: Express\n1 < Access-Control-Allow-Origin: *\n1 < Etag: W\/\"3e4-2RLXvr5wTg9YQ6aH95CkYoFNuO8\"\n1 < Via: 1.1 vegur\n1 < Cache-Control: max-age=14400\n1 < CF-Cache-Status: HIT\n1 < Age: 1530\n1 < Expect-CT: max-age=604800, report-uri=\"https:\/\/report-uri.cloudflare.com\/cdn-cgi\/beacon\/expect-ct\"\n1 < Report-To: {\"endpoints\":[{\"url\":\"https:\\\/\\\/a.nel.cloudflare.com\\\/report\\\/v3?s=8X0cV2NlvQG8IFH2cVlN9OggKpvS0xZTg0NHGeQ2SpeC6420ZWec4h0uh8ybFlJpCLs18ZNTYi0NLL65ZOYnruVlar%2BSGi2gmHPBO%2FGUa2q4xOV1gWkyTE1r98M%3D\"}],\"group\":\"cf-nel\",\"max_age\":604800}\n1 < NEL: {\"success_fraction\":0,\"report_to\":\"cf-nel\",\"max_age\":604800}\n1 < Vary: Accept-Encoding\n1 < Server: cloudflare\n1 < CF-RAY: 6e083f6dad567336-MRS\n1 < alt-svc: h3=\":443\"; ma=86400, h3-29=\":443\"; ma=86400\n{\"page\":1,\"per_page\":6,\"total\":12,\"total_pages\":2,\"data\":[{\"id\":1,\"email\":\"george.bluth@reqres.in\",\"first_name\":\"George\",\"last_name\":\"Bluth\",\"avatar\":\"https:\/\/reqres.in\/img\/faces\/1-image.jpg\"},{\"id\":2,\"email\":\"janet.weaver@reqres.in\",\"first_name\":\"Janet\",\"last_name\":\"Weaver\",\"avatar\":\"https:\/\/reqres.in\/img\/faces\/2-image.jpg\"},{\"id\":3,\"email\":\"emma.wong@reqres.in\",\"first_name\":\"Emma\",\"last_name\":\"Wong\",\"avatar\":\"https:\/\/reqres.in\/img\/faces\/3-image.jpg\"},{\"id\":4,\"email\":\"eve.holt@reqres.in\",\"first_name\":\"Eve\",\"last_name\":\"Holt\",\"avatar\":\"https:\/\/reqres.in\/img\/faces\/4-image.jpg\"},{\"id\":5,\"email\":\"charles.morris@reqres.in\",\"first_name\":\"Charles\",\"last_name\":\"Morris\",\"avatar\":\"https:\/\/reqres.in\/img\/faces\/5-image.jpg\"},{\"id\":6,\"email\":\"tracey.ramos@reqres.in\",\"first_name\":\"Tracey\",\"last_name\":\"Ramos\",\"avatar\":\"https:\/\/reqres.in\/img\/faces\/6-image.jpg\"}],\"support\":{\"url\":\"https:\/\/reqres.in\/#support-heading\",\"text\":\"To keep ReqRes free, contributions towards server costs are appreciated!\"}}\n"},{"result":{"nanos":15900,"millis":0.0159,"status":"passed"},"step":{"line":11,"prefix":"Then","index":2,"text":"status 200"}},{"result":{"nanos":826000,"millis":0.826,"status":"passed"},"step":{"endLine":14,"line":12,"prefix":"*","index":3,"text":"table emails","table":[{"line":13,"row":["email"]},{"line":14,"row":["'george.bluth@reqres.in'"]}]}},{"result":{"nanos":253769100,"errorMessage":"feature call loop failed at index: 0, js failed:\n>>>>\n01: karate.log('[print]',request)\n<<<<\norg.graalvm.polyglot.PolyglotException: ReferenceError: \"request\" is not defined\n- <js>.:program(Unnamed:1)\n\nclasspath:reusableFeatures\/getPerson.feature:9\nsrc\/test\/java\/TestFeatures\/week3\/callGetPerson.feature:15","millis":253.7691,"status":"failed"},"step":{"line":15,"prefix":"*","index":4,"text":"def person = call read('classpath:\/reusableFeatures\/getPerson.feature') emails"},"stepLog":"14:58:13.846 src\/test\/java\/TestFeatures\/week3\/callGetPerson.feature:15\n* def person = call read('classpath:\/reusableFeatures\/getPerson.feature') emails\nfeature call loop failed at index: 0, js failed:\n>>>>\n01: karate.log('[print]',request)\n<<<<\norg.graalvm.polyglot.PolyglotException: ReferenceError: \"request\" is not defined\n- <js>.:program(Unnamed:1)\n\nclasspath:reusableFeatures\/getPerson.feature:9\n14:58:13.846 src\/test\/java\/TestFeatures\/week3\/callGetPerson.feature:15\n* def person = call read('classpath:\/reusableFeatures\/getPerson.feature') emails\nfeature call loop failed at index: 0, js failed:\n>>>>\n01: karate.log('[print]',request)\n<<<<\norg.graalvm.polyglot.PolyglotException: ReferenceError: \"request\" is not defined\n- <js>.:program(Unnamed:1)\n\nclasspath:reusableFeatures\/getPerson.feature:9\nsrc\/test\/java\/TestFeatures\/week3\/callGetPerson.feature:15\n","callResults":[{"prefixedPath":"classpath:reusableFeatures\/getPerson.feature","loopIndex":0,"callDepth":1,"description":"","resultDate":"2022-02-20 02:58:13 PM","durationMillis":230.5286,"callArg":{"email":"george.bluth@reqres.in"},"failedCount":1,"packageQualifiedName":"reusableFeatures.getPerson","relativePath":"reusableFeatures\/getPerson.feature","scenarioResults":[{"sectionIndex":0,"stepResults":[{"result":{"nanos":318500,"millis":0.3185,"status":"passed"},"step":{"line":5,"prefix":"Given","index":0,"text":"url 'https:\/\/reqres.in\/api\/users?page=1'"}},{"result":{"nanos":10071000,"millis":10.071,"status":"passed"},"step":{"line":6,"prefix":"And","index":1,"text":"request { email: #(email) }"}},{"result":{"nanos":207158700,"millis":207.1587,"status":"passed"},"step":{"line":7,"prefix":"When","index":2,"text":"method GET"},"stepLog":"14:58:13.650 request:\n1 > GET https:\/\/reqres.in\/api\/users?page=1\n1 > Content-Type: application\/json; charset=UTF-8\n1 > Content-Length: 34\n1 > Host: reqres.in\n1 > Connection: Keep-Alive\n1 > User-Agent: Apache-HttpClient\/4.5.13 (Java\/17.0.1)\n1 > Accept-Encoding: gzip,deflate\n{\"email\":\"george.bluth@reqres.in\"}\n\n14:58:13.830 response time in milliseconds: 180\n1 < 200\n1 < Date: Sun, 20 Feb 2022 13:58:06 GMT\n1 < Content-Type: application\/json; charset=utf-8\n1 < Transfer-Encoding: chunked\n1 < Connection: keep-alive\n1 < X-Powered-By: Express\n1 < Access-Control-Allow-Origin: *\n1 < Etag: W\/\"3e4-2RLXvr5wTg9YQ6aH95CkYoFNuO8\"\n1 < Via: 1.1 vegur\n1 < Cache-Control: max-age=14400\n1 < CF-Cache-Status: HIT\n1 < Age: 1531\n1 < Expect-CT: max-age=604800, report-uri=\"https:\/\/report-uri.cloudflare.com\/cdn-cgi\/beacon\/expect-ct\"\n1 < Report-To: {\"endpoints\":[{\"url\":\"https:\\\/\\\/a.nel.cloudflare.com\\\/report\\\/v3?s=WY9j4pnxcmc0MVxqyWnfHIjz085qJh3udwVKa3lIU8SqY2dIkCAgPlJ2I3LToYtSmzTYbrRhttCDHlrKXQ6HWtsM3db4O2JYVLQXNMD42iXVry%2BE2UvmF3reVV4%3D\"}],\"group\":\"cf-nel\",\"max_age\":604800}\n1 < NEL: {\"success_fraction\":0,\"report_to\":\"cf-nel\",\"max_age\":604800}\n1 < Vary: Accept-Encoding\n1 < Server: cloudflare\n1 < CF-RAY: 6e083f6f792e734b-MRS\n1 < alt-svc: h3=\":443\"; ma=86400, h3-29=\":443\"; ma=86400\n{\"page\":1,\"per_page\":6,\"total\":12,\"total_pages\":2,\"data\":[{\"id\":1,\"email\":\"george.bluth@reqres.in\",\"first_name\":\"George\",\"last_name\":\"Bluth\",\"avatar\":\"https:\/\/reqres.in\/img\/faces\/1-image.jpg\"},{\"id\":2,\"email\":\"janet.weaver@reqres.in\",\"first_name\":\"Janet\",\"last_name\":\"Weaver\",\"avatar\":\"https:\/\/reqres.in\/img\/faces\/2-image.jpg\"},{\"id\":3,\"email\":\"emma.wong@reqres.in\",\"first_name\":\"Emma\",\"last_name\":\"Wong\",\"avatar\":\"https:\/\/reqres.in\/img\/faces\/3-image.jpg\"},{\"id\":4,\"email\":\"eve.holt@reqres.in\",\"first_name\":\"Eve\",\"last_name\":\"Holt\",\"avatar\":\"https:\/\/reqres.in\/img\/faces\/4-image.jpg\"},{\"id\":5,\"email\":\"charles.morris@reqres.in\",\"first_name\":\"Charles\",\"last_name\":\"Morris\",\"avatar\":\"https:\/\/reqres.in\/img\/faces\/5-image.jpg\"},{\"id\":6,\"email\":\"tracey.ramos@reqres.in\",\"first_name\":\"Tracey\",\"last_name\":\"Ramos\",\"avatar\":\"https:\/\/reqres.in\/img\/faces\/6-image.jpg\"}],\"support\":{\"url\":\"https:\/\/reqres.in\/#support-heading\",\"text\":\"To keep ReqRes free, contributions towards server costs are appreciated!\"}}\n"},{"result":{"nanos":8900,"millis":0.0089,"status":"passed"},"step":{"line":8,"prefix":"Then","index":3,"text":"status 200"}},{"result":{"nanos":12971500,"errorMessage":"js failed:\n>>>>\n01: karate.log('[print]',request)\n<<<<\norg.graalvm.polyglot.PolyglotException: ReferenceError: \"request\" is not defined\n- <js>.:program(Unnamed:1)\n\nclasspath:reusableFeatures\/getPerson.feature:9","millis":12.9715,"status":"failed"},"step":{"line":9,"prefix":"And","index":4,"text":"print request"},"stepLog":"14:58:13.845 classpath:reusableFeatures\/getPerson.feature:9\nAnd print request\njs failed:\n>>>>\n01: karate.log('[print]',request)\n<<<<\norg.graalvm.polyglot.PolyglotException: ReferenceError: \"request\" is not defined\n- <js>.:program(Unnamed:1)\n\nclasspath:reusableFeatures\/getPerson.feature:9\n"},{"result":{"nanos":0,"millis":0.0,"status":"skipped"},"step":{"comments":["#And match response.data[*] contains {id: id,email:'#ignore',first_name:'#ignore',last_name:'#ignore',avatar:'#ignore'}","#And match response.data[*].email == {email : #(email)}"],"line":12,"prefix":"And","index":5,"text":"match response.data[*].email contains request.email"}}],"line":4,"description":"","durationMillis":230.5286,"failed":true,"error":"js failed:\n>>>>\n01: karate.log('[print]',request)\n<<<<\norg.graalvm.polyglot.PolyglotException: ReferenceError: \"request\" is not defined\n- <js>.:program(Unnamed:1)\n\nclasspath:reusableFeatures\/getPerson.feature:9","executorName":"main","name":"get person","startTime":1645365493613,"refId":"[1:4]","endTime":1645365493845,"exampleIndex":-1}],"name":"Get person from list","passedCount":0}]},{"result":{"nanos":0,"millis":0.0,"status":"skipped"},"step":{"line":16,"prefix":"And","index":5,"text":"print person.response"}}],"line":8,"description":"","durationMillis":836.3731,"failed":true,"error":"feature call loop failed at index: 0, js failed:\n>>>>\n01: karate.log('[print]',request)\n<<<<\norg.graalvm.polyglot.PolyglotException: ReferenceError: \"request\" is not defined\n- <js>.:program(Unnamed:1)\n\nclasspath:reusableFeatures\/getPerson.feature:9\nsrc\/test\/java\/TestFeatures\/week3\/callGetPerson.feature:15","tags":["tag1"],"executorName":"main","name":"Title of your scenario","startTime":1645365492870,"refId":"[1:8]","endTime":1645365493846,"exampleIndex":-1}],"callDepth":0,"name":"Title of your feature","description":"I want to use this template for my feature file","resultDate":"2022-02-20 02:58:13 PM","durationMillis":836.3731,"passedCount":0}