{"failedCount":1,"prefixedPath":"src\/test\/java\/TestFeatures\/week3\/matchFromAllData.feature","packageQualifiedName":"src.test.java.TestFeatures.week3.matchFromAllData","loopIndex":-1,"relativePath":"src\/test\/java\/TestFeatures\/week3\/matchFromAllData.feature","scenarioResults":[{"sectionIndex":0,"stepResults":[{"result":{"nanos":44150700,"millis":44.1507,"status":"passed"},"step":{"background":true,"line":4,"prefix":"*","index":0,"text":"def exp1 = read('classpath:\/TestData\/AllDataCc.csv')"},"stepLog":"17:48:11.979 \n"},{"result":{"nanos":708700,"millis":0.7087,"status":"passed"},"step":{"line":7,"prefix":"Given","index":0,"text":"url 'https:\/\/reqres.in\/api\/users?page=1'"}},{"result":{"nanos":577445900,"millis":577.4459,"status":"passed"},"step":{"line":8,"prefix":"When","index":1,"text":"method GET"},"stepLog":"17:48:12.251 request:\n1 > GET https:\/\/reqres.in\/api\/users?page=1\n1 > Host: reqres.in\n1 > Connection: Keep-Alive\n1 > User-Agent: Apache-HttpClient\/4.5.13 (Java\/17.0.1)\n1 > Accept-Encoding: gzip,deflate\n\n\n17:48:12.621 response time in milliseconds: 368\n1 < 200\n1 < Date: Sun, 20 Feb 2022 16:48:04 GMT\n1 < Content-Type: application\/json; charset=utf-8\n1 < Transfer-Encoding: chunked\n1 < Connection: keep-alive\n1 < X-Powered-By: Express\n1 < Access-Control-Allow-Origin: *\n1 < Etag: W\/\"3e4-2RLXvr5wTg9YQ6aH95CkYoFNuO8\"\n1 < Via: 1.1 vegur\n1 < Cache-Control: max-age=14400\n1 < CF-Cache-Status: HIT\n1 < Age: 1775\n1 < Expect-CT: max-age=604800, report-uri=\"https:\/\/report-uri.cloudflare.com\/cdn-cgi\/beacon\/expect-ct\"\n1 < Report-To: {\"endpoints\":[{\"url\":\"https:\\\/\\\/a.nel.cloudflare.com\\\/report\\\/v3?s=LF9wOscylDGJpGqZelyQs9Xfdl9jWRXzDKBniIoBG789hlXcel0X5odW4RVLh%2Bz18KT6PWtPgso9MwtsB31UIfnmw1ssQQ82lCBMuC0%2FCli8E%2BRwbEsNd8qW6Tg%3D\"}],\"group\":\"cf-nel\",\"max_age\":604800}\n1 < NEL: {\"success_fraction\":0,\"report_to\":\"cf-nel\",\"max_age\":604800}\n1 < Vary: Accept-Encoding\n1 < Server: cloudflare\n1 < CF-RAY: 6e09386d6a857348-MRS\n1 < alt-svc: h3=\":443\"; ma=86400, h3-29=\":443\"; ma=86400\n{\"page\":1,\"per_page\":6,\"total\":12,\"total_pages\":2,\"data\":[{\"id\":1,\"email\":\"george.bluth@reqres.in\",\"first_name\":\"George\",\"last_name\":\"Bluth\",\"avatar\":\"https:\/\/reqres.in\/img\/faces\/1-image.jpg\"},{\"id\":2,\"email\":\"janet.weaver@reqres.in\",\"first_name\":\"Janet\",\"last_name\":\"Weaver\",\"avatar\":\"https:\/\/reqres.in\/img\/faces\/2-image.jpg\"},{\"id\":3,\"email\":\"emma.wong@reqres.in\",\"first_name\":\"Emma\",\"last_name\":\"Wong\",\"avatar\":\"https:\/\/reqres.in\/img\/faces\/3-image.jpg\"},{\"id\":4,\"email\":\"eve.holt@reqres.in\",\"first_name\":\"Eve\",\"last_name\":\"Holt\",\"avatar\":\"https:\/\/reqres.in\/img\/faces\/4-image.jpg\"},{\"id\":5,\"email\":\"charles.morris@reqres.in\",\"first_name\":\"Charles\",\"last_name\":\"Morris\",\"avatar\":\"https:\/\/reqres.in\/img\/faces\/5-image.jpg\"},{\"id\":6,\"email\":\"tracey.ramos@reqres.in\",\"first_name\":\"Tracey\",\"last_name\":\"Ramos\",\"avatar\":\"https:\/\/reqres.in\/img\/faces\/6-image.jpg\"}],\"support\":{\"url\":\"https:\/\/reqres.in\/#support-heading\",\"text\":\"To keep ReqRes free, contributions towards server costs are appreciated!\"}}\n"},{"result":{"nanos":22300,"millis":0.0223,"status":"passed"},"step":{"line":9,"prefix":"Then","index":2,"text":"status 200"}},{"result":{"nanos":1459400,"millis":1.4594,"status":"passed"},"step":{"line":10,"prefix":"And","index":3,"text":"def acc = response"}},{"result":{"nanos":2826800,"millis":2.8268,"status":"passed"},"step":{"line":11,"prefix":"*","index":4,"text":"print exp1"},"stepLog":"17:48:12.629 [print] [\n  {\n    \"id\": \"1\",\n    \"email\": \"george.bluth@reqres.in\",\n    \"first_name\": \"George\",\n    \"last_name\": \"Bluth\",\n    \"avatar\": \"https:\/\/reqres.in\/img\/faces\/1-image.jpg\"\n  }\n]\n \n"},{"result":{"nanos":18356200,"errorMessage":"match failed: CONTAINS_DEEP\n  $ | actual does not contain expected | actual array does not contain expected item - {\"id\":\"1\",\"email\":\"george.bluth@reqres.in\",\"first_name\":\"George\",\"last_name\":\"Bluth\",\"avatar\":\"https:\/\/reqres.in\/img\/faces\/1-image.jpg\"} (LIST:LIST)\n  [{\"id\":1,\"email\":\"george.bluth@reqres.in\",\"first_name\":\"George\",\"last_name\":\"Bluth\",\"avatar\":\"https:\/\/reqres.in\/img\/faces\/1-image.jpg\"},{\"id\":2,\"email\":\"janet.weaver@reqres.in\",\"first_name\":\"Janet\",\"last_name\":\"Weaver\",\"avatar\":\"https:\/\/reqres.in\/img\/faces\/2-image.jpg\"},{\"id\":3,\"email\":\"emma.wong@reqres.in\",\"first_name\":\"Emma\",\"last_name\":\"Wong\",\"avatar\":\"https:\/\/reqres.in\/img\/faces\/3-image.jpg\"},{\"id\":4,\"email\":\"eve.holt@reqres.in\",\"first_name\":\"Eve\",\"last_name\":\"Holt\",\"avatar\":\"https:\/\/reqres.in\/img\/faces\/4-image.jpg\"},{\"id\":5,\"email\":\"charles.morris@reqres.in\",\"first_name\":\"Charles\",\"last_name\":\"Morris\",\"avatar\":\"https:\/\/reqres.in\/img\/faces\/5-image.jpg\"},{\"id\":6,\"email\":\"tracey.ramos@reqres.in\",\"first_name\":\"Tracey\",\"last_name\":\"Ramos\",\"avatar\":\"https:\/\/reqres.in\/img\/faces\/6-image.jpg\"}]\n  [{\"id\":\"1\",\"email\":\"george.bluth@reqres.in\",\"first_name\":\"George\",\"last_name\":\"Bluth\",\"avatar\":\"https:\/\/reqres.in\/img\/faces\/1-image.jpg\"}]\n\n    $[5] | actual does not contain expected | all key-values did not match, expected has un-matched keys - [id, email, first_name, last_name, avatar] (MAP:MAP)\n    {\"id\":6,\"email\":\"tracey.ramos@reqres.in\",\"first_name\":\"Tracey\",\"last_name\":\"Ramos\",\"avatar\":\"https:\/\/reqres.in\/img\/faces\/6-image.jpg\"}\n    {\"id\":\"1\",\"email\":\"george.bluth@reqres.in\",\"first_name\":\"George\",\"last_name\":\"Bluth\",\"avatar\":\"https:\/\/reqres.in\/img\/faces\/1-image.jpg\"}\n\n      $[5].avatar | not equal (STRING:STRING)\n      'https:\/\/reqres.in\/img\/faces\/6-image.jpg'\n      'https:\/\/reqres.in\/img\/faces\/1-image.jpg'\n\n      $[5].last_name | not equal (STRING:STRING)\n      'Ramos'\n      'Bluth'\n\n      $[5].first_name | not equal (STRING:STRING)\n      'Tracey'\n      'George'\n\n      $[5].email | not equal (STRING:STRING)\n      'tracey.ramos@reqres.in'\n      'george.bluth@reqres.in'\n\n      $[5].id | data types don't match (NUMBER:STRING)\n      6\n      '1'\n\n        $[4] | actual does not contain expected | all key-values did not match, expected has un-matched keys - [id, email, first_name, last_name, avatar] (MAP:MAP)\n        {\"id\":5,\"email\":\"charles.morris@reqres.in\",\"first_name\":\"Charles\",\"last_name\":\"Morris\",\"avatar\":\"https:\/\/reqres.in\/img\/faces\/5-image.jpg\"}\n        {\"id\":\"1\",\"email\":\"george.bluth@reqres.in\",\"first_name\":\"George\",\"last_name\":\"Bluth\",\"avatar\":\"https:\/\/reqres.in\/img\/faces\/1-image.jpg\"}\n\n          $[4].avatar | not equal (STRING:STRING)\n          'https:\/\/reqres.in\/img\/faces\/5-image.jpg'\n          'https:\/\/reqres.in\/img\/faces\/1-image.jpg'\n\n          $[4].last_name | not equal (STRING:STRING)\n          'Morris'\n          'Bluth'\n\n          $[4].first_name | not equal (STRING:STRING)\n          'Charles'\n          'George'\n\n          $[4].email | not equal (STRING:STRING)\n          'charles.morris@reqres.in'\n          'george.bluth@reqres.in'\n\n          $[4].id | data types don't match (NUMBER:STRING)\n          5\n          '1'\n\n            $[3] | actual does not contain expected | all key-values did not match, expected has un-matched keys - [id, email, first_name, last_name, avatar] (MAP:MAP)\n            {\"id\":4,\"email\":\"eve.holt@reqres.in\",\"first_name\":\"Eve\",\"last_name\":\"Holt\",\"avatar\":\"https:\/\/reqres.in\/img\/faces\/4-image.jpg\"}\n            {\"id\":\"1\",\"email\":\"george.bluth@reqres.in\",\"first_name\":\"George\",\"last_name\":\"Bluth\",\"avatar\":\"https:\/\/reqres.in\/img\/faces\/1-image.jpg\"}\n\n              $[3].avatar | not equal (STRING:STRING)\n              'https:\/\/reqres.in\/img\/faces\/4-image.jpg'\n              'https:\/\/reqres.in\/img\/faces\/1-image.jpg'\n\n              $[3].last_name | not equal (STRING:STRING)\n              'Holt'\n              'Bluth'\n\n              $[3].first_name | not equal (STRING:STRING)\n              'Eve'\n              'George'\n\n              $[3].email | not equal (STRING:STRING)\n              'eve.holt@reqres.in'\n              'george.bluth@reqres.in'\n\n              $[3].id | data types don't match (NUMBER:STRING)\n              4\n              '1'\n\n                $[2] | actual does not contain expected | all key-values did not match, expected has un-matched keys - [id, email, first_name, last_name, avatar] (MAP:MAP)\n                {\"id\":3,\"email\":\"emma.wong@reqres.in\",\"first_name\":\"Emma\",\"last_name\":\"Wong\",\"avatar\":\"https:\/\/reqres.in\/img\/faces\/3-image.jpg\"}\n                {\"id\":\"1\",\"email\":\"george.bluth@reqres.in\",\"first_name\":\"George\",\"last_name\":\"Bluth\",\"avatar\":\"https:\/\/reqres.in\/img\/faces\/1-image.jpg\"}\n\n                  $[2].avatar | not equal (STRING:STRING)\n                  'https:\/\/reqres.in\/img\/faces\/3-image.jpg'\n                  'https:\/\/reqres.in\/img\/faces\/1-image.jpg'\n\n                  $[2].last_name | not equal (STRING:STRING)\n                  'Wong'\n                  'Bluth'\n\n                  $[2].first_name | not equal (STRING:STRING)\n                  'Emma'\n                  'George'\n\n                  $[2].email | not equal (STRING:STRING)\n                  'emma.wong@reqres.in'\n                  'george.bluth@reqres.in'\n\n                  $[2].id | data types don't match (NUMBER:STRING)\n                  3\n                  '1'\n\n                    $[1] | actual does not contain expected | all key-values did not match, expected has un-matched keys - [id, email, first_name, last_name, avatar] (MAP:MAP)\n                    {\"id\":2,\"email\":\"janet.weaver@reqres.in\",\"first_name\":\"Janet\",\"last_name\":\"Weaver\",\"avatar\":\"https:\/\/reqres.in\/img\/faces\/2-image.jpg\"}\n                    {\"id\":\"1\",\"email\":\"george.bluth@reqres.in\",\"first_name\":\"George\",\"last_name\":\"Bluth\",\"avatar\":\"https:\/\/reqres.in\/img\/faces\/1-image.jpg\"}\n\n                      $[1].avatar | not equal (STRING:STRING)\n                      'https:\/\/reqres.in\/img\/faces\/2-image.jpg'\n                      'https:\/\/reqres.in\/img\/faces\/1-image.jpg'\n\n                      $[1].last_name | not equal (STRING:STRING)\n                      'Weaver'\n                      'Bluth'\n\n                      $[1].first_name | not equal (STRING:STRING)\n                      'Janet'\n                      'George'\n\n                      $[1].email | not equal (STRING:STRING)\n                      'janet.weaver@reqres.in'\n                      'george.bluth@reqres.in'\n\n                      $[1].id | data types don't match (NUMBER:STRING)\n                      2\n                      '1'\n\n                        $[0] | actual does not contain expected | all key-values did not match, expected has un-matched keys - [id] (MAP:MAP)\n                        {\"id\":1,\"email\":\"george.bluth@reqres.in\",\"first_name\":\"George\",\"last_name\":\"Bluth\",\"avatar\":\"https:\/\/reqres.in\/img\/faces\/1-image.jpg\"}\n                        {\"id\":\"1\",\"email\":\"george.bluth@reqres.in\",\"first_name\":\"George\",\"last_name\":\"Bluth\",\"avatar\":\"https:\/\/reqres.in\/img\/faces\/1-image.jpg\"}\n\n                          $[0].id | data types don't match (NUMBER:STRING)\n                          1\n                          '1'\n\nsrc\/test\/java\/TestFeatures\/week3\/matchFromAllData.feature:12","millis":18.3562,"status":"failed"},"step":{"line":12,"prefix":"*","index":5,"text":"match  acc.data[*] contains deep exp1"},"stepLog":"17:48:12.649 src\/test\/java\/TestFeatures\/week3\/matchFromAllData.feature:12\n* match  acc.data[*] contains deep exp1\nmatch failed: CONTAINS_DEEP\n  $ | actual does not contain expected | actual array does not contain expected item - {\"id\":\"1\",\"email\":\"george.bluth@reqres.in\",\"first_name\":\"George\",\"last_name\":\"Bluth\",\"avatar\":\"https:\/\/reqres.in\/img\/faces\/1-image.jpg\"} (LIST:LIST)\n  [{\"id\":1,\"email\":\"george.bluth@reqres.in\",\"first_name\":\"George\",\"last_name\":\"Bluth\",\"avatar\":\"https:\/\/reqres.in\/img\/faces\/1-image.jpg\"},{\"id\":2,\"email\":\"janet.weaver@reqres.in\",\"first_name\":\"Janet\",\"last_name\":\"Weaver\",\"avatar\":\"https:\/\/reqres.in\/img\/faces\/2-image.jpg\"},{\"id\":3,\"email\":\"emma.wong@reqres.in\",\"first_name\":\"Emma\",\"last_name\":\"Wong\",\"avatar\":\"https:\/\/reqres.in\/img\/faces\/3-image.jpg\"},{\"id\":4,\"email\":\"eve.holt@reqres.in\",\"first_name\":\"Eve\",\"last_name\":\"Holt\",\"avatar\":\"https:\/\/reqres.in\/img\/faces\/4-image.jpg\"},{\"id\":5,\"email\":\"charles.morris@reqres.in\",\"first_name\":\"Charles\",\"last_name\":\"Morris\",\"avatar\":\"https:\/\/reqres.in\/img\/faces\/5-image.jpg\"},{\"id\":6,\"email\":\"tracey.ramos@reqres.in\",\"first_name\":\"Tracey\",\"last_name\":\"Ramos\",\"avatar\":\"https:\/\/reqres.in\/img\/faces\/6-image.jpg\"}]\n  [{\"id\":\"1\",\"email\":\"george.bluth@reqres.in\",\"first_name\":\"George\",\"last_name\":\"Bluth\",\"avatar\":\"https:\/\/reqres.in\/img\/faces\/1-image.jpg\"}]\n\n    $[5] | actual does not contain expected | all key-values did not match, expected has un-matched keys - [id, email, first_name, last_name, avatar] (MAP:MAP)\n    {\"id\":6,\"email\":\"tracey.ramos@reqres.in\",\"first_name\":\"Tracey\",\"last_name\":\"Ramos\",\"avatar\":\"https:\/\/reqres.in\/img\/faces\/6-image.jpg\"}\n    {\"id\":\"1\",\"email\":\"george.bluth@reqres.in\",\"first_name\":\"George\",\"last_name\":\"Bluth\",\"avatar\":\"https:\/\/reqres.in\/img\/faces\/1-image.jpg\"}\n\n      $[5].avatar | not equal (STRING:STRING)\n      'https:\/\/reqres.in\/img\/faces\/6-image.jpg'\n      'https:\/\/reqres.in\/img\/faces\/1-image.jpg'\n\n      $[5].last_name | not equal (STRING:STRING)\n      'Ramos'\n      'Bluth'\n\n      $[5].first_name | not equal (STRING:STRING)\n      'Tracey'\n      'George'\n\n      $[5].email | not equal (STRING:STRING)\n      'tracey.ramos@reqres.in'\n      'george.bluth@reqres.in'\n\n      $[5].id | data types don't match (NUMBER:STRING)\n      6\n      '1'\n\n        $[4] | actual does not contain expected | all key-values did not match, expected has un-matched keys - [id, email, first_name, last_name, avatar] (MAP:MAP)\n        {\"id\":5,\"email\":\"charles.morris@reqres.in\",\"first_name\":\"Charles\",\"last_name\":\"Morris\",\"avatar\":\"https:\/\/reqres.in\/img\/faces\/5-image.jpg\"}\n        {\"id\":\"1\",\"email\":\"george.bluth@reqres.in\",\"first_name\":\"George\",\"last_name\":\"Bluth\",\"avatar\":\"https:\/\/reqres.in\/img\/faces\/1-image.jpg\"}\n\n          $[4].avatar | not equal (STRING:STRING)\n          'https:\/\/reqres.in\/img\/faces\/5-image.jpg'\n          'https:\/\/reqres.in\/img\/faces\/1-image.jpg'\n\n          $[4].last_name | not equal (STRING:STRING)\n          'Morris'\n          'Bluth'\n\n          $[4].first_name | not equal (STRING:STRING)\n          'Charles'\n          'George'\n\n          $[4].email | not equal (STRING:STRING)\n          'charles.morris@reqres.in'\n          'george.bluth@reqres.in'\n\n          $[4].id | data types don't match (NUMBER:STRING)\n          5\n          '1'\n\n            $[3] | actual does not contain expected | all key-values did not match, expected has un-matched keys - [id, email, first_name, last_name, avatar] (MAP:MAP)\n            {\"id\":4,\"email\":\"eve.holt@reqres.in\",\"first_name\":\"Eve\",\"last_name\":\"Holt\",\"avatar\":\"https:\/\/reqres.in\/img\/faces\/4-image.jpg\"}\n            {\"id\":\"1\",\"email\":\"george.bluth@reqres.in\",\"first_name\":\"George\",\"last_name\":\"Bluth\",\"avatar\":\"https:\/\/reqres.in\/img\/faces\/1-image.jpg\"}\n\n              $[3].avatar | not equal (STRING:STRING)\n              'https:\/\/reqres.in\/img\/faces\/4-image.jpg'\n              'https:\/\/reqres.in\/img\/faces\/1-image.jpg'\n\n              $[3].last_name | not equal (STRING:STRING)\n              'Holt'\n              'Bluth'\n\n              $[3].first_name | not equal (STRING:STRING)\n              'Eve'\n              'George'\n\n              $[3].email | not equal (STRING:STRING)\n              'eve.holt@reqres.in'\n              'george.bluth@reqres.in'\n\n              $[3].id | data types don't match (NUMBER:STRING)\n              4\n              '1'\n\n                $[2] | actual does not contain expected | all key-values did not match, expected has un-matched keys - [id, email, first_name, last_name, avatar] (MAP:MAP)\n                {\"id\":3,\"email\":\"emma.wong@reqres.in\",\"first_name\":\"Emma\",\"last_name\":\"Wong\",\"avatar\":\"https:\/\/reqres.in\/img\/faces\/3-image.jpg\"}\n                {\"id\":\"1\",\"email\":\"george.bluth@reqres.in\",\"first_name\":\"George\",\"last_name\":\"Bluth\",\"avatar\":\"https:\/\/reqres.in\/img\/faces\/1-image.jpg\"}\n\n                  $[2].avatar | not equal (STRING:STRING)\n                  'https:\/\/reqres.in\/img\/faces\/3-image.jpg'\n                  'https:\/\/reqres.in\/img\/faces\/1-image.jpg'\n\n                  $[2].last_name | not equal (STRING:STRING)\n                  'Wong'\n                  'Bluth'\n\n                  $[2].first_name | not equal (STRING:STRING)\n                  'Emma'\n                  'George'\n\n                  $[2].email | not equal (STRING:STRING)\n                  'emma.wong@reqres.in'\n                  'george.bluth@reqres.in'\n\n                  $[2].id | data types don't match (NUMBER:STRING)\n                  3\n                  '1'\n\n                    $[1] | actual does not contain expected | all key-values did not match, expected has un-matched keys - [id, email, first_name, last_name, avatar] (MAP:MAP)\n                    {\"id\":2,\"email\":\"janet.weaver@reqres.in\",\"first_name\":\"Janet\",\"last_name\":\"Weaver\",\"avatar\":\"https:\/\/reqres.in\/img\/faces\/2-image.jpg\"}\n                    {\"id\":\"1\",\"email\":\"george.bluth@reqres.in\",\"first_name\":\"George\",\"last_name\":\"Bluth\",\"avatar\":\"https:\/\/reqres.in\/img\/faces\/1-image.jpg\"}\n\n                      $[1].avatar | not equal (STRING:STRING)\n                      'https:\/\/reqres.in\/img\/faces\/2-image.jpg'\n                      'https:\/\/reqres.in\/img\/faces\/1-image.jpg'\n\n                      $[1].last_name | not equal (STRING:STRING)\n                      'Weaver'\n                      'Bluth'\n\n                      $[1].first_name | not equal (STRING:STRING)\n                      'Janet'\n                      'George'\n\n                      $[1].email | not equal (STRING:STRING)\n                      'janet.weaver@reqres.in'\n                      'george.bluth@reqres.in'\n\n                      $[1].id | data types don't match (NUMBER:STRING)\n                      2\n                      '1'\n\n                        $[0] | actual does not contain expected | all key-values did not match, expected has un-matched keys - [id] (MAP:MAP)\n                        {\"id\":1,\"email\":\"george.bluth@reqres.in\",\"first_name\":\"George\",\"last_name\":\"Bluth\",\"avatar\":\"https:\/\/reqres.in\/img\/faces\/1-image.jpg\"}\n                        {\"id\":\"1\",\"email\":\"george.bluth@reqres.in\",\"first_name\":\"George\",\"last_name\":\"Bluth\",\"avatar\":\"https:\/\/reqres.in\/img\/faces\/1-image.jpg\"}\n\n                          $[0].id | data types don't match (NUMBER:STRING)\n                          1\n                          '1'\n\nsrc\/test\/java\/TestFeatures\/week3\/matchFromAllData.feature:12\n"}],"line":6,"description":"","durationMillis":644.97,"failed":true,"error":"match failed: CONTAINS_DEEP\n  $ | actual does not contain expected | actual array does not contain expected item - {\"id\":\"1\",\"email\":\"george.bluth@reqres.in\",\"first_name\":\"George\",\"last_name\":\"Bluth\",\"avatar\":\"https:\/\/reqres.in\/img\/faces\/1-image.jpg\"} (LIST:LIST)\n  [{\"id\":1,\"email\":\"george.bluth@reqres.in\",\"first_name\":\"George\",\"last_name\":\"Bluth\",\"avatar\":\"https:\/\/reqres.in\/img\/faces\/1-image.jpg\"},{\"id\":2,\"email\":\"janet.weaver@reqres.in\",\"first_name\":\"Janet\",\"last_name\":\"Weaver\",\"avatar\":\"https:\/\/reqres.in\/img\/faces\/2-image.jpg\"},{\"id\":3,\"email\":\"emma.wong@reqres.in\",\"first_name\":\"Emma\",\"last_name\":\"Wong\",\"avatar\":\"https:\/\/reqres.in\/img\/faces\/3-image.jpg\"},{\"id\":4,\"email\":\"eve.holt@reqres.in\",\"first_name\":\"Eve\",\"last_name\":\"Holt\",\"avatar\":\"https:\/\/reqres.in\/img\/faces\/4-image.jpg\"},{\"id\":5,\"email\":\"charles.morris@reqres.in\",\"first_name\":\"Charles\",\"last_name\":\"Morris\",\"avatar\":\"https:\/\/reqres.in\/img\/faces\/5-image.jpg\"},{\"id\":6,\"email\":\"tracey.ramos@reqres.in\",\"first_name\":\"Tracey\",\"last_name\":\"Ramos\",\"avatar\":\"https:\/\/reqres.in\/img\/faces\/6-image.jpg\"}]\n  [{\"id\":\"1\",\"email\":\"george.bluth@reqres.in\",\"first_name\":\"George\",\"last_name\":\"Bluth\",\"avatar\":\"https:\/\/reqres.in\/img\/faces\/1-image.jpg\"}]\n\n    $[5] | actual does not contain expected | all key-values did not match, expected has un-matched keys - [id, email, first_name, last_name, avatar] (MAP:MAP)\n    {\"id\":6,\"email\":\"tracey.ramos@reqres.in\",\"first_name\":\"Tracey\",\"last_name\":\"Ramos\",\"avatar\":\"https:\/\/reqres.in\/img\/faces\/6-image.jpg\"}\n    {\"id\":\"1\",\"email\":\"george.bluth@reqres.in\",\"first_name\":\"George\",\"last_name\":\"Bluth\",\"avatar\":\"https:\/\/reqres.in\/img\/faces\/1-image.jpg\"}\n\n      $[5].avatar | not equal (STRING:STRING)\n      'https:\/\/reqres.in\/img\/faces\/6-image.jpg'\n      'https:\/\/reqres.in\/img\/faces\/1-image.jpg'\n\n      $[5].last_name | not equal (STRING:STRING)\n      'Ramos'\n      'Bluth'\n\n      $[5].first_name | not equal (STRING:STRING)\n      'Tracey'\n      'George'\n\n      $[5].email | not equal (STRING:STRING)\n      'tracey.ramos@reqres.in'\n      'george.bluth@reqres.in'\n\n      $[5].id | data types don't match (NUMBER:STRING)\n      6\n      '1'\n\n        $[4] | actual does not contain expected | all key-values did not match, expected has un-matched keys - [id, email, first_name, last_name, avatar] (MAP:MAP)\n        {\"id\":5,\"email\":\"charles.morris@reqres.in\",\"first_name\":\"Charles\",\"last_name\":\"Morris\",\"avatar\":\"https:\/\/reqres.in\/img\/faces\/5-image.jpg\"}\n        {\"id\":\"1\",\"email\":\"george.bluth@reqres.in\",\"first_name\":\"George\",\"last_name\":\"Bluth\",\"avatar\":\"https:\/\/reqres.in\/img\/faces\/1-image.jpg\"}\n\n          $[4].avatar | not equal (STRING:STRING)\n          'https:\/\/reqres.in\/img\/faces\/5-image.jpg'\n          'https:\/\/reqres.in\/img\/faces\/1-image.jpg'\n\n          $[4].last_name | not equal (STRING:STRING)\n          'Morris'\n          'Bluth'\n\n          $[4].first_name | not equal (STRING:STRING)\n          'Charles'\n          'George'\n\n          $[4].email | not equal (STRING:STRING)\n          'charles.morris@reqres.in'\n          'george.bluth@reqres.in'\n\n          $[4].id | data types don't match (NUMBER:STRING)\n          5\n          '1'\n\n            $[3] | actual does not contain expected | all key-values did not match, expected has un-matched keys - [id, email, first_name, last_name, avatar] (MAP:MAP)\n            {\"id\":4,\"email\":\"eve.holt@reqres.in\",\"first_name\":\"Eve\",\"last_name\":\"Holt\",\"avatar\":\"https:\/\/reqres.in\/img\/faces\/4-image.jpg\"}\n            {\"id\":\"1\",\"email\":\"george.bluth@reqres.in\",\"first_name\":\"George\",\"last_name\":\"Bluth\",\"avatar\":\"https:\/\/reqres.in\/img\/faces\/1-image.jpg\"}\n\n              $[3].avatar | not equal (STRING:STRING)\n              'https:\/\/reqres.in\/img\/faces\/4-image.jpg'\n              'https:\/\/reqres.in\/img\/faces\/1-image.jpg'\n\n              $[3].last_name | not equal (STRING:STRING)\n              'Holt'\n              'Bluth'\n\n              $[3].first_name | not equal (STRING:STRING)\n              'Eve'\n              'George'\n\n              $[3].email | not equal (STRING:STRING)\n              'eve.holt@reqres.in'\n              'george.bluth@reqres.in'\n\n              $[3].id | data types don't match (NUMBER:STRING)\n              4\n              '1'\n\n                $[2] | actual does not contain expected | all key-values did not match, expected has un-matched keys - [id, email, first_name, last_name, avatar] (MAP:MAP)\n                {\"id\":3,\"email\":\"emma.wong@reqres.in\",\"first_name\":\"Emma\",\"last_name\":\"Wong\",\"avatar\":\"https:\/\/reqres.in\/img\/faces\/3-image.jpg\"}\n                {\"id\":\"1\",\"email\":\"george.bluth@reqres.in\",\"first_name\":\"George\",\"last_name\":\"Bluth\",\"avatar\":\"https:\/\/reqres.in\/img\/faces\/1-image.jpg\"}\n\n                  $[2].avatar | not equal (STRING:STRING)\n                  'https:\/\/reqres.in\/img\/faces\/3-image.jpg'\n                  'https:\/\/reqres.in\/img\/faces\/1-image.jpg'\n\n                  $[2].last_name | not equal (STRING:STRING)\n                  'Wong'\n                  'Bluth'\n\n                  $[2].first_name | not equal (STRING:STRING)\n                  'Emma'\n                  'George'\n\n                  $[2].email | not equal (STRING:STRING)\n                  'emma.wong@reqres.in'\n                  'george.bluth@reqres.in'\n\n                  $[2].id | data types don't match (NUMBER:STRING)\n                  3\n                  '1'\n\n                    $[1] | actual does not contain expected | all key-values did not match, expected has un-matched keys - [id, email, first_name, last_name, avatar] (MAP:MAP)\n                    {\"id\":2,\"email\":\"janet.weaver@reqres.in\",\"first_name\":\"Janet\",\"last_name\":\"Weaver\",\"avatar\":\"https:\/\/reqres.in\/img\/faces\/2-image.jpg\"}\n                    {\"id\":\"1\",\"email\":\"george.bluth@reqres.in\",\"first_name\":\"George\",\"last_name\":\"Bluth\",\"avatar\":\"https:\/\/reqres.in\/img\/faces\/1-image.jpg\"}\n\n                      $[1].avatar | not equal (STRING:STRING)\n                      'https:\/\/reqres.in\/img\/faces\/2-image.jpg'\n                      'https:\/\/reqres.in\/img\/faces\/1-image.jpg'\n\n                      $[1].last_name | not equal (STRING:STRING)\n                      'Weaver'\n                      'Bluth'\n\n                      $[1].first_name | not equal (STRING:STRING)\n                      'Janet'\n                      'George'\n\n                      $[1].email | not equal (STRING:STRING)\n                      'janet.weaver@reqres.in'\n                      'george.bluth@reqres.in'\n\n                      $[1].id | data types don't match (NUMBER:STRING)\n                      2\n                      '1'\n\n                        $[0] | actual does not contain expected | all key-values did not match, expected has un-matched keys - [id] (MAP:MAP)\n                        {\"id\":1,\"email\":\"george.bluth@reqres.in\",\"first_name\":\"George\",\"last_name\":\"Bluth\",\"avatar\":\"https:\/\/reqres.in\/img\/faces\/1-image.jpg\"}\n                        {\"id\":\"1\",\"email\":\"george.bluth@reqres.in\",\"first_name\":\"George\",\"last_name\":\"Bluth\",\"avatar\":\"https:\/\/reqres.in\/img\/faces\/1-image.jpg\"}\n\n                          $[0].id | data types don't match (NUMBER:STRING)\n                          1\n                          '1'\n\nsrc\/test\/java\/TestFeatures\/week3\/matchFromAllData.feature:12","executorName":"main","name":"check if response contains csv values emails","startTime":1645375691859,"refId":"[1:6]","endTime":1645375692650,"exampleIndex":-1}],"callDepth":0,"name":"verify if elements exists in csv file","description":"","resultDate":"2022-02-20 05:48:12 PM","durationMillis":644.97,"passedCount":0}