{"failedCount":1,"prefixedPath":"src\/test\/java\/TestFeatures\/week3\/callGetPerson.feature","packageQualifiedName":"src.test.java.TestFeatures.week3.callGetPerson","loopIndex":-1,"relativePath":"src\/test\/java\/TestFeatures\/week3\/callGetPerson.feature","scenarioResults":[{"sectionIndex":0,"stepResults":[{"result":{"nanos":1433300,"millis":1.4333,"status":"passed"},"step":{"line":9,"prefix":"Given","index":0,"text":"url 'https:\/\/reqres.in\/api\/users?page=1'"},"stepLog":"14:49:34.018 \n"},{"result":{"nanos":663170500,"millis":663.1705,"status":"passed"},"step":{"line":10,"prefix":"When","index":1,"text":"method GET"},"stepLog":"14:49:34.325 request:\n1 > GET https:\/\/reqres.in\/api\/users?page=1\n1 > Host: reqres.in\n1 > Connection: Keep-Alive\n1 > User-Agent: Apache-HttpClient\/4.5.13 (Java\/17.0.1)\n1 > Accept-Encoding: gzip,deflate\n\n\n14:49:34.687 response time in milliseconds: 360\n1 < 200\n1 < Date: Sun, 20 Feb 2022 13:49:26 GMT\n1 < Content-Type: application\/json; charset=utf-8\n1 < Transfer-Encoding: chunked\n1 < Connection: keep-alive\n1 < X-Powered-By: Express\n1 < Access-Control-Allow-Origin: *\n1 < Etag: W\/\"3e4-2RLXvr5wTg9YQ6aH95CkYoFNuO8\"\n1 < Via: 1.1 vegur\n1 < Cache-Control: max-age=14400\n1 < CF-Cache-Status: HIT\n1 < Age: 1011\n1 < Expect-CT: max-age=604800, report-uri=\"https:\/\/report-uri.cloudflare.com\/cdn-cgi\/beacon\/expect-ct\"\n1 < Report-To: {\"endpoints\":[{\"url\":\"https:\\\/\\\/a.nel.cloudflare.com\\\/report\\\/v3?s=6lo70He%2Bdcbo6b2FoIEaEvEC6T7ShAFpZlsB4acuP8MHBppMWZqSchTsRPospa7b90OQ%2BABPTd%2FpnXgMzER4h8eEd4ZzSQ7iy696GnZF8PTavT2UOLk3lXmLWEY%3D\"}],\"group\":\"cf-nel\",\"max_age\":604800}\n1 < NEL: {\"success_fraction\":0,\"report_to\":\"cf-nel\",\"max_age\":604800}\n1 < Vary: Accept-Encoding\n1 < Server: cloudflare\n1 < CF-RAY: 6e0832c2c9925fa0-MRS\n1 < alt-svc: h3=\":443\"; ma=86400, h3-29=\":443\"; ma=86400\n{\"page\":1,\"per_page\":6,\"total\":12,\"total_pages\":2,\"data\":[{\"id\":1,\"email\":\"george.bluth@reqres.in\",\"first_name\":\"George\",\"last_name\":\"Bluth\",\"avatar\":\"https:\/\/reqres.in\/img\/faces\/1-image.jpg\"},{\"id\":2,\"email\":\"janet.weaver@reqres.in\",\"first_name\":\"Janet\",\"last_name\":\"Weaver\",\"avatar\":\"https:\/\/reqres.in\/img\/faces\/2-image.jpg\"},{\"id\":3,\"email\":\"emma.wong@reqres.in\",\"first_name\":\"Emma\",\"last_name\":\"Wong\",\"avatar\":\"https:\/\/reqres.in\/img\/faces\/3-image.jpg\"},{\"id\":4,\"email\":\"eve.holt@reqres.in\",\"first_name\":\"Eve\",\"last_name\":\"Holt\",\"avatar\":\"https:\/\/reqres.in\/img\/faces\/4-image.jpg\"},{\"id\":5,\"email\":\"charles.morris@reqres.in\",\"first_name\":\"Charles\",\"last_name\":\"Morris\",\"avatar\":\"https:\/\/reqres.in\/img\/faces\/5-image.jpg\"},{\"id\":6,\"email\":\"tracey.ramos@reqres.in\",\"first_name\":\"Tracey\",\"last_name\":\"Ramos\",\"avatar\":\"https:\/\/reqres.in\/img\/faces\/6-image.jpg\"}],\"support\":{\"url\":\"https:\/\/reqres.in\/#support-heading\",\"text\":\"To keep ReqRes free, contributions towards server costs are appreciated!\"}}\n"},{"result":{"nanos":17700,"millis":0.0177,"status":"passed"},"step":{"line":11,"prefix":"Then","index":2,"text":"status 200"}},{"result":{"nanos":989900,"millis":0.9899,"status":"passed"},"step":{"endLine":14,"line":12,"prefix":"*","index":3,"text":"table emails","table":[{"line":13,"row":["email"]},{"line":14,"row":["'george.bluth@reqres.in'"]}]}},{"result":{"nanos":283899600,"errorMessage":"feature call loop failed at index: 0, match failed: EACH_CONTAINS\n  $ | match each failed at index 0 (LIST:MAP)\n  [\"george.bluth@reqres.in\",\"janet.weaver@reqres.in\",\"emma.wong@reqres.in\",\"eve.holt@reqres.in\",\"charles.morris@reqres.in\",\"tracey.ramos@reqres.in\"]\n  {\"email\":\"george.bluth@reqres.in\"}\n\n    $[0] | data types don't match (STRING:MAP)\n    'george.bluth@reqres.in'\n    {\"email\":\"george.bluth@reqres.in\"}\n\n\nclasspath:reusableFeatures\/getPerson.feature:10\nsrc\/test\/java\/TestFeatures\/week3\/callGetPerson.feature:15","millis":283.8996,"status":"failed"},"step":{"line":15,"prefix":"*","index":4,"text":"def person = call read('classpath:\/reusableFeatures\/getPerson.feature') emails"},"stepLog":"14:49:34.997 src\/test\/java\/TestFeatures\/week3\/callGetPerson.feature:15\n* def person = call read('classpath:\/reusableFeatures\/getPerson.feature') emails\nfeature call loop failed at index: 0, match failed: EACH_CONTAINS\n  $ | match each failed at index 0 (LIST:MAP)\n  [\"george.bluth@reqres.in\",\"janet.weaver@reqres.in\",\"emma.wong@reqres.in\",\"eve.holt@reqres.in\",\"charles.morris@reqres.in\",\"tracey.ramos@reqres.in\"]\n  {\"email\":\"george.bluth@reqres.in\"}\n\n    $[0] | data types don't match (STRING:MAP)\n    'george.bluth@reqres.in'\n    {\"email\":\"george.bluth@reqres.in\"}\n\n\nclasspath:reusableFeatures\/getPerson.feature:10\n14:49:34.997 src\/test\/java\/TestFeatures\/week3\/callGetPerson.feature:15\n* def person = call read('classpath:\/reusableFeatures\/getPerson.feature') emails\nfeature call loop failed at index: 0, match failed: EACH_CONTAINS\n  $ | match each failed at index 0 (LIST:MAP)\n  [\"george.bluth@reqres.in\",\"janet.weaver@reqres.in\",\"emma.wong@reqres.in\",\"eve.holt@reqres.in\",\"charles.morris@reqres.in\",\"tracey.ramos@reqres.in\"]\n  {\"email\":\"george.bluth@reqres.in\"}\n\n    $[0] | data types don't match (STRING:MAP)\n    'george.bluth@reqres.in'\n    {\"email\":\"george.bluth@reqres.in\"}\n\n\nclasspath:reusableFeatures\/getPerson.feature:10\nsrc\/test\/java\/TestFeatures\/week3\/callGetPerson.feature:15\n","callResults":[{"prefixedPath":"classpath:reusableFeatures\/getPerson.feature","loopIndex":0,"callDepth":1,"description":"","resultDate":"2022-02-20 02:49:34 PM","durationMillis":255.7408,"callArg":{"email":"george.bluth@reqres.in"},"failedCount":1,"packageQualifiedName":"reusableFeatures.getPerson","relativePath":"reusableFeatures\/getPerson.feature","scenarioResults":[{"sectionIndex":0,"stepResults":[{"result":{"nanos":411900,"millis":0.4119,"status":"passed"},"step":{"line":5,"prefix":"Given","index":0,"text":"url 'https:\/\/reqres.in\/api\/users?page=1'"}},{"result":{"nanos":12679500,"millis":12.6795,"status":"passed"},"step":{"line":6,"prefix":"And","index":1,"text":"request { email: #(email) }"}},{"result":{"nanos":233905000,"millis":233.905,"status":"passed"},"step":{"line":7,"prefix":"When","index":2,"text":"method GET"},"stepLog":"14:49:34.785 request:\n1 > GET https:\/\/reqres.in\/api\/users?page=1\n1 > Content-Type: application\/json; charset=UTF-8\n1 > Content-Length: 34\n1 > Host: reqres.in\n1 > Connection: Keep-Alive\n1 > User-Agent: Apache-HttpClient\/4.5.13 (Java\/17.0.1)\n1 > Accept-Encoding: gzip,deflate\n{\"email\":\"george.bluth@reqres.in\"}\n\n14:49:34.987 response time in milliseconds: 202\n1 < 200\n1 < Date: Sun, 20 Feb 2022 13:49:27 GMT\n1 < Content-Type: application\/json; charset=utf-8\n1 < Transfer-Encoding: chunked\n1 < Connection: keep-alive\n1 < X-Powered-By: Express\n1 < Access-Control-Allow-Origin: *\n1 < Etag: W\/\"3e4-2RLXvr5wTg9YQ6aH95CkYoFNuO8\"\n1 < Via: 1.1 vegur\n1 < Cache-Control: max-age=14400\n1 < CF-Cache-Status: HIT\n1 < Age: 1012\n1 < Expect-CT: max-age=604800, report-uri=\"https:\/\/report-uri.cloudflare.com\/cdn-cgi\/beacon\/expect-ct\"\n1 < Report-To: {\"endpoints\":[{\"url\":\"https:\\\/\\\/a.nel.cloudflare.com\\\/report\\\/v3?s=M7bp1LhCd0BDcja%2B9vUhmT79r%2BQvJRcpQ06hf8a7Ob8jDQmqe4jcOj8h%2BC9vRKIE%2BPS7n0l3i1otzQcACFoc3S8YDrbdEHKPYE%2Byo331Dtk4jY73bSCPJD4tNtQ%3D\"}],\"group\":\"cf-nel\",\"max_age\":604800}\n1 < NEL: {\"success_fraction\":0,\"report_to\":\"cf-nel\",\"max_age\":604800}\n1 < Vary: Accept-Encoding\n1 < Server: cloudflare\n1 < CF-RAY: 6e0832c4bc8e5fdd-MRS\n1 < alt-svc: h3=\":443\"; ma=86400, h3-29=\":443\"; ma=86400\n{\"page\":1,\"per_page\":6,\"total\":12,\"total_pages\":2,\"data\":[{\"id\":1,\"email\":\"george.bluth@reqres.in\",\"first_name\":\"George\",\"last_name\":\"Bluth\",\"avatar\":\"https:\/\/reqres.in\/img\/faces\/1-image.jpg\"},{\"id\":2,\"email\":\"janet.weaver@reqres.in\",\"first_name\":\"Janet\",\"last_name\":\"Weaver\",\"avatar\":\"https:\/\/reqres.in\/img\/faces\/2-image.jpg\"},{\"id\":3,\"email\":\"emma.wong@reqres.in\",\"first_name\":\"Emma\",\"last_name\":\"Wong\",\"avatar\":\"https:\/\/reqres.in\/img\/faces\/3-image.jpg\"},{\"id\":4,\"email\":\"eve.holt@reqres.in\",\"first_name\":\"Eve\",\"last_name\":\"Holt\",\"avatar\":\"https:\/\/reqres.in\/img\/faces\/4-image.jpg\"},{\"id\":5,\"email\":\"charles.morris@reqres.in\",\"first_name\":\"Charles\",\"last_name\":\"Morris\",\"avatar\":\"https:\/\/reqres.in\/img\/faces\/5-image.jpg\"},{\"id\":6,\"email\":\"tracey.ramos@reqres.in\",\"first_name\":\"Tracey\",\"last_name\":\"Ramos\",\"avatar\":\"https:\/\/reqres.in\/img\/faces\/6-image.jpg\"}],\"support\":{\"url\":\"https:\/\/reqres.in\/#support-heading\",\"text\":\"To keep ReqRes free, contributions towards server costs are appreciated!\"}}\n"},{"result":{"nanos":9100,"millis":0.0091,"status":"passed"},"step":{"line":8,"prefix":"Then","index":3,"text":"status 200"}},{"result":{"nanos":8735300,"errorMessage":"match failed: EACH_CONTAINS\n  $ | match each failed at index 0 (LIST:MAP)\n  [\"george.bluth@reqres.in\",\"janet.weaver@reqres.in\",\"emma.wong@reqres.in\",\"eve.holt@reqres.in\",\"charles.morris@reqres.in\",\"tracey.ramos@reqres.in\"]\n  {\"email\":\"george.bluth@reqres.in\"}\n\n    $[0] | data types don't match (STRING:MAP)\n    'george.bluth@reqres.in'\n    {\"email\":\"george.bluth@reqres.in\"}\n\n\nclasspath:reusableFeatures\/getPerson.feature:10","millis":8.7353,"status":"failed"},"step":{"comments":["#And match response.data[*] contains {id: id,email:'#ignore',first_name:'#ignore',last_name:'#ignore',avatar:'#ignore'}"],"line":10,"prefix":"And","index":4,"text":"match each response.data[*].email contains {email : #(email)}"},"stepLog":"14:49:34.997 classpath:reusableFeatures\/getPerson.feature:10\nAnd match each response.data[*].email contains {email : #(email)}\nmatch failed: EACH_CONTAINS\n  $ | match each failed at index 0 (LIST:MAP)\n  [\"george.bluth@reqres.in\",\"janet.weaver@reqres.in\",\"emma.wong@reqres.in\",\"eve.holt@reqres.in\",\"charles.morris@reqres.in\",\"tracey.ramos@reqres.in\"]\n  {\"email\":\"george.bluth@reqres.in\"}\n\n    $[0] | data types don't match (STRING:MAP)\n    'george.bluth@reqres.in'\n    {\"email\":\"george.bluth@reqres.in\"}\n\n\nclasspath:reusableFeatures\/getPerson.feature:10\n"}],"line":4,"description":"","durationMillis":255.7408,"failed":true,"error":"match failed: EACH_CONTAINS\n  $ | match each failed at index 0 (LIST:MAP)\n  [\"george.bluth@reqres.in\",\"janet.weaver@reqres.in\",\"emma.wong@reqres.in\",\"eve.holt@reqres.in\",\"charles.morris@reqres.in\",\"tracey.ramos@reqres.in\"]\n  {\"email\":\"george.bluth@reqres.in\"}\n\n    $[0] | data types don't match (STRING:MAP)\n    'george.bluth@reqres.in'\n    {\"email\":\"george.bluth@reqres.in\"}\n\n\nclasspath:reusableFeatures\/getPerson.feature:10","executorName":"main","name":"get person","startTime":1645364974739,"refId":"[1:4]","endTime":1645364974997,"exampleIndex":-1}],"name":"Get person from list","passedCount":0}]},{"result":{"nanos":0,"millis":0.0,"status":"skipped"},"step":{"line":16,"prefix":"And","index":5,"text":"print person.response"}}],"line":8,"description":"","durationMillis":949.511,"failed":true,"error":"feature call loop failed at index: 0, match failed: EACH_CONTAINS\n  $ | match each failed at index 0 (LIST:MAP)\n  [\"george.bluth@reqres.in\",\"janet.weaver@reqres.in\",\"emma.wong@reqres.in\",\"eve.holt@reqres.in\",\"charles.morris@reqres.in\",\"tracey.ramos@reqres.in\"]\n  {\"email\":\"george.bluth@reqres.in\"}\n\n    $[0] | data types don't match (STRING:MAP)\n    'george.bluth@reqres.in'\n    {\"email\":\"george.bluth@reqres.in\"}\n\n\nclasspath:reusableFeatures\/getPerson.feature:10\nsrc\/test\/java\/TestFeatures\/week3\/callGetPerson.feature:15","tags":["tag1"],"executorName":"main","name":"Title of your scenario","startTime":1645364973876,"refId":"[1:8]","endTime":1645364974997,"exampleIndex":-1}],"callDepth":0,"name":"Title of your feature","description":"I want to use this template for my feature file","resultDate":"2022-02-20 02:49:34 PM","durationMillis":949.511,"passedCount":0}