{"failedCount":1,"prefixedPath":"src\/test\/java\/testRunner\/verifiInCsv.feature","packageQualifiedName":"src.test.java.testRunner.verifiInCsv","loopIndex":-1,"relativePath":"src\/test\/java\/testRunner\/verifiInCsv.feature","scenarioResults":[{"sectionIndex":0,"stepResults":[{"result":{"nanos":158517000,"millis":158.517,"status":"passed"},"step":{"background":true,"line":4,"prefix":"*","index":0,"text":"def exp = read('data.csv')"}},{"result":{"nanos":3378700,"millis":3.3787,"status":"passed"},"step":{"line":7,"prefix":"Given","index":0,"text":"url 'https:\/\/reqres.in\/api\/users?page=2'"}},{"result":{"nanos":993215701,"millis":993.215701,"status":"passed"},"step":{"line":8,"prefix":"When","index":1,"text":"method GET"},"stepLog":"20:18:44.373 request:\n1 > GET https:\/\/reqres.in\/api\/users?page=2\n1 > Host: reqres.in\n1 > Connection: Keep-Alive\n1 > User-Agent: Apache-HttpClient\/4.5.13 (Java\/17.0.1)\n1 > Accept-Encoding: gzip,deflate\n\n\n20:18:45.019 response time in milliseconds: 642\n1 < 200\n1 < Date: Sun, 13 Feb 2022 19:18:41 GMT\n1 < Content-Type: application\/json; charset=utf-8\n1 < Transfer-Encoding: chunked\n1 < Connection: keep-alive\n1 < X-Powered-By: Express\n1 < Access-Control-Allow-Origin: *\n1 < Etag: W\/\"406-ut0vzoCuidvyMf8arZpMpJ6ZRDw\"\n1 < Via: 1.1 vegur\n1 < Cache-Control: max-age=14400\n1 < CF-Cache-Status: HIT\n1 < Age: 3426\n1 < Expect-CT: max-age=604800, report-uri=\"https:\/\/report-uri.cloudflare.com\/cdn-cgi\/beacon\/expect-ct\"\n1 < Report-To: {\"endpoints\":[{\"url\":\"https:\\\/\\\/a.nel.cloudflare.com\\\/report\\\/v3?s=t8qJ1fTC3GRPjv6nmdYCsGwvSuuCkrxEsRlQk2avUWEfBRkGZCglCDAJeh%2FxiQSuHvt%2FnFVlIbXkPHx62klq%2FqJTOHq9Nx2YDxcR1ymlK8ysuNJQAtuM75fL%2F7Q%3D\"}],\"group\":\"cf-nel\",\"max_age\":604800}\n1 < NEL: {\"success_fraction\":0,\"report_to\":\"cf-nel\",\"max_age\":604800}\n1 < Vary: Accept-Encoding\n1 < Server: cloudflare\n1 < CF-RAY: 6dd0676d89b673b7-MRS\n1 < alt-svc: h3=\":443\"; ma=86400, h3-29=\":443\"; ma=86400\n{\"page\":2,\"per_page\":6,\"total\":12,\"total_pages\":2,\"data\":[{\"id\":7,\"email\":\"michael.lawson@reqres.in\",\"first_name\":\"Michael\",\"last_name\":\"Lawson\",\"avatar\":\"https:\/\/reqres.in\/img\/faces\/7-image.jpg\"},{\"id\":8,\"email\":\"lindsay.ferguson@reqres.in\",\"first_name\":\"Lindsay\",\"last_name\":\"Ferguson\",\"avatar\":\"https:\/\/reqres.in\/img\/faces\/8-image.jpg\"},{\"id\":9,\"email\":\"tobias.funke@reqres.in\",\"first_name\":\"Tobias\",\"last_name\":\"Funke\",\"avatar\":\"https:\/\/reqres.in\/img\/faces\/9-image.jpg\"},{\"id\":10,\"email\":\"byron.fields@reqres.in\",\"first_name\":\"Byron\",\"last_name\":\"Fields\",\"avatar\":\"https:\/\/reqres.in\/img\/faces\/10-image.jpg\"},{\"id\":11,\"email\":\"george.edwards@reqres.in\",\"first_name\":\"George\",\"last_name\":\"Edwards\",\"avatar\":\"https:\/\/reqres.in\/img\/faces\/11-image.jpg\"},{\"id\":12,\"email\":\"rachel.howell@reqres.in\",\"first_name\":\"Rachel\",\"last_name\":\"Howell\",\"avatar\":\"https:\/\/reqres.in\/img\/faces\/12-image.jpg\"}],\"support\":{\"url\":\"https:\/\/reqres.in\/#support-heading\",\"text\":\"To keep ReqRes free, contributions towards server costs are appreciated!\"}}\n"},{"result":{"nanos":23301,"millis":0.023301,"status":"passed"},"step":{"line":9,"prefix":"Then","index":2,"text":"status 200"}},{"result":{"nanos":11240599,"millis":11.240599,"status":"passed"},"step":{"comments":["#i used this fuction to convert string to number"],"line":11,"prefix":"*","index":3,"text":"def fun = function(x){ x.id = ~x.id; return x }"}},{"result":{"nanos":34530700,"millis":34.5307,"status":"passed"},"step":{"line":12,"prefix":"*","index":4,"text":"def exp = karate.map(exp, fun)"}},{"result":{"nanos":20648601,"millis":20.648601,"status":"passed"},"step":{"line":13,"prefix":"And","index":5,"text":"def acc = response"}},{"result":{"nanos":45147000,"errorMessage":"match failed: CONTAINS_DEEP\n  $ | actual does not contain expected | actual array does not contain expected item - {\"id\":-8} (LIST:LIST)\n  [{\"id\":7,\"email\":\"michael.lawson@reqres.in\",\"first_name\":\"Michael\",\"last_name\":\"Lawson\",\"avatar\":\"https:\/\/reqres.in\/img\/faces\/7-image.jpg\"},{\"id\":8,\"email\":\"lindsay.ferguson@reqres.in\",\"first_name\":\"Lindsay\",\"last_name\":\"Ferguson\",\"avatar\":\"https:\/\/reqres.in\/img\/faces\/8-image.jpg\"},{\"id\":9,\"email\":\"tobias.funke@reqres.in\",\"first_name\":\"Tobias\",\"last_name\":\"Funke\",\"avatar\":\"https:\/\/reqres.in\/img\/faces\/9-image.jpg\"},{\"id\":10,\"email\":\"byron.fields@reqres.in\",\"first_name\":\"Byron\",\"last_name\":\"Fields\",\"avatar\":\"https:\/\/reqres.in\/img\/faces\/10-image.jpg\"},{\"id\":11,\"email\":\"george.edwards@reqres.in\",\"first_name\":\"George\",\"last_name\":\"Edwards\",\"avatar\":\"https:\/\/reqres.in\/img\/faces\/11-image.jpg\"},{\"id\":12,\"email\":\"rachel.howell@reqres.in\",\"first_name\":\"Rachel\",\"last_name\":\"Howell\",\"avatar\":\"https:\/\/reqres.in\/img\/faces\/12-image.jpg\"}]\n  [{\"id\":-8},{\"id\":-9},{\"id\":-10}]\n\n    $[5] | actual does not contain expected | all key-values did not match, expected has un-matched keys - [id] (MAP:MAP)\n    {\"id\":12,\"email\":\"rachel.howell@reqres.in\",\"first_name\":\"Rachel\",\"last_name\":\"Howell\",\"avatar\":\"https:\/\/reqres.in\/img\/faces\/12-image.jpg\"}\n    {\"id\":-8}\n\n      $[5].id | not equal (NUMBER:NUMBER)\n      12\n      -8\n\n        $[4] | actual does not contain expected | all key-values did not match, expected has un-matched keys - [id] (MAP:MAP)\n        {\"id\":11,\"email\":\"george.edwards@reqres.in\",\"first_name\":\"George\",\"last_name\":\"Edwards\",\"avatar\":\"https:\/\/reqres.in\/img\/faces\/11-image.jpg\"}\n        {\"id\":-8}\n\n          $[4].id | not equal (NUMBER:NUMBER)\n          11\n          -8\n\n            $[3] | actual does not contain expected | all key-values did not match, expected has un-matched keys - [id] (MAP:MAP)\n            {\"id\":10,\"email\":\"byron.fields@reqres.in\",\"first_name\":\"Byron\",\"last_name\":\"Fields\",\"avatar\":\"https:\/\/reqres.in\/img\/faces\/10-image.jpg\"}\n            {\"id\":-8}\n\n              $[3].id | not equal (NUMBER:NUMBER)\n              10\n              -8\n\n                $[2] | actual does not contain expected | all key-values did not match, expected has un-matched keys - [id] (MAP:MAP)\n                {\"id\":9,\"email\":\"tobias.funke@reqres.in\",\"first_name\":\"Tobias\",\"last_name\":\"Funke\",\"avatar\":\"https:\/\/reqres.in\/img\/faces\/9-image.jpg\"}\n                {\"id\":-8}\n\n                  $[2].id | not equal (NUMBER:NUMBER)\n                  9\n                  -8\n\n                    $[1] | actual does not contain expected | all key-values did not match, expected has un-matched keys - [id] (MAP:MAP)\n                    {\"id\":8,\"email\":\"lindsay.ferguson@reqres.in\",\"first_name\":\"Lindsay\",\"last_name\":\"Ferguson\",\"avatar\":\"https:\/\/reqres.in\/img\/faces\/8-image.jpg\"}\n                    {\"id\":-8}\n\n                      $[1].id | not equal (NUMBER:NUMBER)\n                      8\n                      -8\n\n                        $[0] | actual does not contain expected | all key-values did not match, expected has un-matched keys - [id] (MAP:MAP)\n                        {\"id\":7,\"email\":\"michael.lawson@reqres.in\",\"first_name\":\"Michael\",\"last_name\":\"Lawson\",\"avatar\":\"https:\/\/reqres.in\/img\/faces\/7-image.jpg\"}\n                        {\"id\":-8}\n\n                          $[0].id | not equal (NUMBER:NUMBER)\n                          7\n                          -8\n\nsrc\/test\/java\/testRunner\/verifiInCsv.feature:15","millis":45.147,"status":"failed"},"step":{"comments":["#i used deep to check 2 arrays"],"line":15,"prefix":"*","index":6,"text":"match acc.data[*] contains deep exp"},"stepLog":"20:18:45.138 src\/test\/java\/testRunner\/verifiInCsv.feature:15\n* match acc.data[*] contains deep exp\nmatch failed: CONTAINS_DEEP\n  $ | actual does not contain expected | actual array does not contain expected item - {\"id\":-8} (LIST:LIST)\n  [{\"id\":7,\"email\":\"michael.lawson@reqres.in\",\"first_name\":\"Michael\",\"last_name\":\"Lawson\",\"avatar\":\"https:\/\/reqres.in\/img\/faces\/7-image.jpg\"},{\"id\":8,\"email\":\"lindsay.ferguson@reqres.in\",\"first_name\":\"Lindsay\",\"last_name\":\"Ferguson\",\"avatar\":\"https:\/\/reqres.in\/img\/faces\/8-image.jpg\"},{\"id\":9,\"email\":\"tobias.funke@reqres.in\",\"first_name\":\"Tobias\",\"last_name\":\"Funke\",\"avatar\":\"https:\/\/reqres.in\/img\/faces\/9-image.jpg\"},{\"id\":10,\"email\":\"byron.fields@reqres.in\",\"first_name\":\"Byron\",\"last_name\":\"Fields\",\"avatar\":\"https:\/\/reqres.in\/img\/faces\/10-image.jpg\"},{\"id\":11,\"email\":\"george.edwards@reqres.in\",\"first_name\":\"George\",\"last_name\":\"Edwards\",\"avatar\":\"https:\/\/reqres.in\/img\/faces\/11-image.jpg\"},{\"id\":12,\"email\":\"rachel.howell@reqres.in\",\"first_name\":\"Rachel\",\"last_name\":\"Howell\",\"avatar\":\"https:\/\/reqres.in\/img\/faces\/12-image.jpg\"}]\n  [{\"id\":-8},{\"id\":-9},{\"id\":-10}]\n\n    $[5] | actual does not contain expected | all key-values did not match, expected has un-matched keys - [id] (MAP:MAP)\n    {\"id\":12,\"email\":\"rachel.howell@reqres.in\",\"first_name\":\"Rachel\",\"last_name\":\"Howell\",\"avatar\":\"https:\/\/reqres.in\/img\/faces\/12-image.jpg\"}\n    {\"id\":-8}\n\n      $[5].id | not equal (NUMBER:NUMBER)\n      12\n      -8\n\n        $[4] | actual does not contain expected | all key-values did not match, expected has un-matched keys - [id] (MAP:MAP)\n        {\"id\":11,\"email\":\"george.edwards@reqres.in\",\"first_name\":\"George\",\"last_name\":\"Edwards\",\"avatar\":\"https:\/\/reqres.in\/img\/faces\/11-image.jpg\"}\n        {\"id\":-8}\n\n          $[4].id | not equal (NUMBER:NUMBER)\n          11\n          -8\n\n            $[3] | actual does not contain expected | all key-values did not match, expected has un-matched keys - [id] (MAP:MAP)\n            {\"id\":10,\"email\":\"byron.fields@reqres.in\",\"first_name\":\"Byron\",\"last_name\":\"Fields\",\"avatar\":\"https:\/\/reqres.in\/img\/faces\/10-image.jpg\"}\n            {\"id\":-8}\n\n              $[3].id | not equal (NUMBER:NUMBER)\n              10\n              -8\n\n                $[2] | actual does not contain expected | all key-values did not match, expected has un-matched keys - [id] (MAP:MAP)\n                {\"id\":9,\"email\":\"tobias.funke@reqres.in\",\"first_name\":\"Tobias\",\"last_name\":\"Funke\",\"avatar\":\"https:\/\/reqres.in\/img\/faces\/9-image.jpg\"}\n                {\"id\":-8}\n\n                  $[2].id | not equal (NUMBER:NUMBER)\n                  9\n                  -8\n\n                    $[1] | actual does not contain expected | all key-values did not match, expected has un-matched keys - [id] (MAP:MAP)\n                    {\"id\":8,\"email\":\"lindsay.ferguson@reqres.in\",\"first_name\":\"Lindsay\",\"last_name\":\"Ferguson\",\"avatar\":\"https:\/\/reqres.in\/img\/faces\/8-image.jpg\"}\n                    {\"id\":-8}\n\n                      $[1].id | not equal (NUMBER:NUMBER)\n                      8\n                      -8\n\n                        $[0] | actual does not contain expected | all key-values did not match, expected has un-matched keys - [id] (MAP:MAP)\n                        {\"id\":7,\"email\":\"michael.lawson@reqres.in\",\"first_name\":\"Michael\",\"last_name\":\"Lawson\",\"avatar\":\"https:\/\/reqres.in\/img\/faces\/7-image.jpg\"}\n                        {\"id\":-8}\n\n                          $[0].id | not equal (NUMBER:NUMBER)\n                          7\n                          -8\n\nsrc\/test\/java\/testRunner\/verifiInCsv.feature:15\n"}],"line":6,"description":"","durationMillis":1266.701602,"failed":true,"error":"match failed: CONTAINS_DEEP\n  $ | actual does not contain expected | actual array does not contain expected item - {\"id\":-8} (LIST:LIST)\n  [{\"id\":7,\"email\":\"michael.lawson@reqres.in\",\"first_name\":\"Michael\",\"last_name\":\"Lawson\",\"avatar\":\"https:\/\/reqres.in\/img\/faces\/7-image.jpg\"},{\"id\":8,\"email\":\"lindsay.ferguson@reqres.in\",\"first_name\":\"Lindsay\",\"last_name\":\"Ferguson\",\"avatar\":\"https:\/\/reqres.in\/img\/faces\/8-image.jpg\"},{\"id\":9,\"email\":\"tobias.funke@reqres.in\",\"first_name\":\"Tobias\",\"last_name\":\"Funke\",\"avatar\":\"https:\/\/reqres.in\/img\/faces\/9-image.jpg\"},{\"id\":10,\"email\":\"byron.fields@reqres.in\",\"first_name\":\"Byron\",\"last_name\":\"Fields\",\"avatar\":\"https:\/\/reqres.in\/img\/faces\/10-image.jpg\"},{\"id\":11,\"email\":\"george.edwards@reqres.in\",\"first_name\":\"George\",\"last_name\":\"Edwards\",\"avatar\":\"https:\/\/reqres.in\/img\/faces\/11-image.jpg\"},{\"id\":12,\"email\":\"rachel.howell@reqres.in\",\"first_name\":\"Rachel\",\"last_name\":\"Howell\",\"avatar\":\"https:\/\/reqres.in\/img\/faces\/12-image.jpg\"}]\n  [{\"id\":-8},{\"id\":-9},{\"id\":-10}]\n\n    $[5] | actual does not contain expected | all key-values did not match, expected has un-matched keys - [id] (MAP:MAP)\n    {\"id\":12,\"email\":\"rachel.howell@reqres.in\",\"first_name\":\"Rachel\",\"last_name\":\"Howell\",\"avatar\":\"https:\/\/reqres.in\/img\/faces\/12-image.jpg\"}\n    {\"id\":-8}\n\n      $[5].id | not equal (NUMBER:NUMBER)\n      12\n      -8\n\n        $[4] | actual does not contain expected | all key-values did not match, expected has un-matched keys - [id] (MAP:MAP)\n        {\"id\":11,\"email\":\"george.edwards@reqres.in\",\"first_name\":\"George\",\"last_name\":\"Edwards\",\"avatar\":\"https:\/\/reqres.in\/img\/faces\/11-image.jpg\"}\n        {\"id\":-8}\n\n          $[4].id | not equal (NUMBER:NUMBER)\n          11\n          -8\n\n            $[3] | actual does not contain expected | all key-values did not match, expected has un-matched keys - [id] (MAP:MAP)\n            {\"id\":10,\"email\":\"byron.fields@reqres.in\",\"first_name\":\"Byron\",\"last_name\":\"Fields\",\"avatar\":\"https:\/\/reqres.in\/img\/faces\/10-image.jpg\"}\n            {\"id\":-8}\n\n              $[3].id | not equal (NUMBER:NUMBER)\n              10\n              -8\n\n                $[2] | actual does not contain expected | all key-values did not match, expected has un-matched keys - [id] (MAP:MAP)\n                {\"id\":9,\"email\":\"tobias.funke@reqres.in\",\"first_name\":\"Tobias\",\"last_name\":\"Funke\",\"avatar\":\"https:\/\/reqres.in\/img\/faces\/9-image.jpg\"}\n                {\"id\":-8}\n\n                  $[2].id | not equal (NUMBER:NUMBER)\n                  9\n                  -8\n\n                    $[1] | actual does not contain expected | all key-values did not match, expected has un-matched keys - [id] (MAP:MAP)\n                    {\"id\":8,\"email\":\"lindsay.ferguson@reqres.in\",\"first_name\":\"Lindsay\",\"last_name\":\"Ferguson\",\"avatar\":\"https:\/\/reqres.in\/img\/faces\/8-image.jpg\"}\n                    {\"id\":-8}\n\n                      $[1].id | not equal (NUMBER:NUMBER)\n                      8\n                      -8\n\n                        $[0] | actual does not contain expected | all key-values did not match, expected has un-matched keys - [id] (MAP:MAP)\n                        {\"id\":7,\"email\":\"michael.lawson@reqres.in\",\"first_name\":\"Michael\",\"last_name\":\"Lawson\",\"avatar\":\"https:\/\/reqres.in\/img\/faces\/7-image.jpg\"}\n                        {\"id\":-8}\n\n                          $[0].id | not equal (NUMBER:NUMBER)\n                          7\n                          -8\n\nsrc\/test\/java\/testRunner\/verifiInCsv.feature:15","executorName":"main","name":"GET request with CSV table","startTime":1644779923861,"refId":"[1:6]","endTime":1644779925138,"exampleIndex":-1}],"callDepth":0,"name":"verify if element exist in csv file","description":"","resultDate":"2022-02-13 08:18:45 PM","durationMillis":1266.701602,"passedCount":0}