{"failedCount":1,"prefixedPath":"src\/test\/java\/testRunner\/verifiInCsv.feature","packageQualifiedName":"src.test.java.testRunner.verifiInCsv","loopIndex":-1,"relativePath":"src\/test\/java\/testRunner\/verifiInCsv.feature","scenarioResults":[{"sectionIndex":0,"stepResults":[{"result":{"nanos":182783900,"millis":182.7839,"status":"passed"},"step":{"background":true,"line":4,"prefix":"*","index":0,"text":"def exp = read('data.csv')"}},{"result":{"nanos":2018200,"millis":2.0182,"status":"passed"},"step":{"line":7,"prefix":"Given","index":0,"text":"url 'https:\/\/reqres.in\/api\/users?page=2'"}},{"result":{"nanos":949238400,"millis":949.2384,"status":"passed"},"step":{"line":8,"prefix":"When","index":1,"text":"method GET"},"stepLog":"19:32:59.040 request:\n1 > GET https:\/\/reqres.in\/api\/users?page=2\n1 > Host: reqres.in\n1 > Connection: Keep-Alive\n1 > User-Agent: Apache-HttpClient\/4.5.13 (Java\/17.0.1)\n1 > Accept-Encoding: gzip,deflate\n\n\n19:32:59.690 response time in milliseconds: 644\n1 < 200\n1 < Date: Sun, 13 Feb 2022 18:32:56 GMT\n1 < Content-Type: application\/json; charset=utf-8\n1 < Transfer-Encoding: chunked\n1 < Connection: keep-alive\n1 < X-Powered-By: Express\n1 < Access-Control-Allow-Origin: *\n1 < Etag: W\/\"406-ut0vzoCuidvyMf8arZpMpJ6ZRDw\"\n1 < Via: 1.1 vegur\n1 < Cache-Control: max-age=14400\n1 < CF-Cache-Status: HIT\n1 < Age: 4771\n1 < Expect-CT: max-age=604800, report-uri=\"https:\/\/report-uri.cloudflare.com\/cdn-cgi\/beacon\/expect-ct\"\n1 < Report-To: {\"endpoints\":[{\"url\":\"https:\\\/\\\/a.nel.cloudflare.com\\\/report\\\/v3?s=vFb1EgOuUtBN2lLDtO1PCeq1siyjjHCj6r6Su04Jj7yjCr7u2pGeYzejTZg7gxBLmzTgOLrg%2F8AlIm1t4rI6tRhsW%2Bpbz0rcZE4lorwXmFaNVU%2Fp9GJnHYN88GI%3D\"}],\"group\":\"cf-nel\",\"max_age\":604800}\n1 < NEL: {\"success_fraction\":0,\"report_to\":\"cf-nel\",\"max_age\":604800}\n1 < Vary: Accept-Encoding\n1 < Server: cloudflare\n1 < CF-RAY: 6dd024674a80082c-CDG\n1 < alt-svc: h3=\":443\"; ma=86400, h3-29=\":443\"; ma=86400\n{\"page\":2,\"per_page\":6,\"total\":12,\"total_pages\":2,\"data\":[{\"id\":7,\"email\":\"michael.lawson@reqres.in\",\"first_name\":\"Michael\",\"last_name\":\"Lawson\",\"avatar\":\"https:\/\/reqres.in\/img\/faces\/7-image.jpg\"},{\"id\":8,\"email\":\"lindsay.ferguson@reqres.in\",\"first_name\":\"Lindsay\",\"last_name\":\"Ferguson\",\"avatar\":\"https:\/\/reqres.in\/img\/faces\/8-image.jpg\"},{\"id\":9,\"email\":\"tobias.funke@reqres.in\",\"first_name\":\"Tobias\",\"last_name\":\"Funke\",\"avatar\":\"https:\/\/reqres.in\/img\/faces\/9-image.jpg\"},{\"id\":10,\"email\":\"byron.fields@reqres.in\",\"first_name\":\"Byron\",\"last_name\":\"Fields\",\"avatar\":\"https:\/\/reqres.in\/img\/faces\/10-image.jpg\"},{\"id\":11,\"email\":\"george.edwards@reqres.in\",\"first_name\":\"George\",\"last_name\":\"Edwards\",\"avatar\":\"https:\/\/reqres.in\/img\/faces\/11-image.jpg\"},{\"id\":12,\"email\":\"rachel.howell@reqres.in\",\"first_name\":\"Rachel\",\"last_name\":\"Howell\",\"avatar\":\"https:\/\/reqres.in\/img\/faces\/12-image.jpg\"}],\"support\":{\"url\":\"https:\/\/reqres.in\/#support-heading\",\"text\":\"To keep ReqRes free, contributions towards server costs are appreciated!\"}}\n"},{"result":{"nanos":40700,"millis":0.0407,"status":"passed"},"step":{"line":9,"prefix":"Then","index":2,"text":"status 200"}},{"result":{"nanos":16863600,"millis":16.8636,"status":"passed"},"step":{"line":10,"prefix":"And","index":3,"text":"print exp"},"stepLog":"19:32:59.717 [print] [\n  {\n    \"id\": \"7\"\n  },\n  {\n    \"id\": \"8\"\n  },\n  {\n    \"id\": \"9\"\n  }\n]\n \n"},{"result":{"nanos":10442900,"millis":10.4429,"status":"passed"},"step":{"line":11,"prefix":"And","index":4,"text":"def acc = response"}},{"result":{"nanos":18878400,"errorMessage":"match failed: CONTAINS_DEEP\n  $ | actual does not contain expected | actual array does not contain expected item - {\"id\":\"7\"} (LIST:LIST)\n  [{\"id\":7,\"email\":\"michael.lawson@reqres.in\",\"first_name\":\"Michael\",\"last_name\":\"Lawson\",\"avatar\":\"https:\/\/reqres.in\/img\/faces\/7-image.jpg\"},{\"id\":8,\"email\":\"lindsay.ferguson@reqres.in\",\"first_name\":\"Lindsay\",\"last_name\":\"Ferguson\",\"avatar\":\"https:\/\/reqres.in\/img\/faces\/8-image.jpg\"},{\"id\":9,\"email\":\"tobias.funke@reqres.in\",\"first_name\":\"Tobias\",\"last_name\":\"Funke\",\"avatar\":\"https:\/\/reqres.in\/img\/faces\/9-image.jpg\"},{\"id\":10,\"email\":\"byron.fields@reqres.in\",\"first_name\":\"Byron\",\"last_name\":\"Fields\",\"avatar\":\"https:\/\/reqres.in\/img\/faces\/10-image.jpg\"},{\"id\":11,\"email\":\"george.edwards@reqres.in\",\"first_name\":\"George\",\"last_name\":\"Edwards\",\"avatar\":\"https:\/\/reqres.in\/img\/faces\/11-image.jpg\"},{\"id\":12,\"email\":\"rachel.howell@reqres.in\",\"first_name\":\"Rachel\",\"last_name\":\"Howell\",\"avatar\":\"https:\/\/reqres.in\/img\/faces\/12-image.jpg\"}]\n  [{\"id\":\"7\"},{\"id\":\"8\"},{\"id\":\"9\"}]\n\n    $[5] | actual does not contain expected | all key-values did not match, expected has un-matched keys - [id] (MAP:MAP)\n    {\"id\":12,\"email\":\"rachel.howell@reqres.in\",\"first_name\":\"Rachel\",\"last_name\":\"Howell\",\"avatar\":\"https:\/\/reqres.in\/img\/faces\/12-image.jpg\"}\n    {\"id\":\"7\"}\n\n      $[5].id | data types don't match (NUMBER:STRING)\n      12\n      '7'\n\n        $[4] | actual does not contain expected | all key-values did not match, expected has un-matched keys - [id] (MAP:MAP)\n        {\"id\":11,\"email\":\"george.edwards@reqres.in\",\"first_name\":\"George\",\"last_name\":\"Edwards\",\"avatar\":\"https:\/\/reqres.in\/img\/faces\/11-image.jpg\"}\n        {\"id\":\"7\"}\n\n          $[4].id | data types don't match (NUMBER:STRING)\n          11\n          '7'\n\n            $[3] | actual does not contain expected | all key-values did not match, expected has un-matched keys - [id] (MAP:MAP)\n            {\"id\":10,\"email\":\"byron.fields@reqres.in\",\"first_name\":\"Byron\",\"last_name\":\"Fields\",\"avatar\":\"https:\/\/reqres.in\/img\/faces\/10-image.jpg\"}\n            {\"id\":\"7\"}\n\n              $[3].id | data types don't match (NUMBER:STRING)\n              10\n              '7'\n\n                $[2] | actual does not contain expected | all key-values did not match, expected has un-matched keys - [id] (MAP:MAP)\n                {\"id\":9,\"email\":\"tobias.funke@reqres.in\",\"first_name\":\"Tobias\",\"last_name\":\"Funke\",\"avatar\":\"https:\/\/reqres.in\/img\/faces\/9-image.jpg\"}\n                {\"id\":\"7\"}\n\n                  $[2].id | data types don't match (NUMBER:STRING)\n                  9\n                  '7'\n\n                    $[1] | actual does not contain expected | all key-values did not match, expected has un-matched keys - [id] (MAP:MAP)\n                    {\"id\":8,\"email\":\"lindsay.ferguson@reqres.in\",\"first_name\":\"Lindsay\",\"last_name\":\"Ferguson\",\"avatar\":\"https:\/\/reqres.in\/img\/faces\/8-image.jpg\"}\n                    {\"id\":\"7\"}\n\n                      $[1].id | data types don't match (NUMBER:STRING)\n                      8\n                      '7'\n\n                        $[0] | actual does not contain expected | all key-values did not match, expected has un-matched keys - [id] (MAP:MAP)\n                        {\"id\":7,\"email\":\"michael.lawson@reqres.in\",\"first_name\":\"Michael\",\"last_name\":\"Lawson\",\"avatar\":\"https:\/\/reqres.in\/img\/faces\/7-image.jpg\"}\n                        {\"id\":\"7\"}\n\n                          $[0].id | data types don't match (NUMBER:STRING)\n                          7\n                          '7'\n\nsrc\/test\/java\/testRunner\/verifiInCsv.feature:14","millis":18.8784,"status":"failed"},"step":{"comments":["#And print response.data[*].id","# * match response.data[*].id contains input[*].id"],"line":14,"prefix":"*","index":5,"text":"match acc.data[*] contains deep exp"},"stepLog":"19:32:59.749 src\/test\/java\/testRunner\/verifiInCsv.feature:14\n* match acc.data[*] contains deep exp\nmatch failed: CONTAINS_DEEP\n  $ | actual does not contain expected | actual array does not contain expected item - {\"id\":\"7\"} (LIST:LIST)\n  [{\"id\":7,\"email\":\"michael.lawson@reqres.in\",\"first_name\":\"Michael\",\"last_name\":\"Lawson\",\"avatar\":\"https:\/\/reqres.in\/img\/faces\/7-image.jpg\"},{\"id\":8,\"email\":\"lindsay.ferguson@reqres.in\",\"first_name\":\"Lindsay\",\"last_name\":\"Ferguson\",\"avatar\":\"https:\/\/reqres.in\/img\/faces\/8-image.jpg\"},{\"id\":9,\"email\":\"tobias.funke@reqres.in\",\"first_name\":\"Tobias\",\"last_name\":\"Funke\",\"avatar\":\"https:\/\/reqres.in\/img\/faces\/9-image.jpg\"},{\"id\":10,\"email\":\"byron.fields@reqres.in\",\"first_name\":\"Byron\",\"last_name\":\"Fields\",\"avatar\":\"https:\/\/reqres.in\/img\/faces\/10-image.jpg\"},{\"id\":11,\"email\":\"george.edwards@reqres.in\",\"first_name\":\"George\",\"last_name\":\"Edwards\",\"avatar\":\"https:\/\/reqres.in\/img\/faces\/11-image.jpg\"},{\"id\":12,\"email\":\"rachel.howell@reqres.in\",\"first_name\":\"Rachel\",\"last_name\":\"Howell\",\"avatar\":\"https:\/\/reqres.in\/img\/faces\/12-image.jpg\"}]\n  [{\"id\":\"7\"},{\"id\":\"8\"},{\"id\":\"9\"}]\n\n    $[5] | actual does not contain expected | all key-values did not match, expected has un-matched keys - [id] (MAP:MAP)\n    {\"id\":12,\"email\":\"rachel.howell@reqres.in\",\"first_name\":\"Rachel\",\"last_name\":\"Howell\",\"avatar\":\"https:\/\/reqres.in\/img\/faces\/12-image.jpg\"}\n    {\"id\":\"7\"}\n\n      $[5].id | data types don't match (NUMBER:STRING)\n      12\n      '7'\n\n        $[4] | actual does not contain expected | all key-values did not match, expected has un-matched keys - [id] (MAP:MAP)\n        {\"id\":11,\"email\":\"george.edwards@reqres.in\",\"first_name\":\"George\",\"last_name\":\"Edwards\",\"avatar\":\"https:\/\/reqres.in\/img\/faces\/11-image.jpg\"}\n        {\"id\":\"7\"}\n\n          $[4].id | data types don't match (NUMBER:STRING)\n          11\n          '7'\n\n            $[3] | actual does not contain expected | all key-values did not match, expected has un-matched keys - [id] (MAP:MAP)\n            {\"id\":10,\"email\":\"byron.fields@reqres.in\",\"first_name\":\"Byron\",\"last_name\":\"Fields\",\"avatar\":\"https:\/\/reqres.in\/img\/faces\/10-image.jpg\"}\n            {\"id\":\"7\"}\n\n              $[3].id | data types don't match (NUMBER:STRING)\n              10\n              '7'\n\n                $[2] | actual does not contain expected | all key-values did not match, expected has un-matched keys - [id] (MAP:MAP)\n                {\"id\":9,\"email\":\"tobias.funke@reqres.in\",\"first_name\":\"Tobias\",\"last_name\":\"Funke\",\"avatar\":\"https:\/\/reqres.in\/img\/faces\/9-image.jpg\"}\n                {\"id\":\"7\"}\n\n                  $[2].id | data types don't match (NUMBER:STRING)\n                  9\n                  '7'\n\n                    $[1] | actual does not contain expected | all key-values did not match, expected has un-matched keys - [id] (MAP:MAP)\n                    {\"id\":8,\"email\":\"lindsay.ferguson@reqres.in\",\"first_name\":\"Lindsay\",\"last_name\":\"Ferguson\",\"avatar\":\"https:\/\/reqres.in\/img\/faces\/8-image.jpg\"}\n                    {\"id\":\"7\"}\n\n                      $[1].id | data types don't match (NUMBER:STRING)\n                      8\n                      '7'\n\n                        $[0] | actual does not contain expected | all key-values did not match, expected has un-matched keys - [id] (MAP:MAP)\n                        {\"id\":7,\"email\":\"michael.lawson@reqres.in\",\"first_name\":\"Michael\",\"last_name\":\"Lawson\",\"avatar\":\"https:\/\/reqres.in\/img\/faces\/7-image.jpg\"}\n                        {\"id\":\"7\"}\n\n                          $[0].id | data types don't match (NUMBER:STRING)\n                          7\n                          '7'\n\nsrc\/test\/java\/testRunner\/verifiInCsv.feature:14\n"}],"line":6,"description":"","durationMillis":1180.2661,"failed":true,"error":"match failed: CONTAINS_DEEP\n  $ | actual does not contain expected | actual array does not contain expected item - {\"id\":\"7\"} (LIST:LIST)\n  [{\"id\":7,\"email\":\"michael.lawson@reqres.in\",\"first_name\":\"Michael\",\"last_name\":\"Lawson\",\"avatar\":\"https:\/\/reqres.in\/img\/faces\/7-image.jpg\"},{\"id\":8,\"email\":\"lindsay.ferguson@reqres.in\",\"first_name\":\"Lindsay\",\"last_name\":\"Ferguson\",\"avatar\":\"https:\/\/reqres.in\/img\/faces\/8-image.jpg\"},{\"id\":9,\"email\":\"tobias.funke@reqres.in\",\"first_name\":\"Tobias\",\"last_name\":\"Funke\",\"avatar\":\"https:\/\/reqres.in\/img\/faces\/9-image.jpg\"},{\"id\":10,\"email\":\"byron.fields@reqres.in\",\"first_name\":\"Byron\",\"last_name\":\"Fields\",\"avatar\":\"https:\/\/reqres.in\/img\/faces\/10-image.jpg\"},{\"id\":11,\"email\":\"george.edwards@reqres.in\",\"first_name\":\"George\",\"last_name\":\"Edwards\",\"avatar\":\"https:\/\/reqres.in\/img\/faces\/11-image.jpg\"},{\"id\":12,\"email\":\"rachel.howell@reqres.in\",\"first_name\":\"Rachel\",\"last_name\":\"Howell\",\"avatar\":\"https:\/\/reqres.in\/img\/faces\/12-image.jpg\"}]\n  [{\"id\":\"7\"},{\"id\":\"8\"},{\"id\":\"9\"}]\n\n    $[5] | actual does not contain expected | all key-values did not match, expected has un-matched keys - [id] (MAP:MAP)\n    {\"id\":12,\"email\":\"rachel.howell@reqres.in\",\"first_name\":\"Rachel\",\"last_name\":\"Howell\",\"avatar\":\"https:\/\/reqres.in\/img\/faces\/12-image.jpg\"}\n    {\"id\":\"7\"}\n\n      $[5].id | data types don't match (NUMBER:STRING)\n      12\n      '7'\n\n        $[4] | actual does not contain expected | all key-values did not match, expected has un-matched keys - [id] (MAP:MAP)\n        {\"id\":11,\"email\":\"george.edwards@reqres.in\",\"first_name\":\"George\",\"last_name\":\"Edwards\",\"avatar\":\"https:\/\/reqres.in\/img\/faces\/11-image.jpg\"}\n        {\"id\":\"7\"}\n\n          $[4].id | data types don't match (NUMBER:STRING)\n          11\n          '7'\n\n            $[3] | actual does not contain expected | all key-values did not match, expected has un-matched keys - [id] (MAP:MAP)\n            {\"id\":10,\"email\":\"byron.fields@reqres.in\",\"first_name\":\"Byron\",\"last_name\":\"Fields\",\"avatar\":\"https:\/\/reqres.in\/img\/faces\/10-image.jpg\"}\n            {\"id\":\"7\"}\n\n              $[3].id | data types don't match (NUMBER:STRING)\n              10\n              '7'\n\n                $[2] | actual does not contain expected | all key-values did not match, expected has un-matched keys - [id] (MAP:MAP)\n                {\"id\":9,\"email\":\"tobias.funke@reqres.in\",\"first_name\":\"Tobias\",\"last_name\":\"Funke\",\"avatar\":\"https:\/\/reqres.in\/img\/faces\/9-image.jpg\"}\n                {\"id\":\"7\"}\n\n                  $[2].id | data types don't match (NUMBER:STRING)\n                  9\n                  '7'\n\n                    $[1] | actual does not contain expected | all key-values did not match, expected has un-matched keys - [id] (MAP:MAP)\n                    {\"id\":8,\"email\":\"lindsay.ferguson@reqres.in\",\"first_name\":\"Lindsay\",\"last_name\":\"Ferguson\",\"avatar\":\"https:\/\/reqres.in\/img\/faces\/8-image.jpg\"}\n                    {\"id\":\"7\"}\n\n                      $[1].id | data types don't match (NUMBER:STRING)\n                      8\n                      '7'\n\n                        $[0] | actual does not contain expected | all key-values did not match, expected has un-matched keys - [id] (MAP:MAP)\n                        {\"id\":7,\"email\":\"michael.lawson@reqres.in\",\"first_name\":\"Michael\",\"last_name\":\"Lawson\",\"avatar\":\"https:\/\/reqres.in\/img\/faces\/7-image.jpg\"}\n                        {\"id\":\"7\"}\n\n                          $[0].id | data types don't match (NUMBER:STRING)\n                          7\n                          '7'\n\nsrc\/test\/java\/testRunner\/verifiInCsv.feature:14","executorName":"main","name":"GET request with CSV table","startTime":1644777178549,"refId":"[1:6]","endTime":1644777179749,"exampleIndex":-1}],"callDepth":0,"name":"verify if element exist in csv file","description":"","resultDate":"2022-02-13 07:32:59 PM","durationMillis":1180.2661,"passedCount":0}