{"failedCount":0,"prefixedPath":"src\/test\/java\/TestFeatures\/week3\/matchFromAllData.feature","packageQualifiedName":"src.test.java.TestFeatures.week3.matchFromAllData","loopIndex":-1,"relativePath":"src\/test\/java\/TestFeatures\/week3\/matchFromAllData.feature","scenarioResults":[{"sectionIndex":0,"stepResults":[{"result":{"nanos":40412200,"millis":40.4122,"status":"passed"},"step":{"background":true,"line":4,"prefix":"*","index":0,"text":"def expectedFile = read('classpath:\/TestData\/AllDataCc.csv')"},"stepLog":"17:53:15.071 \n"},{"result":{"nanos":1094500,"millis":1.0945,"status":"passed"},"step":{"line":7,"prefix":"Given","index":0,"text":"url 'https:\/\/reqres.in\/api\/users?page=1'"}},{"result":{"nanos":741652600,"millis":741.6526,"status":"passed"},"step":{"line":8,"prefix":"When","index":1,"text":"method GET"},"stepLog":"17:53:15.348 request:\n1 > GET https:\/\/reqres.in\/api\/users?page=1\n1 > Host: reqres.in\n1 > Connection: Keep-Alive\n1 > User-Agent: Apache-HttpClient\/4.5.13 (Java\/17.0.1)\n1 > Accept-Encoding: gzip,deflate\n\n\n17:53:15.870 response time in milliseconds: 519\n1 < 200\n1 < Date: Sun, 20 Feb 2022 16:53:07 GMT\n1 < Content-Type: application\/json; charset=utf-8\n1 < Transfer-Encoding: chunked\n1 < Connection: keep-alive\n1 < x-powered-by: Express\n1 < access-control-allow-origin: *\n1 < etag: W\/\"3e4-2RLXvr5wTg9YQ6aH95CkYoFNuO8\"\n1 < via: 1.1 vegur\n1 < Cache-Control: max-age=14400\n1 < CF-Cache-Status: HIT\n1 < Age: 3921\n1 < Expect-CT: max-age=604800, report-uri=\"https:\/\/report-uri.cloudflare.com\/cdn-cgi\/beacon\/expect-ct\"\n1 < Report-To: {\"endpoints\":[{\"url\":\"https:\\\/\\\/a.nel.cloudflare.com\\\/report\\\/v3?s=ZHcuBfWSpbcQmvsaXDdevuUOsb9OlIs6lJ9XIOtlI0obWAM96zvN3fGEeJhnvsNcsdOShUXMIQh8ydMRfAr2rEhNi7A5z06ENUYh1ghvDJvvZUwZDR%2BpXQnF8Qk%3D\"}],\"group\":\"cf-nel\",\"max_age\":604800}\n1 < NEL: {\"success_fraction\":0,\"report_to\":\"cf-nel\",\"max_age\":604800}\n1 < Vary: Accept-Encoding\n1 < Server: cloudflare\n1 < CF-RAY: 6e093fd46f112e44-BRU\n1 < alt-svc: h3=\":443\"; ma=86400, h3-29=\":443\"; ma=86400\n{\"page\":1,\"per_page\":6,\"total\":12,\"total_pages\":2,\"data\":[{\"id\":1,\"email\":\"george.bluth@reqres.in\",\"first_name\":\"George\",\"last_name\":\"Bluth\",\"avatar\":\"https:\/\/reqres.in\/img\/faces\/1-image.jpg\"},{\"id\":2,\"email\":\"janet.weaver@reqres.in\",\"first_name\":\"Janet\",\"last_name\":\"Weaver\",\"avatar\":\"https:\/\/reqres.in\/img\/faces\/2-image.jpg\"},{\"id\":3,\"email\":\"emma.wong@reqres.in\",\"first_name\":\"Emma\",\"last_name\":\"Wong\",\"avatar\":\"https:\/\/reqres.in\/img\/faces\/3-image.jpg\"},{\"id\":4,\"email\":\"eve.holt@reqres.in\",\"first_name\":\"Eve\",\"last_name\":\"Holt\",\"avatar\":\"https:\/\/reqres.in\/img\/faces\/4-image.jpg\"},{\"id\":5,\"email\":\"charles.morris@reqres.in\",\"first_name\":\"Charles\",\"last_name\":\"Morris\",\"avatar\":\"https:\/\/reqres.in\/img\/faces\/5-image.jpg\"},{\"id\":6,\"email\":\"tracey.ramos@reqres.in\",\"first_name\":\"Tracey\",\"last_name\":\"Ramos\",\"avatar\":\"https:\/\/reqres.in\/img\/faces\/6-image.jpg\"}],\"support\":{\"url\":\"https:\/\/reqres.in\/#support-heading\",\"text\":\"To keep ReqRes free, contributions towards server costs are appreciated!\"}}\n"},{"result":{"nanos":22600,"millis":0.0226,"status":"passed"},"step":{"line":9,"prefix":"Then","index":2,"text":"status 200"}},{"result":{"nanos":1405100,"millis":1.4051,"status":"passed"},"step":{"line":10,"prefix":"And","index":3,"text":"def acc = response"}},{"result":{"nanos":3046600,"millis":3.0466,"status":"passed"},"step":{"line":11,"prefix":"*","index":4,"text":"def fun = function(x){ x.id = ~~x.id; return x }"}},{"result":{"nanos":9748900,"millis":9.7489,"status":"passed"},"step":{"line":12,"prefix":"*","index":5,"text":"def expected = karate.map(expectedFile, fun)"}},{"result":{"nanos":3140700,"millis":3.1407,"status":"passed"},"step":{"line":13,"prefix":"*","index":6,"text":"print expected.email"},"stepLog":"17:53:15.892 [print] null \n"},{"result":{"nanos":14759700,"millis":14.7597,"status":"passed"},"step":{"line":14,"prefix":"*","index":7,"text":"match  acc.data[*] contains deep expected"}}],"executorName":"main","line":6,"name":"check if response contains csv values emails","description":"","durationMillis":815.2829,"startTime":1645375994955,"failed":false,"refId":"[1:6]","endTime":1645375995908,"exampleIndex":-1}],"callDepth":0,"name":"verify if elements exists in csv file","description":"","resultDate":"2022-02-20 05:53:15 PM","durationMillis":815.2829,"passedCount":1}