{"failedCount":0,"prefixedPath":"src\/test\/java\/testRunner\/elementFromUrl2url.feature","packageQualifiedName":"src.test.java.testRunner.elementFromUrl2url","loopIndex":-1,"relativePath":"src\/test\/java\/testRunner\/elementFromUrl2url.feature","scenarioResults":[{"sectionIndex":0,"stepResults":[{"result":{"nanos":59933300,"millis":59.9333,"status":"passed"},"step":{"background":true,"line":4,"prefix":"*","index":0,"text":"def baseUrl = 'https:\/\/reqres.in\/api'"}},{"result":{"nanos":15801400,"millis":15.8014,"status":"passed"},"step":{"line":8,"prefix":"Given","index":0,"text":"url baseUrl"}},{"result":{"nanos":406900,"millis":0.4069,"status":"passed"},"step":{"line":9,"prefix":"And","index":1,"text":"path '\/users?page=2'"}},{"result":{"nanos":602942300,"millis":602.9423,"status":"passed"},"step":{"line":10,"prefix":"When","index":2,"text":"method GET"},"stepLog":"17:00:12.570 request:\n1 > GET https:\/\/reqres.in\/api\/users%3Fpage=2\n1 > Host: reqres.in\n1 > Connection: Keep-Alive\n1 > User-Agent: Apache-HttpClient\/4.5.13 (Java\/17.0.1)\n1 > Accept-Encoding: gzip,deflate\n\n\n17:00:12.953 response time in milliseconds: 380\n1 < 200\n1 < Date: Sun, 13 Feb 2022 16:00:10 GMT\n1 < Content-Type: application\/json; charset=utf-8\n1 < Transfer-Encoding: chunked\n1 < Connection: keep-alive\n1 < X-Powered-By: Express\n1 < Access-Control-Allow-Origin: *\n1 < Etag: W\/\"2c1-N6Rqerxquq2kgQhL51EiSg4x0R8\"\n1 < Via: 1.1 vegur\n1 < Cache-Control: max-age=14400\n1 < CF-Cache-Status: HIT\n1 < Age: 6878\n1 < Expect-CT: max-age=604800, report-uri=\"https:\/\/report-uri.cloudflare.com\/cdn-cgi\/beacon\/expect-ct\"\n1 < Report-To: {\"endpoints\":[{\"url\":\"https:\\\/\\\/a.nel.cloudflare.com\\\/report\\\/v3?s=Dfc50lBEaon1nnRxGG%2B45tsPBe1Lstj9sEDL2ZceEsKj7DLBYHxxGp0IFdfHsGJkEAVbO0mytRmhvQwaDyktqfa9ndbPHX%2FuWbjAczbgHpJd7UbCTH%2BSwySATNM%3D\"}],\"group\":\"cf-nel\",\"max_age\":604800}\n1 < NEL: {\"success_fraction\":0,\"report_to\":\"cf-nel\",\"max_age\":604800}\n1 < Vary: Accept-Encoding\n1 < Server: cloudflare\n1 < CF-RAY: 6dcf449efc4d41dd-MRS\n1 < alt-svc: h3=\":443\"; ma=86400, h3-29=\":443\"; ma=86400\n{\"page\":1,\"per_page\":6,\"total\":12,\"total_pages\":2,\"data\":[{\"id\":1,\"name\":\"cerulean\",\"year\":2000,\"color\":\"#98B2D1\",\"pantone_value\":\"15-4020\"},{\"id\":2,\"name\":\"fuchsia rose\",\"year\":2001,\"color\":\"#C74375\",\"pantone_value\":\"17-2031\"},{\"id\":3,\"name\":\"true red\",\"year\":2002,\"color\":\"#BF1932\",\"pantone_value\":\"19-1664\"},{\"id\":4,\"name\":\"aqua sky\",\"year\":2003,\"color\":\"#7BC4C4\",\"pantone_value\":\"14-4811\"},{\"id\":5,\"name\":\"tigerlily\",\"year\":2004,\"color\":\"#E2583E\",\"pantone_value\":\"17-1456\"},{\"id\":6,\"name\":\"blue turquoise\",\"year\":2005,\"color\":\"#53B0AE\",\"pantone_value\":\"15-5217\"}],\"support\":{\"url\":\"https:\/\/reqres.in\/#support-heading\",\"text\":\"To keep ReqRes free, contributions towards server costs are appreciated!\"}}\n"},{"result":{"nanos":15100,"millis":0.0151,"status":"passed"},"step":{"line":11,"prefix":"Then","index":3,"text":"status 200"}},{"result":{"nanos":3369900,"millis":3.3699,"status":"passed"},"step":{"line":12,"prefix":"And","index":4,"text":"def uResponse = response"}},{"result":{"nanos":46336000,"millis":46.336,"status":"passed"},"step":{"line":13,"prefix":"And","index":5,"text":"print uResponse"},"stepLog":"17:00:13.027 [print] {\n  \"page\": 1,\n  \"per_page\": 6,\n  \"total\": 12,\n  \"total_pages\": 2,\n  \"data\": [\n    {\n      \"id\": 1,\n      \"name\": \"cerulean\",\n      \"year\": 2000,\n      \"color\": \"#98B2D1\",\n      \"pantone_value\": \"15-4020\"\n    },\n    {\n      \"id\": 2,\n      \"name\": \"fuchsia rose\",\n      \"year\": 2001,\n      \"color\": \"#C74375\",\n      \"pantone_value\": \"17-2031\"\n    },\n    {\n      \"id\": 3,\n      \"name\": \"true red\",\n      \"year\": 2002,\n      \"color\": \"#BF1932\",\n      \"pantone_value\": \"19-1664\"\n    },\n    {\n      \"id\": 4,\n      \"name\": \"aqua sky\",\n      \"year\": 2003,\n      \"color\": \"#7BC4C4\",\n      \"pantone_value\": \"14-4811\"\n    },\n    {\n      \"id\": 5,\n      \"name\": \"tigerlily\",\n      \"year\": 2004,\n      \"color\": \"#E2583E\",\n      \"pantone_value\": \"17-1456\"\n    },\n    {\n      \"id\": 6,\n      \"name\": \"blue turquoise\",\n      \"year\": 2005,\n      \"color\": \"#53B0AE\",\n      \"pantone_value\": \"15-5217\"\n    }\n  ],\n  \"support\": {\n    \"url\": \"https:\/\/reqres.in\/#support-heading\",\n    \"text\": \"To keep ReqRes free, contributions towards server costs are appreciated!\"\n  }\n}\n \n"},{"result":{"nanos":17855800,"millis":17.8558,"status":"passed"},"step":{"line":14,"prefix":"Then","index":6,"text":"match uResponse.data[*].name contains  ['cerulean']"}},{"result":{"nanos":2312300,"millis":2.3123,"status":"passed"},"step":{"line":15,"prefix":"Then","index":7,"text":"def rec = uResponse.data.name = 'cerulean'"}}],"line":7,"description":"","durationMillis":748.973,"failed":false,"tags":["tag1"],"executorName":"main","name":"get if cerulean exist","startTime":1644768012291,"refId":"[1:7]","endTime":1644768013048,"exampleIndex":-1},{"sectionIndex":1,"stepResults":[{"result":{"nanos":390500,"millis":0.3905,"status":"passed"},"step":{"background":true,"line":4,"prefix":"*","index":0,"text":"def baseUrl = 'https:\/\/reqres.in\/api'"}},{"result":{"nanos":126600,"millis":0.1266,"status":"passed"},"step":{"line":20,"prefix":"Given","index":0,"text":"url baseUrl"}},{"result":{"nanos":219800,"millis":0.2198,"status":"passed"},"step":{"line":21,"prefix":"And","index":1,"text":"path '\/users?page=2'"}},{"result":{"nanos":139258900,"millis":139.2589,"status":"passed"},"step":{"line":22,"prefix":"When","index":2,"text":"method GET"},"stepLog":"17:00:13.054 request:\n1 > GET https:\/\/reqres.in\/api\/users%3Fpage=2\n1 > Host: reqres.in\n1 > Connection: Keep-Alive\n1 > User-Agent: Apache-HttpClient\/4.5.13 (Java\/17.0.1)\n1 > Accept-Encoding: gzip,deflate\n\n\n17:00:13.191 response time in milliseconds: 137\n1 < 200\n1 < Date: Sun, 13 Feb 2022 16:00:10 GMT\n1 < Content-Type: application\/json; charset=utf-8\n1 < Transfer-Encoding: chunked\n1 < Connection: keep-alive\n1 < X-Powered-By: Express\n1 < Access-Control-Allow-Origin: *\n1 < Etag: W\/\"2c1-N6Rqerxquq2kgQhL51EiSg4x0R8\"\n1 < Via: 1.1 vegur\n1 < Cache-Control: max-age=14400\n1 < CF-Cache-Status: HIT\n1 < Age: 6878\n1 < Expect-CT: max-age=604800, report-uri=\"https:\/\/report-uri.cloudflare.com\/cdn-cgi\/beacon\/expect-ct\"\n1 < Report-To: {\"endpoints\":[{\"url\":\"https:\\\/\\\/a.nel.cloudflare.com\\\/report\\\/v3?s=X31JuO%2FfZeFyPaOp4nIWA9so4jrsyxz2ZnsH2p1M%2BpSHf4EPAMQ09wcvYelu7asXUrXg%2FIFZMp2Gk%2ButDXQLDLi90F3pncjpzFgZwDTw34zuBL88v23lvK1f9JY%3D\"}],\"group\":\"cf-nel\",\"max_age\":604800}\n1 < NEL: {\"success_fraction\":0,\"report_to\":\"cf-nel\",\"max_age\":604800}\n1 < Vary: Accept-Encoding\n1 < Server: cloudflare\n1 < CF-RAY: 6dcf44a08f1841ca-MRS\n1 < alt-svc: h3=\":443\"; ma=86400, h3-29=\":443\"; ma=86400\n{\"page\":1,\"per_page\":6,\"total\":12,\"total_pages\":2,\"data\":[{\"id\":1,\"name\":\"cerulean\",\"year\":2000,\"color\":\"#98B2D1\",\"pantone_value\":\"15-4020\"},{\"id\":2,\"name\":\"fuchsia rose\",\"year\":2001,\"color\":\"#C74375\",\"pantone_value\":\"17-2031\"},{\"id\":3,\"name\":\"true red\",\"year\":2002,\"color\":\"#BF1932\",\"pantone_value\":\"19-1664\"},{\"id\":4,\"name\":\"aqua sky\",\"year\":2003,\"color\":\"#7BC4C4\",\"pantone_value\":\"14-4811\"},{\"id\":5,\"name\":\"tigerlily\",\"year\":2004,\"color\":\"#E2583E\",\"pantone_value\":\"17-1456\"},{\"id\":6,\"name\":\"blue turquoise\",\"year\":2005,\"color\":\"#53B0AE\",\"pantone_value\":\"15-5217\"}],\"support\":{\"url\":\"https:\/\/reqres.in\/#support-heading\",\"text\":\"To keep ReqRes free, contributions towards server costs are appreciated!\"}}\n"},{"result":{"nanos":8400,"millis":0.0084,"status":"passed"},"step":{"line":23,"prefix":"Then","index":3,"text":"status 200"}},{"result":{"nanos":149700,"millis":0.1497,"status":"passed"},"step":{"line":24,"prefix":"And","index":4,"text":"def uResponse = response"}},{"result":{"nanos":534200,"millis":0.5342,"status":"passed"},"step":{"line":25,"prefix":"And","index":5,"text":"print uResponse"},"stepLog":"17:00:13.193 [print] {\n  \"page\": 1,\n  \"per_page\": 6,\n  \"total\": 12,\n  \"total_pages\": 2,\n  \"data\": [\n    {\n      \"id\": 1,\n      \"name\": \"cerulean\",\n      \"year\": 2000,\n      \"color\": \"#98B2D1\",\n      \"pantone_value\": \"15-4020\"\n    },\n    {\n      \"id\": 2,\n      \"name\": \"fuchsia rose\",\n      \"year\": 2001,\n      \"color\": \"#C74375\",\n      \"pantone_value\": \"17-2031\"\n    },\n    {\n      \"id\": 3,\n      \"name\": \"true red\",\n      \"year\": 2002,\n      \"color\": \"#BF1932\",\n      \"pantone_value\": \"19-1664\"\n    },\n    {\n      \"id\": 4,\n      \"name\": \"aqua sky\",\n      \"year\": 2003,\n      \"color\": \"#7BC4C4\",\n      \"pantone_value\": \"14-4811\"\n    },\n    {\n      \"id\": 5,\n      \"name\": \"tigerlily\",\n      \"year\": 2004,\n      \"color\": \"#E2583E\",\n      \"pantone_value\": \"17-1456\"\n    },\n    {\n      \"id\": 6,\n      \"name\": \"blue turquoise\",\n      \"year\": 2005,\n      \"color\": \"#53B0AE\",\n      \"pantone_value\": \"15-5217\"\n    }\n  ],\n  \"support\": {\n    \"url\": \"https:\/\/reqres.in\/#support-heading\",\n    \"text\": \"To keep ReqRes free, contributions towards server costs are appreciated!\"\n  }\n}\n \n"},{"result":{"nanos":424600,"millis":0.4246,"status":"passed"},"step":{"line":26,"prefix":"Then","index":6,"text":"match uResponse.data[*].id contains  [2]"}},{"result":{"nanos":2007500,"millis":2.0075,"status":"passed"},"step":{"line":27,"prefix":"Then","index":7,"text":"def idNumber = uResponse.data.id = 2"}},{"result":{"nanos":831000,"millis":0.831,"status":"passed"},"step":{"line":28,"prefix":"And","index":8,"text":"print idNumber"},"stepLog":"17:00:13.196 [print] 2 \n"},{"result":{"nanos":253800,"millis":0.2538,"status":"passed"},"step":{"line":30,"prefix":"Given","index":9,"text":"url 'https:\/\/reqres.in\/api\/users\/'"}},{"result":{"nanos":211500,"millis":0.2115,"status":"passed"},"step":{"line":31,"prefix":"And","index":10,"text":"path idNumber"}},{"result":{"nanos":314910300,"millis":314.9103,"status":"passed"},"step":{"line":32,"prefix":"When","index":11,"text":"method GET"},"stepLog":"17:00:13.198 request:\n2 > GET https:\/\/reqres.in\/api\/users\/2\n2 > Host: reqres.in\n2 > Connection: Keep-Alive\n2 > User-Agent: Apache-HttpClient\/4.5.13 (Java\/17.0.1)\n2 > Accept-Encoding: gzip,deflate\n\n\n17:00:13.512 response time in milliseconds: 314\n2 < 200\n2 < Date: Sun, 13 Feb 2022 16:00:10 GMT\n2 < Content-Type: application\/json; charset=utf-8\n2 < Transfer-Encoding: chunked\n2 < Connection: keep-alive\n2 < X-Powered-By: Express\n2 < Access-Control-Allow-Origin: *\n2 < Etag: W\/\"118-pbdwwFo9SKNhD3Lx5iHJyngpq00\"\n2 < Via: 1.1 vegur\n2 < Cache-Control: max-age=14400\n2 < CF-Cache-Status: REVALIDATED\n2 < Expect-CT: max-age=604800, report-uri=\"https:\/\/report-uri.cloudflare.com\/cdn-cgi\/beacon\/expect-ct\"\n2 < Report-To: {\"endpoints\":[{\"url\":\"https:\\\/\\\/a.nel.cloudflare.com\\\/report\\\/v3?s=4XFkxsrO1liygleZTPsBb3Ozb3QwLc3kzDDHI7o%2FTgKZtPYs96KepZd2OBd9nJQBUe99%2BM5Y96wE%2BkZWAM0g0BEa0o5RODtuJod94bnl9UJjATXz0TilQlgQE1M%3D\"}],\"group\":\"cf-nel\",\"max_age\":604800}\n2 < NEL: {\"success_fraction\":0,\"report_to\":\"cf-nel\",\"max_age\":604800}\n2 < Vary: Accept-Encoding\n2 < Server: cloudflare\n2 < CF-RAY: 6dcf44a1b8cc4202-MRS\n2 < alt-svc: h3=\":443\"; ma=86400, h3-29=\":443\"; ma=86400\n{\"data\":{\"id\":2,\"email\":\"janet.weaver@reqres.in\",\"first_name\":\"Janet\",\"last_name\":\"Weaver\",\"avatar\":\"https:\/\/reqres.in\/img\/faces\/2-image.jpg\"},\"support\":{\"url\":\"https:\/\/reqres.in\/#support-heading\",\"text\":\"To keep ReqRes free, contributions towards server costs are appreciated!\"}}\n"},{"result":{"nanos":975300,"millis":0.9753,"status":"passed"},"step":{"line":33,"prefix":"Then","index":12,"text":"print response"},"stepLog":"17:00:13.513 [print] {\n  \"data\": {\n    \"id\": 2,\n    \"email\": \"janet.weaver@reqres.in\",\n    \"first_name\": \"Janet\",\n    \"last_name\": \"Weaver\",\n    \"avatar\": \"https:\/\/reqres.in\/img\/faces\/2-image.jpg\"\n  },\n  \"support\": {\n    \"url\": \"https:\/\/reqres.in\/#support-heading\",\n    \"text\": \"To keep ReqRes free, contributions towards server costs are appreciated!\"\n  }\n}\n \n"},{"result":{"nanos":649400,"millis":0.6494,"status":"passed"},"step":{"line":34,"prefix":"And","index":13,"text":"match $.data.last_name == 'Weaver'"}}],"line":19,"description":"","durationMillis":460.9515,"failed":false,"tags":["tag2"],"executorName":"main","name":"get if id 2 exist and verify the name  in the second url","startTime":1644768013052,"refId":"[2:19]","endTime":1644768013514,"exampleIndex":-1}],"callDepth":0,"name":"test request is response","description":"","resultDate":"2022-02-13 05:00:13 PM","durationMillis":1209.9245,"passedCount":2}