{"failedCount":1,"prefixedPath":"src\/test\/java\/testapi.feature","packageQualifiedName":"src.test.java.testapi","loopIndex":-1,"relativePath":"src\/test\/java\/testapi.feature","scenarioResults":[{"sectionIndex":0,"stepResults":[{"result":{"nanos":61000600,"millis":61.0006,"status":"passed"},"step":{"background":true,"line":4,"prefix":"*","index":0,"text":"url 'https:\/\/reqres.in\/api'"}},{"result":{"nanos":82213800,"millis":82.2138,"status":"passed"},"step":{"background":true,"line":5,"prefix":"*","index":1,"text":"def output = read('response1.json')"}},{"result":{"nanos":1101300,"millis":1.1013,"status":"passed"},"step":{"background":true,"line":6,"prefix":"*","index":2,"text":"def request1 = read('request1.json')"}},{"result":{"nanos":271100,"millis":0.2711,"status":"passed"},"step":{"line":9,"prefix":"Given","index":0,"text":"path '\/users?page=2'"}},{"result":{"nanos":741127900,"millis":741.1279,"status":"passed"},"step":{"line":10,"prefix":"When","index":1,"text":"method GET"},"stepLog":"19:01:01.793 request:\n1 > GET https:\/\/reqres.in\/api\/users%3Fpage=2\n1 > Host: reqres.in\n1 > Connection: Keep-Alive\n1 > User-Agent: Apache-HttpClient\/4.5.13 (Java\/17.0.1)\n1 > Accept-Encoding: gzip,deflate\n\n\n19:01:02.339 response time in milliseconds: 544\n1 < 200\n1 < Date: Sat, 05 Feb 2022 18:00:57 GMT\n1 < Content-Type: application\/json; charset=utf-8\n1 < Transfer-Encoding: chunked\n1 < Connection: keep-alive\n1 < x-powered-by: Express\n1 < access-control-allow-origin: *\n1 < etag: W\/\"2c1-N6Rqerxquq2kgQhL51EiSg4x0R8\"\n1 < via: 1.1 vegur\n1 < Cache-Control: max-age=14400\n1 < CF-Cache-Status: MISS\n1 < Expect-CT: max-age=604800, report-uri=\"https:\/\/report-uri.cloudflare.com\/cdn-cgi\/beacon\/expect-ct\"\n1 < Report-To: {\"endpoints\":[{\"url\":\"https:\\\/\\\/a.nel.cloudflare.com\\\/report\\\/v3?s=Eb8wxaMTxfZMArC0%2BM9%2F7T5vhFFECOX7eYpZrUgUCiHE3YvYg7M9OYYMa2QZlT2YkosZaSQWUrS3Wccz8X9bAn%2BsGJWJqwThVeqbOLXYl7a8ytn2SYcvCuasTfk%3D\"}],\"group\":\"cf-nel\",\"max_age\":604800}\n1 < NEL: {\"success_fraction\":0,\"report_to\":\"cf-nel\",\"max_age\":604800}\n1 < Vary: Accept-Encoding\n1 < Server: cloudflare\n1 < CF-RAY: 6d8e0a8cda2ef417-LHR\n1 < alt-svc: h3=\":443\"; ma=86400, h3-29=\":443\"; ma=86400\n{\"page\":1,\"per_page\":6,\"total\":12,\"total_pages\":2,\"data\":[{\"id\":1,\"name\":\"cerulean\",\"year\":2000,\"color\":\"#98B2D1\",\"pantone_value\":\"15-4020\"},{\"id\":2,\"name\":\"fuchsia rose\",\"year\":2001,\"color\":\"#C74375\",\"pantone_value\":\"17-2031\"},{\"id\":3,\"name\":\"true red\",\"year\":2002,\"color\":\"#BF1932\",\"pantone_value\":\"19-1664\"},{\"id\":4,\"name\":\"aqua sky\",\"year\":2003,\"color\":\"#7BC4C4\",\"pantone_value\":\"14-4811\"},{\"id\":5,\"name\":\"tigerlily\",\"year\":2004,\"color\":\"#E2583E\",\"pantone_value\":\"17-1456\"},{\"id\":6,\"name\":\"blue turquoise\",\"year\":2005,\"color\":\"#53B0AE\",\"pantone_value\":\"15-5217\"}],\"support\":{\"url\":\"https:\/\/reqres.in\/#support-heading\",\"text\":\"To keep ReqRes free, contributions towards server costs are appreciated!\"}}\n"},{"result":{"nanos":15800,"millis":0.0158,"status":"passed"},"step":{"line":11,"prefix":"Then","index":2,"text":"status 200"}},{"result":{"nanos":6256500,"millis":6.2565,"status":"passed"},"step":{"line":12,"prefix":"And","index":3,"text":"assert response.data.length == 6"}},{"result":{"nanos":13327600,"errorMessage":"match failed: EQUALS\n  $ | not equal (NUMBER:NUMBER)\n  1\n  7\n\nsrc\/test\/java\/testapi.feature:13","millis":13.3276,"status":"failed"},"step":{"line":13,"prefix":"And","index":4,"text":"match $.data[0].id == 7"},"stepLog":"19:01:02.362 src\/test\/java\/testapi.feature:13\nAnd match $.data[0].id == 7\nmatch failed: EQUALS\n  $ | not equal (NUMBER:NUMBER)\n  1\n  7\n\nsrc\/test\/java\/testapi.feature:13\n"},{"result":{"nanos":0,"millis":0.0,"status":"skipped"},"step":{"line":14,"prefix":"And","index":5,"text":"match $.data[0].email == 'michael.lawson@reqres.in'"}}],"line":8,"description":"","durationMillis":905.3146,"failed":true,"error":"match failed: EQUALS\n  $ | not equal (NUMBER:NUMBER)\n  1\n  7\n\nsrc\/test\/java\/testapi.feature:13","executorName":"main","name":"test API get 1","startTime":1644084061449,"refId":"[1:8]","endTime":1644084062362,"exampleIndex":-1},{"sectionIndex":1,"stepResults":[{"result":{"nanos":343500,"millis":0.3435,"status":"passed"},"step":{"background":true,"line":4,"prefix":"*","index":0,"text":"url 'https:\/\/reqres.in\/api'"}},{"result":{"nanos":921700,"millis":0.9217,"status":"passed"},"step":{"background":true,"line":5,"prefix":"*","index":1,"text":"def output = read('response1.json')"}},{"result":{"nanos":530900,"millis":0.5309,"status":"passed"},"step":{"background":true,"line":6,"prefix":"*","index":2,"text":"def request1 = read('request1.json')"}},{"result":{"nanos":248400,"millis":0.2484,"status":"passed"},"step":{"comments":["#Given path '\/users'"],"line":18,"prefix":"Given","index":0,"text":"path '\/users'"}},{"result":{"nanos":187100,"millis":0.1871,"status":"passed"},"step":{"line":19,"prefix":"And","index":1,"text":"request {\"name\": \"Mouad\" , \"job\": \"tester\" , \"age\": 25}"}},{"result":{"nanos":373434700,"millis":373.4347,"status":"passed"},"step":{"line":20,"prefix":"When","index":2,"text":"method POST"},"stepLog":"19:01:02.398 request:\n1 > POST https:\/\/reqres.in\/api\/users\n1 > Content-Type: application\/json; charset=UTF-8\n1 > Content-Length: 40\n1 > Host: reqres.in\n1 > Connection: Keep-Alive\n1 > User-Agent: Apache-HttpClient\/4.5.13 (Java\/17.0.1)\n1 > Accept-Encoding: gzip,deflate\n{\"name\":\"Mouad\",\"job\":\"tester\",\"age\":25}\n\n19:01:02.742 response time in milliseconds: 343\n1 < 201\n1 < Date: Sat, 05 Feb 2022 18:00:57 GMT\n1 < Content-Type: application\/json; charset=utf-8\n1 < Content-Length: 90\n1 < Connection: keep-alive\n1 < x-powered-by: Express\n1 < access-control-allow-origin: *\n1 < etag: W\/\"5a-PJh9MUVXtNisMk0tqYyqLrBeo6Q\"\n1 < via: 1.1 vegur\n1 < CF-Cache-Status: DYNAMIC\n1 < Expect-CT: max-age=604800, report-uri=\"https:\/\/report-uri.cloudflare.com\/cdn-cgi\/beacon\/expect-ct\"\n1 < Report-To: {\"endpoints\":[{\"url\":\"https:\\\/\\\/a.nel.cloudflare.com\\\/report\\\/v3?s=TvR48byDyFbmm7t34rzl6PjQCCR988gu7Gx2S9YbfhdCMTunW%2FywcnLUqsQFmm%2FGwXSpJ2qGSluJJm2D5HglhGbhb3e8L7kA10eGuvVx3VPqnjG2AqZfZT1YSBA%3D\"}],\"group\":\"cf-nel\",\"max_age\":604800}\n1 < NEL: {\"success_fraction\":0,\"report_to\":\"cf-nel\",\"max_age\":604800}\n1 < Server: cloudflare\n1 < CF-RAY: 6d8e0a8f492c73b7-MRS\n1 < alt-svc: h3=\":443\"; ma=86400, h3-29=\":443\"; ma=86400\n{\"name\":\"Mouad\",\"job\":\"tester\",\"age\":25,\"id\":\"323\",\"createdAt\":\"2022-02-05T18:00:57.558Z\"}\n"},{"result":{"nanos":6300,"millis":0.0063,"status":"passed"},"step":{"line":21,"prefix":"Then","index":3,"text":"status 201"}},{"result":{"nanos":485500,"millis":0.4855,"status":"passed"},"step":{"line":22,"prefix":"And","index":4,"text":"match response == {\"name\":\"Mouad\",\"job\":\"tester\",\"age\":25,\"id\":\"#string\",\"createdAt\":\"#ignore\"}"}},{"result":{"nanos":7318300,"millis":7.3183,"status":"passed"},"step":{"line":23,"prefix":"And","index":5,"text":"print response"},"stepLog":"19:01:02.751 [print] {\n  \"name\": \"Mouad\",\n  \"job\": \"tester\",\n  \"age\": 25,\n  \"id\": \"323\",\n  \"createdAt\": \"2022-02-05T18:00:57.558Z\"\n}\n \n"}],"executorName":"main","line":16,"name":"test API post 2","description":"","durationMillis":383.4764,"startTime":1644084062366,"failed":false,"refId":"[2:16]","endTime":1644084062751,"exampleIndex":-1},{"sectionIndex":2,"stepResults":[{"result":{"nanos":150800,"millis":0.1508,"status":"passed"},"step":{"background":true,"line":4,"prefix":"*","index":0,"text":"url 'https:\/\/reqres.in\/api'"}},{"result":{"nanos":454300,"millis":0.4543,"status":"passed"},"step":{"background":true,"line":5,"prefix":"*","index":1,"text":"def output = read('response1.json')"}},{"result":{"nanos":313600,"millis":0.3136,"status":"passed"},"step":{"background":true,"line":6,"prefix":"*","index":2,"text":"def request1 = read('request1.json')"}},{"result":{"nanos":68500,"millis":0.0685,"status":"passed"},"step":{"comments":["#Given path '\/users'"],"line":27,"prefix":"Given","index":0,"text":"path '\/users'"}},{"result":{"nanos":102800,"millis":0.1028,"status":"passed"},"step":{"line":28,"prefix":"And","index":1,"text":"request {\"name\": \"Mouad\" , \"job\": \"tester\" }"}},{"result":{"nanos":266433000,"millis":266.433,"status":"passed"},"step":{"line":29,"prefix":"When","index":2,"text":"method POST"},"stepLog":"19:01:02.756 request:\n1 > POST https:\/\/reqres.in\/api\/users\n1 > Content-Type: application\/json; charset=UTF-8\n1 > Content-Length: 31\n1 > Host: reqres.in\n1 > Connection: Keep-Alive\n1 > User-Agent: Apache-HttpClient\/4.5.13 (Java\/17.0.1)\n1 > Accept-Encoding: gzip,deflate\n{\"name\":\"Mouad\",\"job\":\"tester\"}\n\n19:01:03.020 response time in milliseconds: 264\n1 < 201\n1 < Date: Sat, 05 Feb 2022 18:00:57 GMT\n1 < Content-Type: application\/json; charset=utf-8\n1 < Content-Length: 81\n1 < Connection: keep-alive\n1 < x-powered-by: Express\n1 < access-control-allow-origin: *\n1 < etag: W\/\"51-YLCTqY28Qs9sOntPhdyRtJ9jeek\"\n1 < via: 1.1 vegur\n1 < CF-Cache-Status: DYNAMIC\n1 < Expect-CT: max-age=604800, report-uri=\"https:\/\/report-uri.cloudflare.com\/cdn-cgi\/beacon\/expect-ct\"\n1 < Report-To: {\"endpoints\":[{\"url\":\"https:\\\/\\\/a.nel.cloudflare.com\\\/report\\\/v3?s=g8c3Hi8oOa5EXF6%2FVSgTn9ZH96xXVAihRtb0SHQpsBIzFMbwZPCuXXsn7u0dExCPos46EjhbN2mK8n8IkbqedHiKVgTV6x%2BcHe9X%2F6Qsh58jzAdWpIESxdEgTP4%3D\"}],\"group\":\"cf-nel\",\"max_age\":604800}\n1 < NEL: {\"success_fraction\":0,\"report_to\":\"cf-nel\",\"max_age\":604800}\n1 < Server: cloudflare\n1 < CF-RAY: 6d8e0a913aaf73cb-MRS\n1 < alt-svc: h3=\":443\"; ma=86400, h3-29=\":443\"; ma=86400\n{\"name\":\"Mouad\",\"job\":\"tester\",\"id\":\"403\",\"createdAt\":\"2022-02-05T18:00:57.846Z\"}\n"},{"result":{"nanos":18200,"millis":0.0182,"status":"passed"},"step":{"line":30,"prefix":"Then","index":3,"text":"status 201"}},{"result":{"nanos":708400,"millis":0.7084,"status":"passed"},"step":{"line":31,"prefix":"And","index":4,"text":"match response == output"}},{"result":{"nanos":499200,"millis":0.4992,"status":"passed"},"step":{"line":32,"prefix":"And","index":5,"text":"print response"},"stepLog":"19:01:03.023 [print] {\n  \"name\": \"Mouad\",\n  \"job\": \"tester\",\n  \"id\": \"403\",\n  \"createdAt\": \"2022-02-05T18:00:57.846Z\"\n}\n \n"}],"executorName":"main","line":25,"name":"test API post 3","description":"","durationMillis":268.7488,"startTime":1644084062754,"failed":false,"refId":"[3:25]","endTime":1644084063023,"exampleIndex":-1},{"sectionIndex":3,"stepResults":[{"result":{"nanos":109900,"millis":0.1099,"status":"passed"},"step":{"background":true,"line":4,"prefix":"*","index":0,"text":"url 'https:\/\/reqres.in\/api'"}},{"result":{"nanos":426700,"millis":0.4267,"status":"passed"},"step":{"background":true,"line":5,"prefix":"*","index":1,"text":"def output = read('response1.json')"}},{"result":{"nanos":305800,"millis":0.3058,"status":"passed"},"step":{"background":true,"line":6,"prefix":"*","index":2,"text":"def request1 = read('request1.json')"}},{"result":{"nanos":60400,"millis":0.0604,"status":"passed"},"step":{"comments":["#Given path '\/users'"],"line":36,"prefix":"Given","index":0,"text":"path '\/users'"}},{"result":{"nanos":397100,"millis":0.3971,"status":"passed"},"step":{"line":37,"prefix":"And","index":1,"text":"request request1"}},{"result":{"nanos":335451000,"millis":335.451,"status":"passed"},"step":{"line":38,"prefix":"When","index":2,"text":"method POST"},"stepLog":"19:01:03.028 request:\n1 > POST https:\/\/reqres.in\/api\/users\n1 > Content-Type: application\/json; charset=UTF-8\n1 > Content-Length: 31\n1 > Host: reqres.in\n1 > Connection: Keep-Alive\n1 > User-Agent: Apache-HttpClient\/4.5.13 (Java\/17.0.1)\n1 > Accept-Encoding: gzip,deflate\n{\"name\":\"Mouad\",\"job\":\"tester\"}\n\n19:01:03.362 response time in milliseconds: 334\n1 < 201\n1 < Date: Sat, 05 Feb 2022 18:00:58 GMT\n1 < Content-Type: application\/json; charset=utf-8\n1 < Content-Length: 81\n1 < Connection: keep-alive\n1 < x-powered-by: Express\n1 < access-control-allow-origin: *\n1 < etag: W\/\"51-H1lPwxEvsx5PB3m6HzhSS3q4\/Cw\"\n1 < via: 1.1 vegur\n1 < CF-Cache-Status: DYNAMIC\n1 < Expect-CT: max-age=604800, report-uri=\"https:\/\/report-uri.cloudflare.com\/cdn-cgi\/beacon\/expect-ct\"\n1 < Report-To: {\"endpoints\":[{\"url\":\"https:\\\/\\\/a.nel.cloudflare.com\\\/report\\\/v3?s=IJmOdXX4EeqW%2BgitgSjdpujk2jQfO2WhfyRHkSKtFGXP1QE3u0SwOj89JIOVaDZ2DMCUnQtBr0k08YxM8zb5RbNklHidBNdz8MDDMq6BEs4dO857ohuT0ysXcaU%3D\"}],\"group\":\"cf-nel\",\"max_age\":604800}\n1 < NEL: {\"success_fraction\":0,\"report_to\":\"cf-nel\",\"max_age\":604800}\n1 < Server: cloudflare\n1 < CF-RAY: 6d8e0a937a89f403-LHR\n1 < alt-svc: h3=\":443\"; ma=86400, h3-29=\":443\"; ma=86400\n{\"name\":\"Mouad\",\"job\":\"tester\",\"id\":\"795\",\"createdAt\":\"2022-02-05T18:00:58.193Z\"}\n"},{"result":{"nanos":7400,"millis":0.0074,"status":"passed"},"step":{"line":39,"prefix":"Then","index":3,"text":"status 201"}},{"result":{"nanos":269400,"millis":0.2694,"status":"passed"},"step":{"line":40,"prefix":"And","index":4,"text":"match response == output"}},{"result":{"nanos":377100,"millis":0.3771,"status":"passed"},"step":{"line":41,"prefix":"And","index":5,"text":"print response"},"stepLog":"19:01:03.364 [print] {\n  \"name\": \"Mouad\",\n  \"job\": \"tester\",\n  \"id\": \"795\",\n  \"createdAt\": \"2022-02-05T18:00:58.193Z\"\n}\n \n"}],"executorName":"main","line":34,"name":"test API post 3","description":"","durationMillis":337.4048,"startTime":1644084063025,"failed":false,"refId":"[4:34]","endTime":1644084063364,"exampleIndex":-1}],"callDepth":0,"name":"test sample API","description":"","resultDate":"2022-02-05 07:01:03 PM","durationMillis":1894.9446,"passedCount":3}