{"failedCount":1,"prefixedPath":"src\/test\/java\/TestFeatures\/week3\/callGetPerson.feature","packageQualifiedName":"src.test.java.TestFeatures.week3.callGetPerson","loopIndex":-1,"relativePath":"src\/test\/java\/TestFeatures\/week3\/callGetPerson.feature","scenarioResults":[{"sectionIndex":0,"stepResults":[{"result":{"nanos":948800,"millis":0.9488,"status":"passed"},"step":{"line":9,"prefix":"Given","index":0,"text":"url 'https:\/\/reqres.in\/api\/users?page=1'"},"stepLog":"15:07:43.396 \n"},{"result":{"nanos":652660300,"millis":652.6603,"status":"passed"},"step":{"line":10,"prefix":"When","index":1,"text":"method GET"},"stepLog":"15:07:43.622 request:\n1 > GET https:\/\/reqres.in\/api\/users?page=1\n1 > Host: reqres.in\n1 > Connection: Keep-Alive\n1 > User-Agent: Apache-HttpClient\/4.5.13 (Java\/17.0.1)\n1 > Accept-Encoding: gzip,deflate\n\n\n15:07:44.052 response time in milliseconds: 428\n1 < 200\n1 < Date: Sun, 20 Feb 2022 14:07:36 GMT\n1 < Content-Type: application\/json; charset=utf-8\n1 < Transfer-Encoding: chunked\n1 < Connection: keep-alive\n1 < X-Powered-By: Express\n1 < Access-Control-Allow-Origin: *\n1 < Etag: W\/\"3e4-2RLXvr5wTg9YQ6aH95CkYoFNuO8\"\n1 < Via: 1.1 vegur\n1 < Cache-Control: max-age=14400\n1 < CF-Cache-Status: HIT\n1 < Age: 2101\n1 < Expect-CT: max-age=604800, report-uri=\"https:\/\/report-uri.cloudflare.com\/cdn-cgi\/beacon\/expect-ct\"\n1 < Report-To: {\"endpoints\":[{\"url\":\"https:\\\/\\\/a.nel.cloudflare.com\\\/report\\\/v3?s=NJPFxVzLSfl6mhLwfK0xtJekRyy1x3Wnx1Hlxgf3etZs4xA7tXG0Amqofa%2BX8su7cbuyIpiKV%2B3OTPwH8ruruv7FOF2X3m1CduMrWTMC00buOKkOJ2KePP4hudg%3D\"}],\"group\":\"cf-nel\",\"max_age\":604800}\n1 < NEL: {\"success_fraction\":0,\"report_to\":\"cf-nel\",\"max_age\":604800}\n1 < Vary: Accept-Encoding\n1 < Server: cloudflare\n1 < CF-RAY: 6e084d5b4a530fee-MRS\n1 < alt-svc: h3=\":443\"; ma=86400, h3-29=\":443\"; ma=86400\n{\"page\":1,\"per_page\":6,\"total\":12,\"total_pages\":2,\"data\":[{\"id\":1,\"email\":\"george.bluth@reqres.in\",\"first_name\":\"George\",\"last_name\":\"Bluth\",\"avatar\":\"https:\/\/reqres.in\/img\/faces\/1-image.jpg\"},{\"id\":2,\"email\":\"janet.weaver@reqres.in\",\"first_name\":\"Janet\",\"last_name\":\"Weaver\",\"avatar\":\"https:\/\/reqres.in\/img\/faces\/2-image.jpg\"},{\"id\":3,\"email\":\"emma.wong@reqres.in\",\"first_name\":\"Emma\",\"last_name\":\"Wong\",\"avatar\":\"https:\/\/reqres.in\/img\/faces\/3-image.jpg\"},{\"id\":4,\"email\":\"eve.holt@reqres.in\",\"first_name\":\"Eve\",\"last_name\":\"Holt\",\"avatar\":\"https:\/\/reqres.in\/img\/faces\/4-image.jpg\"},{\"id\":5,\"email\":\"charles.morris@reqres.in\",\"first_name\":\"Charles\",\"last_name\":\"Morris\",\"avatar\":\"https:\/\/reqres.in\/img\/faces\/5-image.jpg\"},{\"id\":6,\"email\":\"tracey.ramos@reqres.in\",\"first_name\":\"Tracey\",\"last_name\":\"Ramos\",\"avatar\":\"https:\/\/reqres.in\/img\/faces\/6-image.jpg\"}],\"support\":{\"url\":\"https:\/\/reqres.in\/#support-heading\",\"text\":\"To keep ReqRes free, contributions towards server costs are appreciated!\"}}\n"},{"result":{"nanos":19500,"millis":0.0195,"status":"passed"},"step":{"line":11,"prefix":"Then","index":2,"text":"status 200"}},{"result":{"nanos":850900,"millis":0.8509,"status":"passed"},"step":{"endLine":14,"line":12,"prefix":"*","index":3,"text":"table emails","table":[{"line":13,"row":["email"]},{"line":14,"row":["'george.bluth@reqres.in'"]}]}},{"result":{"nanos":248088500,"errorMessage":"feature call loop failed at index: 0, js failed:\n>>>>\n01: request.email\n<<<<\norg.graalvm.polyglot.PolyglotException: ReferenceError: \"request\" is not defined\n- <js>.:program(Unnamed:1)\n\nclasspath:reusableFeatures\/getPerson.feature:15\nsrc\/test\/java\/TestFeatures\/week3\/callGetPerson.feature:15","millis":248.0885,"status":"failed"},"step":{"line":15,"prefix":"*","index":4,"text":"def person = call read('classpath:\/reusableFeatures\/getPerson.feature') emails"},"stepLog":"15:07:44.326 src\/test\/java\/TestFeatures\/week3\/callGetPerson.feature:15\n* def person = call read('classpath:\/reusableFeatures\/getPerson.feature') emails\nfeature call loop failed at index: 0, js failed:\n>>>>\n01: request.email\n<<<<\norg.graalvm.polyglot.PolyglotException: ReferenceError: \"request\" is not defined\n- <js>.:program(Unnamed:1)\n\nclasspath:reusableFeatures\/getPerson.feature:15\n15:07:44.326 src\/test\/java\/TestFeatures\/week3\/callGetPerson.feature:15\n* def person = call read('classpath:\/reusableFeatures\/getPerson.feature') emails\nfeature call loop failed at index: 0, js failed:\n>>>>\n01: request.email\n<<<<\norg.graalvm.polyglot.PolyglotException: ReferenceError: \"request\" is not defined\n- <js>.:program(Unnamed:1)\n\nclasspath:reusableFeatures\/getPerson.feature:15\nsrc\/test\/java\/TestFeatures\/week3\/callGetPerson.feature:15\n","callResults":[{"prefixedPath":"classpath:reusableFeatures\/getPerson.feature","loopIndex":0,"callDepth":1,"description":"","resultDate":"2022-02-20 03:07:44 PM","durationMillis":223.1566,"callArg":{"email":"george.bluth@reqres.in"},"failedCount":1,"packageQualifiedName":"reusableFeatures.getPerson","relativePath":"reusableFeatures\/getPerson.feature","scenarioResults":[{"sectionIndex":0,"stepResults":[{"result":{"nanos":340200,"millis":0.3402,"status":"passed"},"step":{"line":5,"prefix":"Given","index":0,"text":"url 'https:\/\/reqres.in\/api\/users?page=1'"}},{"result":{"nanos":196795400,"millis":196.7954,"status":"passed"},"step":{"comments":["#And request { email: #(email) }"],"line":7,"prefix":"When","index":1,"text":"method GET"},"stepLog":"15:07:44.102 request:\n1 > GET https:\/\/reqres.in\/api\/users?page=1\n1 > Host: reqres.in\n1 > Connection: Keep-Alive\n1 > User-Agent: Apache-HttpClient\/4.5.13 (Java\/17.0.1)\n1 > Accept-Encoding: gzip,deflate\n\n\n15:07:44.297 response time in milliseconds: 195\n1 < 200\n1 < Date: Sun, 20 Feb 2022 14:07:36 GMT\n1 < Content-Type: application\/json; charset=utf-8\n1 < Transfer-Encoding: chunked\n1 < Connection: keep-alive\n1 < X-Powered-By: Express\n1 < Access-Control-Allow-Origin: *\n1 < Etag: W\/\"3e4-2RLXvr5wTg9YQ6aH95CkYoFNuO8\"\n1 < Via: 1.1 vegur\n1 < Cache-Control: max-age=14400\n1 < CF-Cache-Status: HIT\n1 < Age: 2101\n1 < Expect-CT: max-age=604800, report-uri=\"https:\/\/report-uri.cloudflare.com\/cdn-cgi\/beacon\/expect-ct\"\n1 < Report-To: {\"endpoints\":[{\"url\":\"https:\\\/\\\/a.nel.cloudflare.com\\\/report\\\/v3?s=8K5IXOnQxPiOZPTI8c9gbiPlb9b3IZqiliuO7ZdmUJ7GDx%2BH7OnlvG3lp2m3JYta7IUGNRSergfYCr1Ky4C69P3hhDnhSDv0UdH4PLTQ6CR2igItnU%2F0vLn5YHc%3D\"}],\"group\":\"cf-nel\",\"max_age\":604800}\n1 < NEL: {\"success_fraction\":0,\"report_to\":\"cf-nel\",\"max_age\":604800}\n1 < Vary: Accept-Encoding\n1 < Server: cloudflare\n1 < CF-RAY: 6e084d5cde10d785-MRS\n1 < alt-svc: h3=\":443\"; ma=86400, h3-29=\":443\"; ma=86400\n{\"page\":1,\"per_page\":6,\"total\":12,\"total_pages\":2,\"data\":[{\"id\":1,\"email\":\"george.bluth@reqres.in\",\"first_name\":\"George\",\"last_name\":\"Bluth\",\"avatar\":\"https:\/\/reqres.in\/img\/faces\/1-image.jpg\"},{\"id\":2,\"email\":\"janet.weaver@reqres.in\",\"first_name\":\"Janet\",\"last_name\":\"Weaver\",\"avatar\":\"https:\/\/reqres.in\/img\/faces\/2-image.jpg\"},{\"id\":3,\"email\":\"emma.wong@reqres.in\",\"first_name\":\"Emma\",\"last_name\":\"Wong\",\"avatar\":\"https:\/\/reqres.in\/img\/faces\/3-image.jpg\"},{\"id\":4,\"email\":\"eve.holt@reqres.in\",\"first_name\":\"Eve\",\"last_name\":\"Holt\",\"avatar\":\"https:\/\/reqres.in\/img\/faces\/4-image.jpg\"},{\"id\":5,\"email\":\"charles.morris@reqres.in\",\"first_name\":\"Charles\",\"last_name\":\"Morris\",\"avatar\":\"https:\/\/reqres.in\/img\/faces\/5-image.jpg\"},{\"id\":6,\"email\":\"tracey.ramos@reqres.in\",\"first_name\":\"Tracey\",\"last_name\":\"Ramos\",\"avatar\":\"https:\/\/reqres.in\/img\/faces\/6-image.jpg\"}],\"support\":{\"url\":\"https:\/\/reqres.in\/#support-heading\",\"text\":\"To keep ReqRes free, contributions towards server costs are appreciated!\"}}\n"},{"result":{"nanos":10700,"millis":0.0107,"status":"passed"},"step":{"line":8,"prefix":"Then","index":2,"text":"status 200"}},{"result":{"nanos":475800,"millis":0.4758,"status":"passed"},"step":{"line":9,"prefix":"*","index":3,"text":"def email = 'george.bluth@reqres.in'"}},{"result":{"nanos":14642200,"millis":14.6422,"status":"passed"},"step":{"line":10,"prefix":"And","index":4,"text":"match response.data[*].email contains email"}},{"result":{"nanos":278600,"millis":0.2786,"status":"passed"},"step":{"line":11,"prefix":"*","index":5,"text":"def exp = email"}},{"result":{"nanos":891400,"millis":0.8914,"status":"passed"},"step":{"line":12,"prefix":"And","index":6,"text":"print exp"},"stepLog":"15:07:44.315 [print] george.bluth@reqres.in \n"},{"result":{"nanos":9722300,"errorMessage":"js failed:\n>>>>\n01: request.email\n<<<<\norg.graalvm.polyglot.PolyglotException: ReferenceError: \"request\" is not defined\n- <js>.:program(Unnamed:1)\n\nclasspath:reusableFeatures\/getPerson.feature:15","millis":9.7223,"status":"failed"},"step":{"comments":["#And match response.data[*] contains {id: id,email:'#ignore',first_name:'#ignore',last_name:'#ignore',avatar:'#ignore'}","#And match response.data[*].email == {email : #(email)}"],"line":15,"prefix":"And","index":7,"text":"match response.data[*].email contains request.email"},"stepLog":"15:07:44.324 classpath:reusableFeatures\/getPerson.feature:15\nAnd match response.data[*].email contains request.email\njs failed:\n>>>>\n01: request.email\n<<<<\norg.graalvm.polyglot.PolyglotException: ReferenceError: \"request\" is not defined\n- <js>.:program(Unnamed:1)\n\nclasspath:reusableFeatures\/getPerson.feature:15\n"}],"line":4,"description":"","durationMillis":223.1566,"failed":true,"error":"js failed:\n>>>>\n01: request.email\n<<<<\norg.graalvm.polyglot.PolyglotException: ReferenceError: \"request\" is not defined\n- <js>.:program(Unnamed:1)\n\nclasspath:reusableFeatures\/getPerson.feature:15","executorName":"main","name":"get person","startTime":1645366064100,"refId":"[1:4]","endTime":1645366064324,"exampleIndex":-1}],"name":"Get person from list","passedCount":0}]},{"result":{"nanos":0,"millis":0.0,"status":"skipped"},"step":{"line":16,"prefix":"And","index":5,"text":"print person.response"}}],"line":8,"description":"","durationMillis":902.568,"failed":true,"error":"feature call loop failed at index: 0, js failed:\n>>>>\n01: request.email\n<<<<\norg.graalvm.polyglot.PolyglotException: ReferenceError: \"request\" is not defined\n- <js>.:program(Unnamed:1)\n\nclasspath:reusableFeatures\/getPerson.feature:15\nsrc\/test\/java\/TestFeatures\/week3\/callGetPerson.feature:15","tags":["tag1"],"executorName":"main","name":"Title of your scenario","startTime":1645366063269,"refId":"[1:8]","endTime":1645366064326,"exampleIndex":-1}],"callDepth":0,"name":"Title of your feature","description":"I want to use this template for my feature file","resultDate":"2022-02-20 03:07:44 PM","durationMillis":902.568,"passedCount":0}