{"failedCount":1,"prefixedPath":"src\/test\/java\/testRunner\/verifiInCsv.feature","packageQualifiedName":"src.test.java.testRunner.verifiInCsv","loopIndex":-1,"relativePath":"src\/test\/java\/testRunner\/verifiInCsv.feature","scenarioResults":[{"sectionIndex":0,"stepResults":[{"result":{"nanos":154762800,"millis":154.7628,"status":"passed"},"step":{"background":true,"line":4,"prefix":"*","index":0,"text":"def exp = read('data.csv')"}},{"result":{"nanos":2182400,"millis":2.1824,"status":"passed"},"step":{"line":7,"prefix":"Given","index":0,"text":"url 'https:\/\/reqres.in\/api\/users?page=2'"}},{"result":{"nanos":863520600,"millis":863.5206,"status":"passed"},"step":{"line":8,"prefix":"When","index":1,"text":"method GET"},"stepLog":"19:25:10.740 request:\n1 > GET https:\/\/reqres.in\/api\/users?page=2\n1 > Host: reqres.in\n1 > Connection: Keep-Alive\n1 > User-Agent: Apache-HttpClient\/4.5.13 (Java\/17.0.1)\n1 > Accept-Encoding: gzip,deflate\n\n\n19:25:11.309 response time in milliseconds: 564\n1 < 200\n1 < Date: Sun, 13 Feb 2022 18:25:07 GMT\n1 < Content-Type: application\/json; charset=utf-8\n1 < Transfer-Encoding: chunked\n1 < Connection: keep-alive\n1 < X-Powered-By: Express\n1 < Access-Control-Allow-Origin: *\n1 < Etag: W\/\"406-ut0vzoCuidvyMf8arZpMpJ6ZRDw\"\n1 < Via: 1.1 vegur\n1 < Cache-Control: max-age=14400\n1 < CF-Cache-Status: HIT\n1 < Age: 212\n1 < Expect-CT: max-age=604800, report-uri=\"https:\/\/report-uri.cloudflare.com\/cdn-cgi\/beacon\/expect-ct\"\n1 < Report-To: {\"endpoints\":[{\"url\":\"https:\\\/\\\/a.nel.cloudflare.com\\\/report\\\/v3?s=di3PnQ%2B0czNnErG%2B3Vm%2BfoO%2FksHX2Du0Gle4lq4R4jt7%2BHPnXoRImMoqC%2Fxxq%2FbfayORnrlYghugEsNey4WO86LFUaCsF4oWkQ%2BSTLFh4%2F8aVbqrQMIKRvC5kZc%3D\"}],\"group\":\"cf-nel\",\"max_age\":604800}\n1 < NEL: {\"success_fraction\":0,\"report_to\":\"cf-nel\",\"max_age\":604800}\n1 < Vary: Accept-Encoding\n1 < Server: cloudflare\n1 < CF-RAY: 6dd018f80d6a5fe2-MRS\n1 < alt-svc: h3=\":443\"; ma=86400, h3-29=\":443\"; ma=86400\n{\"page\":2,\"per_page\":6,\"total\":12,\"total_pages\":2,\"data\":[{\"id\":7,\"email\":\"michael.lawson@reqres.in\",\"first_name\":\"Michael\",\"last_name\":\"Lawson\",\"avatar\":\"https:\/\/reqres.in\/img\/faces\/7-image.jpg\"},{\"id\":8,\"email\":\"lindsay.ferguson@reqres.in\",\"first_name\":\"Lindsay\",\"last_name\":\"Ferguson\",\"avatar\":\"https:\/\/reqres.in\/img\/faces\/8-image.jpg\"},{\"id\":9,\"email\":\"tobias.funke@reqres.in\",\"first_name\":\"Tobias\",\"last_name\":\"Funke\",\"avatar\":\"https:\/\/reqres.in\/img\/faces\/9-image.jpg\"},{\"id\":10,\"email\":\"byron.fields@reqres.in\",\"first_name\":\"Byron\",\"last_name\":\"Fields\",\"avatar\":\"https:\/\/reqres.in\/img\/faces\/10-image.jpg\"},{\"id\":11,\"email\":\"george.edwards@reqres.in\",\"first_name\":\"George\",\"last_name\":\"Edwards\",\"avatar\":\"https:\/\/reqres.in\/img\/faces\/11-image.jpg\"},{\"id\":12,\"email\":\"rachel.howell@reqres.in\",\"first_name\":\"Rachel\",\"last_name\":\"Howell\",\"avatar\":\"https:\/\/reqres.in\/img\/faces\/12-image.jpg\"}],\"support\":{\"url\":\"https:\/\/reqres.in\/#support-heading\",\"text\":\"To keep ReqRes free, contributions towards server costs are appreciated!\"}}\n"},{"result":{"nanos":32100,"millis":0.0321,"status":"passed"},"step":{"line":9,"prefix":"Then","index":2,"text":"status 200"}},{"result":{"nanos":19686800,"millis":19.6868,"status":"passed"},"step":{"line":10,"prefix":"And","index":3,"text":"print exp"},"stepLog":"19:25:11.334 [print] [\n  {\n    \"id\": \"2\"\n  },\n  {\n    \"id\": \"3\"\n  },\n  {\n    \"id\": \"4\"\n  }\n]\n \n"},{"result":{"nanos":0,"errorMessage":"no step-definition method match found for: acc = response\nsrc\/test\/java\/testRunner\/verifiInCsv.feature:11","millis":0.0,"status":"failed"},"step":{"line":11,"prefix":"And","index":4,"text":"acc = response"},"stepLog":"19:25:11.336 src\/test\/java\/testRunner\/verifiInCsv.feature:11\nAnd acc = response\nno step-definition method match found for: acc = response\nsrc\/test\/java\/testRunner\/verifiInCsv.feature:11\n"},{"result":{"nanos":0,"millis":0.0,"status":"skipped"},"step":{"comments":["#And print response.data[*].id","# * match response.data[*].id contains input[*].id"],"line":14,"prefix":"*","index":5,"text":"match acc contains deep exp"}}],"line":6,"description":"","durationMillis":1040.1847,"failed":true,"error":"no step-definition method match found for: acc = response\nsrc\/test\/java\/testRunner\/verifiInCsv.feature:11","executorName":"main","name":"GET request with CSV table","startTime":1644776710285,"refId":"[1:6]","endTime":1644776711336,"exampleIndex":-1}],"callDepth":0,"name":"verify if element exist in csv file","description":"","resultDate":"2022-02-13 07:25:11 PM","durationMillis":1040.1847,"passedCount":0}