{"failedCount":0,"prefixedPath":"classpath:TestFeatures\/Week1\/testapi.feature","packageQualifiedName":"TestFeatures.Week1.testapi","loopIndex":-1,"relativePath":"TestFeatures\/Week1\/testapi.feature","scenarioResults":[{"sectionIndex":0,"stepResults":[{"result":{"nanos":1505100,"millis":1.5051,"status":"passed"},"step":{"background":true,"line":4,"prefix":"*","index":0,"text":"url 'https:\/\/reqres.in\/api'"},"stepLog":"23:49:16.890 \n"},{"result":{"nanos":62305200,"millis":62.3052,"status":"passed"},"step":{"background":true,"line":5,"prefix":"*","index":1,"text":"def output = read('classpath:\/TestData\/response1.json')"}},{"result":{"nanos":6614400,"millis":6.6144,"status":"passed"},"step":{"background":true,"line":6,"prefix":"*","index":2,"text":"def request1 = read('classpath:\/TestData\/request1.json')"}},{"result":{"nanos":713100,"millis":0.7131,"status":"passed"},"step":{"line":9,"prefix":"Given","index":0,"text":"path '\/users?page=2'"}},{"result":{"nanos":970317200,"millis":970.3172,"status":"passed"},"step":{"line":10,"prefix":"When","index":1,"text":"method GET"},"stepLog":"23:49:17.277 request:\n1 > GET https:\/\/reqres.in\/api\/users%3Fpage=2\n1 > Host: reqres.in\n1 > Connection: Keep-Alive\n1 > User-Agent: Apache-HttpClient\/4.5.13 (Java\/17.0.1)\n1 > Accept-Encoding: gzip,deflate\n\n\n23:49:17.964 response time in milliseconds: 684\n1 < 200\n1 < Date: Sat, 19 Feb 2022 22:49:11 GMT\n1 < Content-Type: application\/json; charset=utf-8\n1 < Transfer-Encoding: chunked\n1 < Connection: keep-alive\n1 < X-Powered-By: Express\n1 < Access-Control-Allow-Origin: *\n1 < Etag: W\/\"2c1-N6Rqerxquq2kgQhL51EiSg4x0R8\"\n1 < Via: 1.1 vegur\n1 < Cache-Control: max-age=14400\n1 < CF-Cache-Status: HIT\n1 < Age: 0\n1 < Expect-CT: max-age=604800, report-uri=\"https:\/\/report-uri.cloudflare.com\/cdn-cgi\/beacon\/expect-ct\"\n1 < Report-To: {\"endpoints\":[{\"url\":\"https:\\\/\\\/a.nel.cloudflare.com\\\/report\\\/v3?s=u07fGk84DJEhfkL8cFd0GyAR1TjvqMyRgwBfj9Cez5ruaT9MRiDoYPRx%2F%2F380IEqDjOYbBqBOdvxzGu3pDDXZhEZaY1i8xqz7Hr8wyUQFIX%2FnRaNkg45AZGdwdg%3D\"}],\"group\":\"cf-nel\",\"max_age\":604800}\n1 < NEL: {\"success_fraction\":0,\"report_to\":\"cf-nel\",\"max_age\":604800}\n1 < Vary: Accept-Encoding\n1 < Server: cloudflare\n1 < CF-RAY: 6e030c04cfe5d4a0-BRU\n1 < alt-svc: h3=\":443\"; ma=86400, h3-29=\":443\"; ma=86400\n{\"page\":1,\"per_page\":6,\"total\":12,\"total_pages\":2,\"data\":[{\"id\":1,\"name\":\"cerulean\",\"year\":2000,\"color\":\"#98B2D1\",\"pantone_value\":\"15-4020\"},{\"id\":2,\"name\":\"fuchsia rose\",\"year\":2001,\"color\":\"#C74375\",\"pantone_value\":\"17-2031\"},{\"id\":3,\"name\":\"true red\",\"year\":2002,\"color\":\"#BF1932\",\"pantone_value\":\"19-1664\"},{\"id\":4,\"name\":\"aqua sky\",\"year\":2003,\"color\":\"#7BC4C4\",\"pantone_value\":\"14-4811\"},{\"id\":5,\"name\":\"tigerlily\",\"year\":2004,\"color\":\"#E2583E\",\"pantone_value\":\"17-1456\"},{\"id\":6,\"name\":\"blue turquoise\",\"year\":2005,\"color\":\"#53B0AE\",\"pantone_value\":\"15-5217\"}],\"support\":{\"url\":\"https:\/\/reqres.in\/#support-heading\",\"text\":\"To keep ReqRes free, contributions towards server costs are appreciated!\"}}\n"},{"result":{"nanos":18600,"millis":0.0186,"status":"passed"},"step":{"line":11,"prefix":"Then","index":2,"text":"status 200"}},{"result":{"nanos":1641600,"millis":1.6416,"status":"passed"},"step":{"line":12,"prefix":"And","index":3,"text":"assert response.data.length == 6"}},{"result":{"nanos":4472100,"millis":4.4721,"status":"passed"},"step":{"line":13,"prefix":"And","index":4,"text":"print response.data[1].id"},"stepLog":"23:49:17.974 [print] 2 \n"},{"result":{"nanos":11535400,"millis":11.5354,"status":"passed"},"step":{"line":14,"prefix":"And","index":5,"text":"match $.data[0].id == 1"}},{"result":{"nanos":1597400,"millis":1.5974,"status":"passed"},"step":{"line":15,"prefix":"And","index":6,"text":"print response.data[0].year"},"stepLog":"23:49:17.987 [print] 2000 \n"},{"result":{"nanos":1253600,"millis":1.2536,"status":"passed"},"step":{"line":16,"prefix":"And","index":7,"text":"match $.data[0].year == 2000"}}],"executorName":"main","line":8,"name":"test API get 1","description":"","durationMillis":1061.9737,"startTime":1645310956698,"failed":false,"refId":"[1:8]","endTime":1645310957989,"exampleIndex":-1},{"sectionIndex":1,"stepResults":[{"result":{"nanos":502500,"millis":0.5025,"status":"passed"},"step":{"background":true,"line":4,"prefix":"*","index":0,"text":"url 'https:\/\/reqres.in\/api'"},"stepLog":"23:49:18.002 \n"},{"result":{"nanos":18997200,"millis":18.9972,"status":"passed"},"step":{"background":true,"line":5,"prefix":"*","index":1,"text":"def output = read('classpath:\/TestData\/response1.json')"}},{"result":{"nanos":2378500,"millis":2.3785,"status":"passed"},"step":{"background":true,"line":6,"prefix":"*","index":2,"text":"def request1 = read('classpath:\/TestData\/request1.json')"}},{"result":{"nanos":447000,"millis":0.447,"status":"passed"},"step":{"line":19,"prefix":"Given","index":0,"text":"path '\/users'"}},{"result":{"nanos":265600,"millis":0.2656,"status":"passed"},"step":{"line":20,"prefix":"And","index":1,"text":"request {\"name\": \"Mouad\" , \"job\": \"tester\" , \"age\": 25}"}},{"result":{"nanos":456361300,"millis":456.3613,"status":"passed"},"step":{"line":21,"prefix":"When","index":2,"text":"method POST"},"stepLog":"23:49:18.072 request:\n1 > POST https:\/\/reqres.in\/api\/users\n1 > Content-Type: application\/json; charset=UTF-8\n1 > Content-Length: 40\n1 > Host: reqres.in\n1 > Connection: Keep-Alive\n1 > User-Agent: Apache-HttpClient\/4.5.13 (Java\/17.0.1)\n1 > Accept-Encoding: gzip,deflate\n{\"name\":\"Mouad\",\"job\":\"tester\",\"age\":25}\n\n23:49:18.480 response time in milliseconds: 408\n1 < 201\n1 < Date: Sat, 19 Feb 2022 22:49:11 GMT\n1 < Content-Type: application\/json; charset=utf-8\n1 < Content-Length: 90\n1 < Connection: keep-alive\n1 < X-Powered-By: Express\n1 < Access-Control-Allow-Origin: *\n1 < Etag: W\/\"5a-YvXXMVsUqMpRXvS+ZrKjfeZRnmE\"\n1 < Via: 1.1 vegur\n1 < CF-Cache-Status: DYNAMIC\n1 < Expect-CT: max-age=604800, report-uri=\"https:\/\/report-uri.cloudflare.com\/cdn-cgi\/beacon\/expect-ct\"\n1 < Report-To: {\"endpoints\":[{\"url\":\"https:\\\/\\\/a.nel.cloudflare.com\\\/report\\\/v3?s=elJDCnOJcJUIquCwdqzhBVBs1IjTZczcYvo2XGP4Jd5ehFMUSI5qw8mSW0yE3dY0TKydiSroNSC3waSZykt5wznOYiwz4eq85H14GOm0arzzJeCq5J4bHgDy%2BjU%3D\"}],\"group\":\"cf-nel\",\"max_age\":604800}\n1 < NEL: {\"success_fraction\":0,\"report_to\":\"cf-nel\",\"max_age\":604800}\n1 < Server: cloudflare\n1 < CF-RAY: 6e030c07cba72e3e-BRU\n1 < alt-svc: h3=\":443\"; ma=86400, h3-29=\":443\"; ma=86400\n{\"name\":\"Mouad\",\"job\":\"tester\",\"age\":25,\"id\":\"805\",\"createdAt\":\"2022-02-19T22:49:11.688Z\"}\n"},{"result":{"nanos":15200,"millis":0.0152,"status":"passed"},"step":{"line":22,"prefix":"Then","index":3,"text":"status 201"}},{"result":{"nanos":1198700,"millis":1.1987,"status":"passed"},"step":{"line":23,"prefix":"And","index":4,"text":"match response == {\"name\":\"Mouad\",\"job\":\"tester\",\"age\":25,\"id\":\"#string\",\"createdAt\":\"#ignore\"}"}},{"result":{"nanos":2438400,"millis":2.4384,"status":"passed"},"step":{"line":24,"prefix":"And","index":5,"text":"print response"},"stepLog":"23:49:18.486 [print] {\n  \"name\": \"Mouad\",\n  \"job\": \"tester\",\n  \"age\": 25,\n  \"id\": \"805\",\n  \"createdAt\": \"2022-02-19T22:49:11.688Z\"\n}\n \n"}],"executorName":"main","line":18,"name":"test API post 2","description":"","durationMillis":482.6044,"startTime":1645310957999,"failed":false,"refId":"[2:18]","endTime":1645310958486,"exampleIndex":-1},{"sectionIndex":2,"stepResults":[{"result":{"nanos":308700,"millis":0.3087,"status":"passed"},"step":{"background":true,"line":4,"prefix":"*","index":0,"text":"url 'https:\/\/reqres.in\/api'"},"stepLog":"23:49:18.497 \n"},{"result":{"nanos":2379600,"millis":2.3796,"status":"passed"},"step":{"background":true,"line":5,"prefix":"*","index":1,"text":"def output = read('classpath:\/TestData\/response1.json')"}},{"result":{"nanos":2093700,"millis":2.0937,"status":"passed"},"step":{"background":true,"line":6,"prefix":"*","index":2,"text":"def request1 = read('classpath:\/TestData\/request1.json')"}},{"result":{"nanos":172400,"millis":0.1724,"status":"passed"},"step":{"line":27,"prefix":"Given","index":0,"text":"path '\/users'"}},{"result":{"nanos":279100,"millis":0.2791,"status":"passed"},"step":{"line":28,"prefix":"And","index":1,"text":"request {\"name\": \"Mouad\" , \"job\": \"tester\" }"}},{"result":{"nanos":406980300,"millis":406.9803,"status":"passed"},"step":{"line":29,"prefix":"When","index":2,"text":"method POST"},"stepLog":"23:49:18.506 request:\n1 > POST https:\/\/reqres.in\/api\/users\n1 > Content-Type: application\/json; charset=UTF-8\n1 > Content-Length: 31\n1 > Host: reqres.in\n1 > Connection: Keep-Alive\n1 > User-Agent: Apache-HttpClient\/4.5.13 (Java\/17.0.1)\n1 > Accept-Encoding: gzip,deflate\n{\"name\":\"Mouad\",\"job\":\"tester\"}\n\n23:49:18.910 response time in milliseconds: 403\n1 < 201\n1 < Date: Sat, 19 Feb 2022 22:49:12 GMT\n1 < Content-Type: application\/json; charset=utf-8\n1 < Content-Length: 81\n1 < Connection: keep-alive\n1 < X-Powered-By: Express\n1 < Access-Control-Allow-Origin: *\n1 < Etag: W\/\"51-\/le\/bYFEQut6f1IYrCzHXhA5Ni8\"\n1 < Via: 1.1 vegur\n1 < CF-Cache-Status: DYNAMIC\n1 < Expect-CT: max-age=604800, report-uri=\"https:\/\/report-uri.cloudflare.com\/cdn-cgi\/beacon\/expect-ct\"\n1 < Report-To: {\"endpoints\":[{\"url\":\"https:\\\/\\\/a.nel.cloudflare.com\\\/report\\\/v3?s=UrF2nWky9ujBHlSByeU3Ac%2BNCCyB4XsB%2BrMv6d4nQnWA1i5R0EHSvaSyMtKvCK5P5utcLG2SDrFzgD%2F%2BfVzRMz945%2FfV%2BfRBvHmpZW50ZikZeJQhACYUx%2F%2BZOeg%3D\"}],\"group\":\"cf-nel\",\"max_age\":604800}\n1 < NEL: {\"success_fraction\":0,\"report_to\":\"cf-nel\",\"max_age\":604800}\n1 < Server: cloudflare\n1 < CF-RAY: 6e030c0a7d89f961-BRU\n1 < alt-svc: h3=\":443\"; ma=86400, h3-29=\":443\"; ma=86400\n{\"name\":\"Mouad\",\"job\":\"tester\",\"id\":\"877\",\"createdAt\":\"2022-02-19T22:49:12.120Z\"}\n"},{"result":{"nanos":14900,"millis":0.0149,"status":"passed"},"step":{"line":30,"prefix":"Then","index":3,"text":"status 201"}},{"result":{"nanos":922300,"millis":0.9223,"status":"passed"},"step":{"line":31,"prefix":"And","index":4,"text":"match response == output"}},{"result":{"nanos":711300,"millis":0.7113,"status":"passed"},"step":{"line":32,"prefix":"And","index":5,"text":"print response"},"stepLog":"23:49:18.913 [print] {\n  \"name\": \"Mouad\",\n  \"job\": \"tester\",\n  \"id\": \"877\",\n  \"createdAt\": \"2022-02-19T22:49:12.120Z\"\n}\n \n"}],"executorName":"main","line":26,"name":"test API post 3","description":"","durationMillis":413.8623,"startTime":1645310958496,"failed":false,"refId":"[3:26]","endTime":1645310958913,"exampleIndex":-1},{"sectionIndex":3,"stepResults":[{"result":{"nanos":220200,"millis":0.2202,"status":"passed"},"step":{"background":true,"line":4,"prefix":"*","index":0,"text":"url 'https:\/\/reqres.in\/api'"},"stepLog":"23:49:18.920 \n"},{"result":{"nanos":1649200,"millis":1.6492,"status":"passed"},"step":{"background":true,"line":5,"prefix":"*","index":1,"text":"def output = read('classpath:\/TestData\/response1.json')"}},{"result":{"nanos":1344900,"millis":1.3449,"status":"passed"},"step":{"background":true,"line":6,"prefix":"*","index":2,"text":"def request1 = read('classpath:\/TestData\/request1.json')"}},{"result":{"nanos":118500,"millis":0.1185,"status":"passed"},"step":{"line":35,"prefix":"Given","index":0,"text":"path '\/users'"}},{"result":{"nanos":703800,"millis":0.7038,"status":"passed"},"step":{"line":36,"prefix":"And","index":1,"text":"request request1"}},{"result":{"nanos":397866900,"millis":397.8669,"status":"passed"},"step":{"line":37,"prefix":"When","index":2,"text":"method POST"},"stepLog":"23:49:18.926 request:\n1 > POST https:\/\/reqres.in\/api\/users\n1 > Content-Type: application\/json; charset=UTF-8\n1 > Content-Length: 31\n1 > Host: reqres.in\n1 > Connection: Keep-Alive\n1 > User-Agent: Apache-HttpClient\/4.5.13 (Java\/17.0.1)\n1 > Accept-Encoding: gzip,deflate\n{\"name\":\"Mouad\",\"job\":\"tester\"}\n\n23:49:19.321 response time in milliseconds: 395\n1 < 201\n1 < Date: Sat, 19 Feb 2022 22:49:12 GMT\n1 < Content-Type: application\/json; charset=utf-8\n1 < Content-Length: 81\n1 < Connection: keep-alive\n1 < X-Powered-By: Express\n1 < Access-Control-Allow-Origin: *\n1 < Etag: W\/\"51-jDFCdJif8UNHaBKHQsXPPj+aiHo\"\n1 < Via: 1.1 vegur\n1 < CF-Cache-Status: DYNAMIC\n1 < Expect-CT: max-age=604800, report-uri=\"https:\/\/report-uri.cloudflare.com\/cdn-cgi\/beacon\/expect-ct\"\n1 < Report-To: {\"endpoints\":[{\"url\":\"https:\\\/\\\/a.nel.cloudflare.com\\\/report\\\/v3?s=DsavU1I8n7kjPbq23Ve9iy1EV5k4pnGqO71YQBbUL26XojtWkN0N8ISILTIaIlIRlZlsQmE9TjKfEMSbl0H4zilBJZex5jYaZVmRFpZhWSlfzPacZkIKTQp0lcg%3D\"}],\"group\":\"cf-nel\",\"max_age\":604800}\n1 < NEL: {\"success_fraction\":0,\"report_to\":\"cf-nel\",\"max_age\":604800}\n1 < Server: cloudflare\n1 < CF-RAY: 6e030c0d09402e2c-BRU\n1 < alt-svc: h3=\":443\"; ma=86400, h3-29=\":443\"; ma=86400\n{\"name\":\"Mouad\",\"job\":\"tester\",\"id\":\"713\",\"createdAt\":\"2022-02-19T22:49:12.533Z\"}\n"},{"result":{"nanos":10200,"millis":0.0102,"status":"passed"},"step":{"line":38,"prefix":"Then","index":3,"text":"status 201"}},{"result":{"nanos":520000,"millis":0.52,"status":"passed"},"step":{"line":39,"prefix":"And","index":4,"text":"match response == output"}},{"result":{"nanos":589100,"millis":0.5891,"status":"passed"},"step":{"line":40,"prefix":"And","index":5,"text":"print response"},"stepLog":"23:49:19.324 [print] {\n  \"name\": \"Mouad\",\n  \"job\": \"tester\",\n  \"id\": \"713\",\n  \"createdAt\": \"2022-02-19T22:49:12.533Z\"\n}\n \n"}],"executorName":"main","line":34,"name":"test API post 3","description":"","durationMillis":403.0228,"startTime":1645310958919,"failed":false,"refId":"[4:34]","endTime":1645310959324,"exampleIndex":-1}],"callDepth":0,"name":"test sample API","description":"","resultDate":"2022-02-19 11:49:19 PM","durationMillis":2361.4632,"passedCount":4}