{"failedCount":0,"prefixedPath":"classpath:TestFeatures\/week2\/verifiInCsv.feature","packageQualifiedName":"TestFeatures.week2.verifiInCsv","loopIndex":-1,"relativePath":"TestFeatures\/week2\/verifiInCsv.feature","scenarioResults":[{"sectionIndex":0,"stepResults":[{"result":{"nanos":7720000,"millis":7.72,"status":"passed"},"step":{"comments":["#* url BaseURL"],"background":true,"line":5,"prefix":"*","index":0,"text":"def exp = read('classpath:\/TestData\/data.csv')"},"stepLog":"23:49:21.364 \n"},{"result":{"nanos":3473000,"millis":3.473,"status":"passed"},"step":{"background":true,"line":6,"prefix":"*","index":1,"text":"def exp1 = read('classpath:\/TestData\/data1.csv')"}},{"result":{"nanos":360600,"millis":0.3606,"status":"passed"},"step":{"line":9,"prefix":"Given","index":0,"text":"url 'https:\/\/reqres.in\/api\/users?page=2'"}},{"result":{"nanos":388841500,"millis":388.8415,"status":"passed"},"step":{"comments":["# Given path '\/users?page=2'"],"line":11,"prefix":"When","index":1,"text":"method GET"},"stepLog":"23:49:21.377 request:\n1 > GET https:\/\/reqres.in\/api\/users?page=2\n1 > Host: reqres.in\n1 > Connection: Keep-Alive\n1 > User-Agent: Apache-HttpClient\/4.5.13 (Java\/17.0.1)\n1 > Accept-Encoding: gzip,deflate\n\n\n23:49:21.763 response time in milliseconds: 386\n1 < 200\n1 < Date: Sat, 19 Feb 2022 22:49:14 GMT\n1 < Content-Type: application\/json; charset=utf-8\n1 < Transfer-Encoding: chunked\n1 < Connection: keep-alive\n1 < x-powered-by: Express\n1 < access-control-allow-origin: *\n1 < etag: W\/\"406-ut0vzoCuidvyMf8arZpMpJ6ZRDw\"\n1 < via: 1.1 vegur\n1 < Cache-Control: max-age=14400\n1 < CF-Cache-Status: HIT\n1 < Age: 2952\n1 < Expect-CT: max-age=604800, report-uri=\"https:\/\/report-uri.cloudflare.com\/cdn-cgi\/beacon\/expect-ct\"\n1 < Report-To: {\"endpoints\":[{\"url\":\"https:\\\/\\\/a.nel.cloudflare.com\\\/report\\\/v3?s=215uP%2BJonN6MdJEUQPhrdG%2B2xxYuzQQdFN%2B0OMOnBN9uXf%2FMqbLdm08C5qjwIsEHFxpTcehh5ENrg0%2F%2BQhe8BUNNtlrRuEmPqp%2Bzg%2BqboBZegIkllHF%2FFpcCtpA%3D\"}],\"group\":\"cf-nel\",\"max_age\":604800}\n1 < NEL: {\"success_fraction\":0,\"report_to\":\"cf-nel\",\"max_age\":604800}\n1 < Vary: Accept-Encoding\n1 < Server: cloudflare\n1 < CF-RAY: 6e030c1c9ad72e50-BRU\n1 < alt-svc: h3=\":443\"; ma=86400, h3-29=\":443\"; ma=86400\n{\"page\":2,\"per_page\":6,\"total\":12,\"total_pages\":2,\"data\":[{\"id\":7,\"email\":\"michael.lawson@reqres.in\",\"first_name\":\"Michael\",\"last_name\":\"Lawson\",\"avatar\":\"https:\/\/reqres.in\/img\/faces\/7-image.jpg\"},{\"id\":8,\"email\":\"lindsay.ferguson@reqres.in\",\"first_name\":\"Lindsay\",\"last_name\":\"Ferguson\",\"avatar\":\"https:\/\/reqres.in\/img\/faces\/8-image.jpg\"},{\"id\":9,\"email\":\"tobias.funke@reqres.in\",\"first_name\":\"Tobias\",\"last_name\":\"Funke\",\"avatar\":\"https:\/\/reqres.in\/img\/faces\/9-image.jpg\"},{\"id\":10,\"email\":\"byron.fields@reqres.in\",\"first_name\":\"Byron\",\"last_name\":\"Fields\",\"avatar\":\"https:\/\/reqres.in\/img\/faces\/10-image.jpg\"},{\"id\":11,\"email\":\"george.edwards@reqres.in\",\"first_name\":\"George\",\"last_name\":\"Edwards\",\"avatar\":\"https:\/\/reqres.in\/img\/faces\/11-image.jpg\"},{\"id\":12,\"email\":\"rachel.howell@reqres.in\",\"first_name\":\"Rachel\",\"last_name\":\"Howell\",\"avatar\":\"https:\/\/reqres.in\/img\/faces\/12-image.jpg\"}],\"support\":{\"url\":\"https:\/\/reqres.in\/#support-heading\",\"text\":\"To keep ReqRes free, contributions towards server costs are appreciated!\"}}\n"},{"result":{"nanos":16000,"millis":0.016,"status":"passed"},"step":{"line":12,"prefix":"Then","index":2,"text":"status 200"}},{"result":{"nanos":4560000,"millis":4.56,"status":"passed"},"step":{"comments":["#i used this fuction to convert string to number"],"line":14,"prefix":"*","index":3,"text":"def fun = function(x){ x.id = ~~x.id; return x }"}},{"result":{"nanos":11312000,"millis":11.312,"status":"passed"},"step":{"line":15,"prefix":"*","index":4,"text":"def exp = karate.map(exp, fun)"}},{"result":{"nanos":207700,"millis":0.2077,"status":"passed"},"step":{"line":16,"prefix":"And","index":5,"text":"def acc = response"}},{"result":{"nanos":907000,"millis":0.907,"status":"passed"},"step":{"comments":["#i used deep to check 2 arrays"],"line":18,"prefix":"*","index":6,"text":"match acc.data[*] contains deep exp"}}],"executorName":"main","line":8,"name":"check if response contains csv values ids","description":"","durationMillis":417.3978,"startTime":1645310961363,"failed":false,"refId":"[1:8]","endTime":1645310961781,"exampleIndex":-1},{"sectionIndex":1,"stepResults":[{"result":{"nanos":1446500,"millis":1.4465,"status":"passed"},"step":{"comments":["#* url BaseURL"],"background":true,"line":5,"prefix":"*","index":0,"text":"def exp = read('classpath:\/TestData\/data.csv')"},"stepLog":"23:49:21.785 \n"},{"result":{"nanos":972000,"millis":0.972,"status":"passed"},"step":{"background":true,"line":6,"prefix":"*","index":1,"text":"def exp1 = read('classpath:\/TestData\/data1.csv')"}},{"result":{"nanos":56100,"millis":0.0561,"status":"passed"},"step":{"line":21,"prefix":"Given","index":0,"text":"url 'https:\/\/reqres.in\/api\/users?page=2'"}},{"result":{"nanos":362795900,"millis":362.7959,"status":"passed"},"step":{"line":22,"prefix":"When","index":1,"text":"method GET"},"stepLog":"23:49:21.789 request:\n1 > GET https:\/\/reqres.in\/api\/users?page=2\n1 > Host: reqres.in\n1 > Connection: Keep-Alive\n1 > User-Agent: Apache-HttpClient\/4.5.13 (Java\/17.0.1)\n1 > Accept-Encoding: gzip,deflate\n\n\n23:49:22.149 response time in milliseconds: 360\n1 < 200\n1 < Date: Sat, 19 Feb 2022 22:49:15 GMT\n1 < Content-Type: application\/json; charset=utf-8\n1 < Transfer-Encoding: chunked\n1 < Connection: keep-alive\n1 < x-powered-by: Express\n1 < access-control-allow-origin: *\n1 < etag: W\/\"406-ut0vzoCuidvyMf8arZpMpJ6ZRDw\"\n1 < via: 1.1 vegur\n1 < Cache-Control: max-age=14400\n1 < CF-Cache-Status: HIT\n1 < Age: 2953\n1 < Expect-CT: max-age=604800, report-uri=\"https:\/\/report-uri.cloudflare.com\/cdn-cgi\/beacon\/expect-ct\"\n1 < Report-To: {\"endpoints\":[{\"url\":\"https:\\\/\\\/a.nel.cloudflare.com\\\/report\\\/v3?s=kUrh1viXjlFFTLj5HQXmaZ8KSiEgnmAtxnw9FbHpr2NTCULvz2AGfoRoeOal7ePjiDFNkrpIjSO5LEQZLuj%2Bz4Cw1%2FoksInOijFPh7ekmy1FuAQmIiRt5Va0w74%3D\"}],\"group\":\"cf-nel\",\"max_age\":604800}\n1 < NEL: {\"success_fraction\":0,\"report_to\":\"cf-nel\",\"max_age\":604800}\n1 < Vary: Accept-Encoding\n1 < Server: cloudflare\n1 < CF-RAY: 6e030c1efcd02e26-BRU\n1 < alt-svc: h3=\":443\"; ma=86400, h3-29=\":443\"; ma=86400\n{\"page\":2,\"per_page\":6,\"total\":12,\"total_pages\":2,\"data\":[{\"id\":7,\"email\":\"michael.lawson@reqres.in\",\"first_name\":\"Michael\",\"last_name\":\"Lawson\",\"avatar\":\"https:\/\/reqres.in\/img\/faces\/7-image.jpg\"},{\"id\":8,\"email\":\"lindsay.ferguson@reqres.in\",\"first_name\":\"Lindsay\",\"last_name\":\"Ferguson\",\"avatar\":\"https:\/\/reqres.in\/img\/faces\/8-image.jpg\"},{\"id\":9,\"email\":\"tobias.funke@reqres.in\",\"first_name\":\"Tobias\",\"last_name\":\"Funke\",\"avatar\":\"https:\/\/reqres.in\/img\/faces\/9-image.jpg\"},{\"id\":10,\"email\":\"byron.fields@reqres.in\",\"first_name\":\"Byron\",\"last_name\":\"Fields\",\"avatar\":\"https:\/\/reqres.in\/img\/faces\/10-image.jpg\"},{\"id\":11,\"email\":\"george.edwards@reqres.in\",\"first_name\":\"George\",\"last_name\":\"Edwards\",\"avatar\":\"https:\/\/reqres.in\/img\/faces\/11-image.jpg\"},{\"id\":12,\"email\":\"rachel.howell@reqres.in\",\"first_name\":\"Rachel\",\"last_name\":\"Howell\",\"avatar\":\"https:\/\/reqres.in\/img\/faces\/12-image.jpg\"}],\"support\":{\"url\":\"https:\/\/reqres.in\/#support-heading\",\"text\":\"To keep ReqRes free, contributions towards server costs are appreciated!\"}}\n"},{"result":{"nanos":13100,"millis":0.0131,"status":"passed"},"step":{"line":23,"prefix":"Then","index":2,"text":"status 200"}},{"result":{"nanos":237500,"millis":0.2375,"status":"passed"},"step":{"line":24,"prefix":"And","index":3,"text":"def acc = response"}},{"result":{"nanos":531300,"millis":0.5313,"status":"passed"},"step":{"line":25,"prefix":"*","index":4,"text":"match acc.data[*] contains deep exp1"}}],"executorName":"main","line":20,"name":"check if response contains csv values emails","description":"","durationMillis":366.0524,"startTime":1645310961785,"failed":false,"refId":"[2:20]","endTime":1645310962152,"exampleIndex":-1}],"callDepth":0,"name":"verify if elements exists in csv file","description":"","resultDate":"2022-02-19 11:49:22 PM","durationMillis":783.4502,"passedCount":2}