{"failedCount":1,"prefixedPath":"src\/test\/java\/TestFeatures\/week3\/callGetPerson.feature","packageQualifiedName":"src.test.java.TestFeatures.week3.callGetPerson","loopIndex":-1,"relativePath":"src\/test\/java\/TestFeatures\/week3\/callGetPerson.feature","scenarioResults":[{"sectionIndex":0,"stepResults":[{"result":{"nanos":1105700,"millis":1.1057,"status":"passed"},"step":{"line":9,"prefix":"Given","index":0,"text":"url 'https:\/\/reqres.in\/api\/users?page=1'"},"stepLog":"14:47:20.148 \n"},{"result":{"nanos":656903900,"millis":656.9039,"status":"passed"},"step":{"line":10,"prefix":"When","index":1,"text":"method GET"},"stepLog":"14:47:20.423 request:\n1 > GET https:\/\/reqres.in\/api\/users?page=1\n1 > Host: reqres.in\n1 > Connection: Keep-Alive\n1 > User-Agent: Apache-HttpClient\/4.5.13 (Java\/17.0.1)\n1 > Accept-Encoding: gzip,deflate\n\n\n14:47:20.807 response time in milliseconds: 380\n1 < 200\n1 < Date: Sun, 20 Feb 2022 13:47:12 GMT\n1 < Content-Type: application\/json; charset=utf-8\n1 < Transfer-Encoding: chunked\n1 < Connection: keep-alive\n1 < X-Powered-By: Express\n1 < Access-Control-Allow-Origin: *\n1 < Etag: W\/\"3e4-2RLXvr5wTg9YQ6aH95CkYoFNuO8\"\n1 < Via: 1.1 vegur\n1 < Cache-Control: max-age=14400\n1 < CF-Cache-Status: HIT\n1 < Age: 877\n1 < Expect-CT: max-age=604800, report-uri=\"https:\/\/report-uri.cloudflare.com\/cdn-cgi\/beacon\/expect-ct\"\n1 < Report-To: {\"endpoints\":[{\"url\":\"https:\\\/\\\/a.nel.cloudflare.com\\\/report\\\/v3?s=Ktue4XAMkDqFJK81GMU2zFTiwBIoBJovHEO%2BelEkQMusAHOj6VVK9%2FjczQTrG4LXhzDl%2F%2FsIx2BgXPBit%2FkGyCxY%2BseHaOb6f9Ydb%2FIT1k6%2B%2Fm%2B39p1OnvE0%2BUY%3D\"}],\"group\":\"cf-nel\",\"max_age\":604800}\n1 < NEL: {\"success_fraction\":0,\"report_to\":\"cf-nel\",\"max_age\":604800}\n1 < Vary: Accept-Encoding\n1 < Server: cloudflare\n1 < CF-RAY: 6e082f7e0d7e733f-MRS\n1 < alt-svc: h3=\":443\"; ma=86400, h3-29=\":443\"; ma=86400\n{\"page\":1,\"per_page\":6,\"total\":12,\"total_pages\":2,\"data\":[{\"id\":1,\"email\":\"george.bluth@reqres.in\",\"first_name\":\"George\",\"last_name\":\"Bluth\",\"avatar\":\"https:\/\/reqres.in\/img\/faces\/1-image.jpg\"},{\"id\":2,\"email\":\"janet.weaver@reqres.in\",\"first_name\":\"Janet\",\"last_name\":\"Weaver\",\"avatar\":\"https:\/\/reqres.in\/img\/faces\/2-image.jpg\"},{\"id\":3,\"email\":\"emma.wong@reqres.in\",\"first_name\":\"Emma\",\"last_name\":\"Wong\",\"avatar\":\"https:\/\/reqres.in\/img\/faces\/3-image.jpg\"},{\"id\":4,\"email\":\"eve.holt@reqres.in\",\"first_name\":\"Eve\",\"last_name\":\"Holt\",\"avatar\":\"https:\/\/reqres.in\/img\/faces\/4-image.jpg\"},{\"id\":5,\"email\":\"charles.morris@reqres.in\",\"first_name\":\"Charles\",\"last_name\":\"Morris\",\"avatar\":\"https:\/\/reqres.in\/img\/faces\/5-image.jpg\"},{\"id\":6,\"email\":\"tracey.ramos@reqres.in\",\"first_name\":\"Tracey\",\"last_name\":\"Ramos\",\"avatar\":\"https:\/\/reqres.in\/img\/faces\/6-image.jpg\"}],\"support\":{\"url\":\"https:\/\/reqres.in\/#support-heading\",\"text\":\"To keep ReqRes free, contributions towards server costs are appreciated!\"}}\n"},{"result":{"nanos":23900,"millis":0.0239,"status":"passed"},"step":{"line":11,"prefix":"Then","index":2,"text":"status 200"}},{"result":{"nanos":1692200,"millis":1.6922,"status":"passed"},"step":{"endLine":14,"line":12,"prefix":"*","index":3,"text":"table ids","table":[{"line":13,"row":["id"]},{"line":14,"row":["1"]}]}},{"result":{"nanos":312062700,"errorMessage":"feature call loop failed at index: 0, match failed: EACH_CONTAINS\n  $ | match each failed at index 0 (LIST:MAP)\n  [1,2,3,4,5,6]\n  {\"id\":1}\n\n    $[0] | data types don't match (NUMBER:MAP)\n    1\n    {\"id\":1}\n\n\nclasspath:reusableFeatures\/getPerson.feature:10\nsrc\/test\/java\/TestFeatures\/week3\/callGetPerson.feature:15","millis":312.0627,"status":"failed"},"step":{"line":15,"prefix":"*","index":4,"text":"def person = call read('classpath:\/reusableFeatures\/getPerson.feature') ids"},"stepLog":"14:47:21.143 src\/test\/java\/TestFeatures\/week3\/callGetPerson.feature:15\n* def person = call read('classpath:\/reusableFeatures\/getPerson.feature') ids\nfeature call loop failed at index: 0, match failed: EACH_CONTAINS\n  $ | match each failed at index 0 (LIST:MAP)\n  [1,2,3,4,5,6]\n  {\"id\":1}\n\n    $[0] | data types don't match (NUMBER:MAP)\n    1\n    {\"id\":1}\n\n\nclasspath:reusableFeatures\/getPerson.feature:10\n14:47:21.143 src\/test\/java\/TestFeatures\/week3\/callGetPerson.feature:15\n* def person = call read('classpath:\/reusableFeatures\/getPerson.feature') ids\nfeature call loop failed at index: 0, match failed: EACH_CONTAINS\n  $ | match each failed at index 0 (LIST:MAP)\n  [1,2,3,4,5,6]\n  {\"id\":1}\n\n    $[0] | data types don't match (NUMBER:MAP)\n    1\n    {\"id\":1}\n\n\nclasspath:reusableFeatures\/getPerson.feature:10\nsrc\/test\/java\/TestFeatures\/week3\/callGetPerson.feature:15\n","callResults":[{"prefixedPath":"classpath:reusableFeatures\/getPerson.feature","loopIndex":0,"callDepth":1,"description":"","resultDate":"2022-02-20 02:47:21 PM","durationMillis":287.5182,"callArg":{"id":1},"failedCount":1,"packageQualifiedName":"reusableFeatures.getPerson","relativePath":"reusableFeatures\/getPerson.feature","scenarioResults":[{"sectionIndex":0,"stepResults":[{"result":{"nanos":336700,"millis":0.3367,"status":"passed"},"step":{"line":5,"prefix":"Given","index":0,"text":"url 'https:\/\/reqres.in\/api\/users?page=1'"}},{"result":{"nanos":11775900,"millis":11.7759,"status":"passed"},"step":{"line":6,"prefix":"And","index":1,"text":"request { id: #(id) }"}},{"result":{"nanos":268164300,"millis":268.1643,"status":"passed"},"step":{"line":7,"prefix":"When","index":2,"text":"method GET"},"stepLog":"14:47:20.896 request:\n1 > GET https:\/\/reqres.in\/api\/users?page=1\n1 > Content-Type: application\/json; charset=UTF-8\n1 > Content-Length: 8\n1 > Host: reqres.in\n1 > Connection: Keep-Alive\n1 > User-Agent: Apache-HttpClient\/4.5.13 (Java\/17.0.1)\n1 > Accept-Encoding: gzip,deflate\n{\"id\":1}\n\n14:47:21.134 response time in milliseconds: 237\n1 < 200\n1 < Date: Sun, 20 Feb 2022 13:47:13 GMT\n1 < Content-Type: application\/json; charset=utf-8\n1 < Transfer-Encoding: chunked\n1 < Connection: keep-alive\n1 < X-Powered-By: Express\n1 < Access-Control-Allow-Origin: *\n1 < Etag: W\/\"3e4-2RLXvr5wTg9YQ6aH95CkYoFNuO8\"\n1 < Via: 1.1 vegur\n1 < Cache-Control: max-age=14400\n1 < CF-Cache-Status: HIT\n1 < Age: 878\n1 < Expect-CT: max-age=604800, report-uri=\"https:\/\/report-uri.cloudflare.com\/cdn-cgi\/beacon\/expect-ct\"\n1 < Report-To: {\"endpoints\":[{\"url\":\"https:\\\/\\\/a.nel.cloudflare.com\\\/report\\\/v3?s=m1t%2FGDkKzDvSJBJ8eKa%2B36W01inf6E7TOhlIsAibg9ZxPGsD3HL5QaxqEoxI3C3zgnx%2BUYde1t2POIsjFyG%2FQhwjjIFjk6npFfVsLUZKoyoPQENPS3pEpAlXrlE%3D\"}],\"group\":\"cf-nel\",\"max_age\":604800}\n1 < NEL: {\"success_fraction\":0,\"report_to\":\"cf-nel\",\"max_age\":604800}\n1 < Vary: Accept-Encoding\n1 < Server: cloudflare\n1 < CF-RAY: 6e082f80183341f6-MRS\n1 < alt-svc: h3=\":443\"; ma=86400, h3-29=\":443\"; ma=86400\n{\"page\":1,\"per_page\":6,\"total\":12,\"total_pages\":2,\"data\":[{\"id\":1,\"email\":\"george.bluth@reqres.in\",\"first_name\":\"George\",\"last_name\":\"Bluth\",\"avatar\":\"https:\/\/reqres.in\/img\/faces\/1-image.jpg\"},{\"id\":2,\"email\":\"janet.weaver@reqres.in\",\"first_name\":\"Janet\",\"last_name\":\"Weaver\",\"avatar\":\"https:\/\/reqres.in\/img\/faces\/2-image.jpg\"},{\"id\":3,\"email\":\"emma.wong@reqres.in\",\"first_name\":\"Emma\",\"last_name\":\"Wong\",\"avatar\":\"https:\/\/reqres.in\/img\/faces\/3-image.jpg\"},{\"id\":4,\"email\":\"eve.holt@reqres.in\",\"first_name\":\"Eve\",\"last_name\":\"Holt\",\"avatar\":\"https:\/\/reqres.in\/img\/faces\/4-image.jpg\"},{\"id\":5,\"email\":\"charles.morris@reqres.in\",\"first_name\":\"Charles\",\"last_name\":\"Morris\",\"avatar\":\"https:\/\/reqres.in\/img\/faces\/5-image.jpg\"},{\"id\":6,\"email\":\"tracey.ramos@reqres.in\",\"first_name\":\"Tracey\",\"last_name\":\"Ramos\",\"avatar\":\"https:\/\/reqres.in\/img\/faces\/6-image.jpg\"}],\"support\":{\"url\":\"https:\/\/reqres.in\/#support-heading\",\"text\":\"To keep ReqRes free, contributions towards server costs are appreciated!\"}}\n"},{"result":{"nanos":6500,"millis":0.0065,"status":"passed"},"step":{"line":8,"prefix":"Then","index":3,"text":"status 200"}},{"result":{"nanos":7234800,"errorMessage":"match failed: EACH_CONTAINS\n  $ | match each failed at index 0 (LIST:MAP)\n  [1,2,3,4,5,6]\n  {\"id\":1}\n\n    $[0] | data types don't match (NUMBER:MAP)\n    1\n    {\"id\":1}\n\n\nclasspath:reusableFeatures\/getPerson.feature:10","millis":7.2348,"status":"failed"},"step":{"comments":["#And match response.data[*] contains {id: id,email:'#ignore',first_name:'#ignore',last_name:'#ignore',avatar:'#ignore'}"],"line":10,"prefix":"And","index":4,"text":"match each response.data[*].id contains {id : #(id)}"},"stepLog":"14:47:21.142 classpath:reusableFeatures\/getPerson.feature:10\nAnd match each response.data[*].id contains {id : #(id)}\nmatch failed: EACH_CONTAINS\n  $ | match each failed at index 0 (LIST:MAP)\n  [1,2,3,4,5,6]\n  {\"id\":1}\n\n    $[0] | data types don't match (NUMBER:MAP)\n    1\n    {\"id\":1}\n\n\nclasspath:reusableFeatures\/getPerson.feature:10\n"}],"line":4,"description":"","durationMillis":287.5182,"failed":true,"error":"match failed: EACH_CONTAINS\n  $ | match each failed at index 0 (LIST:MAP)\n  [1,2,3,4,5,6]\n  {\"id\":1}\n\n    $[0] | data types don't match (NUMBER:MAP)\n    1\n    {\"id\":1}\n\n\nclasspath:reusableFeatures\/getPerson.feature:10","executorName":"main","name":"get person","startTime":1645364840854,"refId":"[1:4]","endTime":1645364841142,"exampleIndex":-1}],"name":"Get person from list","passedCount":0}]},{"result":{"nanos":0,"millis":0.0,"status":"skipped"},"step":{"line":16,"prefix":"And","index":5,"text":"print person.response"}}],"line":8,"description":"","durationMillis":971.7884,"failed":true,"error":"feature call loop failed at index: 0, match failed: EACH_CONTAINS\n  $ | match each failed at index 0 (LIST:MAP)\n  [1,2,3,4,5,6]\n  {\"id\":1}\n\n    $[0] | data types don't match (NUMBER:MAP)\n    1\n    {\"id\":1}\n\n\nclasspath:reusableFeatures\/getPerson.feature:10\nsrc\/test\/java\/TestFeatures\/week3\/callGetPerson.feature:15","tags":["tag1"],"executorName":"main","name":"Title of your scenario","startTime":1645364840026,"refId":"[1:8]","endTime":1645364841143,"exampleIndex":-1}],"callDepth":0,"name":"Title of your feature","description":"I want to use this template for my feature file","resultDate":"2022-02-20 02:47:21 PM","durationMillis":971.7884,"passedCount":0}