{"failedCount":0,"prefixedPath":"src\/main\/java\/first_test_k.feature","packageQualifiedName":"src.main.java.first_test_k","loopIndex":-1,"relativePath":"src\/main\/java\/first_test_k.feature","scenarioResults":[{"sectionIndex":0,"stepResults":[{"result":{"nanos":57366800,"millis":57.3668,"status":"passed"},"step":{"line":4,"prefix":"Given","index":0,"text":"url \"https:\/\/reqres.in\/api\/users?page=2\""}},{"result":{"nanos":727648700,"millis":727.6487,"status":"passed"},"step":{"line":5,"prefix":"When","index":1,"text":"method GET"},"stepLog":"18:09:17.251 request:\n1 > GET https:\/\/reqres.in\/api\/users?page=2\n1 > Host: reqres.in\n1 > Connection: Keep-Alive\n1 > User-Agent: Apache-HttpClient\/4.5.13 (Java\/17.0.1)\n1 > Accept-Encoding: gzip,deflate\n\n\n18:09:17.738 response time in milliseconds: 484\n1 < 200\n1 < Date: Fri, 28 Jan 2022 17:09:17 GMT\n1 < Content-Type: application\/json; charset=utf-8\n1 < Transfer-Encoding: chunked\n1 < Connection: keep-alive\n1 < x-powered-by: Express\n1 < access-control-allow-origin: *\n1 < etag: W\/\"406-ut0vzoCuidvyMf8arZpMpJ6ZRDw\"\n1 < via: 1.1 vegur\n1 < Cache-Control: max-age=14400\n1 < CF-Cache-Status: HIT\n1 < Age: 195\n1 < Expect-CT: max-age=604800, report-uri=\"https:\/\/report-uri.cloudflare.com\/cdn-cgi\/beacon\/expect-ct\"\n1 < Report-To: {\"endpoints\":[{\"url\":\"https:\\\/\\\/a.nel.cloudflare.com\\\/report\\\/v3?s=Kdnxk6iSBIk54w4JVB0xz6CBXJuWhap3lxRydAfFqpDkpc6h%2BrrOStycE0kILUg2quAsIzcgJyoX1a003GgzuGP6kAd%2BoqGiDMvIZGv1GA%2FZHw2PtBAUp7V2RJ8%3D\"}],\"group\":\"cf-nel\",\"max_age\":604800}\n1 < NEL: {\"success_fraction\":0,\"report_to\":\"cf-nel\",\"max_age\":604800}\n1 < Vary: Accept-Encoding\n1 < Server: cloudflare\n1 < CF-RAY: 6d4bd3e108c81940-BCN\n1 < alt-svc: h3=\":443\"; ma=86400, h3-29=\":443\"; ma=86400\n{\"page\":2,\"per_page\":6,\"total\":12,\"total_pages\":2,\"data\":[{\"id\":7,\"email\":\"michael.lawson@reqres.in\",\"first_name\":\"Michael\",\"last_name\":\"Lawson\",\"avatar\":\"https:\/\/reqres.in\/img\/faces\/7-image.jpg\"},{\"id\":8,\"email\":\"lindsay.ferguson@reqres.in\",\"first_name\":\"Lindsay\",\"last_name\":\"Ferguson\",\"avatar\":\"https:\/\/reqres.in\/img\/faces\/8-image.jpg\"},{\"id\":9,\"email\":\"tobias.funke@reqres.in\",\"first_name\":\"Tobias\",\"last_name\":\"Funke\",\"avatar\":\"https:\/\/reqres.in\/img\/faces\/9-image.jpg\"},{\"id\":10,\"email\":\"byron.fields@reqres.in\",\"first_name\":\"Byron\",\"last_name\":\"Fields\",\"avatar\":\"https:\/\/reqres.in\/img\/faces\/10-image.jpg\"},{\"id\":11,\"email\":\"george.edwards@reqres.in\",\"first_name\":\"George\",\"last_name\":\"Edwards\",\"avatar\":\"https:\/\/reqres.in\/img\/faces\/11-image.jpg\"},{\"id\":12,\"email\":\"rachel.howell@reqres.in\",\"first_name\":\"Rachel\",\"last_name\":\"Howell\",\"avatar\":\"https:\/\/reqres.in\/img\/faces\/12-image.jpg\"}],\"support\":{\"url\":\"https:\/\/reqres.in\/#support-heading\",\"text\":\"To keep ReqRes free, contributions towards server costs are appreciated!\"}}\n"},{"result":{"nanos":16200,"millis":0.0162,"status":"passed"},"step":{"line":6,"prefix":"Then","index":2,"text":"status 200"}},{"result":{"nanos":26628800,"millis":26.6288,"status":"passed"},"step":{"line":7,"prefix":"And","index":3,"text":"assert response.data.length == 6"}},{"result":{"nanos":26327300,"millis":26.3273,"status":"passed"},"step":{"line":8,"prefix":"And","index":4,"text":"match $.data[0].id == 7"}},{"result":{"nanos":746400,"millis":0.7464,"status":"passed"},"step":{"line":9,"prefix":"And","index":5,"text":"match $.data[0].email == 'michael.lawson@reqres.in'"}}],"executorName":"main","line":3,"name":"test API get","description":"","durationMillis":838.7342,"startTime":1643389756972,"failed":false,"refId":"[1:3]","endTime":1643389757818,"exampleIndex":-1},{"sectionIndex":1,"stepResults":[{"result":{"nanos":330200,"millis":0.3302,"status":"passed"},"step":{"line":12,"prefix":"Given","index":0,"text":"url \"https:\/\/reqres.in\/api\/users\""}},{"result":{"nanos":401676900,"millis":401.6769,"status":"passed"},"step":{"line":13,"prefix":"When","index":1,"text":"method POST"},"stepLog":"18:09:17.824 request:\n1 > POST https:\/\/reqres.in\/api\/users\n1 > Host: reqres.in\n1 > Connection: Keep-Alive\n1 > User-Agent: Apache-HttpClient\/4.5.13 (Java\/17.0.1)\n1 > Accept-Encoding: gzip,deflate\n\n\n18:09:18.224 response time in milliseconds: 399\n1 < 201\n1 < Date: Fri, 28 Jan 2022 17:09:18 GMT\n1 < Content-Type: application\/json; charset=utf-8\n1 < Content-Length: 51\n1 < Connection: keep-alive\n1 < x-powered-by: Express\n1 < access-control-allow-origin: *\n1 < etag: W\/\"33-3dxdXkSWXRDmaCkpLsKjwcBjMBw\"\n1 < via: 1.1 vegur\n1 < CF-Cache-Status: DYNAMIC\n1 < Expect-CT: max-age=604800, report-uri=\"https:\/\/report-uri.cloudflare.com\/cdn-cgi\/beacon\/expect-ct\"\n1 < Report-To: {\"endpoints\":[{\"url\":\"https:\\\/\\\/a.nel.cloudflare.com\\\/report\\\/v3?s=IZV8ETY49d47UBTox7DhZBRQQYMY2V7%2BKlf1OgqVnc628XxWV5wusbt4QdSuVN4x71wzrHrUlXh%2BraNkA2nFf1rqshsPADFm8UfnX97lvQK0eRCypnxMXlZCtcQ%3D\"}],\"group\":\"cf-nel\",\"max_age\":604800}\n1 < NEL: {\"success_fraction\":0,\"report_to\":\"cf-nel\",\"max_age\":604800}\n1 < Server: cloudflare\n1 < CF-RAY: 6d4bd3e34a09194a-BCN\n1 < alt-svc: h3=\":443\"; ma=86400, h3-29=\":443\"; ma=86400\n{\"id\":\"929\",\"createdAt\":\"2022-01-28T17:09:18.127Z\"}\n"},{"result":{"nanos":11400,"millis":0.0114,"status":"passed"},"step":{"line":14,"prefix":"Then","index":2,"text":"status 201"}}],"executorName":"main","line":11,"name":"test API post","description":"","durationMillis":402.0185,"startTime":1643389757822,"failed":false,"refId":"[2:11]","endTime":1643389758225,"exampleIndex":-1}],"callDepth":0,"name":"test sample API","description":"","resultDate":"2022-01-28 06:09:18 PM","durationMillis":1240.7527,"passedCount":2}