{"failedCount":1,"prefixedPath":"src\/test\/java\/TestFeatures\/week3\/callGetPerson.feature","packageQualifiedName":"src.test.java.TestFeatures.week3.callGetPerson","loopIndex":-1,"relativePath":"src\/test\/java\/TestFeatures\/week3\/callGetPerson.feature","scenarioResults":[{"sectionIndex":0,"stepResults":[{"result":{"nanos":859100,"millis":0.8591,"status":"passed"},"step":{"line":9,"prefix":"Given","index":0,"text":"url 'https:\/\/reqres.in\/api\/users?page=1'"},"stepLog":"15:06:02.260 \n"},{"result":{"nanos":625958400,"millis":625.9584,"status":"passed"},"step":{"line":10,"prefix":"When","index":1,"text":"method GET"},"stepLog":"15:06:02.487 request:\n1 > GET https:\/\/reqres.in\/api\/users?page=1\n1 > Host: reqres.in\n1 > Connection: Keep-Alive\n1 > User-Agent: Apache-HttpClient\/4.5.13 (Java\/17.0.1)\n1 > Accept-Encoding: gzip,deflate\n\n\n15:06:02.892 response time in milliseconds: 401\n1 < 200\n1 < Date: Sun, 20 Feb 2022 14:05:55 GMT\n1 < Content-Type: application\/json; charset=utf-8\n1 < Transfer-Encoding: chunked\n1 < Connection: keep-alive\n1 < x-powered-by: Express\n1 < access-control-allow-origin: *\n1 < etag: W\/\"3e4-2RLXvr5wTg9YQ6aH95CkYoFNuO8\"\n1 < via: 1.1 vegur\n1 < Cache-Control: max-age=14400\n1 < CF-Cache-Status: HIT\n1 < Age: 1690\n1 < Expect-CT: max-age=604800, report-uri=\"https:\/\/report-uri.cloudflare.com\/cdn-cgi\/beacon\/expect-ct\"\n1 < Report-To: {\"endpoints\":[{\"url\":\"https:\\\/\\\/a.nel.cloudflare.com\\\/report\\\/v3?s=NqHpGs8%2FyZe3itqMmiH%2B3%2Fez%2FlOyq4jMpIVZfbsqtX2FO57DMuGxR6xGe0GSq4NCNVyCt%2F7xv5RxlMBVKWDteEiSds3xFYbsTXMNjs3dZumlhlvGqN1JO9A2McA%3D\"}],\"group\":\"cf-nel\",\"max_age\":604800}\n1 < NEL: {\"success_fraction\":0,\"report_to\":\"cf-nel\",\"max_age\":604800}\n1 < Vary: Accept-Encoding\n1 < Server: cloudflare\n1 < CF-RAY: 6e084ae2dc23d4b0-BRU\n1 < alt-svc: h3=\":443\"; ma=86400, h3-29=\":443\"; ma=86400\n{\"page\":1,\"per_page\":6,\"total\":12,\"total_pages\":2,\"data\":[{\"id\":1,\"email\":\"george.bluth@reqres.in\",\"first_name\":\"George\",\"last_name\":\"Bluth\",\"avatar\":\"https:\/\/reqres.in\/img\/faces\/1-image.jpg\"},{\"id\":2,\"email\":\"janet.weaver@reqres.in\",\"first_name\":\"Janet\",\"last_name\":\"Weaver\",\"avatar\":\"https:\/\/reqres.in\/img\/faces\/2-image.jpg\"},{\"id\":3,\"email\":\"emma.wong@reqres.in\",\"first_name\":\"Emma\",\"last_name\":\"Wong\",\"avatar\":\"https:\/\/reqres.in\/img\/faces\/3-image.jpg\"},{\"id\":4,\"email\":\"eve.holt@reqres.in\",\"first_name\":\"Eve\",\"last_name\":\"Holt\",\"avatar\":\"https:\/\/reqres.in\/img\/faces\/4-image.jpg\"},{\"id\":5,\"email\":\"charles.morris@reqres.in\",\"first_name\":\"Charles\",\"last_name\":\"Morris\",\"avatar\":\"https:\/\/reqres.in\/img\/faces\/5-image.jpg\"},{\"id\":6,\"email\":\"tracey.ramos@reqres.in\",\"first_name\":\"Tracey\",\"last_name\":\"Ramos\",\"avatar\":\"https:\/\/reqres.in\/img\/faces\/6-image.jpg\"}],\"support\":{\"url\":\"https:\/\/reqres.in\/#support-heading\",\"text\":\"To keep ReqRes free, contributions towards server costs are appreciated!\"}}\n"},{"result":{"nanos":16600,"millis":0.0166,"status":"passed"},"step":{"line":11,"prefix":"Then","index":2,"text":"status 200"}},{"result":{"nanos":854800,"millis":0.8548,"status":"passed"},"step":{"endLine":14,"line":12,"prefix":"*","index":3,"text":"table emails","table":[{"line":13,"row":["email"]},{"line":14,"row":["'george.bluth@reqres.in'"]}]}},{"result":{"nanos":293167100,"errorMessage":"feature call loop failed at index: 0, js failed:\n>>>>\n01: response.data[*].email == 'george.bluth@reqres.in'\n<<<<\norg.graalvm.polyglot.PolyglotException: SyntaxError: Unnamed:1:14 Expected an operand but found *\r\nresponse.data[*].email == 'george.bluth@reqres.in'\r\n              ^\n\n- org.graalvm.polyglot.Context.eval(Context.java:401)\n- com.intuit.karate.graal.JsEngine.evalForValue(JsEngine.java:141)\n- com.intuit.karate.graal.JsEngine.eval(JsEngine.java:137)\n- com.intuit.karate.core.ScenarioEngine.evalJs(ScenarioEngine.java:1252)\n- com.intuit.karate.core.ScenarioEngine.evalKarateExpression(ScenarioEngine.java:2205)\n- com.intuit.karate.core.ScenarioEngine.evalKarateExpression(ScenarioEngine.java:2124)\n- com.intuit.karate.core.ScenarioEngine.evalAndCastTo(ScenarioEngine.java:1316)\n\nclasspath:reusableFeatures\/getPerson.feature:10\nsrc\/test\/java\/TestFeatures\/week3\/callGetPerson.feature:15","millis":293.1671,"status":"failed"},"step":{"line":15,"prefix":"*","index":4,"text":"def person = call read('classpath:\/reusableFeatures\/getPerson.feature') emails"},"stepLog":"15:06:03.206 src\/test\/java\/TestFeatures\/week3\/callGetPerson.feature:15\n* def person = call read('classpath:\/reusableFeatures\/getPerson.feature') emails\nfeature call loop failed at index: 0, js failed:\n>>>>\n01: response.data[*].email == 'george.bluth@reqres.in'\n<<<<\norg.graalvm.polyglot.PolyglotException: SyntaxError: Unnamed:1:14 Expected an operand but found *\r\nresponse.data[*].email == 'george.bluth@reqres.in'\r\n              ^\n\n- org.graalvm.polyglot.Context.eval(Context.java:401)\n- com.intuit.karate.graal.JsEngine.evalForValue(JsEngine.java:141)\n- com.intuit.karate.graal.JsEngine.eval(JsEngine.java:137)\n- com.intuit.karate.core.ScenarioEngine.evalJs(ScenarioEngine.java:1252)\n- com.intuit.karate.core.ScenarioEngine.evalKarateExpression(ScenarioEngine.java:2205)\n- com.intuit.karate.core.ScenarioEngine.evalKarateExpression(ScenarioEngine.java:2124)\n- com.intuit.karate.core.ScenarioEngine.evalAndCastTo(ScenarioEngine.java:1316)\n\nclasspath:reusableFeatures\/getPerson.feature:10\n15:06:03.206 src\/test\/java\/TestFeatures\/week3\/callGetPerson.feature:15\n* def person = call read('classpath:\/reusableFeatures\/getPerson.feature') emails\nfeature call loop failed at index: 0, js failed:\n>>>>\n01: response.data[*].email == 'george.bluth@reqres.in'\n<<<<\norg.graalvm.polyglot.PolyglotException: SyntaxError: Unnamed:1:14 Expected an operand but found *\r\nresponse.data[*].email == 'george.bluth@reqres.in'\r\n              ^\n\n- org.graalvm.polyglot.Context.eval(Context.java:401)\n- com.intuit.karate.graal.JsEngine.evalForValue(JsEngine.java:141)\n- com.intuit.karate.graal.JsEngine.eval(JsEngine.java:137)\n- com.intuit.karate.core.ScenarioEngine.evalJs(ScenarioEngine.java:1252)\n- com.intuit.karate.core.ScenarioEngine.evalKarateExpression(ScenarioEngine.java:2205)\n- com.intuit.karate.core.ScenarioEngine.evalKarateExpression(ScenarioEngine.java:2124)\n- com.intuit.karate.core.ScenarioEngine.evalAndCastTo(ScenarioEngine.java:1316)\n\nclasspath:reusableFeatures\/getPerson.feature:10\nsrc\/test\/java\/TestFeatures\/week3\/callGetPerson.feature:15\n","callResults":[{"prefixedPath":"classpath:reusableFeatures\/getPerson.feature","loopIndex":0,"callDepth":1,"description":"","resultDate":"2022-02-20 03:06:03 PM","durationMillis":266.1828,"callArg":{"email":"george.bluth@reqres.in"},"failedCount":1,"packageQualifiedName":"reusableFeatures.getPerson","relativePath":"reusableFeatures\/getPerson.feature","scenarioResults":[{"sectionIndex":0,"stepResults":[{"result":{"nanos":407400,"millis":0.4074,"status":"passed"},"step":{"line":5,"prefix":"Given","index":0,"text":"url 'https:\/\/reqres.in\/api\/users?page=1'"}},{"result":{"nanos":236585600,"millis":236.5856,"status":"passed"},"step":{"comments":["#And request { email: #(email) }"],"line":7,"prefix":"When","index":1,"text":"method GET"},"stepLog":"15:06:02.939 request:\n1 > GET https:\/\/reqres.in\/api\/users?page=1\n1 > Host: reqres.in\n1 > Connection: Keep-Alive\n1 > User-Agent: Apache-HttpClient\/4.5.13 (Java\/17.0.1)\n1 > Accept-Encoding: gzip,deflate\n\n\n15:06:03.174 response time in milliseconds: 235\n1 < 200\n1 < Date: Sun, 20 Feb 2022 14:05:55 GMT\n1 < Content-Type: application\/json; charset=utf-8\n1 < Transfer-Encoding: chunked\n1 < Connection: keep-alive\n1 < x-powered-by: Express\n1 < access-control-allow-origin: *\n1 < etag: W\/\"3e4-2RLXvr5wTg9YQ6aH95CkYoFNuO8\"\n1 < via: 1.1 vegur\n1 < Cache-Control: max-age=14400\n1 < CF-Cache-Status: HIT\n1 < Age: 1690\n1 < Expect-CT: max-age=604800, report-uri=\"https:\/\/report-uri.cloudflare.com\/cdn-cgi\/beacon\/expect-ct\"\n1 < Report-To: {\"endpoints\":[{\"url\":\"https:\\\/\\\/a.nel.cloudflare.com\\\/report\\\/v3?s=urg9lrYdRd8hytxUA%2Fi2OtfRGYs0suaBuXsN004%2FSkf6pd4oiVok1tK09eOqvgIukWQIXrEREza%2Faq2UFXZFYzv6j82qPyXamZ5lC1E%2BOfwgf7p0flGZCXmnK7A%3D\"}],\"group\":\"cf-nel\",\"max_age\":604800}\n1 < NEL: {\"success_fraction\":0,\"report_to\":\"cf-nel\",\"max_age\":604800}\n1 < Vary: Accept-Encoding\n1 < Server: cloudflare\n1 < CF-RAY: 6e084ae4bc5183c7-BRU\n1 < alt-svc: h3=\":443\"; ma=86400, h3-29=\":443\"; ma=86400\n{\"page\":1,\"per_page\":6,\"total\":12,\"total_pages\":2,\"data\":[{\"id\":1,\"email\":\"george.bluth@reqres.in\",\"first_name\":\"George\",\"last_name\":\"Bluth\",\"avatar\":\"https:\/\/reqres.in\/img\/faces\/1-image.jpg\"},{\"id\":2,\"email\":\"janet.weaver@reqres.in\",\"first_name\":\"Janet\",\"last_name\":\"Weaver\",\"avatar\":\"https:\/\/reqres.in\/img\/faces\/2-image.jpg\"},{\"id\":3,\"email\":\"emma.wong@reqres.in\",\"first_name\":\"Emma\",\"last_name\":\"Wong\",\"avatar\":\"https:\/\/reqres.in\/img\/faces\/3-image.jpg\"},{\"id\":4,\"email\":\"eve.holt@reqres.in\",\"first_name\":\"Eve\",\"last_name\":\"Holt\",\"avatar\":\"https:\/\/reqres.in\/img\/faces\/4-image.jpg\"},{\"id\":5,\"email\":\"charles.morris@reqres.in\",\"first_name\":\"Charles\",\"last_name\":\"Morris\",\"avatar\":\"https:\/\/reqres.in\/img\/faces\/5-image.jpg\"},{\"id\":6,\"email\":\"tracey.ramos@reqres.in\",\"first_name\":\"Tracey\",\"last_name\":\"Ramos\",\"avatar\":\"https:\/\/reqres.in\/img\/faces\/6-image.jpg\"}],\"support\":{\"url\":\"https:\/\/reqres.in\/#support-heading\",\"text\":\"To keep ReqRes free, contributions towards server costs are appreciated!\"}}\n"},{"result":{"nanos":6300,"millis":0.0063,"status":"passed"},"step":{"line":8,"prefix":"Then","index":2,"text":"status 200"}},{"result":{"nanos":15412500,"millis":15.4125,"status":"passed"},"step":{"line":9,"prefix":"And","index":3,"text":"match response.data[*].email contains 'george.bluth@reqres.in'"}},{"result":{"nanos":13771000,"errorMessage":"js failed:\n>>>>\n01: response.data[*].email == 'george.bluth@reqres.in'\n<<<<\norg.graalvm.polyglot.PolyglotException: SyntaxError: Unnamed:1:14 Expected an operand but found *\r\nresponse.data[*].email == 'george.bluth@reqres.in'\r\n              ^\n\n- org.graalvm.polyglot.Context.eval(Context.java:401)\n- com.intuit.karate.graal.JsEngine.evalForValue(JsEngine.java:141)\n- com.intuit.karate.graal.JsEngine.eval(JsEngine.java:137)\n- com.intuit.karate.core.ScenarioEngine.evalJs(ScenarioEngine.java:1252)\n- com.intuit.karate.core.ScenarioEngine.evalKarateExpression(ScenarioEngine.java:2205)\n- com.intuit.karate.core.ScenarioEngine.evalKarateExpression(ScenarioEngine.java:2124)\n- com.intuit.karate.core.ScenarioEngine.evalAndCastTo(ScenarioEngine.java:1316)\n\nclasspath:reusableFeatures\/getPerson.feature:10","millis":13.771,"status":"failed"},"step":{"line":10,"prefix":"*","index":4,"text":"def exp = response.data[*].email == 'george.bluth@reqres.in'"},"stepLog":"15:06:03.205 classpath:reusableFeatures\/getPerson.feature:10\n* def exp = response.data[*].email == 'george.bluth@reqres.in'\njs failed:\n>>>>\n01: response.data[*].email == 'george.bluth@reqres.in'\n<<<<\norg.graalvm.polyglot.PolyglotException: SyntaxError: Unnamed:1:14 Expected an operand but found *\r\nresponse.data[*].email == 'george.bluth@reqres.in'\r\n              ^\n\n- org.graalvm.polyglot.Context.eval(Context.java:401)\n- com.intuit.karate.graal.JsEngine.evalForValue(JsEngine.java:141)\n- com.intuit.karate.graal.JsEngine.eval(JsEngine.java:137)\n- com.intuit.karate.core.ScenarioEngine.evalJs(ScenarioEngine.java:1252)\n- com.intuit.karate.core.ScenarioEngine.evalKarateExpression(ScenarioEngine.java:2205)\n- com.intuit.karate.core.ScenarioEngine.evalKarateExpression(ScenarioEngine.java:2124)\n- com.intuit.karate.core.ScenarioEngine.evalAndCastTo(ScenarioEngine.java:1316)\n\nclasspath:reusableFeatures\/getPerson.feature:10\n"},{"result":{"nanos":0,"millis":0.0,"status":"skipped"},"step":{"line":11,"prefix":"And","index":5,"text":"print exp"}},{"result":{"nanos":0,"millis":0.0,"status":"skipped"},"step":{"comments":["#And match response.data[*] contains {id: id,email:'#ignore',first_name:'#ignore',last_name:'#ignore',avatar:'#ignore'}","#And match response.data[*].email == {email : #(email)}"],"line":14,"prefix":"And","index":6,"text":"match response.data[*].email contains request.email"}}],"line":4,"description":"","durationMillis":266.1828,"failed":true,"error":"js failed:\n>>>>\n01: response.data[*].email == 'george.bluth@reqres.in'\n<<<<\norg.graalvm.polyglot.PolyglotException: SyntaxError: Unnamed:1:14 Expected an operand but found *\r\nresponse.data[*].email == 'george.bluth@reqres.in'\r\n              ^\n\n- org.graalvm.polyglot.Context.eval(Context.java:401)\n- com.intuit.karate.graal.JsEngine.evalForValue(JsEngine.java:141)\n- com.intuit.karate.graal.JsEngine.eval(JsEngine.java:137)\n- com.intuit.karate.core.ScenarioEngine.evalJs(ScenarioEngine.java:1252)\n- com.intuit.karate.core.ScenarioEngine.evalKarateExpression(ScenarioEngine.java:2205)\n- com.intuit.karate.core.ScenarioEngine.evalKarateExpression(ScenarioEngine.java:2124)\n- com.intuit.karate.core.ScenarioEngine.evalAndCastTo(ScenarioEngine.java:1316)\n\nclasspath:reusableFeatures\/getPerson.feature:10","executorName":"main","name":"get person","startTime":1645365962938,"refId":"[1:4]","endTime":1645365963205,"exampleIndex":-1}],"name":"Get person from list","passedCount":0}]},{"result":{"nanos":0,"millis":0.0,"status":"skipped"},"step":{"line":16,"prefix":"And","index":5,"text":"print person.response"}}],"line":8,"description":"","durationMillis":920.856,"failed":true,"error":"feature call loop failed at index: 0, js failed:\n>>>>\n01: response.data[*].email == 'george.bluth@reqres.in'\n<<<<\norg.graalvm.polyglot.PolyglotException: SyntaxError: Unnamed:1:14 Expected an operand but found *\r\nresponse.data[*].email == 'george.bluth@reqres.in'\r\n              ^\n\n- org.graalvm.polyglot.Context.eval(Context.java:401)\n- com.intuit.karate.graal.JsEngine.evalForValue(JsEngine.java:141)\n- com.intuit.karate.graal.JsEngine.eval(JsEngine.java:137)\n- com.intuit.karate.core.ScenarioEngine.evalJs(ScenarioEngine.java:1252)\n- com.intuit.karate.core.ScenarioEngine.evalKarateExpression(ScenarioEngine.java:2205)\n- com.intuit.karate.core.ScenarioEngine.evalKarateExpression(ScenarioEngine.java:2124)\n- com.intuit.karate.core.ScenarioEngine.evalAndCastTo(ScenarioEngine.java:1316)\n\nclasspath:reusableFeatures\/getPerson.feature:10\nsrc\/test\/java\/TestFeatures\/week3\/callGetPerson.feature:15","tags":["tag1"],"executorName":"main","name":"Title of your scenario","startTime":1645365962142,"refId":"[1:8]","endTime":1645365963206,"exampleIndex":-1}],"callDepth":0,"name":"Title of your feature","description":"I want to use this template for my feature file","resultDate":"2022-02-20 03:06:03 PM","durationMillis":920.856,"passedCount":0}