{"failedCount":1,"prefixedPath":"classpath:TestFeatures\/week3\/matchFromcsv.feature","packageQualifiedName":"TestFeatures.week3.matchFromcsv","loopIndex":-1,"relativePath":"TestFeatures\/week3\/matchFromcsv.feature","scenarioResults":[{"sectionIndex":0,"stepResults":[{"result":{"nanos":4045300,"millis":4.0453,"status":"passed"},"step":{"comments":["#* url BaseURL"],"background":true,"line":5,"prefix":"*","index":0,"text":"def exp1 = read('classpath:\/TestData\/allData.csv')"},"stepLog":"21:31:53.696 \n"},{"result":{"nanos":684900,"millis":0.6849,"status":"passed"},"step":{"line":8,"prefix":"Given","index":0,"text":"url 'https:\/\/reqres.in\/api\/users?page=1'"}},{"result":{"nanos":338046300,"millis":338.0463,"status":"passed"},"step":{"line":9,"prefix":"When","index":1,"text":"method GET"},"stepLog":"21:31:53.704 request:\n1 > GET https:\/\/reqres.in\/api\/users?page=1\n1 > Host: reqres.in\n1 > Connection: Keep-Alive\n1 > User-Agent: Apache-HttpClient\/4.5.13 (Java\/17.0.1)\n1 > Accept-Encoding: gzip,deflate\n\n\n21:31:54.038 response time in milliseconds: 333\n1 < 200\n1 < Date: Sat, 19 Feb 2022 20:31:47 GMT\n1 < Content-Type: application\/json; charset=utf-8\n1 < Transfer-Encoding: chunked\n1 < Connection: keep-alive\n1 < x-powered-by: Express\n1 < access-control-allow-origin: *\n1 < etag: W\/\"3e4-2RLXvr5wTg9YQ6aH95CkYoFNuO8\"\n1 < via: 1.1 vegur\n1 < Cache-Control: max-age=14400\n1 < CF-Cache-Status: HIT\n1 < Age: 2042\n1 < Expect-CT: max-age=604800, report-uri=\"https:\/\/report-uri.cloudflare.com\/cdn-cgi\/beacon\/expect-ct\"\n1 < Report-To: {\"endpoints\":[{\"url\":\"https:\\\/\\\/a.nel.cloudflare.com\\\/report\\\/v3?s=80CcjVfXBtr%2FWsVDhfZJ0Y4Pgo1uMGrs88F2gwOz80cOW0eD9VlDMdMt8xl6bLZdimoKrkYKRALnDy61aeeOgBhFIN8SUBnREeTdLFOe9aPIIct3xpiIqF88ESI%3D\"}],\"group\":\"cf-nel\",\"max_age\":604800}\n1 < NEL: {\"success_fraction\":0,\"report_to\":\"cf-nel\",\"max_age\":604800}\n1 < Vary: Accept-Encoding\n1 < Server: cloudflare\n1 < CF-RAY: 6e0242c0ac1083e4-BRU\n1 < alt-svc: h3=\":443\"; ma=86400, h3-29=\":443\"; ma=86400\n{\"page\":1,\"per_page\":6,\"total\":12,\"total_pages\":2,\"data\":[{\"id\":1,\"email\":\"george.bluth@reqres.in\",\"first_name\":\"George\",\"last_name\":\"Bluth\",\"avatar\":\"https:\/\/reqres.in\/img\/faces\/1-image.jpg\"},{\"id\":2,\"email\":\"janet.weaver@reqres.in\",\"first_name\":\"Janet\",\"last_name\":\"Weaver\",\"avatar\":\"https:\/\/reqres.in\/img\/faces\/2-image.jpg\"},{\"id\":3,\"email\":\"emma.wong@reqres.in\",\"first_name\":\"Emma\",\"last_name\":\"Wong\",\"avatar\":\"https:\/\/reqres.in\/img\/faces\/3-image.jpg\"},{\"id\":4,\"email\":\"eve.holt@reqres.in\",\"first_name\":\"Eve\",\"last_name\":\"Holt\",\"avatar\":\"https:\/\/reqres.in\/img\/faces\/4-image.jpg\"},{\"id\":5,\"email\":\"charles.morris@reqres.in\",\"first_name\":\"Charles\",\"last_name\":\"Morris\",\"avatar\":\"https:\/\/reqres.in\/img\/faces\/5-image.jpg\"},{\"id\":6,\"email\":\"tracey.ramos@reqres.in\",\"first_name\":\"Tracey\",\"last_name\":\"Ramos\",\"avatar\":\"https:\/\/reqres.in\/img\/faces\/6-image.jpg\"}],\"support\":{\"url\":\"https:\/\/reqres.in\/#support-heading\",\"text\":\"To keep ReqRes free, contributions towards server costs are appreciated!\"}}\n"},{"result":{"nanos":23400,"millis":0.0234,"status":"passed"},"step":{"line":10,"prefix":"Then","index":2,"text":"status 200"}},{"result":{"nanos":316800,"millis":0.3168,"status":"passed"},"step":{"line":11,"prefix":"And","index":3,"text":"def acc = response"}},{"result":{"nanos":31832200,"errorMessage":"js failed:\n>>>>\n01: karate.log('[print]',exp1.id[*])\n<<<<\norg.graalvm.polyglot.PolyglotException: SyntaxError: Unnamed:1:29 Expected an operand but found *\r\nkarate.log('[print]',exp1.id[*])\r\n                             ^\n\n- org.graalvm.polyglot.Context.eval(Context.java:401)\n- com.intuit.karate.graal.JsEngine.evalForValue(JsEngine.java:141)\n- com.intuit.karate.graal.JsEngine.eval(JsEngine.java:137)\n- com.intuit.karate.core.ScenarioEngine.evalJs(ScenarioEngine.java:1252)\n- com.intuit.karate.core.ScenarioEngine.print(ScenarioEngine.java:242)\n- com.intuit.karate.ScenarioActions.print(ScenarioActions.java:296)\n- java.base\/jdk.internal.reflect.NativeMethodAccessorImpl.invoke0(Native Method)\n\nclasspath:TestFeatures\/week3\/matchFromcsv.feature:12","millis":31.8322,"status":"failed"},"step":{"line":12,"prefix":"And","index":4,"text":"print exp1.id[*]"},"stepLog":"21:31:54.072 classpath:TestFeatures\/week3\/matchFromcsv.feature:12\nAnd print exp1.id[*]\njs failed:\n>>>>\n01: karate.log('[print]',exp1.id[*])\n<<<<\norg.graalvm.polyglot.PolyglotException: SyntaxError: Unnamed:1:29 Expected an operand but found *\r\nkarate.log('[print]',exp1.id[*])\r\n                             ^\n\n- org.graalvm.polyglot.Context.eval(Context.java:401)\n- com.intuit.karate.graal.JsEngine.evalForValue(JsEngine.java:141)\n- com.intuit.karate.graal.JsEngine.eval(JsEngine.java:137)\n- com.intuit.karate.core.ScenarioEngine.evalJs(ScenarioEngine.java:1252)\n- com.intuit.karate.core.ScenarioEngine.print(ScenarioEngine.java:242)\n- com.intuit.karate.ScenarioActions.print(ScenarioActions.java:296)\n- java.base\/jdk.internal.reflect.NativeMethodAccessorImpl.invoke0(Native Method)\n\nclasspath:TestFeatures\/week3\/matchFromcsv.feature:12\n"},{"result":{"nanos":0,"millis":0.0,"status":"skipped"},"step":{"line":13,"prefix":"And","index":5,"text":"match response contains exp1"}},{"result":{"nanos":0,"millis":0.0,"status":"skipped"},"step":{"line":15,"prefix":"*","index":6,"text":"match each acc contains '#(^exp1)'"}},{"result":{"nanos":0,"millis":0.0,"status":"skipped"},"step":{"line":17,"prefix":"*","index":7,"text":"match acc.data[*].id contains deep exp1.id"}}],"line":7,"description":"","durationMillis":374.9489,"failed":true,"error":"js failed:\n>>>>\n01: karate.log('[print]',exp1.id[*])\n<<<<\norg.graalvm.polyglot.PolyglotException: SyntaxError: Unnamed:1:29 Expected an operand but found *\r\nkarate.log('[print]',exp1.id[*])\r\n                             ^\n\n- org.graalvm.polyglot.Context.eval(Context.java:401)\n- com.intuit.karate.graal.JsEngine.evalForValue(JsEngine.java:141)\n- com.intuit.karate.graal.JsEngine.eval(JsEngine.java:137)\n- com.intuit.karate.core.ScenarioEngine.evalJs(ScenarioEngine.java:1252)\n- com.intuit.karate.core.ScenarioEngine.print(ScenarioEngine.java:242)\n- com.intuit.karate.ScenarioActions.print(ScenarioActions.java:296)\n- java.base\/jdk.internal.reflect.NativeMethodAccessorImpl.invoke0(Native Method)\n\nclasspath:TestFeatures\/week3\/matchFromcsv.feature:12","executorName":"main","name":"check if response contains csv values emails","startTime":1645302713695,"refId":"[1:7]","endTime":1645302714072,"exampleIndex":-1}],"callDepth":0,"name":"verify if elements exists in csv file","description":"","resultDate":"2022-02-19 09:31:54 PM","durationMillis":374.9489,"passedCount":0}