{"failedCount":0,"prefixedPath":"classpath:TestFeatures\/Week1\/testapi.feature","packageQualifiedName":"TestFeatures.Week1.testapi","loopIndex":-1,"relativePath":"TestFeatures\/Week1\/testapi.feature","scenarioResults":[{"sectionIndex":0,"stepResults":[{"result":{"nanos":1741500,"millis":1.7415,"status":"passed"},"step":{"background":true,"line":4,"prefix":"*","index":0,"text":"url 'https:\/\/reqres.in\/api'"},"stepLog":"21:31:47.922 \n"},{"result":{"nanos":74977900,"millis":74.9779,"status":"passed"},"step":{"background":true,"line":5,"prefix":"*","index":1,"text":"def output = read('classpath:\/TestData\/response1.json')"}},{"result":{"nanos":7853700,"millis":7.8537,"status":"passed"},"step":{"background":true,"line":6,"prefix":"*","index":2,"text":"def request1 = read('classpath:\/TestData\/request1.json')"}},{"result":{"nanos":705600,"millis":0.7056,"status":"passed"},"step":{"line":9,"prefix":"Given","index":0,"text":"path '\/users?page=2'"}},{"result":{"nanos":843399700,"millis":843.3997,"status":"passed"},"step":{"line":10,"prefix":"When","index":1,"text":"method GET"},"stepLog":"21:31:48.344 request:\n1 > GET https:\/\/reqres.in\/api\/users%3Fpage=2\n1 > Host: reqres.in\n1 > Connection: Keep-Alive\n1 > User-Agent: Apache-HttpClient\/4.5.13 (Java\/17.0.1)\n1 > Accept-Encoding: gzip,deflate\n\n\n21:31:48.872 response time in milliseconds: 522\n1 < 200\n1 < Date: Sat, 19 Feb 2022 20:31:42 GMT\n1 < Content-Type: application\/json; charset=utf-8\n1 < Transfer-Encoding: chunked\n1 < Connection: keep-alive\n1 < X-Powered-By: Express\n1 < Access-Control-Allow-Origin: *\n1 < Etag: W\/\"2c1-N6Rqerxquq2kgQhL51EiSg4x0R8\"\n1 < Via: 1.1 vegur\n1 < Cache-Control: max-age=14400\n1 < CF-Cache-Status: HIT\n1 < Age: 181\n1 < Expect-CT: max-age=604800, report-uri=\"https:\/\/report-uri.cloudflare.com\/cdn-cgi\/beacon\/expect-ct\"\n1 < Report-To: {\"endpoints\":[{\"url\":\"https:\\\/\\\/a.nel.cloudflare.com\\\/report\\\/v3?s=1NPUB4M1Zg2uCenfwV9fpzCM58CPFMtN%2BntsZ52h200HgrynPtoB8J%2Ba0z%2F5wMIVK8o2W7u6EMvwTKVjvM0Y%2F3E3fI1RSRVbLF41%2F3JKI%2BaJZNNgnhvMimBGOjA%3D\"}],\"group\":\"cf-nel\",\"max_age\":604800}\n1 < NEL: {\"success_fraction\":0,\"report_to\":\"cf-nel\",\"max_age\":604800}\n1 < Vary: Accept-Encoding\n1 < Server: cloudflare\n1 < CF-RAY: 6e0242a02d542e2c-BRU\n1 < alt-svc: h3=\":443\"; ma=86400, h3-29=\":443\"; ma=86400\n{\"page\":1,\"per_page\":6,\"total\":12,\"total_pages\":2,\"data\":[{\"id\":1,\"name\":\"cerulean\",\"year\":2000,\"color\":\"#98B2D1\",\"pantone_value\":\"15-4020\"},{\"id\":2,\"name\":\"fuchsia rose\",\"year\":2001,\"color\":\"#C74375\",\"pantone_value\":\"17-2031\"},{\"id\":3,\"name\":\"true red\",\"year\":2002,\"color\":\"#BF1932\",\"pantone_value\":\"19-1664\"},{\"id\":4,\"name\":\"aqua sky\",\"year\":2003,\"color\":\"#7BC4C4\",\"pantone_value\":\"14-4811\"},{\"id\":5,\"name\":\"tigerlily\",\"year\":2004,\"color\":\"#E2583E\",\"pantone_value\":\"17-1456\"},{\"id\":6,\"name\":\"blue turquoise\",\"year\":2005,\"color\":\"#53B0AE\",\"pantone_value\":\"15-5217\"}],\"support\":{\"url\":\"https:\/\/reqres.in\/#support-heading\",\"text\":\"To keep ReqRes free, contributions towards server costs are appreciated!\"}}\n"},{"result":{"nanos":48900,"millis":0.0489,"status":"passed"},"step":{"line":11,"prefix":"Then","index":2,"text":"status 200"}},{"result":{"nanos":4459800,"millis":4.4598,"status":"passed"},"step":{"line":12,"prefix":"And","index":3,"text":"assert response.data.length == 6"}},{"result":{"nanos":8063100,"millis":8.0631,"status":"passed"},"step":{"line":13,"prefix":"And","index":4,"text":"print response.data[1].id"},"stepLog":"21:31:48.896 [print] 2 \n"},{"result":{"nanos":19625600,"millis":19.6256,"status":"passed"},"step":{"line":14,"prefix":"And","index":5,"text":"match $.data[0].id == 1"}},{"result":{"nanos":2725300,"millis":2.7253,"status":"passed"},"step":{"line":15,"prefix":"And","index":6,"text":"print response.data[0].year"},"stepLog":"21:31:48.919 [print] 2000 \n"},{"result":{"nanos":2006800,"millis":2.0068,"status":"passed"},"step":{"line":16,"prefix":"And","index":7,"text":"match $.data[0].year == 2000"}}],"executorName":"main","line":8,"name":"test API get 1","description":"","durationMillis":965.6079,"startTime":1645302707752,"failed":false,"refId":"[1:8]","endTime":1645302708922,"exampleIndex":-1},{"sectionIndex":1,"stepResults":[{"result":{"nanos":948600,"millis":0.9486,"status":"passed"},"step":{"background":true,"line":4,"prefix":"*","index":0,"text":"url 'https:\/\/reqres.in\/api'"},"stepLog":"21:31:48.948 \n"},{"result":{"nanos":36835700,"millis":36.8357,"status":"passed"},"step":{"background":true,"line":5,"prefix":"*","index":1,"text":"def output = read('classpath:\/TestData\/response1.json')"}},{"result":{"nanos":3936300,"millis":3.9363,"status":"passed"},"step":{"background":true,"line":6,"prefix":"*","index":2,"text":"def request1 = read('classpath:\/TestData\/request1.json')"}},{"result":{"nanos":999200,"millis":0.9992,"status":"passed"},"step":{"line":19,"prefix":"Given","index":0,"text":"path '\/users'"}},{"result":{"nanos":650000,"millis":0.65,"status":"passed"},"step":{"line":20,"prefix":"And","index":1,"text":"request {\"name\": \"Mouad\" , \"job\": \"tester\" , \"age\": 25}"}},{"result":{"nanos":450657000,"millis":450.657,"status":"passed"},"step":{"line":21,"prefix":"When","index":2,"text":"method POST"},"stepLog":"21:31:49.088 request:\n1 > POST https:\/\/reqres.in\/api\/users\n1 > Content-Type: application\/json; charset=UTF-8\n1 > Content-Length: 40\n1 > Host: reqres.in\n1 > Connection: Keep-Alive\n1 > User-Agent: Apache-HttpClient\/4.5.13 (Java\/17.0.1)\n1 > Accept-Encoding: gzip,deflate\n{\"name\":\"Mouad\",\"job\":\"tester\",\"age\":25}\n\n21:31:49.439 response time in milliseconds: 350\n1 < 201\n1 < Date: Sat, 19 Feb 2022 20:31:42 GMT\n1 < Content-Type: application\/json; charset=utf-8\n1 < Content-Length: 90\n1 < Connection: keep-alive\n1 < X-Powered-By: Express\n1 < Access-Control-Allow-Origin: *\n1 < Etag: W\/\"5a-v1OyNheZGaPCD5baUHklX7WiwgY\"\n1 < Via: 1.1 vegur\n1 < CF-Cache-Status: DYNAMIC\n1 < Expect-CT: max-age=604800, report-uri=\"https:\/\/report-uri.cloudflare.com\/cdn-cgi\/beacon\/expect-ct\"\n1 < Report-To: {\"endpoints\":[{\"url\":\"https:\\\/\\\/a.nel.cloudflare.com\\\/report\\\/v3?s=N1s73voKcPLYb1xLx4uF63aq55rvTTRL9JmG7YQ2srSTeSMeYyKd3YKmA8pH5F0rzLXD5PvfMZ5a2JmAFtoY8IqOyPe028dq4s7sUMuKgPVnD2bACogMRUMgJfE%3D\"}],\"group\":\"cf-nel\",\"max_age\":604800}\n1 < NEL: {\"success_fraction\":0,\"report_to\":\"cf-nel\",\"max_age\":604800}\n1 < Server: cloudflare\n1 < CF-RAY: 6e0242a3a882d4b4-BRU\n1 < alt-svc: h3=\":443\"; ma=86400, h3-29=\":443\"; ma=86400\n{\"name\":\"Mouad\",\"job\":\"tester\",\"age\":25,\"id\":\"845\",\"createdAt\":\"2022-02-19T20:31:42.714Z\"}\n"},{"result":{"nanos":30300,"millis":0.0303,"status":"passed"},"step":{"line":22,"prefix":"Then","index":3,"text":"status 201"}},{"result":{"nanos":2465000,"millis":2.465,"status":"passed"},"step":{"line":23,"prefix":"And","index":4,"text":"match response == {\"name\":\"Mouad\",\"job\":\"tester\",\"age\":25,\"id\":\"#string\",\"createdAt\":\"#ignore\"}"}},{"result":{"nanos":5524600,"millis":5.5246,"status":"passed"},"step":{"line":24,"prefix":"And","index":5,"text":"print response"},"stepLog":"21:31:49.453 [print] {\n  \"name\": \"Mouad\",\n  \"job\": \"tester\",\n  \"age\": 25,\n  \"id\": \"845\",\n  \"createdAt\": \"2022-02-19T20:31:42.714Z\"\n}\n \n"}],"executorName":"main","line":18,"name":"test API post 2","description":"","durationMillis":502.0467,"startTime":1645302708942,"failed":false,"refId":"[2:18]","endTime":1645302709453,"exampleIndex":-1},{"sectionIndex":2,"stepResults":[{"result":{"nanos":383700,"millis":0.3837,"status":"passed"},"step":{"background":true,"line":4,"prefix":"*","index":0,"text":"url 'https:\/\/reqres.in\/api'"},"stepLog":"21:31:49.474 \n"},{"result":{"nanos":4039400,"millis":4.0394,"status":"passed"},"step":{"background":true,"line":5,"prefix":"*","index":1,"text":"def output = read('classpath:\/TestData\/response1.json')"}},{"result":{"nanos":3494700,"millis":3.4947,"status":"passed"},"step":{"background":true,"line":6,"prefix":"*","index":2,"text":"def request1 = read('classpath:\/TestData\/request1.json')"}},{"result":{"nanos":327700,"millis":0.3277,"status":"passed"},"step":{"line":27,"prefix":"Given","index":0,"text":"path '\/users'"}},{"result":{"nanos":474900,"millis":0.4749,"status":"passed"},"step":{"line":28,"prefix":"And","index":1,"text":"request {\"name\": \"Mouad\" , \"job\": \"tester\" }"}},{"result":{"nanos":277918300,"millis":277.9183,"status":"passed"},"step":{"line":29,"prefix":"When","index":2,"text":"method POST"},"stepLog":"21:31:49.486 request:\n1 > POST https:\/\/reqres.in\/api\/users\n1 > Content-Type: application\/json; charset=UTF-8\n1 > Content-Length: 31\n1 > Host: reqres.in\n1 > Connection: Keep-Alive\n1 > User-Agent: Apache-HttpClient\/4.5.13 (Java\/17.0.1)\n1 > Accept-Encoding: gzip,deflate\n{\"name\":\"Mouad\",\"job\":\"tester\"}\n\n21:31:49.759 response time in milliseconds: 272\n1 < 201\n1 < Date: Sat, 19 Feb 2022 20:31:43 GMT\n1 < Content-Type: application\/json; charset=utf-8\n1 < Content-Length: 80\n1 < Connection: keep-alive\n1 < X-Powered-By: Express\n1 < Access-Control-Allow-Origin: *\n1 < Etag: W\/\"50-BBaiAymOPRgj3VjbZK97Yun1HvI\"\n1 < Via: 1.1 vegur\n1 < CF-Cache-Status: DYNAMIC\n1 < Expect-CT: max-age=604800, report-uri=\"https:\/\/report-uri.cloudflare.com\/cdn-cgi\/beacon\/expect-ct\"\n1 < Report-To: {\"endpoints\":[{\"url\":\"https:\\\/\\\/a.nel.cloudflare.com\\\/report\\\/v3?s=8VCECJ7dJQ8OgqL1K7noHQIh6Rc5JsRLnQCn2ZEEx0neHUyY0AEGsGX5%2Bqix%2Fz8tpbJqwJVFNKaJXhi4NeQEuWF8wopGJF3Cn%2BqFI0DcyT4EopNc%2FmjIWbZbb54%3D\"}],\"group\":\"cf-nel\",\"max_age\":604800}\n1 < NEL: {\"success_fraction\":0,\"report_to\":\"cf-nel\",\"max_age\":604800}\n1 < Server: cloudflare\n1 < CF-RAY: 6e0242a5bd032e14-BRU\n1 < alt-svc: h3=\":443\"; ma=86400, h3-29=\":443\"; ma=86400\n{\"name\":\"Mouad\",\"job\":\"tester\",\"id\":\"43\",\"createdAt\":\"2022-02-19T20:31:43.038Z\"}\n"},{"result":{"nanos":23400,"millis":0.0234,"status":"passed"},"step":{"line":30,"prefix":"Then","index":3,"text":"status 201"}},{"result":{"nanos":1541900,"millis":1.5419,"status":"passed"},"step":{"line":31,"prefix":"And","index":4,"text":"match response == output"}},{"result":{"nanos":1419400,"millis":1.4194,"status":"passed"},"step":{"line":32,"prefix":"And","index":5,"text":"print response"},"stepLog":"21:31:49.766 [print] {\n  \"name\": \"Mouad\",\n  \"job\": \"tester\",\n  \"id\": \"43\",\n  \"createdAt\": \"2022-02-19T20:31:43.038Z\"\n}\n \n"}],"executorName":"main","line":26,"name":"test API post 3","description":"","durationMillis":289.6234,"startTime":1645302709472,"failed":false,"refId":"[3:26]","endTime":1645302709766,"exampleIndex":-1},{"sectionIndex":3,"stepResults":[{"result":{"nanos":535700,"millis":0.5357,"status":"passed"},"step":{"background":true,"line":4,"prefix":"*","index":0,"text":"url 'https:\/\/reqres.in\/api'"},"stepLog":"21:31:49.781 \n"},{"result":{"nanos":3980900,"millis":3.9809,"status":"passed"},"step":{"background":true,"line":5,"prefix":"*","index":1,"text":"def output = read('classpath:\/TestData\/response1.json')"}},{"result":{"nanos":3682400,"millis":3.6824,"status":"passed"},"step":{"background":true,"line":6,"prefix":"*","index":2,"text":"def request1 = read('classpath:\/TestData\/request1.json')"}},{"result":{"nanos":294900,"millis":0.2949,"status":"passed"},"step":{"line":35,"prefix":"Given","index":0,"text":"path '\/users'"}},{"result":{"nanos":1629900,"millis":1.6299,"status":"passed"},"step":{"line":36,"prefix":"And","index":1,"text":"request request1"}},{"result":{"nanos":342826600,"millis":342.8266,"status":"passed"},"step":{"line":37,"prefix":"When","index":2,"text":"method POST"},"stepLog":"21:31:49.796 request:\n1 > POST https:\/\/reqres.in\/api\/users\n1 > Content-Type: application\/json; charset=UTF-8\n1 > Content-Length: 31\n1 > Host: reqres.in\n1 > Connection: Keep-Alive\n1 > User-Agent: Apache-HttpClient\/4.5.13 (Java\/17.0.1)\n1 > Accept-Encoding: gzip,deflate\n{\"name\":\"Mouad\",\"job\":\"tester\"}\n\n21:31:50.132 response time in milliseconds: 336\n1 < 201\n1 < Date: Sat, 19 Feb 2022 20:31:43 GMT\n1 < Content-Type: application\/json; charset=utf-8\n1 < Content-Length: 81\n1 < Connection: keep-alive\n1 < X-Powered-By: Express\n1 < Access-Control-Allow-Origin: *\n1 < Etag: W\/\"51-v8Xl\/tZQA5pbMzFu6S99JO2YVCE\"\n1 < Via: 1.1 vegur\n1 < CF-Cache-Status: DYNAMIC\n1 < Expect-CT: max-age=604800, report-uri=\"https:\/\/report-uri.cloudflare.com\/cdn-cgi\/beacon\/expect-ct\"\n1 < Report-To: {\"endpoints\":[{\"url\":\"https:\\\/\\\/a.nel.cloudflare.com\\\/report\\\/v3?s=X%2B9OimVei6Tr55JXxwQXYCSirjLV5s%2BDEFCtyd1e62HhRJOkYHk1AS4eTgbIfB8PPE%2FL7vHK36ijBHWtoSAeTra8eQfA5fC2yEjaOCrJsQRZ4gFUjvaAWMfcsdI%3D\"}],\"group\":\"cf-nel\",\"max_age\":604800}\n1 < NEL: {\"success_fraction\":0,\"report_to\":\"cf-nel\",\"max_age\":604800}\n1 < Server: cloudflare\n1 < CF-RAY: 6e0242a7ee122e56-BRU\n1 < alt-svc: h3=\":443\"; ma=86400, h3-29=\":443\"; ma=86400\n{\"name\":\"Mouad\",\"job\":\"tester\",\"id\":\"750\",\"createdAt\":\"2022-02-19T20:31:43.405Z\"}\n"},{"result":{"nanos":29500,"millis":0.0295,"status":"passed"},"step":{"line":38,"prefix":"Then","index":3,"text":"status 201"}},{"result":{"nanos":1586000,"millis":1.586,"status":"passed"},"step":{"line":39,"prefix":"And","index":4,"text":"match response == output"}},{"result":{"nanos":1843900,"millis":1.8439,"status":"passed"},"step":{"line":40,"prefix":"And","index":5,"text":"print response"},"stepLog":"21:31:50.140 [print] {\n  \"name\": \"Mouad\",\n  \"job\": \"tester\",\n  \"id\": \"750\",\n  \"createdAt\": \"2022-02-19T20:31:43.405Z\"\n}\n \n"}],"executorName":"main","line":34,"name":"test API post 3","description":"","durationMillis":356.4098,"startTime":1645302709780,"failed":false,"refId":"[4:34]","endTime":1645302710141,"exampleIndex":-1}],"callDepth":0,"name":"test sample API","description":"","resultDate":"2022-02-19 09:31:50 PM","durationMillis":2113.6878,"passedCount":4}