{"failedCount":3,"prefixedPath":"classpath:TestFeatures\/week3\/matchFromAllData.feature","packageQualifiedName":"TestFeatures.week3.matchFromAllData","loopIndex":-1,"relativePath":"TestFeatures\/week3\/matchFromAllData.feature","scenarioResults":[{"sectionIndex":0,"stepResults":[{"result":{"nanos":746800,"millis":0.7468,"status":"passed"},"step":{"line":6,"prefix":"Given","index":0,"text":"url 'https:\/\/reqres.in\/api\/users?page=1'"},"stepLog":"21:25:36.834 \n"},{"result":{"nanos":310022000,"millis":310.022,"status":"passed"},"step":{"line":7,"prefix":"When","index":1,"text":"method get"},"stepLog":"21:25:36.838 request:\n1 > GET https:\/\/reqres.in\/api\/users?page=1\n1 > Host: reqres.in\n1 > Connection: Keep-Alive\n1 > User-Agent: Apache-HttpClient\/4.5.13 (Java\/17.0.1)\n1 > Accept-Encoding: gzip,deflate\n\n\n21:25:37.144 response time in milliseconds: 305\n1 < 200\n1 < Date: Sat, 19 Feb 2022 20:25:30 GMT\n1 < Content-Type: application\/json; charset=utf-8\n1 < Transfer-Encoding: chunked\n1 < Connection: keep-alive\n1 < X-Powered-By: Express\n1 < Access-Control-Allow-Origin: *\n1 < Etag: W\/\"3e4-2RLXvr5wTg9YQ6aH95CkYoFNuO8\"\n1 < Via: 1.1 vegur\n1 < Cache-Control: max-age=14400\n1 < CF-Cache-Status: HIT\n1 < Age: 657\n1 < Expect-CT: max-age=604800, report-uri=\"https:\/\/report-uri.cloudflare.com\/cdn-cgi\/beacon\/expect-ct\"\n1 < Report-To: {\"endpoints\":[{\"url\":\"https:\\\/\\\/a.nel.cloudflare.com\\\/report\\\/v3?s=nyN2Cw0D18P3M7dRv8ee2ESw%2Bjxk8lSh7UCK7KL9I8Sq4lrdm5YjsaUzsI%2BhVpszbcSoe44MBy560PCN8WG7Wr5qV7aVknCtR4zP%2F6yXg4meemzj5PM5UmLHD1I%3D\"}],\"group\":\"cf-nel\",\"max_age\":604800}\n1 < NEL: {\"success_fraction\":0,\"report_to\":\"cf-nel\",\"max_age\":604800}\n1 < Vary: Accept-Encoding\n1 < Server: cloudflare\n1 < CF-RAY: 6e02398ccce00fde-MRS\n1 < alt-svc: h3=\":443\"; ma=86400, h3-29=\":443\"; ma=86400\n{\"page\":1,\"per_page\":6,\"total\":12,\"total_pages\":2,\"data\":[{\"id\":1,\"email\":\"george.bluth@reqres.in\",\"first_name\":\"George\",\"last_name\":\"Bluth\",\"avatar\":\"https:\/\/reqres.in\/img\/faces\/1-image.jpg\"},{\"id\":2,\"email\":\"janet.weaver@reqres.in\",\"first_name\":\"Janet\",\"last_name\":\"Weaver\",\"avatar\":\"https:\/\/reqres.in\/img\/faces\/2-image.jpg\"},{\"id\":3,\"email\":\"emma.wong@reqres.in\",\"first_name\":\"Emma\",\"last_name\":\"Wong\",\"avatar\":\"https:\/\/reqres.in\/img\/faces\/3-image.jpg\"},{\"id\":4,\"email\":\"eve.holt@reqres.in\",\"first_name\":\"Eve\",\"last_name\":\"Holt\",\"avatar\":\"https:\/\/reqres.in\/img\/faces\/4-image.jpg\"},{\"id\":5,\"email\":\"charles.morris@reqres.in\",\"first_name\":\"Charles\",\"last_name\":\"Morris\",\"avatar\":\"https:\/\/reqres.in\/img\/faces\/5-image.jpg\"},{\"id\":6,\"email\":\"tracey.ramos@reqres.in\",\"first_name\":\"Tracey\",\"last_name\":\"Ramos\",\"avatar\":\"https:\/\/reqres.in\/img\/faces\/6-image.jpg\"}],\"support\":{\"url\":\"https:\/\/reqres.in\/#support-heading\",\"text\":\"To keep ReqRes free, contributions towards server costs are appreciated!\"}}\n"},{"result":{"nanos":33100,"millis":0.0331,"status":"passed"},"step":{"line":8,"prefix":"Then","index":2,"text":"status 200"}},{"result":{"nanos":3679600,"errorMessage":"match failed: CONTAINS\n  $ | actual path does not exist (STRING:NUMBER)\n  '#notpresent'\n  1\n\nclasspath:TestFeatures\/week3\/matchFromAllData.feature:9","millis":3.6796,"status":"failed"},"step":{"line":9,"prefix":"And","index":3,"text":"match response.data.id contains 1"},"stepLog":"21:25:37.151 classpath:TestFeatures\/week3\/matchFromAllData.feature:9\nAnd match response.data.id contains 1\nmatch failed: CONTAINS\n  $ | actual path does not exist (STRING:NUMBER)\n  '#notpresent'\n  1\n\nclasspath:TestFeatures\/week3\/matchFromAllData.feature:9\n"}],"line":13,"description":"","durationMillis":314.4815,"failed":true,"error":"match failed: CONTAINS\n  $ | actual path does not exist (STRING:NUMBER)\n  '#notpresent'\n  1\n\nclasspath:TestFeatures\/week3\/matchFromAllData.feature:9","executorName":"main","name":"create","startTime":1645302336833,"refId":"[1.1:13]","endTime":1645302337151,"exampleData":{"﻿id;Name;Email":"1;John;john@test.com"},"exampleIndex":0},{"sectionIndex":0,"stepResults":[{"result":{"nanos":848800,"millis":0.8488,"status":"passed"},"step":{"line":6,"prefix":"Given","index":0,"text":"url 'https:\/\/reqres.in\/api\/users?page=1'"},"stepLog":"21:25:37.165 \n"},{"result":{"nanos":246588600,"millis":246.5886,"status":"passed"},"step":{"line":7,"prefix":"When","index":1,"text":"method get"},"stepLog":"21:25:37.170 request:\n1 > GET https:\/\/reqres.in\/api\/users?page=1\n1 > Host: reqres.in\n1 > Connection: Keep-Alive\n1 > User-Agent: Apache-HttpClient\/4.5.13 (Java\/17.0.1)\n1 > Accept-Encoding: gzip,deflate\n\n\n21:25:37.412 response time in milliseconds: 241\n1 < 200\n1 < Date: Sat, 19 Feb 2022 20:25:30 GMT\n1 < Content-Type: application\/json; charset=utf-8\n1 < Transfer-Encoding: chunked\n1 < Connection: keep-alive\n1 < X-Powered-By: Express\n1 < Access-Control-Allow-Origin: *\n1 < Etag: W\/\"3e4-2RLXvr5wTg9YQ6aH95CkYoFNuO8\"\n1 < Via: 1.1 vegur\n1 < Cache-Control: max-age=14400\n1 < CF-Cache-Status: HIT\n1 < Age: 657\n1 < Expect-CT: max-age=604800, report-uri=\"https:\/\/report-uri.cloudflare.com\/cdn-cgi\/beacon\/expect-ct\"\n1 < Report-To: {\"endpoints\":[{\"url\":\"https:\\\/\\\/a.nel.cloudflare.com\\\/report\\\/v3?s=Q7sC1s9%2BeDG5Im0P9YB8wTQeSck%2Bbp6RS2W7DRoJDedRs%2BRMTnXSy3Qeu5t568PV2CMG7LKbtNQa6jXbgndvjwZaMZR13q8QiIWQEM8SbtajKSMtQRmgsscOt98%3D\"}],\"group\":\"cf-nel\",\"max_age\":604800}\n1 < NEL: {\"success_fraction\":0,\"report_to\":\"cf-nel\",\"max_age\":604800}\n1 < Vary: Accept-Encoding\n1 < Server: cloudflare\n1 < CF-RAY: 6e02398eebe041f7-MRS\n1 < alt-svc: h3=\":443\"; ma=86400, h3-29=\":443\"; ma=86400\n{\"page\":1,\"per_page\":6,\"total\":12,\"total_pages\":2,\"data\":[{\"id\":1,\"email\":\"george.bluth@reqres.in\",\"first_name\":\"George\",\"last_name\":\"Bluth\",\"avatar\":\"https:\/\/reqres.in\/img\/faces\/1-image.jpg\"},{\"id\":2,\"email\":\"janet.weaver@reqres.in\",\"first_name\":\"Janet\",\"last_name\":\"Weaver\",\"avatar\":\"https:\/\/reqres.in\/img\/faces\/2-image.jpg\"},{\"id\":3,\"email\":\"emma.wong@reqres.in\",\"first_name\":\"Emma\",\"last_name\":\"Wong\",\"avatar\":\"https:\/\/reqres.in\/img\/faces\/3-image.jpg\"},{\"id\":4,\"email\":\"eve.holt@reqres.in\",\"first_name\":\"Eve\",\"last_name\":\"Holt\",\"avatar\":\"https:\/\/reqres.in\/img\/faces\/4-image.jpg\"},{\"id\":5,\"email\":\"charles.morris@reqres.in\",\"first_name\":\"Charles\",\"last_name\":\"Morris\",\"avatar\":\"https:\/\/reqres.in\/img\/faces\/5-image.jpg\"},{\"id\":6,\"email\":\"tracey.ramos@reqres.in\",\"first_name\":\"Tracey\",\"last_name\":\"Ramos\",\"avatar\":\"https:\/\/reqres.in\/img\/faces\/6-image.jpg\"}],\"support\":{\"url\":\"https:\/\/reqres.in\/#support-heading\",\"text\":\"To keep ReqRes free, contributions towards server costs are appreciated!\"}}\n"},{"result":{"nanos":21200,"millis":0.0212,"status":"passed"},"step":{"line":8,"prefix":"Then","index":2,"text":"status 200"}},{"result":{"nanos":1046000,"errorMessage":"match failed: CONTAINS\n  $ | actual path does not exist (STRING:NUMBER)\n  '#notpresent'\n  1\n\nclasspath:TestFeatures\/week3\/matchFromAllData.feature:9","millis":1.046,"status":"failed"},"step":{"line":9,"prefix":"And","index":3,"text":"match response.data.id contains 1"},"stepLog":"21:25:37.415 classpath:TestFeatures\/week3\/matchFromAllData.feature:9\nAnd match response.data.id contains 1\nmatch failed: CONTAINS\n  $ | actual path does not exist (STRING:NUMBER)\n  '#notpresent'\n  1\n\nclasspath:TestFeatures\/week3\/matchFromAllData.feature:9\n"}],"line":13,"description":"","durationMillis":248.5046,"failed":true,"error":"match failed: CONTAINS\n  $ | actual path does not exist (STRING:NUMBER)\n  '#notpresent'\n  1\n\nclasspath:TestFeatures\/week3\/matchFromAllData.feature:9","executorName":"main","name":"create","startTime":1645302337160,"refId":"[1.2:13]","endTime":1645302337415,"exampleData":{"﻿id;Name;Email":"2;Nath;nath@test.com"},"exampleIndex":1},{"sectionIndex":0,"stepResults":[{"result":{"nanos":65100,"millis":0.0651,"status":"passed"},"step":{"line":6,"prefix":"Given","index":0,"text":"url 'https:\/\/reqres.in\/api\/users?page=1'"},"stepLog":"21:25:37.421 \n"},{"result":{"nanos":232374300,"millis":232.3743,"status":"passed"},"step":{"line":7,"prefix":"When","index":1,"text":"method get"},"stepLog":"21:25:37.423 request:\n1 > GET https:\/\/reqres.in\/api\/users?page=1\n1 > Host: reqres.in\n1 > Connection: Keep-Alive\n1 > User-Agent: Apache-HttpClient\/4.5.13 (Java\/17.0.1)\n1 > Accept-Encoding: gzip,deflate\n\n\n21:25:37.651 response time in milliseconds: 228\n1 < 200\n1 < Date: Sat, 19 Feb 2022 20:25:30 GMT\n1 < Content-Type: application\/json; charset=utf-8\n1 < Transfer-Encoding: chunked\n1 < Connection: keep-alive\n1 < X-Powered-By: Express\n1 < Access-Control-Allow-Origin: *\n1 < Etag: W\/\"3e4-2RLXvr5wTg9YQ6aH95CkYoFNuO8\"\n1 < Via: 1.1 vegur\n1 < Cache-Control: max-age=14400\n1 < CF-Cache-Status: HIT\n1 < Age: 657\n1 < Expect-CT: max-age=604800, report-uri=\"https:\/\/report-uri.cloudflare.com\/cdn-cgi\/beacon\/expect-ct\"\n1 < Report-To: {\"endpoints\":[{\"url\":\"https:\\\/\\\/a.nel.cloudflare.com\\\/report\\\/v3?s=V3iukAFPmuULkyDqjuxEkK3kaQSnzC9Ww4EK8IkMM0b1Tl%2Ft%2BcuJ4Hs3qgM4v6GZX7GArczPbQbzl4gz27DngGDwqRkmRs8YYX5Y1magvYgMyKXOVCG9EUAipxc%3D\"}],\"group\":\"cf-nel\",\"max_age\":604800}\n1 < NEL: {\"success_fraction\":0,\"report_to\":\"cf-nel\",\"max_age\":604800}\n1 < Vary: Accept-Encoding\n1 < Server: cloudflare\n1 < CF-RAY: 6e0239905d7b5fd0-MRS\n1 < alt-svc: h3=\":443\"; ma=86400, h3-29=\":443\"; ma=86400\n{\"page\":1,\"per_page\":6,\"total\":12,\"total_pages\":2,\"data\":[{\"id\":1,\"email\":\"george.bluth@reqres.in\",\"first_name\":\"George\",\"last_name\":\"Bluth\",\"avatar\":\"https:\/\/reqres.in\/img\/faces\/1-image.jpg\"},{\"id\":2,\"email\":\"janet.weaver@reqres.in\",\"first_name\":\"Janet\",\"last_name\":\"Weaver\",\"avatar\":\"https:\/\/reqres.in\/img\/faces\/2-image.jpg\"},{\"id\":3,\"email\":\"emma.wong@reqres.in\",\"first_name\":\"Emma\",\"last_name\":\"Wong\",\"avatar\":\"https:\/\/reqres.in\/img\/faces\/3-image.jpg\"},{\"id\":4,\"email\":\"eve.holt@reqres.in\",\"first_name\":\"Eve\",\"last_name\":\"Holt\",\"avatar\":\"https:\/\/reqres.in\/img\/faces\/4-image.jpg\"},{\"id\":5,\"email\":\"charles.morris@reqres.in\",\"first_name\":\"Charles\",\"last_name\":\"Morris\",\"avatar\":\"https:\/\/reqres.in\/img\/faces\/5-image.jpg\"},{\"id\":6,\"email\":\"tracey.ramos@reqres.in\",\"first_name\":\"Tracey\",\"last_name\":\"Ramos\",\"avatar\":\"https:\/\/reqres.in\/img\/faces\/6-image.jpg\"}],\"support\":{\"url\":\"https:\/\/reqres.in\/#support-heading\",\"text\":\"To keep ReqRes free, contributions towards server costs are appreciated!\"}}\n"},{"result":{"nanos":30500,"millis":0.0305,"status":"passed"},"step":{"line":8,"prefix":"Then","index":2,"text":"status 200"}},{"result":{"nanos":2383700,"errorMessage":"match failed: CONTAINS\n  $ | actual path does not exist (STRING:NUMBER)\n  '#notpresent'\n  1\n\nclasspath:TestFeatures\/week3\/matchFromAllData.feature:9","millis":2.3837,"status":"failed"},"step":{"line":9,"prefix":"And","index":3,"text":"match response.data.id contains 1"},"stepLog":"21:25:37.657 classpath:TestFeatures\/week3\/matchFromAllData.feature:9\nAnd match response.data.id contains 1\nmatch failed: CONTAINS\n  $ | actual path does not exist (STRING:NUMBER)\n  '#notpresent'\n  1\n\nclasspath:TestFeatures\/week3\/matchFromAllData.feature:9\n"}],"line":13,"description":"","durationMillis":234.8536,"failed":true,"error":"match failed: CONTAINS\n  $ | actual path does not exist (STRING:NUMBER)\n  '#notpresent'\n  1\n\nclasspath:TestFeatures\/week3\/matchFromAllData.feature:9","executorName":"main","name":"create","startTime":1645302337420,"refId":"[1.3:13]","endTime":1645302337657,"exampleData":{"﻿id;Name;Email":"3;joe;joe@test.com"},"exampleIndex":2}],"callDepth":0,"name":"verify if elements exists in xlsx file","description":"","resultDate":"2022-02-19 09:25:37 PM","durationMillis":797.8397,"passedCount":0}