{"failedCount":1,"prefixedPath":"src\/main\/java\/first_test_k.feature","packageQualifiedName":"src.main.java.first_test_k","loopIndex":-1,"relativePath":"src\/main\/java\/first_test_k.feature","scenarioResults":[{"sectionIndex":0,"stepResults":[{"result":{"nanos":57193500,"millis":57.1935,"status":"passed"},"step":{"line":4,"prefix":"Given","index":0,"text":"url \"https:\/\/reqres.in\/api\/users?page=2\""}},{"result":{"nanos":669106900,"millis":669.1069,"status":"passed"},"step":{"line":5,"prefix":"When","index":1,"text":"method GET"},"stepLog":"18:24:22.583 request:\n1 > GET https:\/\/reqres.in\/api\/users?page=2\n1 > Host: reqres.in\n1 > Connection: Keep-Alive\n1 > User-Agent: Apache-HttpClient\/4.5.13 (Java\/17.0.1)\n1 > Accept-Encoding: gzip,deflate\n\n\n18:24:22.960 response time in milliseconds: 375\n1 < 200\n1 < Date: Fri, 28 Jan 2022 17:24:22 GMT\n1 < Content-Type: application\/json; charset=utf-8\n1 < Transfer-Encoding: chunked\n1 < Connection: keep-alive\n1 < x-powered-by: Express\n1 < access-control-allow-origin: *\n1 < etag: W\/\"406-ut0vzoCuidvyMf8arZpMpJ6ZRDw\"\n1 < via: 1.1 vegur\n1 < Cache-Control: max-age=14400\n1 < CF-Cache-Status: HIT\n1 < Age: 1100\n1 < Expect-CT: max-age=604800, report-uri=\"https:\/\/report-uri.cloudflare.com\/cdn-cgi\/beacon\/expect-ct\"\n1 < Report-To: {\"endpoints\":[{\"url\":\"https:\\\/\\\/a.nel.cloudflare.com\\\/report\\\/v3?s=Z5sOlZqfpt9I7I2kN%2BaawTO%2FHZKYbsdON9zBQ%2BR1Eiavu3cY2z2Cyb2sWIqRcHaX4Vtx%2BFMyvHaK7WkmWBN%2B20eT90ujX%2F5M575n6pn0CO0VnBzu1%2FLjdISeY7s%3D\"}],\"group\":\"cf-nel\",\"max_age\":604800}\n1 < NEL: {\"success_fraction\":0,\"report_to\":\"cf-nel\",\"max_age\":604800}\n1 < Vary: Accept-Encoding\n1 < Server: cloudflare\n1 < CF-RAY: 6d4be9fb2cc0194c-BCN\n1 < alt-svc: h3=\":443\"; ma=86400, h3-29=\":443\"; ma=86400\n{\"page\":2,\"per_page\":6,\"total\":12,\"total_pages\":2,\"data\":[{\"id\":7,\"email\":\"michael.lawson@reqres.in\",\"first_name\":\"Michael\",\"last_name\":\"Lawson\",\"avatar\":\"https:\/\/reqres.in\/img\/faces\/7-image.jpg\"},{\"id\":8,\"email\":\"lindsay.ferguson@reqres.in\",\"first_name\":\"Lindsay\",\"last_name\":\"Ferguson\",\"avatar\":\"https:\/\/reqres.in\/img\/faces\/8-image.jpg\"},{\"id\":9,\"email\":\"tobias.funke@reqres.in\",\"first_name\":\"Tobias\",\"last_name\":\"Funke\",\"avatar\":\"https:\/\/reqres.in\/img\/faces\/9-image.jpg\"},{\"id\":10,\"email\":\"byron.fields@reqres.in\",\"first_name\":\"Byron\",\"last_name\":\"Fields\",\"avatar\":\"https:\/\/reqres.in\/img\/faces\/10-image.jpg\"},{\"id\":11,\"email\":\"george.edwards@reqres.in\",\"first_name\":\"George\",\"last_name\":\"Edwards\",\"avatar\":\"https:\/\/reqres.in\/img\/faces\/11-image.jpg\"},{\"id\":12,\"email\":\"rachel.howell@reqres.in\",\"first_name\":\"Rachel\",\"last_name\":\"Howell\",\"avatar\":\"https:\/\/reqres.in\/img\/faces\/12-image.jpg\"}],\"support\":{\"url\":\"https:\/\/reqres.in\/#support-heading\",\"text\":\"To keep ReqRes free, contributions towards server costs are appreciated!\"}}\n"},{"result":{"nanos":28900,"millis":0.0289,"status":"passed"},"step":{"line":6,"prefix":"Then","index":2,"text":"status 200"}},{"result":{"nanos":36754700,"millis":36.7547,"status":"passed"},"step":{"line":7,"prefix":"And","index":3,"text":"assert response.data.length == 6"}},{"result":{"nanos":33348900,"millis":33.3489,"status":"passed"},"step":{"line":8,"prefix":"And","index":4,"text":"match $.data[0].id == 7"}},{"result":{"nanos":881200,"millis":0.8812,"status":"passed"},"step":{"line":9,"prefix":"And","index":5,"text":"match $.data[0].email == 'michael.lawson@reqres.in'"}}],"executorName":"main","line":3,"name":"test API get","description":"","durationMillis":797.3141,"startTime":1643390662249,"failed":false,"refId":"[1:3]","endTime":1643390663055,"exampleIndex":-1},{"sectionIndex":1,"stepResults":[{"result":{"nanos":406400,"millis":0.4064,"status":"passed"},"step":{"line":12,"prefix":"Given","index":0,"text":"path '\/users'"}},{"result":{"nanos":1506500,"millis":1.5065,"status":"passed"},"step":{"line":13,"prefix":"And","index":1,"text":"request {\"name\": \"Mouad\" , \"job\": \"tester\" , \"age\": 25}"}},{"result":{"nanos":37641300,"errorMessage":"http call failed after 3 milliseconds for url: \/users\nsrc\/main\/java\/first_test_k.feature:14","millis":37.6413,"status":"failed"},"step":{"line":14,"prefix":"When","index":2,"text":"method POST"},"stepLog":"18:24:23.100 karate.org.apache.http.ProtocolException: Target host is not specified, http call failed after 3 milliseconds for url: \/users\n18:24:23.100 src\/main\/java\/first_test_k.feature:14\nWhen method POST\nhttp call failed after 3 milliseconds for url: \/users\nsrc\/main\/java\/first_test_k.feature:14\n"},{"result":{"nanos":0,"millis":0.0,"status":"skipped"},"step":{"line":15,"prefix":"Then","index":3,"text":"status 201"}},{"result":{"nanos":0,"millis":0.0,"status":"skipped"},"step":{"line":16,"prefix":"And","index":4,"text":"print response"}}],"line":11,"description":"","durationMillis":39.5542,"failed":true,"error":"http call failed after 3 milliseconds for url: \/users\nsrc\/main\/java\/first_test_k.feature:14","executorName":"main","name":"test API post","startTime":1643390663059,"refId":"[2:11]","endTime":1643390663100,"exampleIndex":-1}],"callDepth":0,"name":"test sample API","description":"","resultDate":"2022-01-28 06:24:23 PM","durationMillis":836.8683,"passedCount":1}