{"failedCount":3,"prefixedPath":"src\/main\/java\/first_test_k.feature","packageQualifiedName":"src.main.java.first_test_k","loopIndex":-1,"relativePath":"src\/main\/java\/first_test_k.feature","scenarioResults":[{"sectionIndex":0,"stepResults":[{"result":{"nanos":67523700,"millis":67.5237,"status":"passed"},"step":{"background":true,"line":4,"prefix":"*","index":0,"text":"url 'https:\/\/reqres.in\/api'"}},{"result":{"nanos":108315400,"millis":108.3154,"status":"passed"},"step":{"background":true,"line":5,"prefix":"*","index":1,"text":"def output = read('response1.json')"}},{"result":{"nanos":1958800,"millis":1.9588,"status":"passed"},"step":{"background":true,"line":6,"prefix":"*","index":2,"text":"def output = read('request1.json')"}},{"result":{"nanos":345900,"millis":0.3459,"status":"passed"},"step":{"line":9,"prefix":"Given","index":0,"text":"path '\/users?page=2'"}},{"result":{"nanos":1072382000,"millis":1072.382,"status":"passed"},"step":{"line":10,"prefix":"When","index":1,"text":"method GET"},"stepLog":"21:40:25.961 request:\n1 > GET https:\/\/reqres.in\/api\/users%3Fpage=2\n1 > Host: reqres.in\n1 > Connection: Keep-Alive\n1 > User-Agent: Apache-HttpClient\/4.5.13 (Java\/17.0.1)\n1 > Accept-Encoding: gzip,deflate\n\n\n21:40:26.740 response time in milliseconds: 775\n1 < 200\n1 < Date: Fri, 28 Jan 2022 20:40:26 GMT\n1 < Content-Type: application\/json; charset=utf-8\n1 < Transfer-Encoding: chunked\n1 < Connection: keep-alive\n1 < x-powered-by: Express\n1 < access-control-allow-origin: *\n1 < etag: W\/\"2c1-N6Rqerxquq2kgQhL51EiSg4x0R8\"\n1 < via: 1.1 vegur\n1 < Cache-Control: max-age=14400\n1 < CF-Cache-Status: HIT\n1 < Age: 545\n1 < Expect-CT: max-age=604800, report-uri=\"https:\/\/report-uri.cloudflare.com\/cdn-cgi\/beacon\/expect-ct\"\n1 < Report-To: {\"endpoints\":[{\"url\":\"https:\\\/\\\/a.nel.cloudflare.com\\\/report\\\/v3?s=0pYMJ%2Fcdmc%2FvOuVrPBJjnSaSndgv0fV1CiC%2BS1E17mHWTa6Jar2t8o4hw6P5%2B%2FLJCpeYzAhj8ijBTuhfLKkLbXrrGS54VNJC73zVWbVRMQ%2BJRXwzULI9vj%2Baev4%3D\"}],\"group\":\"cf-nel\",\"max_age\":604800}\n1 < NEL: {\"success_fraction\":0,\"report_to\":\"cf-nel\",\"max_age\":604800}\n1 < Vary: Accept-Encoding\n1 < Server: cloudflare\n1 < CF-RAY: 6d4d092e0c6b2e5c-BRU\n1 < alt-svc: h3=\":443\"; ma=86400, h3-29=\":443\"; ma=86400\n{\"page\":1,\"per_page\":6,\"total\":12,\"total_pages\":2,\"data\":[{\"id\":1,\"name\":\"cerulean\",\"year\":2000,\"color\":\"#98B2D1\",\"pantone_value\":\"15-4020\"},{\"id\":2,\"name\":\"fuchsia rose\",\"year\":2001,\"color\":\"#C74375\",\"pantone_value\":\"17-2031\"},{\"id\":3,\"name\":\"true red\",\"year\":2002,\"color\":\"#BF1932\",\"pantone_value\":\"19-1664\"},{\"id\":4,\"name\":\"aqua sky\",\"year\":2003,\"color\":\"#7BC4C4\",\"pantone_value\":\"14-4811\"},{\"id\":5,\"name\":\"tigerlily\",\"year\":2004,\"color\":\"#E2583E\",\"pantone_value\":\"17-1456\"},{\"id\":6,\"name\":\"blue turquoise\",\"year\":2005,\"color\":\"#53B0AE\",\"pantone_value\":\"15-5217\"}],\"support\":{\"url\":\"https:\/\/reqres.in\/#support-heading\",\"text\":\"To keep ReqRes free, contributions towards server costs are appreciated!\"}}\n"},{"result":{"nanos":25400,"millis":0.0254,"status":"passed"},"step":{"line":11,"prefix":"Then","index":2,"text":"status 200"}},{"result":{"nanos":10292900,"millis":10.2929,"status":"passed"},"step":{"line":12,"prefix":"And","index":3,"text":"assert response.data.length == 6"}},{"result":{"nanos":20428300,"errorMessage":"match failed: EQUALS\n  $ | actual path does not exist (STRING:STRING)\n  '#notpresent'\n  'michael.lawson@reqres.in'\n\nsrc\/main\/java\/first_test_k.feature:14","millis":20.4283,"status":"failed"},"step":{"comments":["#And match $.data[0].id == 7"],"line":14,"prefix":"And","index":4,"text":"match $.data[0].email == 'michael.lawson@reqres.in'"},"stepLog":"21:40:26.777 src\/main\/java\/first_test_k.feature:14\nAnd match $.data[0].email == 'michael.lawson@reqres.in'\nmatch failed: EQUALS\n  $ | actual path does not exist (STRING:STRING)\n  '#notpresent'\n  'michael.lawson@reqres.in'\n\nsrc\/main\/java\/first_test_k.feature:14\n"}],"line":8,"description":"","durationMillis":1281.2724,"failed":true,"error":"match failed: EQUALS\n  $ | actual path does not exist (STRING:STRING)\n  '#notpresent'\n  'michael.lawson@reqres.in'\n\nsrc\/main\/java\/first_test_k.feature:14","executorName":"main","name":"test API get 1","startTime":1643402425486,"refId":"[1:8]","endTime":1643402426777,"exampleIndex":-1},{"sectionIndex":1,"stepResults":[{"result":{"nanos":547200,"millis":0.5472,"status":"passed"},"step":{"background":true,"line":4,"prefix":"*","index":0,"text":"url 'https:\/\/reqres.in\/api'"}},{"result":{"nanos":1245200,"millis":1.2452,"status":"passed"},"step":{"background":true,"line":5,"prefix":"*","index":1,"text":"def output = read('response1.json')"}},{"result":{"nanos":870300,"millis":0.8703,"status":"passed"},"step":{"background":true,"line":6,"prefix":"*","index":2,"text":"def output = read('request1.json')"}},{"result":{"nanos":402300,"millis":0.4023,"status":"passed"},"step":{"comments":["#Given path '\/users'"],"line":18,"prefix":"Given","index":0,"text":"path '\/users'"}},{"result":{"nanos":245700,"millis":0.2457,"status":"passed"},"step":{"line":19,"prefix":"And","index":1,"text":"request {\"name\": \"Mouad\" , \"job\": \"tester\" , \"age\": 25}"}},{"result":{"nanos":370041500,"millis":370.0415,"status":"passed"},"step":{"line":20,"prefix":"When","index":2,"text":"method POST"},"stepLog":"21:40:26.824 request:\n1 > POST https:\/\/reqres.in\/api\/users\n1 > Content-Type: application\/json; charset=UTF-8\n1 > Content-Length: 40\n1 > Host: reqres.in\n1 > Connection: Keep-Alive\n1 > User-Agent: Apache-HttpClient\/4.5.13 (Java\/17.0.1)\n1 > Accept-Encoding: gzip,deflate\n{\"name\":\"Mouad\",\"job\":\"tester\",\"age\":25}\n\n21:40:27.158 response time in milliseconds: 333\n1 < 201\n1 < Date: Fri, 28 Jan 2022 20:40:27 GMT\n1 < Content-Type: application\/json; charset=utf-8\n1 < Content-Length: 90\n1 < Connection: keep-alive\n1 < x-powered-by: Express\n1 < access-control-allow-origin: *\n1 < etag: W\/\"5a-XJEgkW5BRLvWrTgapXgeVXaUXXw\"\n1 < via: 1.1 vegur\n1 < CF-Cache-Status: DYNAMIC\n1 < Expect-CT: max-age=604800, report-uri=\"https:\/\/report-uri.cloudflare.com\/cdn-cgi\/beacon\/expect-ct\"\n1 < Report-To: {\"endpoints\":[{\"url\":\"https:\\\/\\\/a.nel.cloudflare.com\\\/report\\\/v3?s=8Lt2uCb9d%2ByuybCaec6S7XUi46cgPxvjrzciEChu0F8aMq5tOo8TYISHv9rOGktHtBDuLwOT5VozsqQ7aY0JRtksxcVE1yrbGFUWva64vN5IMy9s4Y6DcOKUZEQ%3D\"}],\"group\":\"cf-nel\",\"max_age\":604800}\n1 < NEL: {\"success_fraction\":0,\"report_to\":\"cf-nel\",\"max_age\":604800}\n1 < Server: cloudflare\n1 < CF-RAY: 6d4d09306bf283c7-BRU\n1 < alt-svc: h3=\":443\"; ma=86400, h3-29=\":443\"; ma=86400\n{\"name\":\"Mouad\",\"job\":\"tester\",\"age\":25,\"id\":\"204\",\"createdAt\":\"2022-01-28T20:40:27.022Z\"}\n"},{"result":{"nanos":21700,"millis":0.0217,"status":"passed"},"step":{"line":21,"prefix":"Then","index":3,"text":"status 201"}},{"result":{"nanos":1768700,"millis":1.7687,"status":"passed"},"step":{"line":22,"prefix":"And","index":4,"text":"match response == {\"name\":\"Mouad\",\"job\":\"tester\",\"age\":25,\"id\":\"#string\",\"createdAt\":\"#ignore\"}"}},{"result":{"nanos":33349300,"millis":33.3493,"status":"passed"},"step":{"line":23,"prefix":"And","index":5,"text":"print response"},"stepLog":"21:40:27.194 [print] {\n  \"name\": \"Mouad\",\n  \"job\": \"tester\",\n  \"age\": 25,\n  \"id\": \"204\",\n  \"createdAt\": \"2022-01-28T20:40:27.022Z\"\n}\n \n"}],"executorName":"main","line":16,"name":"test API post 2","description":"","durationMillis":408.4919,"startTime":1643402426784,"failed":false,"refId":"[2:16]","endTime":1643402427196,"exampleIndex":-1},{"sectionIndex":2,"stepResults":[{"result":{"nanos":430000,"millis":0.43,"status":"passed"},"step":{"background":true,"line":4,"prefix":"*","index":0,"text":"url 'https:\/\/reqres.in\/api'"}},{"result":{"nanos":1478600,"millis":1.4786,"status":"passed"},"step":{"background":true,"line":5,"prefix":"*","index":1,"text":"def output = read('response1.json')"}},{"result":{"nanos":1316900,"millis":1.3169,"status":"passed"},"step":{"background":true,"line":6,"prefix":"*","index":2,"text":"def output = read('request1.json')"}},{"result":{"nanos":216500,"millis":0.2165,"status":"passed"},"step":{"comments":["#Given path '\/users'"],"line":27,"prefix":"Given","index":0,"text":"path '\/users'"}},{"result":{"nanos":378700,"millis":0.3787,"status":"passed"},"step":{"line":28,"prefix":"And","index":1,"text":"request {\"name\": \"Mouad\" , \"job\": \"tester\" }"}},{"result":{"nanos":278775900,"millis":278.7759,"status":"passed"},"step":{"line":29,"prefix":"When","index":2,"text":"method POST"},"stepLog":"21:40:27.214 request:\n1 > POST https:\/\/reqres.in\/api\/users\n1 > Content-Type: application\/json; charset=UTF-8\n1 > Content-Length: 31\n1 > Host: reqres.in\n1 > Connection: Keep-Alive\n1 > User-Agent: Apache-HttpClient\/4.5.13 (Java\/17.0.1)\n1 > Accept-Encoding: gzip,deflate\n{\"name\":\"Mouad\",\"job\":\"tester\"}\n\n21:40:27.489 response time in milliseconds: 274\n1 < 201\n1 < Date: Fri, 28 Jan 2022 20:40:27 GMT\n1 < Content-Type: application\/json; charset=utf-8\n1 < Content-Length: 81\n1 < Connection: keep-alive\n1 < x-powered-by: Express\n1 < access-control-allow-origin: *\n1 < etag: W\/\"51-rbNeDaRuuTsnsFWR829CSMN\/7tE\"\n1 < via: 1.1 vegur\n1 < CF-Cache-Status: DYNAMIC\n1 < Expect-CT: max-age=604800, report-uri=\"https:\/\/report-uri.cloudflare.com\/cdn-cgi\/beacon\/expect-ct\"\n1 < Report-To: {\"endpoints\":[{\"url\":\"https:\\\/\\\/a.nel.cloudflare.com\\\/report\\\/v3?s=bQEtJsuPfNFsceX3TUU1HpoVBFoxSSKV9pnNLWs6zkS0%2FAXCWg%2Bd8KCmwcMaD5tUotMFObnIFMyhDw9%2FcRtWzvi7fx0hn3NEcENambDpg7QZ6ny8ss5JFtyuO6E%3D\"}],\"group\":\"cf-nel\",\"max_age\":604800}\n1 < NEL: {\"success_fraction\":0,\"report_to\":\"cf-nel\",\"max_age\":604800}\n1 < Server: cloudflare\n1 < CF-RAY: 6d4d0932aaf4f955-BRU\n1 < alt-svc: h3=\":443\"; ma=86400, h3-29=\":443\"; ma=86400\n{\"name\":\"Mouad\",\"job\":\"tester\",\"id\":\"549\",\"createdAt\":\"2022-01-28T20:40:27.358Z\"}\n"},{"result":{"nanos":21200,"millis":0.0212,"status":"passed"},"step":{"line":30,"prefix":"Then","index":3,"text":"status 201"}},{"result":{"nanos":2768200,"errorMessage":"match failed: EQUALS\n  $ | not equal | actual has 2 more key(s) than expected - {\"id\":\"549\",\"createdAt\":\"2022-01-28T20:40:27.358Z\"} (MAP:MAP)\n  {\"name\":\"Mouad\",\"job\":\"tester\",\"id\":\"549\",\"createdAt\":\"2022-01-28T20:40:27.358Z\"}\n  {\"name\":\"Mouad\",\"job\":\"tester\"}\n\n\nsrc\/main\/java\/first_test_k.feature:31","millis":2.7682,"status":"failed"},"step":{"line":31,"prefix":"And","index":4,"text":"match response == output"},"stepLog":"21:40:27.494 src\/main\/java\/first_test_k.feature:31\nAnd match response == output\nmatch failed: EQUALS\n  $ | not equal | actual has 2 more key(s) than expected - {\"id\":\"549\",\"createdAt\":\"2022-01-28T20:40:27.358Z\"} (MAP:MAP)\n  {\"name\":\"Mouad\",\"job\":\"tester\",\"id\":\"549\",\"createdAt\":\"2022-01-28T20:40:27.358Z\"}\n  {\"name\":\"Mouad\",\"job\":\"tester\"}\n\n\nsrc\/main\/java\/first_test_k.feature:31\n"},{"result":{"nanos":0,"millis":0.0,"status":"skipped"},"step":{"line":32,"prefix":"And","index":5,"text":"print response"}}],"line":25,"description":"","durationMillis":285.386,"failed":true,"error":"match failed: EQUALS\n  $ | not equal | actual has 2 more key(s) than expected - {\"id\":\"549\",\"createdAt\":\"2022-01-28T20:40:27.358Z\"} (MAP:MAP)\n  {\"name\":\"Mouad\",\"job\":\"tester\",\"id\":\"549\",\"createdAt\":\"2022-01-28T20:40:27.358Z\"}\n  {\"name\":\"Mouad\",\"job\":\"tester\"}\n\n\nsrc\/main\/java\/first_test_k.feature:31","executorName":"main","name":"test API post 3","startTime":1643402427206,"refId":"[3:25]","endTime":1643402427494,"exampleIndex":-1},{"sectionIndex":3,"stepResults":[{"result":{"nanos":500900,"millis":0.5009,"status":"passed"},"step":{"background":true,"line":4,"prefix":"*","index":0,"text":"url 'https:\/\/reqres.in\/api'"}},{"result":{"nanos":1712400,"millis":1.7124,"status":"passed"},"step":{"background":true,"line":5,"prefix":"*","index":1,"text":"def output = read('response1.json')"}},{"result":{"nanos":1545700,"millis":1.5457,"status":"passed"},"step":{"background":true,"line":6,"prefix":"*","index":2,"text":"def output = read('request1.json')"}},{"result":{"nanos":216700,"millis":0.2167,"status":"passed"},"step":{"comments":["#Given path '\/users'"],"line":36,"prefix":"Given","index":0,"text":"path '\/users'"}},{"result":{"nanos":19083500,"errorMessage":"js failed:\n>>>>\n01: request1\n<<<<\norg.graalvm.polyglot.PolyglotException: ReferenceError: \"request1\" is not defined\n- <js>.:program(Unnamed:1)\n\nsrc\/main\/java\/first_test_k.feature:37","millis":19.0835,"status":"failed"},"step":{"line":37,"prefix":"And","index":1,"text":"request request1"},"stepLog":"21:40:27.529 src\/main\/java\/first_test_k.feature:37\nAnd request request1\njs failed:\n>>>>\n01: request1\n<<<<\norg.graalvm.polyglot.PolyglotException: ReferenceError: \"request1\" is not defined\n- <js>.:program(Unnamed:1)\n\nsrc\/main\/java\/first_test_k.feature:37\n"},{"result":{"nanos":0,"millis":0.0,"status":"skipped"},"step":{"line":38,"prefix":"When","index":2,"text":"method POST"}},{"result":{"nanos":0,"millis":0.0,"status":"skipped"},"step":{"line":39,"prefix":"Then","index":3,"text":"status 201"}},{"result":{"nanos":0,"millis":0.0,"status":"skipped"},"step":{"line":40,"prefix":"And","index":4,"text":"match response == output"}},{"result":{"nanos":0,"millis":0.0,"status":"skipped"},"step":{"line":41,"prefix":"And","index":5,"text":"print response"}}],"line":34,"description":"","durationMillis":23.0592,"failed":true,"error":"js failed:\n>>>>\n01: request1\n<<<<\norg.graalvm.polyglot.PolyglotException: ReferenceError: \"request1\" is not defined\n- <js>.:program(Unnamed:1)\n\nsrc\/main\/java\/first_test_k.feature:37","executorName":"main","name":"test API post 3","startTime":1643402427505,"refId":"[4:34]","endTime":1643402427529,"exampleIndex":-1}],"callDepth":0,"name":"test sample API","description":"","resultDate":"2022-01-28 09:40:27 PM","durationMillis":1998.2095,"passedCount":1}