{"failedCount":1,"prefixedPath":"src\/main\/java\/first_test_k.feature","packageQualifiedName":"src.main.java.first_test_k","loopIndex":-1,"relativePath":"src\/main\/java\/first_test_k.feature","scenarioResults":[{"sectionIndex":0,"stepResults":[{"result":{"nanos":73811400,"millis":73.8114,"status":"passed"},"step":{"background":true,"line":4,"prefix":"*","index":0,"text":"url 'https:\/\/reqres.in\/api'"}},{"result":{"nanos":531500,"millis":0.5315,"status":"passed"},"step":{"line":8,"prefix":"Given","index":0,"text":"path '\/users?page=2'"}},{"result":{"nanos":1182231300,"millis":1182.2313,"status":"passed"},"step":{"line":9,"prefix":"When","index":1,"text":"method GET"},"stepLog":"21:31:21.325 request:\n1 > GET https:\/\/reqres.in\/api\/users%3Fpage=2\n1 > Host: reqres.in\n1 > Connection: Keep-Alive\n1 > User-Agent: Apache-HttpClient\/4.5.13 (Java\/17.0.1)\n1 > Accept-Encoding: gzip,deflate\n\n\n21:31:22.143 response time in milliseconds: 814\n1 < 200\n1 < Date: Fri, 28 Jan 2022 20:31:21 GMT\n1 < Content-Type: application\/json; charset=utf-8\n1 < Transfer-Encoding: chunked\n1 < Connection: keep-alive\n1 < x-powered-by: Express\n1 < access-control-allow-origin: *\n1 < etag: W\/\"2c1-N6Rqerxquq2kgQhL51EiSg4x0R8\"\n1 < via: 1.1 vegur\n1 < Cache-Control: max-age=14400\n1 < CF-Cache-Status: MISS\n1 < Expect-CT: max-age=604800, report-uri=\"https:\/\/report-uri.cloudflare.com\/cdn-cgi\/beacon\/expect-ct\"\n1 < Report-To: {\"endpoints\":[{\"url\":\"https:\\\/\\\/a.nel.cloudflare.com\\\/report\\\/v3?s=GYKXzzJmfzPjAULUQkkQjSfZEpPqgan%2F7S2bDLZeZmPgVM9DfxGat8l3pt7CFQQtz5tnQI0QSLQ0TrXCftO4%2BNPFuTFAO29SgKZOKVdwvJCA6fKhlR1Dmg8jsoc%3D\"}],\"group\":\"cf-nel\",\"max_age\":604800}\n1 < NEL: {\"success_fraction\":0,\"report_to\":\"cf-nel\",\"max_age\":604800}\n1 < Vary: Accept-Encoding\n1 < Server: cloudflare\n1 < CF-RAY: 6d4cfbe1fc1e83d7-BRU\n1 < alt-svc: h3=\":443\"; ma=86400, h3-29=\":443\"; ma=86400\n{\"page\":1,\"per_page\":6,\"total\":12,\"total_pages\":2,\"data\":[{\"id\":1,\"name\":\"cerulean\",\"year\":2000,\"color\":\"#98B2D1\",\"pantone_value\":\"15-4020\"},{\"id\":2,\"name\":\"fuchsia rose\",\"year\":2001,\"color\":\"#C74375\",\"pantone_value\":\"17-2031\"},{\"id\":3,\"name\":\"true red\",\"year\":2002,\"color\":\"#BF1932\",\"pantone_value\":\"19-1664\"},{\"id\":4,\"name\":\"aqua sky\",\"year\":2003,\"color\":\"#7BC4C4\",\"pantone_value\":\"14-4811\"},{\"id\":5,\"name\":\"tigerlily\",\"year\":2004,\"color\":\"#E2583E\",\"pantone_value\":\"17-1456\"},{\"id\":6,\"name\":\"blue turquoise\",\"year\":2005,\"color\":\"#53B0AE\",\"pantone_value\":\"15-5217\"}],\"support\":{\"url\":\"https:\/\/reqres.in\/#support-heading\",\"text\":\"To keep ReqRes free, contributions towards server costs are appreciated!\"}}\n"},{"result":{"nanos":19000,"millis":0.019,"status":"passed"},"step":{"line":10,"prefix":"Then","index":2,"text":"status 200"}},{"result":{"nanos":33521900,"millis":33.5219,"status":"passed"},"step":{"line":11,"prefix":"And","index":3,"text":"assert response.data.length == 6"}},{"result":{"nanos":27409200,"errorMessage":"match failed: EQUALS\n  $ | not equal (NUMBER:NUMBER)\n  1\n  7\n\nsrc\/main\/java\/first_test_k.feature:12","millis":27.4092,"status":"failed"},"step":{"line":12,"prefix":"And","index":4,"text":"match $.data[0].id == 7"},"stepLog":"21:31:22.238 src\/main\/java\/first_test_k.feature:12\nAnd match $.data[0].id == 7\nmatch failed: EQUALS\n  $ | not equal (NUMBER:NUMBER)\n  1\n  7\n\nsrc\/main\/java\/first_test_k.feature:12\n"},{"result":{"nanos":0,"millis":0.0,"status":"skipped"},"step":{"line":13,"prefix":"And","index":5,"text":"match $.data[0].email == 'michael.lawson@reqres.in'"}}],"line":7,"description":"","durationMillis":1317.5243,"failed":true,"error":"match failed: EQUALS\n  $ | not equal (NUMBER:NUMBER)\n  1\n  7\n\nsrc\/main\/java\/first_test_k.feature:12","executorName":"main","name":"test API get","startTime":1643401880908,"refId":"[1:7]","endTime":1643401882239,"exampleIndex":-1},{"sectionIndex":1,"stepResults":[{"result":{"nanos":528700,"millis":0.5287,"status":"passed"},"step":{"background":true,"line":4,"prefix":"*","index":0,"text":"url 'https:\/\/reqres.in\/api'"}},{"result":{"nanos":265900,"millis":0.2659,"status":"passed"},"step":{"comments":["#Given path '\/users'"],"line":17,"prefix":"Given","index":0,"text":"path '\/users'"}},{"result":{"nanos":4561600,"millis":4.5616,"status":"passed"},"step":{"line":18,"prefix":"And","index":1,"text":"request {\"name\": \"Mouad\" , \"job\": \"tester\" , \"age\": 25}"}},{"result":{"nanos":393239900,"millis":393.2399,"status":"passed"},"step":{"line":19,"prefix":"When","index":2,"text":"method POST"},"stepLog":"21:31:22.294 request:\n1 > POST https:\/\/reqres.in\/api\/users\n1 > Content-Type: application\/json; charset=UTF-8\n1 > Content-Length: 40\n1 > Host: reqres.in\n1 > Connection: Keep-Alive\n1 > User-Agent: Apache-HttpClient\/4.5.13 (Java\/17.0.1)\n1 > Accept-Encoding: gzip,deflate\n{\"name\":\"Mouad\",\"job\":\"tester\",\"age\":25}\n\n21:31:22.641 response time in milliseconds: 347\n1 < 201\n1 < Date: Fri, 28 Jan 2022 20:31:22 GMT\n1 < Content-Type: application\/json; charset=utf-8\n1 < Content-Length: 90\n1 < Connection: keep-alive\n1 < x-powered-by: Express\n1 < access-control-allow-origin: *\n1 < etag: W\/\"5a-bFRWlXdQeZYF0dU4Qpxx7IkfKhc\"\n1 < via: 1.1 vegur\n1 < CF-Cache-Status: DYNAMIC\n1 < Expect-CT: max-age=604800, report-uri=\"https:\/\/report-uri.cloudflare.com\/cdn-cgi\/beacon\/expect-ct\"\n1 < Report-To: {\"endpoints\":[{\"url\":\"https:\\\/\\\/a.nel.cloudflare.com\\\/report\\\/v3?s=viyF0vda%2BIFuSoGTNYU2vmYiUb18YpcccrW%2FHYKU9htHyNroyr3UBUknrnogf7VeUwjyTNCuHWNHglCZH6RD2b7epg4%2BKU3xlmV9bFoEoExbm1FrjpVJgbn2eaw%3D\"}],\"group\":\"cf-nel\",\"max_age\":604800}\n1 < NEL: {\"success_fraction\":0,\"report_to\":\"cf-nel\",\"max_age\":604800}\n1 < Server: cloudflare\n1 < CF-RAY: 6d4cfbe54f082e5c-BRU\n1 < alt-svc: h3=\":443\"; ma=86400, h3-29=\":443\"; ma=86400\n{\"name\":\"Mouad\",\"job\":\"tester\",\"age\":25,\"id\":\"708\",\"createdAt\":\"2022-01-28T20:31:22.507Z\"}\n"},{"result":{"nanos":27000,"millis":0.027,"status":"passed"},"step":{"line":20,"prefix":"Then","index":3,"text":"status 201"}},{"result":{"nanos":2185300,"millis":2.1853,"status":"passed"},"step":{"line":21,"prefix":"And","index":4,"text":"match response == {\"name\":\"Mouad\",\"job\":\"tester\",\"age\":25,\"id\":\"#string\",\"createdAt\":\"#ignore\"}"}},{"result":{"nanos":44904500,"millis":44.9045,"status":"passed"},"step":{"line":22,"prefix":"And","index":5,"text":"print response"},"stepLog":"21:31:22.692 [print] {\n  \"name\": \"Mouad\",\n  \"job\": \"tester\",\n  \"age\": 25,\n  \"id\": \"708\",\n  \"createdAt\": \"2022-01-28T20:31:22.507Z\"\n}\n \n"}],"executorName":"main","line":15,"name":"test API post","description":"","durationMillis":445.7129,"startTime":1643401882244,"failed":false,"refId":"[2:15]","endTime":1643401882692,"exampleIndex":-1}],"callDepth":0,"name":"test sample API","description":"","resultDate":"2022-01-28 09:31:22 PM","durationMillis":1763.2372,"passedCount":1}