{"failedCount":1,"prefixedPath":"src\/test\/java\/TestFeatures\/week3\/callGetPerson.feature","packageQualifiedName":"src.test.java.TestFeatures.week3.callGetPerson","loopIndex":-1,"relativePath":"src\/test\/java\/TestFeatures\/week3\/callGetPerson.feature","scenarioResults":[{"sectionIndex":0,"stepResults":[{"result":{"nanos":1508400,"millis":1.5084,"status":"passed"},"step":{"line":9,"prefix":"Given","index":0,"text":"url 'https:\/\/reqres.in\/api\/users?page=1'"},"stepLog":"01:11:01.988 \n"},{"result":{"nanos":1178945100,"millis":1178.9451,"status":"passed"},"step":{"line":10,"prefix":"When","index":1,"text":"method GET"},"stepLog":"01:11:02.327 request:\n1 > GET https:\/\/reqres.in\/api\/users?page=1\n1 > Host: reqres.in\n1 > Connection: Keep-Alive\n1 > User-Agent: Apache-HttpClient\/4.5.13 (Java\/17.0.1)\n1 > Accept-Encoding: gzip,deflate\n\n\n01:11:03.127 response time in milliseconds: 794\n1 < 200\n1 < Date: Sun, 20 Feb 2022 00:10:56 GMT\n1 < Content-Type: application\/json; charset=utf-8\n1 < Transfer-Encoding: chunked\n1 < Connection: keep-alive\n1 < x-powered-by: Express\n1 < access-control-allow-origin: *\n1 < etag: W\/\"3e4-2RLXvr5wTg9YQ6aH95CkYoFNuO8\"\n1 < via: 1.1 vegur\n1 < Cache-Control: max-age=14400\n1 < CF-Cache-Status: HIT\n1 < Age: 164\n1 < Expect-CT: max-age=604800, report-uri=\"https:\/\/report-uri.cloudflare.com\/cdn-cgi\/beacon\/expect-ct\"\n1 < Report-To: {\"endpoints\":[{\"url\":\"https:\\\/\\\/a.nel.cloudflare.com\\\/report\\\/v3?s=hPc1%2FU%2BhWzF3dMxsGGNxeOwsjq%2FSy7MpLI92H14djNuOz9kcvG7BqOzA4ttjQmkOsKi4SSyttuHraXrVKabH6y%2BNKHUr6yU0poxb2Xz8Ujm0SMbGSVZ7mZYVSXI%3D\"}],\"group\":\"cf-nel\",\"max_age\":604800}\n1 < NEL: {\"success_fraction\":0,\"report_to\":\"cf-nel\",\"max_age\":604800}\n1 < Vary: Accept-Encoding\n1 < Server: cloudflare\n1 < CF-RAY: 6e0383c5b831d498-BRU\n1 < alt-svc: h3=\":443\"; ma=86400, h3-29=\":443\"; ma=86400\n{\"page\":1,\"per_page\":6,\"total\":12,\"total_pages\":2,\"data\":[{\"id\":1,\"email\":\"george.bluth@reqres.in\",\"first_name\":\"George\",\"last_name\":\"Bluth\",\"avatar\":\"https:\/\/reqres.in\/img\/faces\/1-image.jpg\"},{\"id\":2,\"email\":\"janet.weaver@reqres.in\",\"first_name\":\"Janet\",\"last_name\":\"Weaver\",\"avatar\":\"https:\/\/reqres.in\/img\/faces\/2-image.jpg\"},{\"id\":3,\"email\":\"emma.wong@reqres.in\",\"first_name\":\"Emma\",\"last_name\":\"Wong\",\"avatar\":\"https:\/\/reqres.in\/img\/faces\/3-image.jpg\"},{\"id\":4,\"email\":\"eve.holt@reqres.in\",\"first_name\":\"Eve\",\"last_name\":\"Holt\",\"avatar\":\"https:\/\/reqres.in\/img\/faces\/4-image.jpg\"},{\"id\":5,\"email\":\"charles.morris@reqres.in\",\"first_name\":\"Charles\",\"last_name\":\"Morris\",\"avatar\":\"https:\/\/reqres.in\/img\/faces\/5-image.jpg\"},{\"id\":6,\"email\":\"tracey.ramos@reqres.in\",\"first_name\":\"Tracey\",\"last_name\":\"Ramos\",\"avatar\":\"https:\/\/reqres.in\/img\/faces\/6-image.jpg\"}],\"support\":{\"url\":\"https:\/\/reqres.in\/#support-heading\",\"text\":\"To keep ReqRes free, contributions towards server costs are appreciated!\"}}\n"},{"result":{"nanos":46700,"millis":0.0467,"status":"passed"},"step":{"line":11,"prefix":"Then","index":2,"text":"status 200"}},{"result":{"nanos":42777400,"errorMessage":"js failed:\n>>>>\n01: read('classpath:\/getPerson.feature')\n<<<<\norg.graalvm.polyglot.PolyglotException: not found: \/getPerson.feature\n- com.intuit.karate.resource.ResourceUtils.getResource(ResourceUtils.java:120)\n- com.intuit.karate.core.ScenarioFileReader.toResource(ScenarioFileReader.java:122)\n- com.intuit.karate.core.ScenarioFileReader.readFile(ScenarioFileReader.java:63)\n- com.intuit.karate.core.ScenarioEngine.lambda$new$0(ScenarioEngine.java:124)\n- <js>.:program(Unnamed:1)\n\nsrc\/test\/java\/TestFeatures\/week3\/callGetPerson.feature:12","millis":42.7774,"status":"failed"},"step":{"line":12,"prefix":"*","index":3,"text":"def person = call read('classpath:\/getPerson.feature'){ id: 1 }"},"stepLog":"01:11:03.243 src\/test\/java\/TestFeatures\/week3\/callGetPerson.feature:12\n* def person = call read('classpath:\/getPerson.feature'){ id: 1 }\njs failed:\n>>>>\n01: read('classpath:\/getPerson.feature')\n<<<<\norg.graalvm.polyglot.PolyglotException: not found: \/getPerson.feature\n- com.intuit.karate.resource.ResourceUtils.getResource(ResourceUtils.java:120)\n- com.intuit.karate.core.ScenarioFileReader.toResource(ScenarioFileReader.java:122)\n- com.intuit.karate.core.ScenarioFileReader.readFile(ScenarioFileReader.java:63)\n- com.intuit.karate.core.ScenarioEngine.lambda$new$0(ScenarioEngine.java:124)\n- <js>.:program(Unnamed:1)\n\nsrc\/test\/java\/TestFeatures\/week3\/callGetPerson.feature:12\n"},{"result":{"nanos":0,"millis":0.0,"status":"skipped"},"step":{"line":13,"prefix":"And","index":4,"text":"print person.response"}}],"line":8,"description":"","durationMillis":1223.2776,"failed":true,"error":"js failed:\n>>>>\n01: read('classpath:\/getPerson.feature')\n<<<<\norg.graalvm.polyglot.PolyglotException: not found: \/getPerson.feature\n- com.intuit.karate.resource.ResourceUtils.getResource(ResourceUtils.java:120)\n- com.intuit.karate.core.ScenarioFileReader.toResource(ScenarioFileReader.java:122)\n- com.intuit.karate.core.ScenarioFileReader.readFile(ScenarioFileReader.java:63)\n- com.intuit.karate.core.ScenarioEngine.lambda$new$0(ScenarioEngine.java:124)\n- <js>.:program(Unnamed:1)\n\nsrc\/test\/java\/TestFeatures\/week3\/callGetPerson.feature:12","tags":["tag1"],"executorName":"main","name":"Title of your scenario","startTime":1645315861830,"refId":"[1:8]","endTime":1645315863244,"exampleIndex":-1}],"callDepth":0,"name":"Title of your feature","description":"I want to use this template for my feature file","resultDate":"2022-02-20 01:11:03 AM","durationMillis":1223.2776,"passedCount":0}