{"failedCount":1,"prefixedPath":"src\/test\/java\/TestFeatures\/week3\/callGetPerson.feature","packageQualifiedName":"src.test.java.TestFeatures.week3.callGetPerson","loopIndex":-1,"relativePath":"src\/test\/java\/TestFeatures\/week3\/callGetPerson.feature","scenarioResults":[{"sectionIndex":0,"stepResults":[{"result":{"nanos":932600,"millis":0.9326,"status":"passed"},"step":{"line":9,"prefix":"Given","index":0,"text":"url 'https:\/\/reqres.in\/api\/users?page=1'"},"stepLog":"15:02:31.318 \n"},{"result":{"nanos":687600300,"millis":687.6003,"status":"passed"},"step":{"line":10,"prefix":"When","index":1,"text":"method GET"},"stepLog":"15:02:31.537 request:\n1 > GET https:\/\/reqres.in\/api\/users?page=1\n1 > Host: reqres.in\n1 > Connection: Keep-Alive\n1 > User-Agent: Apache-HttpClient\/4.5.13 (Java\/17.0.1)\n1 > Accept-Encoding: gzip,deflate\n\n\n15:02:32.007 response time in milliseconds: 469\n1 < 200\n1 < Date: Sun, 20 Feb 2022 14:02:24 GMT\n1 < Content-Type: application\/json; charset=utf-8\n1 < Transfer-Encoding: chunked\n1 < Connection: keep-alive\n1 < x-powered-by: Express\n1 < access-control-allow-origin: *\n1 < etag: W\/\"3e4-2RLXvr5wTg9YQ6aH95CkYoFNuO8\"\n1 < via: 1.1 vegur\n1 < Cache-Control: max-age=14400\n1 < CF-Cache-Status: HIT\n1 < Age: 1479\n1 < Expect-CT: max-age=604800, report-uri=\"https:\/\/report-uri.cloudflare.com\/cdn-cgi\/beacon\/expect-ct\"\n1 < Report-To: {\"endpoints\":[{\"url\":\"https:\\\/\\\/a.nel.cloudflare.com\\\/report\\\/v3?s=PT%2B7cnqp4xmk8YEhci9hIURBJ2SWJHES2xw0u%2FArUGbfsirZmrD8UzwTt8l0TGFiSrxuaxrIVqjigOGDcnAjOhsRRm0spAQaiWwpv7EE4gkzKOBJdhSpCLj3org%3D\"}],\"group\":\"cf-nel\",\"max_age\":604800}\n1 < NEL: {\"success_fraction\":0,\"report_to\":\"cf-nel\",\"max_age\":604800}\n1 < Vary: Accept-Encoding\n1 < Server: cloudflare\n1 < CF-RAY: 6e0845bcff9d2e20-BRU\n1 < alt-svc: h3=\":443\"; ma=86400, h3-29=\":443\"; ma=86400\n{\"page\":1,\"per_page\":6,\"total\":12,\"total_pages\":2,\"data\":[{\"id\":1,\"email\":\"george.bluth@reqres.in\",\"first_name\":\"George\",\"last_name\":\"Bluth\",\"avatar\":\"https:\/\/reqres.in\/img\/faces\/1-image.jpg\"},{\"id\":2,\"email\":\"janet.weaver@reqres.in\",\"first_name\":\"Janet\",\"last_name\":\"Weaver\",\"avatar\":\"https:\/\/reqres.in\/img\/faces\/2-image.jpg\"},{\"id\":3,\"email\":\"emma.wong@reqres.in\",\"first_name\":\"Emma\",\"last_name\":\"Wong\",\"avatar\":\"https:\/\/reqres.in\/img\/faces\/3-image.jpg\"},{\"id\":4,\"email\":\"eve.holt@reqres.in\",\"first_name\":\"Eve\",\"last_name\":\"Holt\",\"avatar\":\"https:\/\/reqres.in\/img\/faces\/4-image.jpg\"},{\"id\":5,\"email\":\"charles.morris@reqres.in\",\"first_name\":\"Charles\",\"last_name\":\"Morris\",\"avatar\":\"https:\/\/reqres.in\/img\/faces\/5-image.jpg\"},{\"id\":6,\"email\":\"tracey.ramos@reqres.in\",\"first_name\":\"Tracey\",\"last_name\":\"Ramos\",\"avatar\":\"https:\/\/reqres.in\/img\/faces\/6-image.jpg\"}],\"support\":{\"url\":\"https:\/\/reqres.in\/#support-heading\",\"text\":\"To keep ReqRes free, contributions towards server costs are appreciated!\"}}\n"},{"result":{"nanos":17500,"millis":0.0175,"status":"passed"},"step":{"line":11,"prefix":"Then","index":2,"text":"status 200"}},{"result":{"nanos":964100,"millis":0.9641,"status":"passed"},"step":{"endLine":14,"line":12,"prefix":"*","index":3,"text":"table emails","table":[{"line":13,"row":["email"]},{"line":14,"row":["'george.bluth@reqres.in'"]}]}},{"result":{"nanos":287537000,"errorMessage":"feature call loop failed at index: 0, js failed:\n>>>>\n01: karate.log('[print]',request)\n<<<<\norg.graalvm.polyglot.PolyglotException: ReferenceError: \"request\" is not defined\n- <js>.:program(Unnamed:1)\n\nclasspath:reusableFeatures\/getPerson.feature:10\nsrc\/test\/java\/TestFeatures\/week3\/callGetPerson.feature:15","millis":287.537,"status":"failed"},"step":{"line":15,"prefix":"*","index":4,"text":"def person = call read('classpath:\/reusableFeatures\/getPerson.feature') emails"},"stepLog":"15:02:32.316 src\/test\/java\/TestFeatures\/week3\/callGetPerson.feature:15\n* def person = call read('classpath:\/reusableFeatures\/getPerson.feature') emails\nfeature call loop failed at index: 0, js failed:\n>>>>\n01: karate.log('[print]',request)\n<<<<\norg.graalvm.polyglot.PolyglotException: ReferenceError: \"request\" is not defined\n- <js>.:program(Unnamed:1)\n\nclasspath:reusableFeatures\/getPerson.feature:10\n15:02:32.316 src\/test\/java\/TestFeatures\/week3\/callGetPerson.feature:15\n* def person = call read('classpath:\/reusableFeatures\/getPerson.feature') emails\nfeature call loop failed at index: 0, js failed:\n>>>>\n01: karate.log('[print]',request)\n<<<<\norg.graalvm.polyglot.PolyglotException: ReferenceError: \"request\" is not defined\n- <js>.:program(Unnamed:1)\n\nclasspath:reusableFeatures\/getPerson.feature:10\nsrc\/test\/java\/TestFeatures\/week3\/callGetPerson.feature:15\n","callResults":[{"prefixedPath":"classpath:reusableFeatures\/getPerson.feature","loopIndex":0,"callDepth":1,"description":"","resultDate":"2022-02-20 03:02:32 PM","durationMillis":261.9908,"callArg":{"email":"george.bluth@reqres.in"},"failedCount":1,"packageQualifiedName":"reusableFeatures.getPerson","relativePath":"reusableFeatures\/getPerson.feature","scenarioResults":[{"sectionIndex":0,"stepResults":[{"result":{"nanos":337000,"millis":0.337,"status":"passed"},"step":{"line":5,"prefix":"Given","index":0,"text":"url 'https:\/\/reqres.in\/api\/users?page=1'"}},{"result":{"nanos":221103800,"millis":221.1038,"status":"passed"},"step":{"comments":["#And request { email: #(email) }"],"line":7,"prefix":"When","index":1,"text":"method GET"},"stepLog":"15:02:32.054 request:\n1 > GET https:\/\/reqres.in\/api\/users?page=1\n1 > Host: reqres.in\n1 > Connection: Keep-Alive\n1 > User-Agent: Apache-HttpClient\/4.5.13 (Java\/17.0.1)\n1 > Accept-Encoding: gzip,deflate\n\n\n15:02:32.273 response time in milliseconds: 218\n1 < 200\n1 < Date: Sun, 20 Feb 2022 14:02:24 GMT\n1 < Content-Type: application\/json; charset=utf-8\n1 < Transfer-Encoding: chunked\n1 < Connection: keep-alive\n1 < x-powered-by: Express\n1 < access-control-allow-origin: *\n1 < etag: W\/\"3e4-2RLXvr5wTg9YQ6aH95CkYoFNuO8\"\n1 < via: 1.1 vegur\n1 < Cache-Control: max-age=14400\n1 < CF-Cache-Status: HIT\n1 < Age: 1479\n1 < Expect-CT: max-age=604800, report-uri=\"https:\/\/report-uri.cloudflare.com\/cdn-cgi\/beacon\/expect-ct\"\n1 < Report-To: {\"endpoints\":[{\"url\":\"https:\\\/\\\/a.nel.cloudflare.com\\\/report\\\/v3?s=ascFhNvwfsIBRMPASHi%2BYe9aqXdmNlC4SvLecgIjvLCwRpC9DCWuHT%2F%2BrnBZtrebMiYRx6C3voX0c2eDp55K1NrkcHLb56rWgRF7Ag4T0OZrsTD3f7gVhuhfIA8%3D\"}],\"group\":\"cf-nel\",\"max_age\":604800}\n1 < NEL: {\"success_fraction\":0,\"report_to\":\"cf-nel\",\"max_age\":604800}\n1 < Vary: Accept-Encoding\n1 < Server: cloudflare\n1 < CF-RAY: 6e0845beaa012e3e-BRU\n1 < alt-svc: h3=\":443\"; ma=86400, h3-29=\":443\"; ma=86400\n{\"page\":1,\"per_page\":6,\"total\":12,\"total_pages\":2,\"data\":[{\"id\":1,\"email\":\"george.bluth@reqres.in\",\"first_name\":\"George\",\"last_name\":\"Bluth\",\"avatar\":\"https:\/\/reqres.in\/img\/faces\/1-image.jpg\"},{\"id\":2,\"email\":\"janet.weaver@reqres.in\",\"first_name\":\"Janet\",\"last_name\":\"Weaver\",\"avatar\":\"https:\/\/reqres.in\/img\/faces\/2-image.jpg\"},{\"id\":3,\"email\":\"emma.wong@reqres.in\",\"first_name\":\"Emma\",\"last_name\":\"Wong\",\"avatar\":\"https:\/\/reqres.in\/img\/faces\/3-image.jpg\"},{\"id\":4,\"email\":\"eve.holt@reqres.in\",\"first_name\":\"Eve\",\"last_name\":\"Holt\",\"avatar\":\"https:\/\/reqres.in\/img\/faces\/4-image.jpg\"},{\"id\":5,\"email\":\"charles.morris@reqres.in\",\"first_name\":\"Charles\",\"last_name\":\"Morris\",\"avatar\":\"https:\/\/reqres.in\/img\/faces\/5-image.jpg\"},{\"id\":6,\"email\":\"tracey.ramos@reqres.in\",\"first_name\":\"Tracey\",\"last_name\":\"Ramos\",\"avatar\":\"https:\/\/reqres.in\/img\/faces\/6-image.jpg\"}],\"support\":{\"url\":\"https:\/\/reqres.in\/#support-heading\",\"text\":\"To keep ReqRes free, contributions towards server costs are appreciated!\"}}\n"},{"result":{"nanos":21700,"millis":0.0217,"status":"passed"},"step":{"line":8,"prefix":"Then","index":2,"text":"status 200"}},{"result":{"nanos":31025400,"millis":31.0254,"status":"passed"},"step":{"line":9,"prefix":"And","index":3,"text":"match response.data[*].email contains 'george.bluth@reqres.in'"}},{"result":{"nanos":9502900,"errorMessage":"js failed:\n>>>>\n01: karate.log('[print]',request)\n<<<<\norg.graalvm.polyglot.PolyglotException: ReferenceError: \"request\" is not defined\n- <js>.:program(Unnamed:1)\n\nclasspath:reusableFeatures\/getPerson.feature:10","millis":9.5029,"status":"failed"},"step":{"line":10,"prefix":"And","index":4,"text":"print request"},"stepLog":"15:02:32.315 classpath:reusableFeatures\/getPerson.feature:10\nAnd print request\njs failed:\n>>>>\n01: karate.log('[print]',request)\n<<<<\norg.graalvm.polyglot.PolyglotException: ReferenceError: \"request\" is not defined\n- <js>.:program(Unnamed:1)\n\nclasspath:reusableFeatures\/getPerson.feature:10\n"},{"result":{"nanos":0,"millis":0.0,"status":"skipped"},"step":{"comments":["#And match response.data[*] contains {id: id,email:'#ignore',first_name:'#ignore',last_name:'#ignore',avatar:'#ignore'}","#And match response.data[*].email == {email : #(email)}"],"line":13,"prefix":"And","index":5,"text":"match response.data[*].email contains request.email"}}],"line":4,"description":"","durationMillis":261.9908,"failed":true,"error":"js failed:\n>>>>\n01: karate.log('[print]',request)\n<<<<\norg.graalvm.polyglot.PolyglotException: ReferenceError: \"request\" is not defined\n- <js>.:program(Unnamed:1)\n\nclasspath:reusableFeatures\/getPerson.feature:10","executorName":"main","name":"get person","startTime":1645365752053,"refId":"[1:4]","endTime":1645365752315,"exampleIndex":-1}],"name":"Get person from list","passedCount":0}]},{"result":{"nanos":0,"millis":0.0,"status":"skipped"},"step":{"line":16,"prefix":"And","index":5,"text":"print person.response"}}],"line":8,"description":"","durationMillis":977.0515,"failed":true,"error":"feature call loop failed at index: 0, js failed:\n>>>>\n01: karate.log('[print]',request)\n<<<<\norg.graalvm.polyglot.PolyglotException: ReferenceError: \"request\" is not defined\n- <js>.:program(Unnamed:1)\n\nclasspath:reusableFeatures\/getPerson.feature:10\nsrc\/test\/java\/TestFeatures\/week3\/callGetPerson.feature:15","tags":["tag1"],"executorName":"main","name":"Title of your scenario","startTime":1645365751200,"refId":"[1:8]","endTime":1645365752316,"exampleIndex":-1}],"callDepth":0,"name":"Title of your feature","description":"I want to use this template for my feature file","resultDate":"2022-02-20 03:02:32 PM","durationMillis":977.0515,"passedCount":0}