{"failedCount":1,"prefixedPath":"src\/test\/java\/TestFeatures\/week3\/matchFromAllData.feature","packageQualifiedName":"src.test.java.TestFeatures.week3.matchFromAllData","loopIndex":-1,"relativePath":"src\/test\/java\/TestFeatures\/week3\/matchFromAllData.feature","scenarioResults":[{"sectionIndex":0,"stepResults":[{"result":{"nanos":55945100,"millis":55.9451,"status":"passed"},"step":{"background":true,"line":4,"prefix":"*","index":0,"text":"def expectedFile = read('classpath:\/TestData\/AllDataCc.csv')"},"stepLog":"18:07:22.359 \n"},{"result":{"nanos":1005100,"millis":1.0051,"status":"passed"},"step":{"line":7,"prefix":"Given","index":0,"text":"url 'https:\/\/reqres.in\/api\/users?page=1'"}},{"result":{"nanos":1031872600,"millis":1031.8726,"status":"passed"},"step":{"line":8,"prefix":"When","index":1,"text":"method GET"},"stepLog":"18:07:22.761 request:\n1 > GET https:\/\/reqres.in\/api\/users?page=1\n1 > Host: reqres.in\n1 > Connection: Keep-Alive\n1 > User-Agent: Apache-HttpClient\/4.5.13 (Java\/17.0.1)\n1 > Accept-Encoding: gzip,deflate\n\n\n18:07:23.471 response time in milliseconds: 703\n1 < 200\n1 < Date: Sun, 20 Feb 2022 17:07:15 GMT\n1 < Content-Type: application\/json; charset=utf-8\n1 < Transfer-Encoding: chunked\n1 < Connection: keep-alive\n1 < x-powered-by: Express\n1 < access-control-allow-origin: *\n1 < etag: W\/\"3e4-2RLXvr5wTg9YQ6aH95CkYoFNuO8\"\n1 < via: 1.1 vegur\n1 < Cache-Control: max-age=14400\n1 < CF-Cache-Status: HIT\n1 < Age: 4769\n1 < Expect-CT: max-age=604800, report-uri=\"https:\/\/report-uri.cloudflare.com\/cdn-cgi\/beacon\/expect-ct\"\n1 < Report-To: {\"endpoints\":[{\"url\":\"https:\\\/\\\/a.nel.cloudflare.com\\\/report\\\/v3?s=R2ldcgko5sKSJovhzglTyCoWcxWQDw8%2BDqLdULQLDpP8oUXRWQIUwewXm3b1lXTA6GcsfSlFPuE65X4g8REw%2FiRlv5KYCiMdfpeDWqr%2FXmUTB4Rc1OM%2F%2FIftIX4%3D\"}],\"group\":\"cf-nel\",\"max_age\":604800}\n1 < NEL: {\"success_fraction\":0,\"report_to\":\"cf-nel\",\"max_age\":604800}\n1 < Vary: Accept-Encoding\n1 < Server: cloudflare\n1 < CF-RAY: 6e095484f821f959-BRU\n1 < alt-svc: h3=\":443\"; ma=86400, h3-29=\":443\"; ma=86400\n{\"page\":1,\"per_page\":6,\"total\":12,\"total_pages\":2,\"data\":[{\"id\":1,\"email\":\"george.bluth@reqres.in\",\"first_name\":\"George\",\"last_name\":\"Bluth\",\"avatar\":\"https:\/\/reqres.in\/img\/faces\/1-image.jpg\"},{\"id\":2,\"email\":\"janet.weaver@reqres.in\",\"first_name\":\"Janet\",\"last_name\":\"Weaver\",\"avatar\":\"https:\/\/reqres.in\/img\/faces\/2-image.jpg\"},{\"id\":3,\"email\":\"emma.wong@reqres.in\",\"first_name\":\"Emma\",\"last_name\":\"Wong\",\"avatar\":\"https:\/\/reqres.in\/img\/faces\/3-image.jpg\"},{\"id\":4,\"email\":\"eve.holt@reqres.in\",\"first_name\":\"Eve\",\"last_name\":\"Holt\",\"avatar\":\"https:\/\/reqres.in\/img\/faces\/4-image.jpg\"},{\"id\":5,\"email\":\"charles.morris@reqres.in\",\"first_name\":\"Charles\",\"last_name\":\"Morris\",\"avatar\":\"https:\/\/reqres.in\/img\/faces\/5-image.jpg\"},{\"id\":6,\"email\":\"tracey.ramos@reqres.in\",\"first_name\":\"Tracey\",\"last_name\":\"Ramos\",\"avatar\":\"https:\/\/reqres.in\/img\/faces\/6-image.jpg\"}],\"support\":{\"url\":\"https:\/\/reqres.in\/#support-heading\",\"text\":\"To keep ReqRes free, contributions towards server costs are appreciated!\"}}\n"},{"result":{"nanos":37100,"millis":0.0371,"status":"passed"},"step":{"line":9,"prefix":"Then","index":2,"text":"status 200"}},{"result":{"nanos":2344900,"millis":2.3449,"status":"passed"},"step":{"line":10,"prefix":"And","index":3,"text":"def acc = response"}},{"result":{"nanos":4738700,"millis":4.7387,"status":"passed"},"step":{"line":11,"prefix":"*","index":4,"text":"def fun = function(x){ x.id = ~~x.id; return x }"}},{"result":{"nanos":15925600,"millis":15.9256,"status":"passed"},"step":{"line":12,"prefix":"*","index":5,"text":"def expected = karate.map(expectedFile, fun)"}},{"result":{"nanos":1297600,"millis":1.2976,"status":"passed"},"step":{"line":13,"prefix":"*","index":6,"text":"def filt = function(x){ return x.email }"}},{"result":{"nanos":1838600,"millis":1.8386,"status":"passed"},"step":{"line":14,"prefix":"*","index":7,"text":"def expected = karate.map(expected, filt)"}},{"result":{"nanos":1603900,"millis":1.6039,"status":"passed"},"step":{"line":15,"prefix":"*","index":8,"text":"print expected"},"stepLog":"18:07:23.509 [print] [\n  \"george.bluth@reqres.in\",\n  \"janet.weaver@reqres.in\"\n]\n \n"},{"result":{"nanos":35799300,"errorMessage":"match failed: CONTAINS\n  $ | actual does not contain expected | actual array does not contain expected item - george.bluth@reqres.in (LIST:LIST)\n  [{\"id\":1,\"email\":\"george.bluth@reqres.in\",\"first_name\":\"George\",\"last_name\":\"Bluth\",\"avatar\":\"https:\/\/reqres.in\/img\/faces\/1-image.jpg\"},{\"id\":2,\"email\":\"janet.weaver@reqres.in\",\"first_name\":\"Janet\",\"last_name\":\"Weaver\",\"avatar\":\"https:\/\/reqres.in\/img\/faces\/2-image.jpg\"},{\"id\":3,\"email\":\"emma.wong@reqres.in\",\"first_name\":\"Emma\",\"last_name\":\"Wong\",\"avatar\":\"https:\/\/reqres.in\/img\/faces\/3-image.jpg\"},{\"id\":4,\"email\":\"eve.holt@reqres.in\",\"first_name\":\"Eve\",\"last_name\":\"Holt\",\"avatar\":\"https:\/\/reqres.in\/img\/faces\/4-image.jpg\"},{\"id\":5,\"email\":\"charles.morris@reqres.in\",\"first_name\":\"Charles\",\"last_name\":\"Morris\",\"avatar\":\"https:\/\/reqres.in\/img\/faces\/5-image.jpg\"},{\"id\":6,\"email\":\"tracey.ramos@reqres.in\",\"first_name\":\"Tracey\",\"last_name\":\"Ramos\",\"avatar\":\"https:\/\/reqres.in\/img\/faces\/6-image.jpg\"}]\n  [\"george.bluth@reqres.in\",\"janet.weaver@reqres.in\"]\n\n    $[5] | data types don't match (MAP:STRING)\n    {\"id\":6,\"email\":\"tracey.ramos@reqres.in\",\"first_name\":\"Tracey\",\"last_name\":\"Ramos\",\"avatar\":\"https:\/\/reqres.in\/img\/faces\/6-image.jpg\"}\n    'george.bluth@reqres.in'\n\n    $[4] | data types don't match (MAP:STRING)\n    {\"id\":5,\"email\":\"charles.morris@reqres.in\",\"first_name\":\"Charles\",\"last_name\":\"Morris\",\"avatar\":\"https:\/\/reqres.in\/img\/faces\/5-image.jpg\"}\n    'george.bluth@reqres.in'\n\n    $[3] | data types don't match (MAP:STRING)\n    {\"id\":4,\"email\":\"eve.holt@reqres.in\",\"first_name\":\"Eve\",\"last_name\":\"Holt\",\"avatar\":\"https:\/\/reqres.in\/img\/faces\/4-image.jpg\"}\n    'george.bluth@reqres.in'\n\n    $[2] | data types don't match (MAP:STRING)\n    {\"id\":3,\"email\":\"emma.wong@reqres.in\",\"first_name\":\"Emma\",\"last_name\":\"Wong\",\"avatar\":\"https:\/\/reqres.in\/img\/faces\/3-image.jpg\"}\n    'george.bluth@reqres.in'\n\n    $[1] | data types don't match (MAP:STRING)\n    {\"id\":2,\"email\":\"janet.weaver@reqres.in\",\"first_name\":\"Janet\",\"last_name\":\"Weaver\",\"avatar\":\"https:\/\/reqres.in\/img\/faces\/2-image.jpg\"}\n    'george.bluth@reqres.in'\n\n    $[0] | data types don't match (MAP:STRING)\n    {\"id\":1,\"email\":\"george.bluth@reqres.in\",\"first_name\":\"George\",\"last_name\":\"Bluth\",\"avatar\":\"https:\/\/reqres.in\/img\/faces\/1-image.jpg\"}\n    'george.bluth@reqres.in'\n\nsrc\/test\/java\/TestFeatures\/week3\/matchFromAllData.feature:16","millis":35.7993,"status":"failed"},"step":{"line":16,"prefix":"*","index":9,"text":"match  acc.data[*] contains expected"},"stepLog":"18:07:23.545 src\/test\/java\/TestFeatures\/week3\/matchFromAllData.feature:16\n* match  acc.data[*] contains expected\nmatch failed: CONTAINS\n  $ | actual does not contain expected | actual array does not contain expected item - george.bluth@reqres.in (LIST:LIST)\n  [{\"id\":1,\"email\":\"george.bluth@reqres.in\",\"first_name\":\"George\",\"last_name\":\"Bluth\",\"avatar\":\"https:\/\/reqres.in\/img\/faces\/1-image.jpg\"},{\"id\":2,\"email\":\"janet.weaver@reqres.in\",\"first_name\":\"Janet\",\"last_name\":\"Weaver\",\"avatar\":\"https:\/\/reqres.in\/img\/faces\/2-image.jpg\"},{\"id\":3,\"email\":\"emma.wong@reqres.in\",\"first_name\":\"Emma\",\"last_name\":\"Wong\",\"avatar\":\"https:\/\/reqres.in\/img\/faces\/3-image.jpg\"},{\"id\":4,\"email\":\"eve.holt@reqres.in\",\"first_name\":\"Eve\",\"last_name\":\"Holt\",\"avatar\":\"https:\/\/reqres.in\/img\/faces\/4-image.jpg\"},{\"id\":5,\"email\":\"charles.morris@reqres.in\",\"first_name\":\"Charles\",\"last_name\":\"Morris\",\"avatar\":\"https:\/\/reqres.in\/img\/faces\/5-image.jpg\"},{\"id\":6,\"email\":\"tracey.ramos@reqres.in\",\"first_name\":\"Tracey\",\"last_name\":\"Ramos\",\"avatar\":\"https:\/\/reqres.in\/img\/faces\/6-image.jpg\"}]\n  [\"george.bluth@reqres.in\",\"janet.weaver@reqres.in\"]\n\n    $[5] | data types don't match (MAP:STRING)\n    {\"id\":6,\"email\":\"tracey.ramos@reqres.in\",\"first_name\":\"Tracey\",\"last_name\":\"Ramos\",\"avatar\":\"https:\/\/reqres.in\/img\/faces\/6-image.jpg\"}\n    'george.bluth@reqres.in'\n\n    $[4] | data types don't match (MAP:STRING)\n    {\"id\":5,\"email\":\"charles.morris@reqres.in\",\"first_name\":\"Charles\",\"last_name\":\"Morris\",\"avatar\":\"https:\/\/reqres.in\/img\/faces\/5-image.jpg\"}\n    'george.bluth@reqres.in'\n\n    $[3] | data types don't match (MAP:STRING)\n    {\"id\":4,\"email\":\"eve.holt@reqres.in\",\"first_name\":\"Eve\",\"last_name\":\"Holt\",\"avatar\":\"https:\/\/reqres.in\/img\/faces\/4-image.jpg\"}\n    'george.bluth@reqres.in'\n\n    $[2] | data types don't match (MAP:STRING)\n    {\"id\":3,\"email\":\"emma.wong@reqres.in\",\"first_name\":\"Emma\",\"last_name\":\"Wong\",\"avatar\":\"https:\/\/reqres.in\/img\/faces\/3-image.jpg\"}\n    'george.bluth@reqres.in'\n\n    $[1] | data types don't match (MAP:STRING)\n    {\"id\":2,\"email\":\"janet.weaver@reqres.in\",\"first_name\":\"Janet\",\"last_name\":\"Weaver\",\"avatar\":\"https:\/\/reqres.in\/img\/faces\/2-image.jpg\"}\n    'george.bluth@reqres.in'\n\n    $[0] | data types don't match (MAP:STRING)\n    {\"id\":1,\"email\":\"george.bluth@reqres.in\",\"first_name\":\"George\",\"last_name\":\"Bluth\",\"avatar\":\"https:\/\/reqres.in\/img\/faces\/1-image.jpg\"}\n    'george.bluth@reqres.in'\n\nsrc\/test\/java\/TestFeatures\/week3\/matchFromAllData.feature:16\n"}],"line":6,"description":"","durationMillis":1152.4085,"failed":true,"error":"match failed: CONTAINS\n  $ | actual does not contain expected | actual array does not contain expected item - george.bluth@reqres.in (LIST:LIST)\n  [{\"id\":1,\"email\":\"george.bluth@reqres.in\",\"first_name\":\"George\",\"last_name\":\"Bluth\",\"avatar\":\"https:\/\/reqres.in\/img\/faces\/1-image.jpg\"},{\"id\":2,\"email\":\"janet.weaver@reqres.in\",\"first_name\":\"Janet\",\"last_name\":\"Weaver\",\"avatar\":\"https:\/\/reqres.in\/img\/faces\/2-image.jpg\"},{\"id\":3,\"email\":\"emma.wong@reqres.in\",\"first_name\":\"Emma\",\"last_name\":\"Wong\",\"avatar\":\"https:\/\/reqres.in\/img\/faces\/3-image.jpg\"},{\"id\":4,\"email\":\"eve.holt@reqres.in\",\"first_name\":\"Eve\",\"last_name\":\"Holt\",\"avatar\":\"https:\/\/reqres.in\/img\/faces\/4-image.jpg\"},{\"id\":5,\"email\":\"charles.morris@reqres.in\",\"first_name\":\"Charles\",\"last_name\":\"Morris\",\"avatar\":\"https:\/\/reqres.in\/img\/faces\/5-image.jpg\"},{\"id\":6,\"email\":\"tracey.ramos@reqres.in\",\"first_name\":\"Tracey\",\"last_name\":\"Ramos\",\"avatar\":\"https:\/\/reqres.in\/img\/faces\/6-image.jpg\"}]\n  [\"george.bluth@reqres.in\",\"janet.weaver@reqres.in\"]\n\n    $[5] | data types don't match (MAP:STRING)\n    {\"id\":6,\"email\":\"tracey.ramos@reqres.in\",\"first_name\":\"Tracey\",\"last_name\":\"Ramos\",\"avatar\":\"https:\/\/reqres.in\/img\/faces\/6-image.jpg\"}\n    'george.bluth@reqres.in'\n\n    $[4] | data types don't match (MAP:STRING)\n    {\"id\":5,\"email\":\"charles.morris@reqres.in\",\"first_name\":\"Charles\",\"last_name\":\"Morris\",\"avatar\":\"https:\/\/reqres.in\/img\/faces\/5-image.jpg\"}\n    'george.bluth@reqres.in'\n\n    $[3] | data types don't match (MAP:STRING)\n    {\"id\":4,\"email\":\"eve.holt@reqres.in\",\"first_name\":\"Eve\",\"last_name\":\"Holt\",\"avatar\":\"https:\/\/reqres.in\/img\/faces\/4-image.jpg\"}\n    'george.bluth@reqres.in'\n\n    $[2] | data types don't match (MAP:STRING)\n    {\"id\":3,\"email\":\"emma.wong@reqres.in\",\"first_name\":\"Emma\",\"last_name\":\"Wong\",\"avatar\":\"https:\/\/reqres.in\/img\/faces\/3-image.jpg\"}\n    'george.bluth@reqres.in'\n\n    $[1] | data types don't match (MAP:STRING)\n    {\"id\":2,\"email\":\"janet.weaver@reqres.in\",\"first_name\":\"Janet\",\"last_name\":\"Weaver\",\"avatar\":\"https:\/\/reqres.in\/img\/faces\/2-image.jpg\"}\n    'george.bluth@reqres.in'\n\n    $[0] | data types don't match (MAP:STRING)\n    {\"id\":1,\"email\":\"george.bluth@reqres.in\",\"first_name\":\"George\",\"last_name\":\"Bluth\",\"avatar\":\"https:\/\/reqres.in\/img\/faces\/1-image.jpg\"}\n    'george.bluth@reqres.in'\n\nsrc\/test\/java\/TestFeatures\/week3\/matchFromAllData.feature:16","executorName":"main","name":"check if response contains csv values emails","startTime":1645376842196,"refId":"[1:6]","endTime":1645376843546,"exampleIndex":-1}],"callDepth":0,"name":"verify if elements exists in csv file","description":"","resultDate":"2022-02-20 06:07:23 PM","durationMillis":1152.4085,"passedCount":0}