{"failedCount":1,"prefixedPath":"src\/main\/java\/first_test_k.feature","packageQualifiedName":"src.main.java.first_test_k","loopIndex":-1,"relativePath":"src\/main\/java\/first_test_k.feature","scenarioResults":[{"sectionIndex":0,"stepResults":[{"result":{"nanos":90866300,"millis":90.8663,"status":"passed"},"step":{"background":true,"line":4,"prefix":"*","index":0,"text":"url 'https:\/\/reqres.in\/api'"}},{"result":{"nanos":141824000,"millis":141.824,"status":"passed"},"step":{"background":true,"line":5,"prefix":"*","index":1,"text":"def output = read('response1.json')"}},{"result":{"nanos":509500,"millis":0.5095,"status":"passed"},"step":{"line":8,"prefix":"Given","index":0,"text":"path '\/users?page=2'"}},{"result":{"nanos":1118565300,"millis":1118.5653,"status":"passed"},"step":{"line":9,"prefix":"When","index":1,"text":"method GET"},"stepLog":"21:38:13.316 request:\n1 > GET https:\/\/reqres.in\/api\/users%3Fpage=2\n1 > Host: reqres.in\n1 > Connection: Keep-Alive\n1 > User-Agent: Apache-HttpClient\/4.5.13 (Java\/17.0.1)\n1 > Accept-Encoding: gzip,deflate\n\n\n21:38:14.115 response time in milliseconds: 795\n1 < 200\n1 < Date: Fri, 28 Jan 2022 20:38:13 GMT\n1 < Content-Type: application\/json; charset=utf-8\n1 < Transfer-Encoding: chunked\n1 < Connection: keep-alive\n1 < x-powered-by: Express\n1 < access-control-allow-origin: *\n1 < etag: W\/\"2c1-N6Rqerxquq2kgQhL51EiSg4x0R8\"\n1 < via: 1.1 vegur\n1 < Cache-Control: max-age=14400\n1 < CF-Cache-Status: MISS\n1 < Expect-CT: max-age=604800, report-uri=\"https:\/\/report-uri.cloudflare.com\/cdn-cgi\/beacon\/expect-ct\"\n1 < Report-To: {\"endpoints\":[{\"url\":\"https:\\\/\\\/a.nel.cloudflare.com\\\/report\\\/v3?s=94kokuXeEJeBomWRjsy1dWyGoSVN1NyL4%2BnOC62zrz6hIIj92mNfu4KW3iJuxrEx0lj4RpU1FmCcCM1J%2F7PzCrQ9plH7tMEyiNfyKMIxPioRre9XuSA3mCf2oac%3D\"}],\"group\":\"cf-nel\",\"max_age\":604800}\n1 < NEL: {\"success_fraction\":0,\"report_to\":\"cf-nel\",\"max_age\":604800}\n1 < Vary: Accept-Encoding\n1 < Server: cloudflare\n1 < CF-RAY: 6d4d05f00e3c83bb-MXP\n1 < alt-svc: h3=\":443\"; ma=86400, h3-29=\":443\"; ma=86400\n{\"page\":1,\"per_page\":6,\"total\":12,\"total_pages\":2,\"data\":[{\"id\":1,\"name\":\"cerulean\",\"year\":2000,\"color\":\"#98B2D1\",\"pantone_value\":\"15-4020\"},{\"id\":2,\"name\":\"fuchsia rose\",\"year\":2001,\"color\":\"#C74375\",\"pantone_value\":\"17-2031\"},{\"id\":3,\"name\":\"true red\",\"year\":2002,\"color\":\"#BF1932\",\"pantone_value\":\"19-1664\"},{\"id\":4,\"name\":\"aqua sky\",\"year\":2003,\"color\":\"#7BC4C4\",\"pantone_value\":\"14-4811\"},{\"id\":5,\"name\":\"tigerlily\",\"year\":2004,\"color\":\"#E2583E\",\"pantone_value\":\"17-1456\"},{\"id\":6,\"name\":\"blue turquoise\",\"year\":2005,\"color\":\"#53B0AE\",\"pantone_value\":\"15-5217\"}],\"support\":{\"url\":\"https:\/\/reqres.in\/#support-heading\",\"text\":\"To keep ReqRes free, contributions towards server costs are appreciated!\"}}\n"},{"result":{"nanos":24900,"millis":0.0249,"status":"passed"},"step":{"line":10,"prefix":"Then","index":2,"text":"status 200"}},{"result":{"nanos":10562700,"millis":10.5627,"status":"passed"},"step":{"line":11,"prefix":"And","index":3,"text":"assert response.data.length == 6"}},{"result":{"nanos":17766600,"errorMessage":"match failed: EQUALS\n  $ | actual path does not exist (STRING:STRING)\n  '#notpresent'\n  'michael.lawson@reqres.in'\n\nsrc\/main\/java\/first_test_k.feature:13","millis":17.7666,"status":"failed"},"step":{"comments":["#And match $.data[0].id == 7"],"line":13,"prefix":"And","index":4,"text":"match $.data[0].email == 'michael.lawson@reqres.in'"},"stepLog":"21:38:14.149 src\/main\/java\/first_test_k.feature:13\nAnd match $.data[0].email == 'michael.lawson@reqres.in'\nmatch failed: EQUALS\n  $ | actual path does not exist (STRING:STRING)\n  '#notpresent'\n  'michael.lawson@reqres.in'\n\nsrc\/main\/java\/first_test_k.feature:13\n"}],"line":7,"description":"","durationMillis":1380.1193,"failed":true,"error":"match failed: EQUALS\n  $ | actual path does not exist (STRING:STRING)\n  '#notpresent'\n  'michael.lawson@reqres.in'\n\nsrc\/main\/java\/first_test_k.feature:13","executorName":"main","name":"test API get","startTime":1643402292753,"refId":"[1:7]","endTime":1643402294149,"exampleIndex":-1},{"sectionIndex":1,"stepResults":[{"result":{"nanos":640600,"millis":0.6406,"status":"passed"},"step":{"background":true,"line":4,"prefix":"*","index":0,"text":"url 'https:\/\/reqres.in\/api'"}},{"result":{"nanos":1191400,"millis":1.1914,"status":"passed"},"step":{"background":true,"line":5,"prefix":"*","index":1,"text":"def output = read('response1.json')"}},{"result":{"nanos":431200,"millis":0.4312,"status":"passed"},"step":{"comments":["#Given path '\/users'"],"line":17,"prefix":"Given","index":0,"text":"path '\/users'"}},{"result":{"nanos":346200,"millis":0.3462,"status":"passed"},"step":{"line":18,"prefix":"And","index":1,"text":"request {\"name\": \"Mouad\" , \"job\": \"tester\" , \"age\": 25}"}},{"result":{"nanos":472062800,"millis":472.0628,"status":"passed"},"step":{"line":19,"prefix":"When","index":2,"text":"method POST"},"stepLog":"21:38:14.197 request:\n1 > POST https:\/\/reqres.in\/api\/users\n1 > Content-Type: application\/json; charset=UTF-8\n1 > Content-Length: 40\n1 > Host: reqres.in\n1 > Connection: Keep-Alive\n1 > User-Agent: Apache-HttpClient\/4.5.13 (Java\/17.0.1)\n1 > Accept-Encoding: gzip,deflate\n{\"name\":\"Mouad\",\"job\":\"tester\",\"age\":25}\n\n21:38:14.628 response time in milliseconds: 430\n1 < 201\n1 < Date: Fri, 28 Jan 2022 20:38:14 GMT\n1 < Content-Type: application\/json; charset=utf-8\n1 < Content-Length: 90\n1 < Connection: keep-alive\n1 < x-powered-by: Express\n1 < access-control-allow-origin: *\n1 < etag: W\/\"5a-oUb3xQpr9jUb3Ex1We2cU7IEw6A\"\n1 < via: 1.1 vegur\n1 < CF-Cache-Status: DYNAMIC\n1 < Expect-CT: max-age=604800, report-uri=\"https:\/\/report-uri.cloudflare.com\/cdn-cgi\/beacon\/expect-ct\"\n1 < Report-To: {\"endpoints\":[{\"url\":\"https:\\\/\\\/a.nel.cloudflare.com\\\/report\\\/v3?s=X6J1pK%2FHQ3R06ZT%2FKTAPfYCoJE9w2x2%2FK4YJ3t5jigjeiAxECaFjkEvP64INAwmaLmFq99uIeUgiJDB2rPk8eUzUgwDdou1doeVqOnNafYuBikw2m60ya0P3lWA%3D\"}],\"group\":\"cf-nel\",\"max_age\":604800}\n1 < NEL: {\"success_fraction\":0,\"report_to\":\"cf-nel\",\"max_age\":604800}\n1 < Server: cloudflare\n1 < CF-RAY: 6d4d05f35d42375f-MXP\n1 < alt-svc: h3=\":443\"; ma=86400, h3-29=\":443\"; ma=86400\n{\"name\":\"Mouad\",\"job\":\"tester\",\"age\":25,\"id\":\"493\",\"createdAt\":\"2022-01-28T20:38:14.378Z\"}\n"},{"result":{"nanos":20700,"millis":0.0207,"status":"passed"},"step":{"line":20,"prefix":"Then","index":3,"text":"status 201"}},{"result":{"nanos":766300,"millis":0.7663,"status":"passed"},"step":{"line":21,"prefix":"And","index":4,"text":"match response == {\"name\":\"Mouad\",\"job\":\"tester\",\"age\":25,\"id\":\"#string\",\"createdAt\":\"#ignore\"}"}},{"result":{"nanos":19085300,"millis":19.0853,"status":"passed"},"step":{"line":22,"prefix":"And","index":5,"text":"print response"},"stepLog":"21:38:14.649 [print] {\n  \"name\": \"Mouad\",\n  \"job\": \"tester\",\n  \"age\": 25,\n  \"id\": \"493\",\n  \"createdAt\": \"2022-01-28T20:38:14.378Z\"\n}\n \n"}],"executorName":"main","line":15,"name":"test API post","description":"","durationMillis":494.5445,"startTime":1643402294154,"failed":false,"refId":"[2:15]","endTime":1643402294650,"exampleIndex":-1},{"sectionIndex":2,"stepResults":[{"result":{"nanos":362100,"millis":0.3621,"status":"passed"},"step":{"background":true,"line":4,"prefix":"*","index":0,"text":"url 'https:\/\/reqres.in\/api'"}},{"result":{"nanos":1134200,"millis":1.1342,"status":"passed"},"step":{"background":true,"line":5,"prefix":"*","index":1,"text":"def output = read('response1.json')"}},{"result":{"nanos":195900,"millis":0.1959,"status":"passed"},"step":{"comments":["#Given path '\/users'"],"line":26,"prefix":"Given","index":0,"text":"path '\/users'"}},{"result":{"nanos":315600,"millis":0.3156,"status":"passed"},"step":{"line":27,"prefix":"And","index":1,"text":"request {\"name\": \"Mouad\" , \"job\": \"tester\" }"}},{"result":{"nanos":308270400,"millis":308.2704,"status":"passed"},"step":{"line":28,"prefix":"When","index":2,"text":"method POST"},"stepLog":"21:38:14.662 request:\n1 > POST https:\/\/reqres.in\/api\/users\n1 > Content-Type: application\/json; charset=UTF-8\n1 > Content-Length: 31\n1 > Host: reqres.in\n1 > Connection: Keep-Alive\n1 > User-Agent: Apache-HttpClient\/4.5.13 (Java\/17.0.1)\n1 > Accept-Encoding: gzip,deflate\n{\"name\":\"Mouad\",\"job\":\"tester\"}\n\n21:38:14.966 response time in milliseconds: 304\n1 < 201\n1 < Date: Fri, 28 Jan 2022 20:38:14 GMT\n1 < Content-Type: application\/json; charset=utf-8\n1 < Content-Length: 81\n1 < Connection: keep-alive\n1 < x-powered-by: Express\n1 < access-control-allow-origin: *\n1 < etag: W\/\"51-DD01FaFDUPW3xcCyxsnKk\/heEGc\"\n1 < via: 1.1 vegur\n1 < CF-Cache-Status: DYNAMIC\n1 < Expect-CT: max-age=604800, report-uri=\"https:\/\/report-uri.cloudflare.com\/cdn-cgi\/beacon\/expect-ct\"\n1 < Report-To: {\"endpoints\":[{\"url\":\"https:\\\/\\\/a.nel.cloudflare.com\\\/report\\\/v3?s=2TYG3cBICumHCuk8aaC%2Bk2D%2B0xIPHb1sm4PJwrZaX0MOBKEER6aOPprLN%2FpwmG6WIP5ZZYn8rpJ7P%2B5FroQW33pVH%2FZ04PUOOYJSo3X%2BmPsGmCmynOmEvVyqMe4%3D\"}],\"group\":\"cf-nel\",\"max_age\":604800}\n1 < NEL: {\"success_fraction\":0,\"report_to\":\"cf-nel\",\"max_age\":604800}\n1 < Server: cloudflare\n1 < CF-RAY: 6d4d05f63f875a0d-MXP\n1 < alt-svc: h3=\":443\"; ma=86400, h3-29=\":443\"; ma=86400\n{\"name\":\"Mouad\",\"job\":\"tester\",\"id\":\"311\",\"createdAt\":\"2022-01-28T20:38:14.822Z\"}\n"},{"result":{"nanos":22700,"millis":0.0227,"status":"passed"},"step":{"line":29,"prefix":"Then","index":3,"text":"status 201"}},{"result":{"nanos":1253200,"millis":1.2532,"status":"passed"},"step":{"line":30,"prefix":"And","index":4,"text":"match response == output"}},{"result":{"nanos":1378200,"millis":1.3782,"status":"passed"},"step":{"line":31,"prefix":"And","index":5,"text":"print response"},"stepLog":"21:38:14.972 [print] {\n  \"name\": \"Mouad\",\n  \"job\": \"tester\",\n  \"id\": \"311\",\n  \"createdAt\": \"2022-01-28T20:38:14.822Z\"\n}\n \n"}],"executorName":"main","line":24,"name":"test API post","description":"","durationMillis":312.9323,"startTime":1643402294657,"failed":false,"refId":"[3:24]","endTime":1643402294972,"exampleIndex":-1}],"callDepth":0,"name":"test sample API","description":"","resultDate":"2022-01-28 09:38:14 PM","durationMillis":2187.5961,"passedCount":2}