{"failedCount":0,"prefixedPath":"src\/test\/java\/test_ResIsReq.feature","packageQualifiedName":"src.test.java.test_ResIsReq","loopIndex":-1,"relativePath":"src\/test\/java\/test_ResIsReq.feature","scenarioResults":[{"sectionIndex":0,"stepResults":[{"result":{"nanos":63645900,"millis":63.6459,"status":"passed"},"step":{"background":true,"line":4,"prefix":"*","index":0,"text":"def baseUrl = 'https:\/\/reqres.in\/api'"}},{"result":{"nanos":20146100,"millis":20.1461,"status":"passed"},"step":{"line":8,"prefix":"Given","index":0,"text":"url baseUrl"}},{"result":{"nanos":495000,"millis":0.495,"status":"passed"},"step":{"line":9,"prefix":"And","index":1,"text":"path '\/users?page=2'"}},{"result":{"nanos":653183200,"millis":653.1832,"status":"passed"},"step":{"line":10,"prefix":"When","index":2,"text":"method GET"},"stepLog":"16:29:17.880 request:\n1 > GET https:\/\/reqres.in\/api\/users%3Fpage=2\n1 > Host: reqres.in\n1 > Connection: Keep-Alive\n1 > User-Agent: Apache-HttpClient\/4.5.13 (Java\/17.0.1)\n1 > Accept-Encoding: gzip,deflate\n\n\n16:29:18.308 response time in milliseconds: 426\n1 < 200\n1 < Date: Sun, 13 Feb 2022 15:29:15 GMT\n1 < Content-Type: application\/json; charset=utf-8\n1 < Transfer-Encoding: chunked\n1 < Connection: keep-alive\n1 < X-Powered-By: Express\n1 < Access-Control-Allow-Origin: *\n1 < Etag: W\/\"2c1-N6Rqerxquq2kgQhL51EiSg4x0R8\"\n1 < Via: 1.1 vegur\n1 < Cache-Control: max-age=14400\n1 < CF-Cache-Status: HIT\n1 < Age: 5023\n1 < Expect-CT: max-age=604800, report-uri=\"https:\/\/report-uri.cloudflare.com\/cdn-cgi\/beacon\/expect-ct\"\n1 < Report-To: {\"endpoints\":[{\"url\":\"https:\\\/\\\/a.nel.cloudflare.com\\\/report\\\/v3?s=0e8r8cqfEJpvZ3UFHOpYJaz1yIWdaFSuiTk5bIqpe2jPzMEsNjmhRYRq5TqcUMaKB2lHCPSS%2FTw1xslU5Srg4zDx%2B4z79eef%2BR98noqkuvvx7c3JlLW1fNsPSUA%3D\"}],\"group\":\"cf-nel\",\"max_age\":604800}\n1 < NEL: {\"success_fraction\":0,\"report_to\":\"cf-nel\",\"max_age\":604800}\n1 < Vary: Accept-Encoding\n1 < Server: cloudflare\n1 < CF-RAY: 6dcf17578c9e73af-MRS\n1 < alt-svc: h3=\":443\"; ma=86400, h3-29=\":443\"; ma=86400\n{\"page\":1,\"per_page\":6,\"total\":12,\"total_pages\":2,\"data\":[{\"id\":1,\"name\":\"cerulean\",\"year\":2000,\"color\":\"#98B2D1\",\"pantone_value\":\"15-4020\"},{\"id\":2,\"name\":\"fuchsia rose\",\"year\":2001,\"color\":\"#C74375\",\"pantone_value\":\"17-2031\"},{\"id\":3,\"name\":\"true red\",\"year\":2002,\"color\":\"#BF1932\",\"pantone_value\":\"19-1664\"},{\"id\":4,\"name\":\"aqua sky\",\"year\":2003,\"color\":\"#7BC4C4\",\"pantone_value\":\"14-4811\"},{\"id\":5,\"name\":\"tigerlily\",\"year\":2004,\"color\":\"#E2583E\",\"pantone_value\":\"17-1456\"},{\"id\":6,\"name\":\"blue turquoise\",\"year\":2005,\"color\":\"#53B0AE\",\"pantone_value\":\"15-5217\"}],\"support\":{\"url\":\"https:\/\/reqres.in\/#support-heading\",\"text\":\"To keep ReqRes free, contributions towards server costs are appreciated!\"}}\n"},{"result":{"nanos":16100,"millis":0.0161,"status":"passed"},"step":{"line":11,"prefix":"Then","index":3,"text":"status 200"}},{"result":{"nanos":6003500,"millis":6.0035,"status":"passed"},"step":{"line":12,"prefix":"And","index":4,"text":"def uResponse = response"}},{"result":{"nanos":45777700,"millis":45.7777,"status":"passed"},"step":{"line":13,"prefix":"And","index":5,"text":"print uResponse"},"stepLog":"16:29:18.385 [print] {\n  \"page\": 1,\n  \"per_page\": 6,\n  \"total\": 12,\n  \"total_pages\": 2,\n  \"data\": [\n    {\n      \"id\": 1,\n      \"name\": \"cerulean\",\n      \"year\": 2000,\n      \"color\": \"#98B2D1\",\n      \"pantone_value\": \"15-4020\"\n    },\n    {\n      \"id\": 2,\n      \"name\": \"fuchsia rose\",\n      \"year\": 2001,\n      \"color\": \"#C74375\",\n      \"pantone_value\": \"17-2031\"\n    },\n    {\n      \"id\": 3,\n      \"name\": \"true red\",\n      \"year\": 2002,\n      \"color\": \"#BF1932\",\n      \"pantone_value\": \"19-1664\"\n    },\n    {\n      \"id\": 4,\n      \"name\": \"aqua sky\",\n      \"year\": 2003,\n      \"color\": \"#7BC4C4\",\n      \"pantone_value\": \"14-4811\"\n    },\n    {\n      \"id\": 5,\n      \"name\": \"tigerlily\",\n      \"year\": 2004,\n      \"color\": \"#E2583E\",\n      \"pantone_value\": \"17-1456\"\n    },\n    {\n      \"id\": 6,\n      \"name\": \"blue turquoise\",\n      \"year\": 2005,\n      \"color\": \"#53B0AE\",\n      \"pantone_value\": \"15-5217\"\n    }\n  ],\n  \"support\": {\n    \"url\": \"https:\/\/reqres.in\/#support-heading\",\n    \"text\": \"To keep ReqRes free, contributions towards server costs are appreciated!\"\n  }\n}\n \n"},{"result":{"nanos":15625800,"millis":15.6258,"status":"passed"},"step":{"line":14,"prefix":"Then","index":6,"text":"match uResponse.data[*].name contains  ['cerulean']"}},{"result":{"nanos":2406800,"millis":2.4068,"status":"passed"},"step":{"line":15,"prefix":"Then","index":7,"text":"def rec = uResponse.data.name = 'cerulean'"}}],"line":7,"description":"","durationMillis":807.3001,"failed":false,"tags":["tag1"],"executorName":"main","name":"get if cerulean exist","startTime":1644766157588,"refId":"[1:7]","endTime":1644766158404,"exampleIndex":-1},{"sectionIndex":1,"stepResults":[{"result":{"nanos":400100,"millis":0.4001,"status":"passed"},"step":{"background":true,"line":4,"prefix":"*","index":0,"text":"def baseUrl = 'https:\/\/reqres.in\/api'"}},{"result":{"nanos":133100,"millis":0.1331,"status":"passed"},"step":{"line":19,"prefix":"Given","index":0,"text":"url baseUrl"}},{"result":{"nanos":226300,"millis":0.2263,"status":"passed"},"step":{"line":20,"prefix":"And","index":1,"text":"path '\/users?page=2'"}},{"result":{"nanos":129747400,"millis":129.7474,"status":"passed"},"step":{"line":21,"prefix":"When","index":2,"text":"method GET"},"stepLog":"16:29:18.410 request:\n1 > GET https:\/\/reqres.in\/api\/users%3Fpage=2\n1 > Host: reqres.in\n1 > Connection: Keep-Alive\n1 > User-Agent: Apache-HttpClient\/4.5.13 (Java\/17.0.1)\n1 > Accept-Encoding: gzip,deflate\n\n\n16:29:18.539 response time in milliseconds: 128\n1 < 200\n1 < Date: Sun, 13 Feb 2022 15:29:15 GMT\n1 < Content-Type: application\/json; charset=utf-8\n1 < Transfer-Encoding: chunked\n1 < Connection: keep-alive\n1 < X-Powered-By: Express\n1 < Access-Control-Allow-Origin: *\n1 < Etag: W\/\"2c1-N6Rqerxquq2kgQhL51EiSg4x0R8\"\n1 < Via: 1.1 vegur\n1 < Cache-Control: max-age=14400\n1 < CF-Cache-Status: HIT\n1 < Age: 5023\n1 < Expect-CT: max-age=604800, report-uri=\"https:\/\/report-uri.cloudflare.com\/cdn-cgi\/beacon\/expect-ct\"\n1 < Report-To: {\"endpoints\":[{\"url\":\"https:\\\/\\\/a.nel.cloudflare.com\\\/report\\\/v3?s=S6uJF32K%2FKKFgkTocCEJ0XcqgvAI1LbtdUzSeTXzMGTBk2cI89mkW1gTrfWmF53BMoWCE%2B%2F34q6t9DEzEBdv4vtULwbupXMIzBgwogV%2FIexUQhr1bcK3KPATVsk%3D\"}],\"group\":\"cf-nel\",\"max_age\":604800}\n1 < NEL: {\"success_fraction\":0,\"report_to\":\"cf-nel\",\"max_age\":604800}\n1 < Vary: Accept-Encoding\n1 < Server: cloudflare\n1 < CF-RAY: 6dcf1758fbdce934-MRS\n1 < alt-svc: h3=\":443\"; ma=86400, h3-29=\":443\"; ma=86400\n{\"page\":1,\"per_page\":6,\"total\":12,\"total_pages\":2,\"data\":[{\"id\":1,\"name\":\"cerulean\",\"year\":2000,\"color\":\"#98B2D1\",\"pantone_value\":\"15-4020\"},{\"id\":2,\"name\":\"fuchsia rose\",\"year\":2001,\"color\":\"#C74375\",\"pantone_value\":\"17-2031\"},{\"id\":3,\"name\":\"true red\",\"year\":2002,\"color\":\"#BF1932\",\"pantone_value\":\"19-1664\"},{\"id\":4,\"name\":\"aqua sky\",\"year\":2003,\"color\":\"#7BC4C4\",\"pantone_value\":\"14-4811\"},{\"id\":5,\"name\":\"tigerlily\",\"year\":2004,\"color\":\"#E2583E\",\"pantone_value\":\"17-1456\"},{\"id\":6,\"name\":\"blue turquoise\",\"year\":2005,\"color\":\"#53B0AE\",\"pantone_value\":\"15-5217\"}],\"support\":{\"url\":\"https:\/\/reqres.in\/#support-heading\",\"text\":\"To keep ReqRes free, contributions towards server costs are appreciated!\"}}\n"},{"result":{"nanos":8700,"millis":0.0087,"status":"passed"},"step":{"line":22,"prefix":"Then","index":3,"text":"status 200"}},{"result":{"nanos":209200,"millis":0.2092,"status":"passed"},"step":{"line":23,"prefix":"And","index":4,"text":"def uResponse = response"}},{"result":{"nanos":775800,"millis":0.7758,"status":"passed"},"step":{"line":24,"prefix":"And","index":5,"text":"print uResponse"},"stepLog":"16:29:18.541 [print] {\n  \"page\": 1,\n  \"per_page\": 6,\n  \"total\": 12,\n  \"total_pages\": 2,\n  \"data\": [\n    {\n      \"id\": 1,\n      \"name\": \"cerulean\",\n      \"year\": 2000,\n      \"color\": \"#98B2D1\",\n      \"pantone_value\": \"15-4020\"\n    },\n    {\n      \"id\": 2,\n      \"name\": \"fuchsia rose\",\n      \"year\": 2001,\n      \"color\": \"#C74375\",\n      \"pantone_value\": \"17-2031\"\n    },\n    {\n      \"id\": 3,\n      \"name\": \"true red\",\n      \"year\": 2002,\n      \"color\": \"#BF1932\",\n      \"pantone_value\": \"19-1664\"\n    },\n    {\n      \"id\": 4,\n      \"name\": \"aqua sky\",\n      \"year\": 2003,\n      \"color\": \"#7BC4C4\",\n      \"pantone_value\": \"14-4811\"\n    },\n    {\n      \"id\": 5,\n      \"name\": \"tigerlily\",\n      \"year\": 2004,\n      \"color\": \"#E2583E\",\n      \"pantone_value\": \"17-1456\"\n    },\n    {\n      \"id\": 6,\n      \"name\": \"blue turquoise\",\n      \"year\": 2005,\n      \"color\": \"#53B0AE\",\n      \"pantone_value\": \"15-5217\"\n    }\n  ],\n  \"support\": {\n    \"url\": \"https:\/\/reqres.in\/#support-heading\",\n    \"text\": \"To keep ReqRes free, contributions towards server costs are appreciated!\"\n  }\n}\n \n"},{"result":{"nanos":573200,"millis":0.5732,"status":"passed"},"step":{"line":25,"prefix":"Then","index":6,"text":"match uResponse.data[*].id contains  [1]"}},{"result":{"nanos":1327900,"millis":1.3279,"status":"passed"},"step":{"line":26,"prefix":"Then","index":7,"text":"def idNumber = uResponse.data.id = 1"}},{"result":{"nanos":845100,"millis":0.8451,"status":"passed"},"step":{"line":27,"prefix":"And","index":8,"text":"print idNumber"},"stepLog":"16:29:18.544 [print] 1 \n"},{"result":{"nanos":309800,"millis":0.3098,"status":"passed"},"step":{"line":29,"prefix":"Given","index":9,"text":"url 'https:\/\/reqres.in\/api\/users\/'"}},{"result":{"nanos":238800,"millis":0.2388,"status":"passed"},"step":{"line":30,"prefix":"And","index":10,"text":"path '<idNumber>'"}},{"result":{"nanos":197705700,"millis":197.7057,"status":"passed"},"step":{"line":31,"prefix":"When","index":11,"text":"method GET"},"stepLog":"16:29:18.545 request:\n2 > GET https:\/\/reqres.in\/api\/users\/%3CidNumber%3E\n2 > Host: reqres.in\n2 > Connection: Keep-Alive\n2 > User-Agent: Apache-HttpClient\/4.5.13 (Java\/17.0.1)\n2 > Accept-Encoding: gzip,deflate\n\n\n16:29:18.742 response time in milliseconds: 195\n2 < 404\n2 < Date: Sun, 13 Feb 2022 15:29:15 GMT\n2 < Content-Type: application\/json; charset=utf-8\n2 < Content-Length: 2\n2 < Connection: keep-alive\n2 < X-Powered-By: Express\n2 < Access-Control-Allow-Origin: *\n2 < Etag: W\/\"2-vyGp6PvFo4RvsFtPoIWeCReyIC8\"\n2 < Via: 1.1 vegur\n2 < Cache-Control: max-age=14400\n2 < CF-Cache-Status: MISS\n2 < Expect-CT: max-age=604800, report-uri=\"https:\/\/report-uri.cloudflare.com\/cdn-cgi\/beacon\/expect-ct\"\n2 < Report-To: {\"endpoints\":[{\"url\":\"https:\\\/\\\/a.nel.cloudflare.com\\\/report\\\/v3?s=p8XzZ%2BaeyH6ViKmu6NVBS0gXhbuhbZYnvtjFoSCAtbW0WxGgRkbgozgFeRE36iPK4Yj4znKMGbbDYMZuj2v7wlvuAqj5%2FWLwut%2FqtzErBzwJWN5N4Mo8a1AFhRQ%3D\"}],\"group\":\"cf-nel\",\"max_age\":604800}\n2 < NEL: {\"success_fraction\":0,\"report_to\":\"cf-nel\",\"max_age\":604800}\n2 < Vary: Accept-Encoding\n2 < Server: cloudflare\n2 < CF-RAY: 6dcf1759dce273b7-MRS\n2 < alt-svc: h3=\":443\"; ma=86400, h3-29=\":443\"; ma=86400\n{}\n"},{"result":{"nanos":1046100,"millis":1.0461,"status":"passed"},"step":{"line":32,"prefix":"Then","index":12,"text":"print response"},"stepLog":"16:29:18.743 [print] {\n}\n \n"}],"line":18,"description":"","durationMillis":333.5472,"failed":false,"tags":["tag2"],"executorName":"main","name":"get if id 1 exist","startTime":1644766158408,"refId":"[2:18]","endTime":1644766158743,"exampleIndex":-1}],"callDepth":0,"name":"test request is response","description":"","resultDate":"2022-02-13 04:29:18 PM","durationMillis":1140.8473,"passedCount":2}