{"failedCount":0,"prefixedPath":"src\/test\/java\/testapi.feature","packageQualifiedName":"src.test.java.testapi","loopIndex":-1,"relativePath":"src\/test\/java\/testapi.feature","scenarioResults":[{"sectionIndex":0,"stepResults":[{"result":{"nanos":58591700,"millis":58.5917,"status":"passed"},"step":{"background":true,"line":4,"prefix":"*","index":0,"text":"url 'https:\/\/reqres.in\/api'"}},{"result":{"nanos":82506900,"millis":82.5069,"status":"passed"},"step":{"background":true,"line":5,"prefix":"*","index":1,"text":"def output = read('response1.json')"}},{"result":{"nanos":1019200,"millis":1.0192,"status":"passed"},"step":{"background":true,"line":6,"prefix":"*","index":2,"text":"def request1 = read('request1.json')"}},{"result":{"nanos":285200,"millis":0.2852,"status":"passed"},"step":{"line":9,"prefix":"Given","index":0,"text":"path '\/users?page=2'"}},{"result":{"nanos":606607800,"millis":606.6078,"status":"passed"},"step":{"line":10,"prefix":"When","index":1,"text":"method GET"},"stepLog":"19:10:58.957 request:\n1 > GET https:\/\/reqres.in\/api\/users%3Fpage=2\n1 > Host: reqres.in\n1 > Connection: Keep-Alive\n1 > User-Agent: Apache-HttpClient\/4.5.13 (Java\/17.0.1)\n1 > Accept-Encoding: gzip,deflate\n\n\n19:10:59.374 response time in milliseconds: 414\n1 < 200\n1 < Date: Sat, 05 Feb 2022 18:10:54 GMT\n1 < Content-Type: application\/json; charset=utf-8\n1 < Transfer-Encoding: chunked\n1 < Connection: keep-alive\n1 < x-powered-by: Express\n1 < access-control-allow-origin: *\n1 < etag: W\/\"2c1-N6Rqerxquq2kgQhL51EiSg4x0R8\"\n1 < via: 1.1 vegur\n1 < Cache-Control: max-age=14400\n1 < CF-Cache-Status: HIT\n1 < Age: 1208\n1 < Expect-CT: max-age=604800, report-uri=\"https:\/\/report-uri.cloudflare.com\/cdn-cgi\/beacon\/expect-ct\"\n1 < Report-To: {\"endpoints\":[{\"url\":\"https:\\\/\\\/a.nel.cloudflare.com\\\/report\\\/v3?s=1ib%2FfVV8UAgjLElcOFYpZN3hEb8jAFDP7bB%2BwO5DJe6%2B%2FBEgm9GICxtjsWdtfsdEKGPezXtVDm8nvJ42bdWm0fvqu6EejzrzQ6YCeD2TqIy3BAyhunm3kRskdfo%3D\"}],\"group\":\"cf-nel\",\"max_age\":604800}\n1 < NEL: {\"success_fraction\":0,\"report_to\":\"cf-nel\",\"max_age\":604800}\n1 < Vary: Accept-Encoding\n1 < Server: cloudflare\n1 < CF-RAY: 6d8e1920ab4d83d7-BRU\n1 < alt-svc: h3=\":443\"; ma=86400, h3-29=\":443\"; ma=86400\n{\"page\":1,\"per_page\":6,\"total\":12,\"total_pages\":2,\"data\":[{\"id\":1,\"name\":\"cerulean\",\"year\":2000,\"color\":\"#98B2D1\",\"pantone_value\":\"15-4020\"},{\"id\":2,\"name\":\"fuchsia rose\",\"year\":2001,\"color\":\"#C74375\",\"pantone_value\":\"17-2031\"},{\"id\":3,\"name\":\"true red\",\"year\":2002,\"color\":\"#BF1932\",\"pantone_value\":\"19-1664\"},{\"id\":4,\"name\":\"aqua sky\",\"year\":2003,\"color\":\"#7BC4C4\",\"pantone_value\":\"14-4811\"},{\"id\":5,\"name\":\"tigerlily\",\"year\":2004,\"color\":\"#E2583E\",\"pantone_value\":\"17-1456\"},{\"id\":6,\"name\":\"blue turquoise\",\"year\":2005,\"color\":\"#53B0AE\",\"pantone_value\":\"15-5217\"}],\"support\":{\"url\":\"https:\/\/reqres.in\/#support-heading\",\"text\":\"To keep ReqRes free, contributions towards server costs are appreciated!\"}}\n"},{"result":{"nanos":19400,"millis":0.0194,"status":"passed"},"step":{"line":11,"prefix":"Then","index":2,"text":"status 200"}},{"result":{"nanos":7858600,"millis":7.8586,"status":"passed"},"step":{"line":12,"prefix":"And","index":3,"text":"assert response.data.length == 6"}},{"result":{"nanos":13402400,"millis":13.4024,"status":"passed"},"step":{"line":13,"prefix":"And","index":4,"text":"print response.data[1].id"},"stepLog":"19:10:59.398 [print] 2 \n"},{"result":{"nanos":10537300,"millis":10.5373,"status":"passed"},"step":{"line":14,"prefix":"And","index":5,"text":"match $.data[1].id == 2"}},{"result":{"nanos":2666100,"millis":2.6661,"status":"passed"},"step":{"line":15,"prefix":"And","index":6,"text":"print response.data[1].email"},"stepLog":"19:10:59.412 [print] null \n"}],"executorName":"main","line":8,"name":"test API get 1","description":"","durationMillis":783.4946,"startTime":1644084658621,"failed":false,"refId":"[1:8]","endTime":1644084659412,"exampleIndex":-1},{"sectionIndex":1,"stepResults":[{"result":{"nanos":306100,"millis":0.3061,"status":"passed"},"step":{"background":true,"line":4,"prefix":"*","index":0,"text":"url 'https:\/\/reqres.in\/api'"}},{"result":{"nanos":1093000,"millis":1.093,"status":"passed"},"step":{"background":true,"line":5,"prefix":"*","index":1,"text":"def output = read('response1.json')"}},{"result":{"nanos":546500,"millis":0.5465,"status":"passed"},"step":{"background":true,"line":6,"prefix":"*","index":2,"text":"def request1 = read('request1.json')"}},{"result":{"nanos":173900,"millis":0.1739,"status":"passed"},"step":{"comments":["#Given path '\/users'"],"line":20,"prefix":"Given","index":0,"text":"path '\/users'"}},{"result":{"nanos":118600,"millis":0.1186,"status":"passed"},"step":{"line":21,"prefix":"And","index":1,"text":"request {\"name\": \"Mouad\" , \"job\": \"tester\" , \"age\": 25}"}},{"result":{"nanos":331496000,"millis":331.496,"status":"passed"},"step":{"line":22,"prefix":"When","index":2,"text":"method POST"},"stepLog":"19:10:59.447 request:\n1 > POST https:\/\/reqres.in\/api\/users\n1 > Content-Type: application\/json; charset=UTF-8\n1 > Content-Length: 40\n1 > Host: reqres.in\n1 > Connection: Keep-Alive\n1 > User-Agent: Apache-HttpClient\/4.5.13 (Java\/17.0.1)\n1 > Accept-Encoding: gzip,deflate\n{\"name\":\"Mouad\",\"job\":\"tester\",\"age\":25}\n\n19:10:59.749 response time in milliseconds: 302\n1 < 201\n1 < Date: Sat, 05 Feb 2022 18:10:54 GMT\n1 < Content-Type: application\/json; charset=utf-8\n1 < Content-Length: 90\n1 < Connection: keep-alive\n1 < x-powered-by: Express\n1 < access-control-allow-origin: *\n1 < etag: W\/\"5a-MbxEZedsZOoE+QcfNpKGuIALIns\"\n1 < via: 1.1 vegur\n1 < CF-Cache-Status: DYNAMIC\n1 < Expect-CT: max-age=604800, report-uri=\"https:\/\/report-uri.cloudflare.com\/cdn-cgi\/beacon\/expect-ct\"\n1 < Report-To: {\"endpoints\":[{\"url\":\"https:\\\/\\\/a.nel.cloudflare.com\\\/report\\\/v3?s=PtJZpW%2Bpzq%2F4dPjKMqrNyXkWsieIOEpcKclW7lndECvmGX0%2BmaLDuhHMPL9bbkBqQAsLEkB%2B6HdVHU1tSgANGlwLASUhpEdL%2FODqnZuJ6k3KJ2kzndt%2BFhPcRss%3D\"}],\"group\":\"cf-nel\",\"max_age\":604800}\n1 < NEL: {\"success_fraction\":0,\"report_to\":\"cf-nel\",\"max_age\":604800}\n1 < Server: cloudflare\n1 < CF-RAY: 6d8e192289542e02-BRU\n1 < alt-svc: h3=\":443\"; ma=86400, h3-29=\":443\"; ma=86400\n{\"name\":\"Mouad\",\"job\":\"tester\",\"age\":25,\"id\":\"775\",\"createdAt\":\"2022-02-05T18:10:54.567Z\"}\n"},{"result":{"nanos":5900,"millis":0.0059,"status":"passed"},"step":{"line":23,"prefix":"Then","index":3,"text":"status 201"}},{"result":{"nanos":429100,"millis":0.4291,"status":"passed"},"step":{"line":24,"prefix":"And","index":4,"text":"match response == {\"name\":\"Mouad\",\"job\":\"tester\",\"age\":25,\"id\":\"#string\",\"createdAt\":\"#ignore\"}"}},{"result":{"nanos":992700,"millis":0.9927,"status":"passed"},"step":{"line":25,"prefix":"And","index":5,"text":"print response"},"stepLog":"19:10:59.751 [print] {\n  \"name\": \"Mouad\",\n  \"job\": \"tester\",\n  \"age\": 25,\n  \"id\": \"775\",\n  \"createdAt\": \"2022-02-05T18:10:54.567Z\"\n}\n \n"}],"executorName":"main","line":18,"name":"test API post 2","description":"","durationMillis":335.1618,"startTime":1644084659416,"failed":false,"refId":"[2:18]","endTime":1644084659751,"exampleIndex":-1},{"sectionIndex":2,"stepResults":[{"result":{"nanos":165600,"millis":0.1656,"status":"passed"},"step":{"background":true,"line":4,"prefix":"*","index":0,"text":"url 'https:\/\/reqres.in\/api'"}},{"result":{"nanos":512600,"millis":0.5126,"status":"passed"},"step":{"background":true,"line":5,"prefix":"*","index":1,"text":"def output = read('response1.json')"}},{"result":{"nanos":454400,"millis":0.4544,"status":"passed"},"step":{"background":true,"line":6,"prefix":"*","index":2,"text":"def request1 = read('request1.json')"}},{"result":{"nanos":97400,"millis":0.0974,"status":"passed"},"step":{"comments":["#Given path '\/users'"],"line":29,"prefix":"Given","index":0,"text":"path '\/users'"}},{"result":{"nanos":255200,"millis":0.2552,"status":"passed"},"step":{"line":30,"prefix":"And","index":1,"text":"request {\"name\": \"Mouad\" , \"job\": \"tester\" }"}},{"result":{"nanos":288108600,"millis":288.1086,"status":"passed"},"step":{"line":31,"prefix":"When","index":2,"text":"method POST"},"stepLog":"19:10:59.757 request:\n1 > POST https:\/\/reqres.in\/api\/users\n1 > Content-Type: application\/json; charset=UTF-8\n1 > Content-Length: 31\n1 > Host: reqres.in\n1 > Connection: Keep-Alive\n1 > User-Agent: Apache-HttpClient\/4.5.13 (Java\/17.0.1)\n1 > Accept-Encoding: gzip,deflate\n{\"name\":\"Mouad\",\"job\":\"tester\"}\n\n19:11:00.043 response time in milliseconds: 286\n1 < 201\n1 < Date: Sat, 05 Feb 2022 18:10:54 GMT\n1 < Content-Type: application\/json; charset=utf-8\n1 < Content-Length: 81\n1 < Connection: keep-alive\n1 < x-powered-by: Express\n1 < access-control-allow-origin: *\n1 < etag: W\/\"51-tXvwV61lG8F\/zXx0bVQAcMUjpfA\"\n1 < via: 1.1 vegur\n1 < CF-Cache-Status: DYNAMIC\n1 < Expect-CT: max-age=604800, report-uri=\"https:\/\/report-uri.cloudflare.com\/cdn-cgi\/beacon\/expect-ct\"\n1 < Report-To: {\"endpoints\":[{\"url\":\"https:\\\/\\\/a.nel.cloudflare.com\\\/report\\\/v3?s=wLNPrP72JQyStz%2BCzAmtqhdJAzzYGSiy%2BV2UGv%2BF44EvC%2BONuTFO1X%2BYWz8JbmHuwi9ncx9MJKSKYGuK9d4VZzMTECFKZ0Rcd04xM1oWOxBLeBIBe5sF%2B4yKKZU%3D\"}],\"group\":\"cf-nel\",\"max_age\":604800}\n1 < NEL: {\"success_fraction\":0,\"report_to\":\"cf-nel\",\"max_age\":604800}\n1 < Server: cloudflare\n1 < CF-RAY: 6d8e192489162e44-BRU\n1 < alt-svc: h3=\":443\"; ma=86400, h3-29=\":443\"; ma=86400\n{\"name\":\"Mouad\",\"job\":\"tester\",\"id\":\"935\",\"createdAt\":\"2022-02-05T18:10:54.870Z\"}\n"},{"result":{"nanos":6800,"millis":0.0068,"status":"passed"},"step":{"line":32,"prefix":"Then","index":3,"text":"status 201"}},{"result":{"nanos":326800,"millis":0.3268,"status":"passed"},"step":{"line":33,"prefix":"And","index":4,"text":"match response == output"}},{"result":{"nanos":316400,"millis":0.3164,"status":"passed"},"step":{"line":34,"prefix":"And","index":5,"text":"print response"},"stepLog":"19:11:00.045 [print] {\n  \"name\": \"Mouad\",\n  \"job\": \"tester\",\n  \"id\": \"935\",\n  \"createdAt\": \"2022-02-05T18:10:54.870Z\"\n}\n \n"}],"executorName":"main","line":27,"name":"test API post 3","description":"","durationMillis":290.2438,"startTime":1644084659754,"failed":false,"refId":"[3:27]","endTime":1644084660045,"exampleIndex":-1},{"sectionIndex":3,"stepResults":[{"result":{"nanos":105700,"millis":0.1057,"status":"passed"},"step":{"background":true,"line":4,"prefix":"*","index":0,"text":"url 'https:\/\/reqres.in\/api'"}},{"result":{"nanos":439400,"millis":0.4394,"status":"passed"},"step":{"background":true,"line":5,"prefix":"*","index":1,"text":"def output = read('response1.json')"}},{"result":{"nanos":337100,"millis":0.3371,"status":"passed"},"step":{"background":true,"line":6,"prefix":"*","index":2,"text":"def request1 = read('request1.json')"}},{"result":{"nanos":61700,"millis":0.0617,"status":"passed"},"step":{"comments":["#Given path '\/users'"],"line":38,"prefix":"Given","index":0,"text":"path '\/users'"}},{"result":{"nanos":965000,"millis":0.965,"status":"passed"},"step":{"line":39,"prefix":"And","index":1,"text":"request request1"}},{"result":{"nanos":254012100,"millis":254.0121,"status":"passed"},"step":{"line":40,"prefix":"When","index":2,"text":"method POST"},"stepLog":"19:11:00.051 request:\n1 > POST https:\/\/reqres.in\/api\/users\n1 > Content-Type: application\/json; charset=UTF-8\n1 > Content-Length: 31\n1 > Host: reqres.in\n1 > Connection: Keep-Alive\n1 > User-Agent: Apache-HttpClient\/4.5.13 (Java\/17.0.1)\n1 > Accept-Encoding: gzip,deflate\n{\"name\":\"Mouad\",\"job\":\"tester\"}\n\n19:11:00.303 response time in milliseconds: 252\n1 < 201\n1 < Date: Sat, 05 Feb 2022 18:10:55 GMT\n1 < Content-Type: application\/json; charset=utf-8\n1 < Content-Length: 81\n1 < Connection: keep-alive\n1 < x-powered-by: Express\n1 < access-control-allow-origin: *\n1 < etag: W\/\"51-vk6pt6mjKtVEosyPtaFA8xvbiLA\"\n1 < via: 1.1 vegur\n1 < CF-Cache-Status: DYNAMIC\n1 < Expect-CT: max-age=604800, report-uri=\"https:\/\/report-uri.cloudflare.com\/cdn-cgi\/beacon\/expect-ct\"\n1 < Report-To: {\"endpoints\":[{\"url\":\"https:\\\/\\\/a.nel.cloudflare.com\\\/report\\\/v3?s=gxqewd3KJ1fxah6t%2F8JapAF19J5LArhGYhl3s%2F3h29IEsYKnVF2n1xYqlJWpifBnQIwNgqLvzJ6aHMYjJdhdkXjDchV2yQEpL7qFDGjouyzRwVc%2Bi44DMEuyLRQ%3D\"}],\"group\":\"cf-nel\",\"max_age\":604800}\n1 < NEL: {\"success_fraction\":0,\"report_to\":\"cf-nel\",\"max_age\":604800}\n1 < Server: cloudflare\n1 < CF-RAY: 6d8e1926294a83de-BRU\n1 < alt-svc: h3=\":443\"; ma=86400, h3-29=\":443\"; ma=86400\n{\"name\":\"Mouad\",\"job\":\"tester\",\"id\":\"452\",\"createdAt\":\"2022-02-05T18:10:55.126Z\"}\n"},{"result":{"nanos":7200,"millis":0.0072,"status":"passed"},"step":{"line":41,"prefix":"Then","index":3,"text":"status 201"}},{"result":{"nanos":265700,"millis":0.2657,"status":"passed"},"step":{"line":42,"prefix":"And","index":4,"text":"match response == output"}},{"result":{"nanos":348200,"millis":0.3482,"status":"passed"},"step":{"line":43,"prefix":"And","index":5,"text":"print response"},"stepLog":"19:11:00.305 [print] {\n  \"name\": \"Mouad\",\n  \"job\": \"tester\",\n  \"id\": \"452\",\n  \"createdAt\": \"2022-02-05T18:10:55.126Z\"\n}\n \n"}],"executorName":"main","line":36,"name":"test API post 3","description":"","durationMillis":256.5421,"startTime":1644084660047,"failed":false,"refId":"[4:36]","endTime":1644084660305,"exampleIndex":-1}],"callDepth":0,"name":"test sample API","description":"","resultDate":"2022-02-05 07:11:00 PM","durationMillis":1665.4423,"passedCount":4}