{"failedCount":0,"prefixedPath":"src\/test\/java\/testRunner\/verifiInCsv.feature","packageQualifiedName":"src.test.java.testRunner.verifiInCsv","loopIndex":-1,"relativePath":"src\/test\/java\/testRunner\/verifiInCsv.feature","scenarioResults":[{"sectionIndex":0,"stepResults":[{"result":{"nanos":150413000,"millis":150.413,"status":"passed"},"step":{"background":true,"line":4,"prefix":"*","index":0,"text":"def exp = read('data.csv')"}},{"result":{"nanos":1331400,"millis":1.3314,"status":"passed"},"step":{"background":true,"line":5,"prefix":"*","index":1,"text":"def exp1 = read('data1.csv')"}},{"result":{"nanos":2078100,"millis":2.0781,"status":"passed"},"step":{"line":8,"prefix":"Given","index":0,"text":"url 'https:\/\/reqres.in\/api\/users?page=2'"}},{"result":{"nanos":732680400,"millis":732.6804,"status":"passed"},"step":{"line":9,"prefix":"When","index":1,"text":"method GET"},"stepLog":"21:26:09.753 request:\n1 > GET https:\/\/reqres.in\/api\/users?page=2\n1 > Host: reqres.in\n1 > Connection: Keep-Alive\n1 > User-Agent: Apache-HttpClient\/4.5.13 (Java\/17.0.1)\n1 > Accept-Encoding: gzip,deflate\n\n\n21:26:10.190 response time in milliseconds: 432\n1 < 200\n1 < Date: Sun, 13 Feb 2022 20:26:06 GMT\n1 < Content-Type: application\/json; charset=utf-8\n1 < Transfer-Encoding: chunked\n1 < Connection: keep-alive\n1 < X-Powered-By: Express\n1 < Access-Control-Allow-Origin: *\n1 < Etag: W\/\"406-ut0vzoCuidvyMf8arZpMpJ6ZRDw\"\n1 < Via: 1.1 vegur\n1 < Cache-Control: max-age=14400\n1 < CF-Cache-Status: HIT\n1 < Age: 73\n1 < Expect-CT: max-age=604800, report-uri=\"https:\/\/report-uri.cloudflare.com\/cdn-cgi\/beacon\/expect-ct\"\n1 < Report-To: {\"endpoints\":[{\"url\":\"https:\\\/\\\/a.nel.cloudflare.com\\\/report\\\/v3?s=v8jmwiSqyM3Ytw84NDy%2FbZddAJiZykKviF%2Bvu7TIDHAatA8L0DBHnmDcsKfAeXr%2FhXZBSMKeL2jOWSrFL6lqNIDVJMYsmW3%2FAIiL3JFGlbW5kbt4h5ARsZAS6qU%3D\"}],\"group\":\"cf-nel\",\"max_age\":604800}\n1 < NEL: {\"success_fraction\":0,\"report_to\":\"cf-nel\",\"max_age\":604800}\n1 < Vary: Accept-Encoding\n1 < Server: cloudflare\n1 < CF-RAY: 6dd0ca2fec4041c4-MRS\n1 < alt-svc: h3=\":443\"; ma=86400, h3-29=\":443\"; ma=86400\n{\"page\":2,\"per_page\":6,\"total\":12,\"total_pages\":2,\"data\":[{\"id\":7,\"email\":\"michael.lawson@reqres.in\",\"first_name\":\"Michael\",\"last_name\":\"Lawson\",\"avatar\":\"https:\/\/reqres.in\/img\/faces\/7-image.jpg\"},{\"id\":8,\"email\":\"lindsay.ferguson@reqres.in\",\"first_name\":\"Lindsay\",\"last_name\":\"Ferguson\",\"avatar\":\"https:\/\/reqres.in\/img\/faces\/8-image.jpg\"},{\"id\":9,\"email\":\"tobias.funke@reqres.in\",\"first_name\":\"Tobias\",\"last_name\":\"Funke\",\"avatar\":\"https:\/\/reqres.in\/img\/faces\/9-image.jpg\"},{\"id\":10,\"email\":\"byron.fields@reqres.in\",\"first_name\":\"Byron\",\"last_name\":\"Fields\",\"avatar\":\"https:\/\/reqres.in\/img\/faces\/10-image.jpg\"},{\"id\":11,\"email\":\"george.edwards@reqres.in\",\"first_name\":\"George\",\"last_name\":\"Edwards\",\"avatar\":\"https:\/\/reqres.in\/img\/faces\/11-image.jpg\"},{\"id\":12,\"email\":\"rachel.howell@reqres.in\",\"first_name\":\"Rachel\",\"last_name\":\"Howell\",\"avatar\":\"https:\/\/reqres.in\/img\/faces\/12-image.jpg\"}],\"support\":{\"url\":\"https:\/\/reqres.in\/#support-heading\",\"text\":\"To keep ReqRes free, contributions towards server costs are appreciated!\"}}\n"},{"result":{"nanos":25900,"millis":0.0259,"status":"passed"},"step":{"line":10,"prefix":"Then","index":2,"text":"status 200"}},{"result":{"nanos":10961900,"millis":10.9619,"status":"passed"},"step":{"comments":["#i used this fuction to convert string to number"],"line":12,"prefix":"*","index":3,"text":"def fun = function(x){ x.id = ~~x.id; return x }"}},{"result":{"nanos":24967400,"millis":24.9674,"status":"passed"},"step":{"line":13,"prefix":"*","index":4,"text":"def exp = karate.map(exp, fun)"}},{"result":{"nanos":8669800,"millis":8.6698,"status":"passed"},"step":{"line":14,"prefix":"And","index":5,"text":"def acc = response"}},{"result":{"nanos":18703500,"millis":18.7035,"status":"passed"},"step":{"comments":["#i used deep to check 2 arrays"],"line":16,"prefix":"*","index":6,"text":"match acc.data[*] contains deep exp"}}],"executorName":"main","line":7,"name":"GET request with CSV table","description":"","durationMillis":949.8314,"startTime":1644783969300,"failed":false,"refId":"[1:7]","endTime":1644783970260,"exampleIndex":-1},{"sectionIndex":1,"stepResults":[{"result":{"nanos":1367400,"millis":1.3674,"status":"passed"},"step":{"background":true,"line":4,"prefix":"*","index":0,"text":"def exp = read('data.csv')"}},{"result":{"nanos":798000,"millis":0.798,"status":"passed"},"step":{"background":true,"line":5,"prefix":"*","index":1,"text":"def exp1 = read('data1.csv')"}},{"result":{"nanos":266200,"millis":0.2662,"status":"passed"},"step":{"line":19,"prefix":"Given","index":0,"text":"url 'https:\/\/reqres.in\/api\/users?page=2'"}},{"result":{"nanos":172465500,"millis":172.4655,"status":"passed"},"step":{"line":20,"prefix":"When","index":1,"text":"method GET"},"stepLog":"21:26:10.269 request:\n1 > GET https:\/\/reqres.in\/api\/users?page=2\n1 > Host: reqres.in\n1 > Connection: Keep-Alive\n1 > User-Agent: Apache-HttpClient\/4.5.13 (Java\/17.0.1)\n1 > Accept-Encoding: gzip,deflate\n\n\n21:26:10.439 response time in milliseconds: 170\n1 < 200\n1 < Date: Sun, 13 Feb 2022 20:26:06 GMT\n1 < Content-Type: application\/json; charset=utf-8\n1 < Transfer-Encoding: chunked\n1 < Connection: keep-alive\n1 < X-Powered-By: Express\n1 < Access-Control-Allow-Origin: *\n1 < Etag: W\/\"406-ut0vzoCuidvyMf8arZpMpJ6ZRDw\"\n1 < Via: 1.1 vegur\n1 < Cache-Control: max-age=14400\n1 < CF-Cache-Status: HIT\n1 < Age: 73\n1 < Expect-CT: max-age=604800, report-uri=\"https:\/\/report-uri.cloudflare.com\/cdn-cgi\/beacon\/expect-ct\"\n1 < Report-To: {\"endpoints\":[{\"url\":\"https:\\\/\\\/a.nel.cloudflare.com\\\/report\\\/v3?s=tbuXC%2BNB3VNpHcGC9HVocMGsAmZIIuryFfzdCM8il6d6OuHczP0BcXj8qVFiuz%2FHCUGRpvJ%2F%2BR23vb4kHNJb7NTdKecC2GDyPTOiYScof6HPUh7LhmxUFlI8TRc%3D\"}],\"group\":\"cf-nel\",\"max_age\":604800}\n1 < NEL: {\"success_fraction\":0,\"report_to\":\"cf-nel\",\"max_age\":604800}\n1 < Vary: Accept-Encoding\n1 < Server: cloudflare\n1 < CF-RAY: 6dd0ca31ac95e934-MRS\n1 < alt-svc: h3=\":443\"; ma=86400, h3-29=\":443\"; ma=86400\n{\"page\":2,\"per_page\":6,\"total\":12,\"total_pages\":2,\"data\":[{\"id\":7,\"email\":\"michael.lawson@reqres.in\",\"first_name\":\"Michael\",\"last_name\":\"Lawson\",\"avatar\":\"https:\/\/reqres.in\/img\/faces\/7-image.jpg\"},{\"id\":8,\"email\":\"lindsay.ferguson@reqres.in\",\"first_name\":\"Lindsay\",\"last_name\":\"Ferguson\",\"avatar\":\"https:\/\/reqres.in\/img\/faces\/8-image.jpg\"},{\"id\":9,\"email\":\"tobias.funke@reqres.in\",\"first_name\":\"Tobias\",\"last_name\":\"Funke\",\"avatar\":\"https:\/\/reqres.in\/img\/faces\/9-image.jpg\"},{\"id\":10,\"email\":\"byron.fields@reqres.in\",\"first_name\":\"Byron\",\"last_name\":\"Fields\",\"avatar\":\"https:\/\/reqres.in\/img\/faces\/10-image.jpg\"},{\"id\":11,\"email\":\"george.edwards@reqres.in\",\"first_name\":\"George\",\"last_name\":\"Edwards\",\"avatar\":\"https:\/\/reqres.in\/img\/faces\/11-image.jpg\"},{\"id\":12,\"email\":\"rachel.howell@reqres.in\",\"first_name\":\"Rachel\",\"last_name\":\"Howell\",\"avatar\":\"https:\/\/reqres.in\/img\/faces\/12-image.jpg\"}],\"support\":{\"url\":\"https:\/\/reqres.in\/#support-heading\",\"text\":\"To keep ReqRes free, contributions towards server costs are appreciated!\"}}\n"},{"result":{"nanos":16300,"millis":0.0163,"status":"passed"},"step":{"line":21,"prefix":"Then","index":2,"text":"status 200"}},{"result":{"nanos":596000,"millis":0.596,"status":"passed"},"step":{"comments":["#i used this fuction to convert string to number","#* def fun = function(x){ x.id = ~~x.id; return x }","#* def exp = karate.map(exp, fun)"],"line":25,"prefix":"And","index":3,"text":"def acc = response"}},{"result":{"nanos":902300,"millis":0.9023,"status":"passed"},"step":{"comments":["#i used deep to check 2 arrays"],"line":27,"prefix":"*","index":4,"text":"match acc.data[*] contains deep exp1"}}],"executorName":"main","line":18,"name":"GET request with CSV table","description":"","durationMillis":176.4117,"startTime":1644783970265,"failed":false,"refId":"[2:18]","endTime":1644783970443,"exampleIndex":-1}],"callDepth":0,"name":"verify if elements exists in csv file","description":"","resultDate":"2022-02-13 09:26:10 PM","durationMillis":1126.2431,"passedCount":2}