{"failedCount":0,"prefixedPath":"src\/test\/java\/TestFeatures\/week3\/CallJavaClass.feature","packageQualifiedName":"src.test.java.TestFeatures.week3.CallJavaClass","loopIndex":-1,"relativePath":"src\/test\/java\/TestFeatures\/week3\/CallJavaClass.feature","scenarioResults":[{"sectionIndex":0,"stepResults":[{"result":{"nanos":53011600,"millis":53.0116,"status":"passed"},"step":{"comments":["#* url BaseURL"],"background":true,"line":5,"prefix":"*","index":0,"text":"def exp1 = read('classpath:\/TestData\/data.csv')"},"stepLog":"18:58:07.538 \n"},{"result":{"nanos":838400,"millis":0.8384,"status":"passed"},"step":{"line":10,"prefix":"Given","index":0,"text":"url 'https:\/\/reqres.in\/api\/users?page=2'"}},{"result":{"nanos":39425900,"millis":39.4259,"status":"passed"},"step":{"line":12,"prefix":"*","index":1,"text":"def ids = karate.jsonPath(exp1,\"$..id\")"}},{"result":{"nanos":2408800,"millis":2.4088,"status":"passed"},"step":{"line":13,"prefix":"*","index":2,"text":"print ids"},"stepLog":"18:58:07.671 [print] [\n  \"8\",\n  \"9\",\n  \"7\"\n]\n \n"},{"result":{"nanos":8745400,"millis":8.7454,"status":"passed"},"step":{"line":14,"prefix":"*","index":3,"text":"def fun = Java.type('Functions.ConvertS2N')"}},{"result":{"nanos":3092500,"millis":3.0925,"status":"passed"},"step":{"line":15,"prefix":"*","index":4,"text":"def exp = fun.castS2N(ids)"}},{"result":{"nanos":748700,"millis":0.7487,"status":"passed"},"step":{"line":16,"prefix":"*","index":5,"text":"print exp"},"stepLog":"18:58:07.684 [print] [\n  8,\n  9,\n  7\n]\n \n"},{"result":{"nanos":2829066700,"millis":2829.0667,"status":"passed"},"step":{"line":17,"prefix":"When","index":6,"text":"method GET"},"stepLog":"18:58:07.957 request:\n1 > GET https:\/\/reqres.in\/api\/users?page=2\n1 > Host: reqres.in\n1 > Connection: Keep-Alive\n1 > User-Agent: Apache-HttpClient\/4.5.13 (Java\/17.0.1)\n1 > Accept-Encoding: gzip,deflate\n\n\n18:58:10.506 response time in milliseconds: 2544\n1 < 200\n1 < Date: Sun, 20 Feb 2022 17:58:01 GMT\n1 < Content-Type: application\/json; charset=utf-8\n1 < Transfer-Encoding: chunked\n1 < Connection: keep-alive\n1 < X-Powered-By: Express\n1 < Access-Control-Allow-Origin: *\n1 < Etag: W\/\"406-ut0vzoCuidvyMf8arZpMpJ6ZRDw\"\n1 < Via: 1.1 vegur\n1 < Cache-Control: max-age=14400\n1 < CF-Cache-Status: HIT\n1 < Age: 5796\n1 < Expect-CT: max-age=604800, report-uri=\"https:\/\/report-uri.cloudflare.com\/cdn-cgi\/beacon\/expect-ct\"\n1 < Report-To: {\"endpoints\":[{\"url\":\"https:\\\/\\\/a.nel.cloudflare.com\\\/report\\\/v3?s=vFfqgObtvnUCBxzQFiA6Y31SrAYf1jVq%2BN6D4InKmGClTRrgkQP7dCCrzi%2BA1yMqq2Cdpo5llBMFt%2Fv9jbGtdZrTkg1Voezce3Bw1sMEn4IFgWl4pvETM10Pan8%3D\"}],\"group\":\"cf-nel\",\"max_age\":604800}\n1 < NEL: {\"success_fraction\":0,\"report_to\":\"cf-nel\",\"max_age\":604800}\n1 < Vary: Accept-Encoding\n1 < Server: cloudflare\n1 < CF-RAY: 6e099ee49c1d2e1a-BRU\n1 < alt-svc: h3=\":443\"; ma=86400, h3-29=\":443\"; ma=86400\n{\"page\":2,\"per_page\":6,\"total\":12,\"total_pages\":2,\"data\":[{\"id\":7,\"email\":\"michael.lawson@reqres.in\",\"first_name\":\"Michael\",\"last_name\":\"Lawson\",\"avatar\":\"https:\/\/reqres.in\/img\/faces\/7-image.jpg\"},{\"id\":8,\"email\":\"lindsay.ferguson@reqres.in\",\"first_name\":\"Lindsay\",\"last_name\":\"Ferguson\",\"avatar\":\"https:\/\/reqres.in\/img\/faces\/8-image.jpg\"},{\"id\":9,\"email\":\"tobias.funke@reqres.in\",\"first_name\":\"Tobias\",\"last_name\":\"Funke\",\"avatar\":\"https:\/\/reqres.in\/img\/faces\/9-image.jpg\"},{\"id\":10,\"email\":\"byron.fields@reqres.in\",\"first_name\":\"Byron\",\"last_name\":\"Fields\",\"avatar\":\"https:\/\/reqres.in\/img\/faces\/10-image.jpg\"},{\"id\":11,\"email\":\"george.edwards@reqres.in\",\"first_name\":\"George\",\"last_name\":\"Edwards\",\"avatar\":\"https:\/\/reqres.in\/img\/faces\/11-image.jpg\"},{\"id\":12,\"email\":\"rachel.howell@reqres.in\",\"first_name\":\"Rachel\",\"last_name\":\"Howell\",\"avatar\":\"https:\/\/reqres.in\/img\/faces\/12-image.jpg\"}],\"support\":{\"url\":\"https:\/\/reqres.in\/#support-heading\",\"text\":\"To keep ReqRes free, contributions towards server costs are appreciated!\"}}\n"},{"result":{"nanos":44200,"millis":0.0442,"status":"passed"},"step":{"line":18,"prefix":"Then","index":7,"text":"status 200"}},{"result":{"nanos":2199000,"millis":2.199,"status":"passed"},"step":{"line":20,"prefix":"And","index":8,"text":"def acc = response"}},{"result":{"nanos":15185300,"millis":15.1853,"status":"passed"},"step":{"comments":["#i used deep to check 2 arrays"],"line":22,"prefix":"*","index":9,"text":"match acc.data[*].id contains  exp"}}],"executorName":"main","line":9,"name":"check if response contains csv values ids","description":"","durationMillis":2954.7665,"startTime":1645379887362,"failed":false,"refId":"[1:9]","endTime":1645379890532,"exampleIndex":-1}],"callDepth":0,"name":"Call methode to string from java class","description":"","resultDate":"2022-02-20 06:58:10 PM","durationMillis":2954.7665,"passedCount":1}