{"failedCount":1,"prefixedPath":"src\/test\/java\/TestFeatures\/week3\/callGetPerson.feature","packageQualifiedName":"src.test.java.TestFeatures.week3.callGetPerson","loopIndex":-1,"relativePath":"src\/test\/java\/TestFeatures\/week3\/callGetPerson.feature","scenarioResults":[{"sectionIndex":0,"stepResults":[{"result":{"nanos":1608000,"millis":1.608,"status":"passed"},"step":{"line":9,"prefix":"Given","index":0,"text":"url 'https:\/\/reqres.in\/api\/users?page=1'"},"stepLog":"01:08:17.957 \n"},{"result":{"nanos":1359506900,"millis":1359.5069,"status":"passed"},"step":{"line":10,"prefix":"When","index":1,"text":"method GET"},"stepLog":"01:08:18.310 request:\n1 > GET https:\/\/reqres.in\/api\/users?page=1\n1 > Host: reqres.in\n1 > Connection: Keep-Alive\n1 > User-Agent: Apache-HttpClient\/4.5.13 (Java\/17.0.1)\n1 > Accept-Encoding: gzip,deflate\n\n\n01:08:19.277 response time in milliseconds: 961\n1 < 200\n1 < Date: Sun, 20 Feb 2022 00:08:12 GMT\n1 < Content-Type: application\/json; charset=utf-8\n1 < Transfer-Encoding: chunked\n1 < Connection: keep-alive\n1 < x-powered-by: Express\n1 < access-control-allow-origin: *\n1 < etag: W\/\"3e4-2RLXvr5wTg9YQ6aH95CkYoFNuO8\"\n1 < via: 1.1 vegur\n1 < Cache-Control: max-age=14400\n1 < CF-Cache-Status: REVALIDATED\n1 < Expect-CT: max-age=604800, report-uri=\"https:\/\/report-uri.cloudflare.com\/cdn-cgi\/beacon\/expect-ct\"\n1 < Report-To: {\"endpoints\":[{\"url\":\"https:\\\/\\\/a.nel.cloudflare.com\\\/report\\\/v3?s=B0gh%2BD8VYn%2BLbMHSG1x9emKEfTIZZWeLNBsoOGgKY7IXbV7iWxaLQHFF6LAxXzc%2BLqTSJPyP%2B4gPbc3yhPq2U9YM23qlwfFwjKGCr4ziQUO6%2B1ujWXEQ0%2FeX%2Fuo%3D\"}],\"group\":\"cf-nel\",\"max_age\":604800}\n1 < NEL: {\"success_fraction\":0,\"report_to\":\"cf-nel\",\"max_age\":604800}\n1 < Vary: Accept-Encoding\n1 < Server: cloudflare\n1 < CF-RAY: 6e037fc53d4f83e3-BRU\n1 < alt-svc: h3=\":443\"; ma=86400, h3-29=\":443\"; ma=86400\n{\"page\":1,\"per_page\":6,\"total\":12,\"total_pages\":2,\"data\":[{\"id\":1,\"email\":\"george.bluth@reqres.in\",\"first_name\":\"George\",\"last_name\":\"Bluth\",\"avatar\":\"https:\/\/reqres.in\/img\/faces\/1-image.jpg\"},{\"id\":2,\"email\":\"janet.weaver@reqres.in\",\"first_name\":\"Janet\",\"last_name\":\"Weaver\",\"avatar\":\"https:\/\/reqres.in\/img\/faces\/2-image.jpg\"},{\"id\":3,\"email\":\"emma.wong@reqres.in\",\"first_name\":\"Emma\",\"last_name\":\"Wong\",\"avatar\":\"https:\/\/reqres.in\/img\/faces\/3-image.jpg\"},{\"id\":4,\"email\":\"eve.holt@reqres.in\",\"first_name\":\"Eve\",\"last_name\":\"Holt\",\"avatar\":\"https:\/\/reqres.in\/img\/faces\/4-image.jpg\"},{\"id\":5,\"email\":\"charles.morris@reqres.in\",\"first_name\":\"Charles\",\"last_name\":\"Morris\",\"avatar\":\"https:\/\/reqres.in\/img\/faces\/5-image.jpg\"},{\"id\":6,\"email\":\"tracey.ramos@reqres.in\",\"first_name\":\"Tracey\",\"last_name\":\"Ramos\",\"avatar\":\"https:\/\/reqres.in\/img\/faces\/6-image.jpg\"}],\"support\":{\"url\":\"https:\/\/reqres.in\/#support-heading\",\"text\":\"To keep ReqRes free, contributions towards server costs are appreciated!\"}}\n"},{"result":{"nanos":39600,"millis":0.0396,"status":"passed"},"step":{"line":11,"prefix":"Then","index":2,"text":"status 200"}},{"result":{"nanos":27126400,"errorMessage":"js failed:\n>>>>\n01: read('this:getPerson.feature')\n<<<<\norg.graalvm.polyglot.PolyglotException: java.io.FileNotFoundException: C:\\Users\\malouan\\eclipse-workspace\\karate\\src\\test\\java\\TestFeatures\\week3\\getPerson.feature (Le fichier spécifié est introuvable)\n- com.intuit.karate.resource.FileResource.getStream(FileResource.java:98)\n- com.intuit.karate.core.FeatureParser.parse(FeatureParser.java:70)\n- com.intuit.karate.core.Feature.read(Feature.java:67)\n- com.intuit.karate.core.ScenarioFileReader.readFile(ScenarioFileReader.java:64)\n- com.intuit.karate.core.ScenarioEngine.lambda$new$0(ScenarioEngine.java:124)\n- <js>.:program(Unnamed:1)\n\nsrc\/test\/java\/TestFeatures\/week3\/callGetPerson.feature:12","millis":27.1264,"status":"failed"},"step":{"line":12,"prefix":"*","index":3,"text":"def person = call read('this:getPerson.feature'){ id: 1 }"},"stepLog":"01:08:19.380 src\/test\/java\/TestFeatures\/week3\/callGetPerson.feature:12\n* def person = call read('this:getPerson.feature'){ id: 1 }\njs failed:\n>>>>\n01: read('this:getPerson.feature')\n<<<<\norg.graalvm.polyglot.PolyglotException: java.io.FileNotFoundException: C:\\Users\\malouan\\eclipse-workspace\\karate\\src\\test\\java\\TestFeatures\\week3\\getPerson.feature (Le fichier spécifié est introuvable)\n- com.intuit.karate.resource.FileResource.getStream(FileResource.java:98)\n- com.intuit.karate.core.FeatureParser.parse(FeatureParser.java:70)\n- com.intuit.karate.core.Feature.read(Feature.java:67)\n- com.intuit.karate.core.ScenarioFileReader.readFile(ScenarioFileReader.java:64)\n- com.intuit.karate.core.ScenarioEngine.lambda$new$0(ScenarioEngine.java:124)\n- <js>.:program(Unnamed:1)\n\nsrc\/test\/java\/TestFeatures\/week3\/callGetPerson.feature:12\n"},{"result":{"nanos":0,"millis":0.0,"status":"skipped"},"step":{"line":13,"prefix":"And","index":4,"text":"print person.response"}}],"line":8,"description":"","durationMillis":1388.2809,"failed":true,"error":"js failed:\n>>>>\n01: read('this:getPerson.feature')\n<<<<\norg.graalvm.polyglot.PolyglotException: java.io.FileNotFoundException: C:\\Users\\malouan\\eclipse-workspace\\karate\\src\\test\\java\\TestFeatures\\week3\\getPerson.feature (Le fichier spécifié est introuvable)\n- com.intuit.karate.resource.FileResource.getStream(FileResource.java:98)\n- com.intuit.karate.core.FeatureParser.parse(FeatureParser.java:70)\n- com.intuit.karate.core.Feature.read(Feature.java:67)\n- com.intuit.karate.core.ScenarioFileReader.readFile(ScenarioFileReader.java:64)\n- com.intuit.karate.core.ScenarioEngine.lambda$new$0(ScenarioEngine.java:124)\n- <js>.:program(Unnamed:1)\n\nsrc\/test\/java\/TestFeatures\/week3\/callGetPerson.feature:12","tags":["tag1"],"executorName":"main","name":"Title of your scenario","startTime":1645315697708,"refId":"[1:8]","endTime":1645315699380,"exampleIndex":-1}],"callDepth":0,"name":"Title of your feature","description":"I want to use this template for my feature file","resultDate":"2022-02-20 01:08:19 AM","durationMillis":1388.2809,"passedCount":0}