{"failedCount":3,"prefixedPath":"src\/test\/java\/test_ResIsReq.feature","packageQualifiedName":"src.test.java.test_ResIsReq","loopIndex":-1,"relativePath":"src\/test\/java\/test_ResIsReq.feature","scenarioResults":[{"sectionIndex":0,"stepResults":[{"result":{"nanos":59843200,"millis":59.8432,"status":"passed"},"step":{"background":true,"line":4,"prefix":"*","index":0,"text":"def baseUrl = 'https:\/\/reqres.in\/api'"}},{"result":{"nanos":15198700,"millis":15.1987,"status":"passed"},"step":{"line":8,"prefix":"Given","index":0,"text":"url baseUrl"}},{"result":{"nanos":447600,"millis":0.4476,"status":"passed"},"step":{"line":9,"prefix":"And","index":1,"text":"path '\/users?page=2'"}},{"result":{"nanos":602985200,"millis":602.9852,"status":"passed"},"step":{"line":10,"prefix":"When","index":2,"text":"method GET"},"stepLog":"16:23:41.072 request:\n1 > GET https:\/\/reqres.in\/api\/users%3Fpage=2\n1 > Host: reqres.in\n1 > Connection: Keep-Alive\n1 > User-Agent: Apache-HttpClient\/4.5.13 (Java\/17.0.1)\n1 > Accept-Encoding: gzip,deflate\n\n\n16:23:41.430 response time in milliseconds: 356\n1 < 200\n1 < Date: Sun, 13 Feb 2022 15:23:38 GMT\n1 < Content-Type: application\/json; charset=utf-8\n1 < Transfer-Encoding: chunked\n1 < Connection: keep-alive\n1 < X-Powered-By: Express\n1 < Access-Control-Allow-Origin: *\n1 < Etag: W\/\"2c1-N6Rqerxquq2kgQhL51EiSg4x0R8\"\n1 < Via: 1.1 vegur\n1 < Cache-Control: max-age=14400\n1 < CF-Cache-Status: HIT\n1 < Age: 4686\n1 < Expect-CT: max-age=604800, report-uri=\"https:\/\/report-uri.cloudflare.com\/cdn-cgi\/beacon\/expect-ct\"\n1 < Report-To: {\"endpoints\":[{\"url\":\"https:\\\/\\\/a.nel.cloudflare.com\\\/report\\\/v3?s=sYKyw09JveTHqg1wBolsfFiihSS1fji5xmjlzvpwwzCxFYe7rJA8peFxmp2K4ANXvspkHCC03RC85oCjxmocEDhfmKotUA%2BNHSC2BdOW6ZImhPsV48%2FYxuGkjoc%3D\"}],\"group\":\"cf-nel\",\"max_age\":604800}\n1 < NEL: {\"success_fraction\":0,\"report_to\":\"cf-nel\",\"max_age\":604800}\n1 < Vary: Accept-Encoding\n1 < Server: cloudflare\n1 < CF-RAY: 6dcf0f1dfb68739b-MRS\n1 < alt-svc: h3=\":443\"; ma=86400, h3-29=\":443\"; ma=86400\n{\"page\":1,\"per_page\":6,\"total\":12,\"total_pages\":2,\"data\":[{\"id\":1,\"name\":\"cerulean\",\"year\":2000,\"color\":\"#98B2D1\",\"pantone_value\":\"15-4020\"},{\"id\":2,\"name\":\"fuchsia rose\",\"year\":2001,\"color\":\"#C74375\",\"pantone_value\":\"17-2031\"},{\"id\":3,\"name\":\"true red\",\"year\":2002,\"color\":\"#BF1932\",\"pantone_value\":\"19-1664\"},{\"id\":4,\"name\":\"aqua sky\",\"year\":2003,\"color\":\"#7BC4C4\",\"pantone_value\":\"14-4811\"},{\"id\":5,\"name\":\"tigerlily\",\"year\":2004,\"color\":\"#E2583E\",\"pantone_value\":\"17-1456\"},{\"id\":6,\"name\":\"blue turquoise\",\"year\":2005,\"color\":\"#53B0AE\",\"pantone_value\":\"15-5217\"}],\"support\":{\"url\":\"https:\/\/reqres.in\/#support-heading\",\"text\":\"To keep ReqRes free, contributions towards server costs are appreciated!\"}}\n"},{"result":{"nanos":15500,"millis":0.0155,"status":"passed"},"step":{"line":11,"prefix":"Then","index":3,"text":"status 200"}},{"result":{"nanos":4446300,"millis":4.4463,"status":"passed"},"step":{"line":12,"prefix":"And","index":4,"text":"def uResponse = response"}},{"result":{"nanos":40177500,"millis":40.1775,"status":"passed"},"step":{"line":13,"prefix":"And","index":5,"text":"print uResponse"},"stepLog":"16:23:41.497 [print] {\n  \"page\": 1,\n  \"per_page\": 6,\n  \"total\": 12,\n  \"total_pages\": 2,\n  \"data\": [\n    {\n      \"id\": 1,\n      \"name\": \"cerulean\",\n      \"year\": 2000,\n      \"color\": \"#98B2D1\",\n      \"pantone_value\": \"15-4020\"\n    },\n    {\n      \"id\": 2,\n      \"name\": \"fuchsia rose\",\n      \"year\": 2001,\n      \"color\": \"#C74375\",\n      \"pantone_value\": \"17-2031\"\n    },\n    {\n      \"id\": 3,\n      \"name\": \"true red\",\n      \"year\": 2002,\n      \"color\": \"#BF1932\",\n      \"pantone_value\": \"19-1664\"\n    },\n    {\n      \"id\": 4,\n      \"name\": \"aqua sky\",\n      \"year\": 2003,\n      \"color\": \"#7BC4C4\",\n      \"pantone_value\": \"14-4811\"\n    },\n    {\n      \"id\": 5,\n      \"name\": \"tigerlily\",\n      \"year\": 2004,\n      \"color\": \"#E2583E\",\n      \"pantone_value\": \"17-1456\"\n    },\n    {\n      \"id\": 6,\n      \"name\": \"blue turquoise\",\n      \"year\": 2005,\n      \"color\": \"#53B0AE\",\n      \"pantone_value\": \"15-5217\"\n    }\n  ],\n  \"support\": {\n    \"url\": \"https:\/\/reqres.in\/#support-heading\",\n    \"text\": \"To keep ReqRes free, contributions towards server costs are appreciated!\"\n  }\n}\n \n"},{"result":{"nanos":15430000,"millis":15.43,"status":"passed"},"step":{"line":14,"prefix":"Then","index":6,"text":"match uResponse.data[*].name contains  ['cerulean']"}},{"result":{"nanos":2372700,"millis":2.3727,"status":"passed"},"step":{"line":15,"prefix":"Then","index":7,"text":"def rec = uResponse.data.name = 'cerulean'"}}],"line":7,"description":"","durationMillis":740.9167,"failed":false,"tags":["tag1"],"executorName":"main","name":"get if cerulean exist","startTime":1644765820765,"refId":"[1:7]","endTime":1644765821516,"exampleIndex":-1},{"sectionIndex":1,"stepResults":[{"result":{"nanos":370100,"millis":0.3701,"status":"passed"},"step":{"background":true,"line":4,"prefix":"*","index":0,"text":"def baseUrl = 'https:\/\/reqres.in\/api'"}},{"result":{"nanos":115300,"millis":0.1153,"status":"passed"},"step":{"line":19,"prefix":"Given","index":0,"text":"url baseUrl"}},{"result":{"nanos":209000,"millis":0.209,"status":"passed"},"step":{"line":20,"prefix":"And","index":1,"text":"path '\/users?page=2'"}},{"result":{"nanos":143847200,"millis":143.8472,"status":"passed"},"step":{"line":21,"prefix":"When","index":2,"text":"method GET"},"stepLog":"16:23:41.521 request:\n1 > GET https:\/\/reqres.in\/api\/users%3Fpage=2\n1 > Host: reqres.in\n1 > Connection: Keep-Alive\n1 > User-Agent: Apache-HttpClient\/4.5.13 (Java\/17.0.1)\n1 > Accept-Encoding: gzip,deflate\n\n\n16:23:41.664 response time in milliseconds: 143\n1 < 200\n1 < Date: Sun, 13 Feb 2022 15:23:38 GMT\n1 < Content-Type: application\/json; charset=utf-8\n1 < Transfer-Encoding: chunked\n1 < Connection: keep-alive\n1 < X-Powered-By: Express\n1 < Access-Control-Allow-Origin: *\n1 < Etag: W\/\"2c1-N6Rqerxquq2kgQhL51EiSg4x0R8\"\n1 < Via: 1.1 vegur\n1 < Cache-Control: max-age=14400\n1 < CF-Cache-Status: HIT\n1 < Age: 4686\n1 < Expect-CT: max-age=604800, report-uri=\"https:\/\/report-uri.cloudflare.com\/cdn-cgi\/beacon\/expect-ct\"\n1 < Report-To: {\"endpoints\":[{\"url\":\"https:\\\/\\\/a.nel.cloudflare.com\\\/report\\\/v3?s=GkbQBI2Q8veufmBKGbMC1YPPG932gJxaKLnDpfDoQ6wuMQTofIsS5M3pmOFVMIW0YhMSFgHBH8ioW0PXoLQe%2ByC0FRzcG7IDnOUA9ENJBDZQ%2FtWnKJlOt0GPGoc%3D\"}],\"group\":\"cf-nel\",\"max_age\":604800}\n1 < NEL: {\"success_fraction\":0,\"report_to\":\"cf-nel\",\"max_age\":604800}\n1 < Vary: Accept-Encoding\n1 < Server: cloudflare\n1 < CF-RAY: 6dcf0f1f8d205fbe-MRS\n1 < alt-svc: h3=\":443\"; ma=86400, h3-29=\":443\"; ma=86400\n{\"page\":1,\"per_page\":6,\"total\":12,\"total_pages\":2,\"data\":[{\"id\":1,\"name\":\"cerulean\",\"year\":2000,\"color\":\"#98B2D1\",\"pantone_value\":\"15-4020\"},{\"id\":2,\"name\":\"fuchsia rose\",\"year\":2001,\"color\":\"#C74375\",\"pantone_value\":\"17-2031\"},{\"id\":3,\"name\":\"true red\",\"year\":2002,\"color\":\"#BF1932\",\"pantone_value\":\"19-1664\"},{\"id\":4,\"name\":\"aqua sky\",\"year\":2003,\"color\":\"#7BC4C4\",\"pantone_value\":\"14-4811\"},{\"id\":5,\"name\":\"tigerlily\",\"year\":2004,\"color\":\"#E2583E\",\"pantone_value\":\"17-1456\"},{\"id\":6,\"name\":\"blue turquoise\",\"year\":2005,\"color\":\"#53B0AE\",\"pantone_value\":\"15-5217\"}],\"support\":{\"url\":\"https:\/\/reqres.in\/#support-heading\",\"text\":\"To keep ReqRes free, contributions towards server costs are appreciated!\"}}\n"},{"result":{"nanos":8200,"millis":0.0082,"status":"passed"},"step":{"line":22,"prefix":"Then","index":3,"text":"status 200"}},{"result":{"nanos":198600,"millis":0.1986,"status":"passed"},"step":{"line":23,"prefix":"And","index":4,"text":"def uResponse = response"}},{"result":{"nanos":634200,"millis":0.6342,"status":"passed"},"step":{"line":24,"prefix":"And","index":5,"text":"print uResponse"},"stepLog":"16:23:41.666 [print] {\n  \"page\": 1,\n  \"per_page\": 6,\n  \"total\": 12,\n  \"total_pages\": 2,\n  \"data\": [\n    {\n      \"id\": 1,\n      \"name\": \"cerulean\",\n      \"year\": 2000,\n      \"color\": \"#98B2D1\",\n      \"pantone_value\": \"15-4020\"\n    },\n    {\n      \"id\": 2,\n      \"name\": \"fuchsia rose\",\n      \"year\": 2001,\n      \"color\": \"#C74375\",\n      \"pantone_value\": \"17-2031\"\n    },\n    {\n      \"id\": 3,\n      \"name\": \"true red\",\n      \"year\": 2002,\n      \"color\": \"#BF1932\",\n      \"pantone_value\": \"19-1664\"\n    },\n    {\n      \"id\": 4,\n      \"name\": \"aqua sky\",\n      \"year\": 2003,\n      \"color\": \"#7BC4C4\",\n      \"pantone_value\": \"14-4811\"\n    },\n    {\n      \"id\": 5,\n      \"name\": \"tigerlily\",\n      \"year\": 2004,\n      \"color\": \"#E2583E\",\n      \"pantone_value\": \"17-1456\"\n    },\n    {\n      \"id\": 6,\n      \"name\": \"blue turquoise\",\n      \"year\": 2005,\n      \"color\": \"#53B0AE\",\n      \"pantone_value\": \"15-5217\"\n    }\n  ],\n  \"support\": {\n    \"url\": \"https:\/\/reqres.in\/#support-heading\",\n    \"text\": \"To keep ReqRes free, contributions towards server costs are appreciated!\"\n  }\n}\n \n"},{"result":{"nanos":486200,"millis":0.4862,"status":"passed"},"step":{"line":25,"prefix":"Then","index":6,"text":"match uResponse.data[*].id contains  [1]"}},{"result":{"nanos":1397900,"millis":1.3979,"status":"passed"},"step":{"line":26,"prefix":"Then","index":7,"text":"def idNumber = uResponse.data.id = 1"}},{"result":{"nanos":1092200,"millis":1.0922,"status":"passed"},"step":{"line":27,"prefix":"And","index":8,"text":"print idNumber"},"stepLog":"16:23:41.669 [print] 1 \n"},{"result":{"nanos":68700,"millis":0.0687,"status":"passed"},"step":{"line":29,"prefix":"Given","index":9,"text":"url baseUrl"}},{"result":{"nanos":186800,"millis":0.1868,"status":"passed"},"step":{"line":30,"prefix":"And","index":10,"text":"path '\/users\/'"}},{"result":{"nanos":0,"errorMessage":"no step-definition method match found for: param  = 2\nsrc\/test\/java\/test_ResIsReq.feature:31","millis":0.0,"status":"failed"},"step":{"line":31,"prefix":"And","index":11,"text":"param  = 2"},"stepLog":"16:23:41.670 src\/test\/java\/test_ResIsReq.feature:31\nAnd param  = 2\nno step-definition method match found for: param  = 2\nsrc\/test\/java\/test_ResIsReq.feature:31\n"},{"result":{"nanos":0,"millis":0.0,"status":"skipped"},"step":{"line":32,"prefix":"When","index":12,"text":"method GET"}},{"result":{"nanos":0,"millis":0.0,"status":"skipped"},"step":{"line":33,"prefix":"Then","index":13,"text":"print response"}}],"line":18,"description":"","durationMillis":148.6144,"failed":true,"error":"no step-definition method match found for: param  = 2\nsrc\/test\/java\/test_ResIsReq.feature:31","tags":["tag2"],"executorName":"main","name":"get if id 1 exist","startTime":1644765821520,"refId":"[2:18]","endTime":1644765821670,"exampleIndex":-1},{"sectionIndex":2,"stepResults":[{"result":{"nanos":166800,"millis":0.1668,"status":"passed"},"step":{"background":true,"line":4,"prefix":"*","index":0,"text":"def baseUrl = 'https:\/\/reqres.in\/api'"}},{"result":{"nanos":232200,"millis":0.2322,"status":"passed"},"step":{"comments":["#* def getId = call read('test_ResIsReq.feature@tag2')","#* print getId"],"line":39,"prefix":"Given","index":0,"text":"path '\/users\/2'"}},{"result":{"nanos":852100,"errorMessage":"http call failed after 1 milliseconds for url: \/users\/2\nsrc\/test\/java\/test_ResIsReq.feature:40","millis":0.8521,"status":"failed"},"step":{"line":40,"prefix":"When","index":1,"text":"method GET"},"stepLog":"16:23:41.674 karate.org.apache.http.ProtocolException: Target host is not specified, http call failed after 1 milliseconds for url: \/users\/2\n16:23:41.674 src\/test\/java\/test_ResIsReq.feature:40\nWhen method GET\nhttp call failed after 1 milliseconds for url: \/users\/2\nsrc\/test\/java\/test_ResIsReq.feature:40\n"},{"result":{"nanos":0,"millis":0.0,"status":"skipped"},"step":{"line":41,"prefix":"Then","index":2,"text":"status 200"}},{"result":{"nanos":0,"millis":0.0,"status":"skipped"},"step":{"line":42,"prefix":"And","index":3,"text":"def u1Response = response"}},{"result":{"nanos":0,"millis":0.0,"status":"skipped"},"step":{"line":43,"prefix":"And","index":4,"text":"print u1Response"}},{"result":{"nanos":0,"millis":0.0,"status":"skipped"},"step":{"line":44,"prefix":"Then","index":5,"text":"match u1Response.data[*].name contains  ['cerulean']"}}],"line":36,"description":"","durationMillis":1.2511,"failed":true,"error":"http call failed after 1 milliseconds for url: \/users\/2\nsrc\/test\/java\/test_ResIsReq.feature:40","tags":["tag3"],"executorName":"main","name":"","startTime":1644765821673,"refId":"[3:36]","endTime":1644765821674,"exampleIndex":-1},{"sectionIndex":3,"stepResults":[{"result":{"nanos":174400,"millis":0.1744,"status":"passed"},"step":{"background":true,"line":4,"prefix":"*","index":0,"text":"def baseUrl = 'https:\/\/reqres.in\/api'"}},{"result":{"nanos":61000,"millis":0.061,"status":"passed"},"step":{"line":47,"prefix":"Given","index":0,"text":"path '\/users?page=2'"}},{"result":{"nanos":576300,"errorMessage":"http call failed after 0 milliseconds for url: \/users%3Fpage=2\nsrc\/test\/java\/test_ResIsReq.feature:48","millis":0.5763,"status":"failed"},"step":{"line":48,"prefix":"When","index":1,"text":"method GET"},"stepLog":"16:23:41.678 karate.org.apache.http.ProtocolException: Target host is not specified, http call failed after 0 milliseconds for url: \/users%3Fpage=2\n16:23:41.678 src\/test\/java\/test_ResIsReq.feature:48\nWhen method GET\nhttp call failed after 0 milliseconds for url: \/users%3Fpage=2\nsrc\/test\/java\/test_ResIsReq.feature:48\n"},{"result":{"nanos":0,"millis":0.0,"status":"skipped"},"step":{"line":49,"prefix":"Then","index":2,"text":"status 200"}},{"result":{"nanos":0,"millis":0.0,"status":"skipped"},"step":{"comments":["# * def name = 'cerulean'"],"line":51,"prefix":"*","index":3,"text":"def response = response.data"}},{"result":{"nanos":0,"millis":0.0,"status":"skipped"},"step":{"comments":["#* def names = $[*].name","#* def index = names.indexOf(name)"],"line":54,"prefix":"*","index":4,"text":"def indexes = []"}},{"result":{"nanos":0,"millis":0.0,"status":"skipped"},"step":{"line":55,"prefix":"*","index":5,"text":"def fun = function(x, i){ if (x.name == 'cerulean') karate.appendTo(indexes, i) }"}},{"result":{"nanos":0,"millis":0.0,"status":"skipped"},"step":{"line":56,"prefix":"*","index":6,"text":"print i"}},{"result":{"nanos":0,"millis":0.0,"status":"skipped"},"step":{"line":57,"prefix":"*","index":7,"text":"karate.forEach(response.items, fun)"}}],"line":46,"description":"","durationMillis":0.8117,"failed":true,"error":"http call failed after 0 milliseconds for url: \/users%3Fpage=2\nsrc\/test\/java\/test_ResIsReq.feature:48","executorName":"main","name":"get index cerulean","startTime":1644765821677,"refId":"[4:46]","endTime":1644765821678,"exampleIndex":-1}],"callDepth":0,"name":"test request is response","description":"","resultDate":"2022-02-13 04:23:41 PM","durationMillis":891.5939,"passedCount":1}