{"failedCount":0,"prefixedPath":"src\/test\/java\/TestFeatures\/week3\/CallJavaClass.feature","packageQualifiedName":"src.test.java.TestFeatures.week3.CallJavaClass","loopIndex":-1,"relativePath":"src\/test\/java\/TestFeatures\/week3\/CallJavaClass.feature","scenarioResults":[{"sectionIndex":0,"stepResults":[{"result":{"nanos":54538300,"millis":54.5383,"status":"passed"},"step":{"comments":["#* url BaseURL"],"background":true,"line":5,"prefix":"*","index":0,"text":"def exp1 = read('classpath:\/TestData\/data.csv')"},"stepLog":"19:02:11.550 \n"},{"result":{"nanos":1039100,"millis":1.0391,"status":"passed"},"step":{"line":9,"prefix":"Given","index":0,"text":"url 'https:\/\/reqres.in\/api\/users?page=2'"}},{"result":{"nanos":39324400,"millis":39.3244,"status":"passed"},"step":{"comments":["#Given path '\/users?page=2'"],"line":11,"prefix":"*","index":1,"text":"def ids = karate.jsonPath(exp1,\"$..id\")"}},{"result":{"nanos":1874300,"millis":1.8743,"status":"passed"},"step":{"line":12,"prefix":"*","index":2,"text":"print ids"},"stepLog":"19:02:11.676 [print] [\n  \"8\",\n  \"9\",\n  \"7\"\n]\n \n"},{"result":{"nanos":10773700,"millis":10.7737,"status":"passed"},"step":{"line":13,"prefix":"*","index":3,"text":"def fun = Java.type('Functions.ConvertS2N')"}},{"result":{"nanos":2822200,"millis":2.8222,"status":"passed"},"step":{"line":14,"prefix":"*","index":4,"text":"def exp = fun.castS2N(ids)"}},{"result":{"nanos":915300,"millis":0.9153,"status":"passed"},"step":{"line":15,"prefix":"*","index":5,"text":"print exp"},"stepLog":"19:02:11.691 [print] [\n  8,\n  9,\n  7\n]\n \n"},{"result":{"nanos":883493600,"millis":883.4936,"status":"passed"},"step":{"line":16,"prefix":"When","index":6,"text":"method GET"},"stepLog":"19:02:11.986 request:\n1 > GET https:\/\/reqres.in\/api\/users?page=2\n1 > Host: reqres.in\n1 > Connection: Keep-Alive\n1 > User-Agent: Apache-HttpClient\/4.5.13 (Java\/17.0.1)\n1 > Accept-Encoding: gzip,deflate\n\n\n19:02:12.570 response time in milliseconds: 579\n1 < 200\n1 < Date: Sun, 20 Feb 2022 18:02:04 GMT\n1 < Content-Type: application\/json; charset=utf-8\n1 < Transfer-Encoding: chunked\n1 < Connection: keep-alive\n1 < X-Powered-By: Express\n1 < Access-Control-Allow-Origin: *\n1 < Etag: W\/\"406-ut0vzoCuidvyMf8arZpMpJ6ZRDw\"\n1 < Via: 1.1 vegur\n1 < Cache-Control: max-age=14400\n1 < CF-Cache-Status: HIT\n1 < Age: 6039\n1 < Expect-CT: max-age=604800, report-uri=\"https:\/\/report-uri.cloudflare.com\/cdn-cgi\/beacon\/expect-ct\"\n1 < Report-To: {\"endpoints\":[{\"url\":\"https:\\\/\\\/a.nel.cloudflare.com\\\/report\\\/v3?s=q3Lo0oQJMW3EBMN5e1PYY0E4KGBqBcARCHiokSTRTbeKOt7OMhP7X5YLnFRp%2B%2FYQAv%2BHBK4Z7vjAoFbYc0aJ9RXVYu32e5qcKQg6YHHthnAxpHgdoCY5YQyfjMQ%3D\"}],\"group\":\"cf-nel\",\"max_age\":604800}\n1 < NEL: {\"success_fraction\":0,\"report_to\":\"cf-nel\",\"max_age\":604800}\n1 < Vary: Accept-Encoding\n1 < Server: cloudflare\n1 < CF-RAY: 6e09a4d24de8f961-BRU\n1 < alt-svc: h3=\":443\"; ma=86400, h3-29=\":443\"; ma=86400\n{\"page\":2,\"per_page\":6,\"total\":12,\"total_pages\":2,\"data\":[{\"id\":7,\"email\":\"michael.lawson@reqres.in\",\"first_name\":\"Michael\",\"last_name\":\"Lawson\",\"avatar\":\"https:\/\/reqres.in\/img\/faces\/7-image.jpg\"},{\"id\":8,\"email\":\"lindsay.ferguson@reqres.in\",\"first_name\":\"Lindsay\",\"last_name\":\"Ferguson\",\"avatar\":\"https:\/\/reqres.in\/img\/faces\/8-image.jpg\"},{\"id\":9,\"email\":\"tobias.funke@reqres.in\",\"first_name\":\"Tobias\",\"last_name\":\"Funke\",\"avatar\":\"https:\/\/reqres.in\/img\/faces\/9-image.jpg\"},{\"id\":10,\"email\":\"byron.fields@reqres.in\",\"first_name\":\"Byron\",\"last_name\":\"Fields\",\"avatar\":\"https:\/\/reqres.in\/img\/faces\/10-image.jpg\"},{\"id\":11,\"email\":\"george.edwards@reqres.in\",\"first_name\":\"George\",\"last_name\":\"Edwards\",\"avatar\":\"https:\/\/reqres.in\/img\/faces\/11-image.jpg\"},{\"id\":12,\"email\":\"rachel.howell@reqres.in\",\"first_name\":\"Rachel\",\"last_name\":\"Howell\",\"avatar\":\"https:\/\/reqres.in\/img\/faces\/12-image.jpg\"}],\"support\":{\"url\":\"https:\/\/reqres.in\/#support-heading\",\"text\":\"To keep ReqRes free, contributions towards server costs are appreciated!\"}}\n"},{"result":{"nanos":25400,"millis":0.0254,"status":"passed"},"step":{"line":17,"prefix":"Then","index":7,"text":"status 200"}},{"result":{"nanos":1618300,"millis":1.6183,"status":"passed"},"step":{"line":18,"prefix":"And","index":8,"text":"def acc = response"}},{"result":{"nanos":8915900,"millis":8.9159,"status":"passed"},"step":{"line":19,"prefix":"*","index":9,"text":"match acc.data[*].id contains  exp"}}],"executorName":"main","line":8,"name":"check if response contains csv values ids","description":"","durationMillis":1005.3405,"startTime":1645380131400,"failed":false,"refId":"[1:8]","endTime":1645380132586,"exampleIndex":-1}],"callDepth":0,"name":"Call methode to string from java class","description":"","resultDate":"2022-02-20 07:02:12 PM","durationMillis":1005.3405,"passedCount":1}