{"failedCount":1,"prefixedPath":"src\/test\/java\/TestFeatures\/week3\/callGetPerson.feature","packageQualifiedName":"src.test.java.TestFeatures.week3.callGetPerson","loopIndex":-1,"relativePath":"src\/test\/java\/TestFeatures\/week3\/callGetPerson.feature","scenarioResults":[{"sectionIndex":0,"stepResults":[{"result":{"nanos":1230800,"millis":1.2308,"status":"passed"},"step":{"line":9,"prefix":"Given","index":0,"text":"url 'https:\/\/reqres.in\/api\/users?page=1'"},"stepLog":"14:51:09.667 \n"},{"result":{"nanos":691198000,"millis":691.198,"status":"passed"},"step":{"line":10,"prefix":"When","index":1,"text":"method GET"},"stepLog":"14:51:09.987 request:\n1 > GET https:\/\/reqres.in\/api\/users?page=1\n1 > Host: reqres.in\n1 > Connection: Keep-Alive\n1 > User-Agent: Apache-HttpClient\/4.5.13 (Java\/17.0.1)\n1 > Accept-Encoding: gzip,deflate\n\n\n14:51:10.367 response time in milliseconds: 378\n1 < 200\n1 < Date: Sun, 20 Feb 2022 13:51:02 GMT\n1 < Content-Type: application\/json; charset=utf-8\n1 < Transfer-Encoding: chunked\n1 < Connection: keep-alive\n1 < X-Powered-By: Express\n1 < Access-Control-Allow-Origin: *\n1 < Etag: W\/\"3e4-2RLXvr5wTg9YQ6aH95CkYoFNuO8\"\n1 < Via: 1.1 vegur\n1 < Cache-Control: max-age=14400\n1 < CF-Cache-Status: HIT\n1 < Age: 1107\n1 < Expect-CT: max-age=604800, report-uri=\"https:\/\/report-uri.cloudflare.com\/cdn-cgi\/beacon\/expect-ct\"\n1 < Report-To: {\"endpoints\":[{\"url\":\"https:\\\/\\\/a.nel.cloudflare.com\\\/report\\\/v3?s=q6sFjPC9fum9LIDzBo2Poew1rMN8399gwJAswkLxILu1IlhQ2%2FOorIStqwEPDQxeYJgdNt96Fn%2FxLEnXwWUy%2BLs0ivATyKaDWgQhfrVjFKZLwYOzR0BRTeJWcCs%3D\"}],\"group\":\"cf-nel\",\"max_age\":604800}\n1 < NEL: {\"success_fraction\":0,\"report_to\":\"cf-nel\",\"max_age\":604800}\n1 < Vary: Accept-Encoding\n1 < Server: cloudflare\n1 < CF-RAY: 6e083518ccad73c7-MRS\n1 < alt-svc: h3=\":443\"; ma=86400, h3-29=\":443\"; ma=86400\n{\"page\":1,\"per_page\":6,\"total\":12,\"total_pages\":2,\"data\":[{\"id\":1,\"email\":\"george.bluth@reqres.in\",\"first_name\":\"George\",\"last_name\":\"Bluth\",\"avatar\":\"https:\/\/reqres.in\/img\/faces\/1-image.jpg\"},{\"id\":2,\"email\":\"janet.weaver@reqres.in\",\"first_name\":\"Janet\",\"last_name\":\"Weaver\",\"avatar\":\"https:\/\/reqres.in\/img\/faces\/2-image.jpg\"},{\"id\":3,\"email\":\"emma.wong@reqres.in\",\"first_name\":\"Emma\",\"last_name\":\"Wong\",\"avatar\":\"https:\/\/reqres.in\/img\/faces\/3-image.jpg\"},{\"id\":4,\"email\":\"eve.holt@reqres.in\",\"first_name\":\"Eve\",\"last_name\":\"Holt\",\"avatar\":\"https:\/\/reqres.in\/img\/faces\/4-image.jpg\"},{\"id\":5,\"email\":\"charles.morris@reqres.in\",\"first_name\":\"Charles\",\"last_name\":\"Morris\",\"avatar\":\"https:\/\/reqres.in\/img\/faces\/5-image.jpg\"},{\"id\":6,\"email\":\"tracey.ramos@reqres.in\",\"first_name\":\"Tracey\",\"last_name\":\"Ramos\",\"avatar\":\"https:\/\/reqres.in\/img\/faces\/6-image.jpg\"}],\"support\":{\"url\":\"https:\/\/reqres.in\/#support-heading\",\"text\":\"To keep ReqRes free, contributions towards server costs are appreciated!\"}}\n"},{"result":{"nanos":20000,"millis":0.02,"status":"passed"},"step":{"line":11,"prefix":"Then","index":2,"text":"status 200"}},{"result":{"nanos":1073600,"millis":1.0736,"status":"passed"},"step":{"endLine":14,"line":12,"prefix":"*","index":3,"text":"table emails","table":[{"line":13,"row":["email"]},{"line":14,"row":["'george.bluth@reqres.in'"]}]}},{"result":{"nanos":324018200,"errorMessage":"feature call loop failed at index: 0, match failed: EQUALS\n  $ | data types don't match (LIST:MAP)\n  [\"george.bluth@reqres.in\",\"janet.weaver@reqres.in\",\"emma.wong@reqres.in\",\"eve.holt@reqres.in\",\"charles.morris@reqres.in\",\"tracey.ramos@reqres.in\"]\n  {\"email\":\"george.bluth@reqres.in\"}\n\nclasspath:reusableFeatures\/getPerson.feature:10\nsrc\/test\/java\/TestFeatures\/week3\/callGetPerson.feature:15","millis":324.0182,"status":"failed"},"step":{"line":15,"prefix":"*","index":4,"text":"def person = call read('classpath:\/reusableFeatures\/getPerson.feature') emails"},"stepLog":"14:51:10.719 src\/test\/java\/TestFeatures\/week3\/callGetPerson.feature:15\n* def person = call read('classpath:\/reusableFeatures\/getPerson.feature') emails\nfeature call loop failed at index: 0, match failed: EQUALS\n  $ | data types don't match (LIST:MAP)\n  [\"george.bluth@reqres.in\",\"janet.weaver@reqres.in\",\"emma.wong@reqres.in\",\"eve.holt@reqres.in\",\"charles.morris@reqres.in\",\"tracey.ramos@reqres.in\"]\n  {\"email\":\"george.bluth@reqres.in\"}\n\nclasspath:reusableFeatures\/getPerson.feature:10\n14:51:10.719 src\/test\/java\/TestFeatures\/week3\/callGetPerson.feature:15\n* def person = call read('classpath:\/reusableFeatures\/getPerson.feature') emails\nfeature call loop failed at index: 0, match failed: EQUALS\n  $ | data types don't match (LIST:MAP)\n  [\"george.bluth@reqres.in\",\"janet.weaver@reqres.in\",\"emma.wong@reqres.in\",\"eve.holt@reqres.in\",\"charles.morris@reqres.in\",\"tracey.ramos@reqres.in\"]\n  {\"email\":\"george.bluth@reqres.in\"}\n\nclasspath:reusableFeatures\/getPerson.feature:10\nsrc\/test\/java\/TestFeatures\/week3\/callGetPerson.feature:15\n","callResults":[{"prefixedPath":"classpath:reusableFeatures\/getPerson.feature","loopIndex":0,"callDepth":1,"description":"","resultDate":"2022-02-20 02:51:10 PM","durationMillis":292.8228,"callArg":{"email":"george.bluth@reqres.in"},"failedCount":1,"packageQualifiedName":"reusableFeatures.getPerson","relativePath":"reusableFeatures\/getPerson.feature","scenarioResults":[{"sectionIndex":0,"stepResults":[{"result":{"nanos":444000,"millis":0.444,"status":"passed"},"step":{"line":5,"prefix":"Given","index":0,"text":"url 'https:\/\/reqres.in\/api\/users?page=1'"}},{"result":{"nanos":13841300,"millis":13.8413,"status":"passed"},"step":{"line":6,"prefix":"And","index":1,"text":"request { email: #(email) }"}},{"result":{"nanos":269422400,"millis":269.4224,"status":"passed"},"step":{"line":7,"prefix":"When","index":2,"text":"method GET"},"stepLog":"14:51:10.473 request:\n1 > GET https:\/\/reqres.in\/api\/users?page=1\n1 > Content-Type: application\/json; charset=UTF-8\n1 > Content-Length: 34\n1 > Host: reqres.in\n1 > Connection: Keep-Alive\n1 > User-Agent: Apache-HttpClient\/4.5.13 (Java\/17.0.1)\n1 > Accept-Encoding: gzip,deflate\n{\"email\":\"george.bluth@reqres.in\"}\n\n14:51:10.708 response time in milliseconds: 235\n1 < 200\n1 < Date: Sun, 20 Feb 2022 13:51:02 GMT\n1 < Content-Type: application\/json; charset=utf-8\n1 < Transfer-Encoding: chunked\n1 < Connection: keep-alive\n1 < X-Powered-By: Express\n1 < Access-Control-Allow-Origin: *\n1 < Etag: W\/\"3e4-2RLXvr5wTg9YQ6aH95CkYoFNuO8\"\n1 < Via: 1.1 vegur\n1 < Cache-Control: max-age=14400\n1 < CF-Cache-Status: HIT\n1 < Age: 1107\n1 < Expect-CT: max-age=604800, report-uri=\"https:\/\/report-uri.cloudflare.com\/cdn-cgi\/beacon\/expect-ct\"\n1 < Report-To: {\"endpoints\":[{\"url\":\"https:\\\/\\\/a.nel.cloudflare.com\\\/report\\\/v3?s=YpN17YZC3Mnex2%2F2H478vqnumOCJ%2FCavzNBBiTh0DJfVwMMf9m6vw8XugbK4hfKi47o%2Fmdzai963S6uxjUGTyT8mZL7FThZMAbIruu6TYO0cxsWOTuxtqCOA6Q4%3D\"}],\"group\":\"cf-nel\",\"max_age\":604800}\n1 < NEL: {\"success_fraction\":0,\"report_to\":\"cf-nel\",\"max_age\":604800}\n1 < Vary: Accept-Encoding\n1 < Server: cloudflare\n1 < CF-RAY: 6e08351afb3e73ab-MRS\n1 < alt-svc: h3=\":443\"; ma=86400, h3-29=\":443\"; ma=86400\n{\"page\":1,\"per_page\":6,\"total\":12,\"total_pages\":2,\"data\":[{\"id\":1,\"email\":\"george.bluth@reqres.in\",\"first_name\":\"George\",\"last_name\":\"Bluth\",\"avatar\":\"https:\/\/reqres.in\/img\/faces\/1-image.jpg\"},{\"id\":2,\"email\":\"janet.weaver@reqres.in\",\"first_name\":\"Janet\",\"last_name\":\"Weaver\",\"avatar\":\"https:\/\/reqres.in\/img\/faces\/2-image.jpg\"},{\"id\":3,\"email\":\"emma.wong@reqres.in\",\"first_name\":\"Emma\",\"last_name\":\"Wong\",\"avatar\":\"https:\/\/reqres.in\/img\/faces\/3-image.jpg\"},{\"id\":4,\"email\":\"eve.holt@reqres.in\",\"first_name\":\"Eve\",\"last_name\":\"Holt\",\"avatar\":\"https:\/\/reqres.in\/img\/faces\/4-image.jpg\"},{\"id\":5,\"email\":\"charles.morris@reqres.in\",\"first_name\":\"Charles\",\"last_name\":\"Morris\",\"avatar\":\"https:\/\/reqres.in\/img\/faces\/5-image.jpg\"},{\"id\":6,\"email\":\"tracey.ramos@reqres.in\",\"first_name\":\"Tracey\",\"last_name\":\"Ramos\",\"avatar\":\"https:\/\/reqres.in\/img\/faces\/6-image.jpg\"}],\"support\":{\"url\":\"https:\/\/reqres.in\/#support-heading\",\"text\":\"To keep ReqRes free, contributions towards server costs are appreciated!\"}}\n"},{"result":{"nanos":11800,"millis":0.0118,"status":"passed"},"step":{"line":8,"prefix":"Then","index":3,"text":"status 200"}},{"result":{"nanos":9103300,"errorMessage":"match failed: EQUALS\n  $ | data types don't match (LIST:MAP)\n  [\"george.bluth@reqres.in\",\"janet.weaver@reqres.in\",\"emma.wong@reqres.in\",\"eve.holt@reqres.in\",\"charles.morris@reqres.in\",\"tracey.ramos@reqres.in\"]\n  {\"email\":\"george.bluth@reqres.in\"}\n\nclasspath:reusableFeatures\/getPerson.feature:10","millis":9.1033,"status":"failed"},"step":{"comments":["#And match response.data[*] contains {id: id,email:'#ignore',first_name:'#ignore',last_name:'#ignore',avatar:'#ignore'}"],"line":10,"prefix":"And","index":4,"text":"match response.data[*].email == {email : #(email)}"},"stepLog":"14:51:10.718 classpath:reusableFeatures\/getPerson.feature:10\nAnd match response.data[*].email == {email : #(email)}\nmatch failed: EQUALS\n  $ | data types don't match (LIST:MAP)\n  [\"george.bluth@reqres.in\",\"janet.weaver@reqres.in\",\"emma.wong@reqres.in\",\"eve.holt@reqres.in\",\"charles.morris@reqres.in\",\"tracey.ramos@reqres.in\"]\n  {\"email\":\"george.bluth@reqres.in\"}\n\nclasspath:reusableFeatures\/getPerson.feature:10\n"}],"line":4,"description":"","durationMillis":292.8228,"failed":true,"error":"match failed: EQUALS\n  $ | data types don't match (LIST:MAP)\n  [\"george.bluth@reqres.in\",\"janet.weaver@reqres.in\",\"emma.wong@reqres.in\",\"eve.holt@reqres.in\",\"charles.morris@reqres.in\",\"tracey.ramos@reqres.in\"]\n  {\"email\":\"george.bluth@reqres.in\"}\n\nclasspath:reusableFeatures\/getPerson.feature:10","executorName":"main","name":"get person","startTime":1645365070425,"refId":"[1:4]","endTime":1645365070718,"exampleIndex":-1}],"name":"Get person from list","passedCount":0}]},{"result":{"nanos":0,"millis":0.0,"status":"skipped"},"step":{"line":16,"prefix":"And","index":5,"text":"print person.response"}}],"line":8,"description":"","durationMillis":1017.5406,"failed":true,"error":"feature call loop failed at index: 0, match failed: EQUALS\n  $ | data types don't match (LIST:MAP)\n  [\"george.bluth@reqres.in\",\"janet.weaver@reqres.in\",\"emma.wong@reqres.in\",\"eve.holt@reqres.in\",\"charles.morris@reqres.in\",\"tracey.ramos@reqres.in\"]\n  {\"email\":\"george.bluth@reqres.in\"}\n\nclasspath:reusableFeatures\/getPerson.feature:10\nsrc\/test\/java\/TestFeatures\/week3\/callGetPerson.feature:15","tags":["tag1"],"executorName":"main","name":"Title of your scenario","startTime":1645365069520,"refId":"[1:8]","endTime":1645365070719,"exampleIndex":-1}],"callDepth":0,"name":"Title of your feature","description":"I want to use this template for my feature file","resultDate":"2022-02-20 02:51:10 PM","durationMillis":1017.5406,"passedCount":0}