{"failedCount":1,"prefixedPath":"src\/test\/java\/TestFeatures\/week3\/matchFromAllData.feature","packageQualifiedName":"src.test.java.TestFeatures.week3.matchFromAllData","loopIndex":-1,"relativePath":"src\/test\/java\/TestFeatures\/week3\/matchFromAllData.feature","scenarioResults":[{"sectionIndex":0,"stepResults":[{"result":{"nanos":40910500,"millis":40.9105,"status":"passed"},"step":{"comments":["#* url BaseURL"],"background":true,"line":5,"prefix":"*","index":0,"text":"def exp1 = read('classpath:\/TestData\/allData.csv')"},"stepLog":"15:58:07.674 \n"},{"result":{"nanos":688900,"millis":0.6889,"status":"passed"},"step":{"line":8,"prefix":"Given","index":0,"text":"url 'https:\/\/reqres.in\/api\/users?page=1'"}},{"result":{"nanos":919613600,"millis":919.6136,"status":"passed"},"step":{"comments":["#And request { id:'#number', first_name: '#(first_name)'  }"],"line":10,"prefix":"When","index":1,"text":"method GET"},"stepLog":"15:58:07.950 request:\n1 > GET https:\/\/reqres.in\/api\/users?page=1\n1 > Host: reqres.in\n1 > Connection: Keep-Alive\n1 > User-Agent: Apache-HttpClient\/4.5.13 (Java\/17.0.1)\n1 > Accept-Encoding: gzip,deflate\n\n\n15:58:08.655 response time in milliseconds: 703\n1 < 200\n1 < Date: Sun, 20 Feb 2022 14:58:00 GMT\n1 < Content-Type: application\/json; charset=utf-8\n1 < Transfer-Encoding: chunked\n1 < Connection: keep-alive\n1 < x-powered-by: Express\n1 < access-control-allow-origin: *\n1 < etag: W\/\"3e4-2RLXvr5wTg9YQ6aH95CkYoFNuO8\"\n1 < via: 1.1 vegur\n1 < Cache-Control: max-age=14400\n1 < CF-Cache-Status: HIT\n1 < Age: 4815\n1 < Expect-CT: max-age=604800, report-uri=\"https:\/\/report-uri.cloudflare.com\/cdn-cgi\/beacon\/expect-ct\"\n1 < Report-To: {\"endpoints\":[{\"url\":\"https:\\\/\\\/a.nel.cloudflare.com\\\/report\\\/v3?s=8DIKLdPaIyOs297ZO%2FNJfL72I8bmkQ9d38W7tnW%2FyKn9g8vQEaW2osocJ8IC%2FDtcpHl6DYqX3S5KsmJedndwHMzMyEMPtgcrS%2FKp6B4Y1R5P5YYEABMertuMaIE%3D\"}],\"group\":\"cf-nel\",\"max_age\":604800}\n1 < NEL: {\"success_fraction\":0,\"report_to\":\"cf-nel\",\"max_age\":604800}\n1 < Vary: Accept-Encoding\n1 < Server: cloudflare\n1 < CF-RAY: 6e0897325cab2e20-BRU\n1 < alt-svc: h3=\":443\"; ma=86400, h3-29=\":443\"; ma=86400\n{\"page\":1,\"per_page\":6,\"total\":12,\"total_pages\":2,\"data\":[{\"id\":1,\"email\":\"george.bluth@reqres.in\",\"first_name\":\"George\",\"last_name\":\"Bluth\",\"avatar\":\"https:\/\/reqres.in\/img\/faces\/1-image.jpg\"},{\"id\":2,\"email\":\"janet.weaver@reqres.in\",\"first_name\":\"Janet\",\"last_name\":\"Weaver\",\"avatar\":\"https:\/\/reqres.in\/img\/faces\/2-image.jpg\"},{\"id\":3,\"email\":\"emma.wong@reqres.in\",\"first_name\":\"Emma\",\"last_name\":\"Wong\",\"avatar\":\"https:\/\/reqres.in\/img\/faces\/3-image.jpg\"},{\"id\":4,\"email\":\"eve.holt@reqres.in\",\"first_name\":\"Eve\",\"last_name\":\"Holt\",\"avatar\":\"https:\/\/reqres.in\/img\/faces\/4-image.jpg\"},{\"id\":5,\"email\":\"charles.morris@reqres.in\",\"first_name\":\"Charles\",\"last_name\":\"Morris\",\"avatar\":\"https:\/\/reqres.in\/img\/faces\/5-image.jpg\"},{\"id\":6,\"email\":\"tracey.ramos@reqres.in\",\"first_name\":\"Tracey\",\"last_name\":\"Ramos\",\"avatar\":\"https:\/\/reqres.in\/img\/faces\/6-image.jpg\"}],\"support\":{\"url\":\"https:\/\/reqres.in\/#support-heading\",\"text\":\"To keep ReqRes free, contributions towards server costs are appreciated!\"}}\n"},{"result":{"nanos":15100,"millis":0.0151,"status":"passed"},"step":{"line":11,"prefix":"Then","index":2,"text":"status 200"}},{"result":{"nanos":5159500,"millis":5.1595,"status":"passed"},"step":{"line":12,"prefix":"And","index":3,"text":"print exp1.response"},"stepLog":"15:58:08.662 [print] null \n"},{"result":{"nanos":1820700,"millis":1.8207,"status":"passed"},"step":{"line":13,"prefix":"And","index":4,"text":"def acc = response"}},{"result":{"nanos":6993000,"errorMessage":"js failed:\n>>>>\n01: karate.log('[print]',exp)\n<<<<\norg.graalvm.polyglot.PolyglotException: ReferenceError: \"exp\" is not defined\n- <js>.:program(Unnamed:1)\n\nsrc\/test\/java\/TestFeatures\/week3\/matchFromAllData.feature:14","millis":6.993,"status":"failed"},"step":{"line":14,"prefix":"And","index":5,"text":"print exp"},"stepLog":"15:58:08.672 src\/test\/java\/TestFeatures\/week3\/matchFromAllData.feature:14\nAnd print exp\njs failed:\n>>>>\n01: karate.log('[print]',exp)\n<<<<\norg.graalvm.polyglot.PolyglotException: ReferenceError: \"exp\" is not defined\n- <js>.:program(Unnamed:1)\n\nsrc\/test\/java\/TestFeatures\/week3\/matchFromAllData.feature:14\n"},{"result":{"nanos":0,"millis":0.0,"status":"skipped"},"step":{"line":15,"prefix":"And","index":6,"text":"match response contains exp"}},{"result":{"nanos":0,"millis":0.0,"status":"skipped"},"step":{"line":17,"prefix":"*","index":7,"text":"match each acc.data[*] contains '#(^exp1)'"}},{"result":{"nanos":0,"millis":0.0,"status":"skipped"},"step":{"line":19,"prefix":"*","index":8,"text":"match acc.data[*].id contains deep exp1.id"}}],"line":7,"description":"","durationMillis":975.2013,"failed":true,"error":"js failed:\n>>>>\n01: karate.log('[print]',exp)\n<<<<\norg.graalvm.polyglot.PolyglotException: ReferenceError: \"exp\" is not defined\n- <js>.:program(Unnamed:1)\n\nsrc\/test\/java\/TestFeatures\/week3\/matchFromAllData.feature:14","executorName":"main","name":"check if response contains csv values emails","startTime":1645369087558,"refId":"[1:7]","endTime":1645369088672,"exampleIndex":-1}],"callDepth":0,"name":"verify if elements exists in csv file","description":"","resultDate":"2022-02-20 03:58:08 PM","durationMillis":975.2013,"passedCount":0}