{"failedCount":3,"prefixedPath":"src\/test\/java\/test_ResIsReq.feature","packageQualifiedName":"src.test.java.test_ResIsReq","loopIndex":-1,"relativePath":"src\/test\/java\/test_ResIsReq.feature","scenarioResults":[{"sectionIndex":0,"stepResults":[{"result":{"nanos":49963200,"millis":49.9632,"status":"passed"},"step":{"background":true,"line":4,"prefix":"*","index":0,"text":"url 'https:\/\/reqres.in\/api'"}},{"result":{"nanos":424100,"millis":0.4241,"status":"passed"},"step":{"line":7,"prefix":"Given","index":0,"text":"path '\/users?page=2'"}},{"result":{"nanos":579499900,"millis":579.4999,"status":"passed"},"step":{"line":8,"prefix":"When","index":1,"text":"method GET"},"stepLog":"15:08:48.637 request:\n1 > GET https:\/\/reqres.in\/api\/users%3Fpage=2\n1 > Host: reqres.in\n1 > Connection: Keep-Alive\n1 > User-Agent: Apache-HttpClient\/4.5.13 (Java\/17.0.1)\n1 > Accept-Encoding: gzip,deflate\n\n\n15:08:48.994 response time in milliseconds: 355\n1 < 200\n1 < Date: Sun, 13 Feb 2022 14:08:46 GMT\n1 < Content-Type: application\/json; charset=utf-8\n1 < Transfer-Encoding: chunked\n1 < Connection: keep-alive\n1 < X-Powered-By: Express\n1 < Access-Control-Allow-Origin: *\n1 < Etag: W\/\"2c1-N6Rqerxquq2kgQhL51EiSg4x0R8\"\n1 < Via: 1.1 vegur\n1 < Cache-Control: max-age=14400\n1 < CF-Cache-Status: HIT\n1 < Age: 194\n1 < Expect-CT: max-age=604800, report-uri=\"https:\/\/report-uri.cloudflare.com\/cdn-cgi\/beacon\/expect-ct\"\n1 < Report-To: {\"endpoints\":[{\"url\":\"https:\\\/\\\/a.nel.cloudflare.com\\\/report\\\/v3?s=%2FS3taTRG2XCbdOas%2BDKTgqyqGxZl%2BbMcAnpYuSgsBddFGwMJqcjw2inXlM9BRfRK5Y9EbWr4i2CQeazLj82ftNPXWCDGhXdFWrttgbUt4yerbgfAWHxpBNAhElc%3D\"}],\"group\":\"cf-nel\",\"max_age\":604800}\n1 < NEL: {\"success_fraction\":0,\"report_to\":\"cf-nel\",\"max_age\":604800}\n1 < Vary: Accept-Encoding\n1 < Server: cloudflare\n1 < CF-RAY: 6dcea1707f4d0fde-MRS\n1 < alt-svc: h3=\":443\"; ma=86400, h3-29=\":443\"; ma=86400\n{\"page\":1,\"per_page\":6,\"total\":12,\"total_pages\":2,\"data\":[{\"id\":1,\"name\":\"cerulean\",\"year\":2000,\"color\":\"#98B2D1\",\"pantone_value\":\"15-4020\"},{\"id\":2,\"name\":\"fuchsia rose\",\"year\":2001,\"color\":\"#C74375\",\"pantone_value\":\"17-2031\"},{\"id\":3,\"name\":\"true red\",\"year\":2002,\"color\":\"#BF1932\",\"pantone_value\":\"19-1664\"},{\"id\":4,\"name\":\"aqua sky\",\"year\":2003,\"color\":\"#7BC4C4\",\"pantone_value\":\"14-4811\"},{\"id\":5,\"name\":\"tigerlily\",\"year\":2004,\"color\":\"#E2583E\",\"pantone_value\":\"17-1456\"},{\"id\":6,\"name\":\"blue turquoise\",\"year\":2005,\"color\":\"#53B0AE\",\"pantone_value\":\"15-5217\"}],\"support\":{\"url\":\"https:\/\/reqres.in\/#support-heading\",\"text\":\"To keep ReqRes free, contributions towards server costs are appreciated!\"}}\n"},{"result":{"nanos":16800,"millis":0.0168,"status":"passed"},"step":{"line":9,"prefix":"Then","index":2,"text":"status 200"}},{"result":{"nanos":22015300,"millis":22.0153,"status":"passed"},"step":{"line":10,"prefix":"And","index":3,"text":"def uResponse = response"}},{"result":{"nanos":52797900,"millis":52.7979,"status":"passed"},"step":{"line":11,"prefix":"And","index":4,"text":"print uResponse"},"stepLog":"15:08:49.088 [print] {\n  \"page\": 1,\n  \"per_page\": 6,\n  \"total\": 12,\n  \"total_pages\": 2,\n  \"data\": [\n    {\n      \"id\": 1,\n      \"name\": \"cerulean\",\n      \"year\": 2000,\n      \"color\": \"#98B2D1\",\n      \"pantone_value\": \"15-4020\"\n    },\n    {\n      \"id\": 2,\n      \"name\": \"fuchsia rose\",\n      \"year\": 2001,\n      \"color\": \"#C74375\",\n      \"pantone_value\": \"17-2031\"\n    },\n    {\n      \"id\": 3,\n      \"name\": \"true red\",\n      \"year\": 2002,\n      \"color\": \"#BF1932\",\n      \"pantone_value\": \"19-1664\"\n    },\n    {\n      \"id\": 4,\n      \"name\": \"aqua sky\",\n      \"year\": 2003,\n      \"color\": \"#7BC4C4\",\n      \"pantone_value\": \"14-4811\"\n    },\n    {\n      \"id\": 5,\n      \"name\": \"tigerlily\",\n      \"year\": 2004,\n      \"color\": \"#E2583E\",\n      \"pantone_value\": \"17-1456\"\n    },\n    {\n      \"id\": 6,\n      \"name\": \"blue turquoise\",\n      \"year\": 2005,\n      \"color\": \"#53B0AE\",\n      \"pantone_value\": \"15-5217\"\n    }\n  ],\n  \"support\": {\n    \"url\": \"https:\/\/reqres.in\/#support-heading\",\n    \"text\": \"To keep ReqRes free, contributions towards server costs are appreciated!\"\n  }\n}\n \n"},{"result":{"nanos":15532600,"millis":15.5326,"status":"passed"},"step":{"line":12,"prefix":"Then","index":5,"text":"match uResponse.data[*].name contains  ['cerulean']"}},{"result":{"nanos":2451900,"millis":2.4519,"status":"passed"},"step":{"line":13,"prefix":"Then","index":6,"text":"def rec = uResponse.data.name = 'cerulean'"}}],"executorName":"main","line":6,"name":"get if cerulean exist","description":"","durationMillis":722.7017,"startTime":1644761328377,"failed":false,"refId":"[1:6]","endTime":1644761329108,"exampleIndex":-1},{"sectionIndex":1,"stepResults":[{"result":{"nanos":352600,"millis":0.3526,"status":"passed"},"step":{"background":true,"line":4,"prefix":"*","index":0,"text":"url 'https:\/\/reqres.in\/api'"}},{"result":{"nanos":242000,"millis":0.242,"status":"passed"},"step":{"line":16,"prefix":"Given","index":0,"text":"path '\/users?page=2'"}},{"result":{"nanos":139458900,"millis":139.4589,"status":"passed"},"step":{"line":17,"prefix":"When","index":1,"text":"method GET"},"stepLog":"15:08:49.114 request:\n1 > GET https:\/\/reqres.in\/api\/users%3Fpage=2\n1 > Host: reqres.in\n1 > Connection: Keep-Alive\n1 > User-Agent: Apache-HttpClient\/4.5.13 (Java\/17.0.1)\n1 > Accept-Encoding: gzip,deflate\n\n\n15:08:49.252 response time in milliseconds: 138\n1 < 200\n1 < Date: Sun, 13 Feb 2022 14:08:46 GMT\n1 < Content-Type: application\/json; charset=utf-8\n1 < Transfer-Encoding: chunked\n1 < Connection: keep-alive\n1 < X-Powered-By: Express\n1 < Access-Control-Allow-Origin: *\n1 < Etag: W\/\"2c1-N6Rqerxquq2kgQhL51EiSg4x0R8\"\n1 < Via: 1.1 vegur\n1 < Cache-Control: max-age=14400\n1 < CF-Cache-Status: HIT\n1 < Age: 194\n1 < Expect-CT: max-age=604800, report-uri=\"https:\/\/report-uri.cloudflare.com\/cdn-cgi\/beacon\/expect-ct\"\n1 < Report-To: {\"endpoints\":[{\"url\":\"https:\\\/\\\/a.nel.cloudflare.com\\\/report\\\/v3?s=%2BVWCLI87NNVG75JnCesyHR60rzUvaq7l1QVm8ZocmprQPdLhXYcmczF6RPo%2BPJtEsU82q4oUVgZVuSseAsIvDyRC1Bm7VgUjN3gy2CglVA4SUYlLB6WdXM8UJY4%3D\"}],\"group\":\"cf-nel\",\"max_age\":604800}\n1 < NEL: {\"success_fraction\":0,\"report_to\":\"cf-nel\",\"max_age\":604800}\n1 < Vary: Accept-Encoding\n1 < Server: cloudflare\n1 < CF-RAY: 6dcea1721a3e7385-MRS\n1 < alt-svc: h3=\":443\"; ma=86400, h3-29=\":443\"; ma=86400\n{\"page\":1,\"per_page\":6,\"total\":12,\"total_pages\":2,\"data\":[{\"id\":1,\"name\":\"cerulean\",\"year\":2000,\"color\":\"#98B2D1\",\"pantone_value\":\"15-4020\"},{\"id\":2,\"name\":\"fuchsia rose\",\"year\":2001,\"color\":\"#C74375\",\"pantone_value\":\"17-2031\"},{\"id\":3,\"name\":\"true red\",\"year\":2002,\"color\":\"#BF1932\",\"pantone_value\":\"19-1664\"},{\"id\":4,\"name\":\"aqua sky\",\"year\":2003,\"color\":\"#7BC4C4\",\"pantone_value\":\"14-4811\"},{\"id\":5,\"name\":\"tigerlily\",\"year\":2004,\"color\":\"#E2583E\",\"pantone_value\":\"17-1456\"},{\"id\":6,\"name\":\"blue turquoise\",\"year\":2005,\"color\":\"#53B0AE\",\"pantone_value\":\"15-5217\"}],\"support\":{\"url\":\"https:\/\/reqres.in\/#support-heading\",\"text\":\"To keep ReqRes free, contributions towards server costs are appreciated!\"}}\n"},{"result":{"nanos":7700,"millis":0.0077,"status":"passed"},"step":{"line":18,"prefix":"Then","index":2,"text":"status 200"}},{"result":{"nanos":222000,"millis":0.222,"status":"passed"},"step":{"line":19,"prefix":"And","index":3,"text":"def uResponse = response"}},{"result":{"nanos":571100,"millis":0.5711,"status":"passed"},"step":{"line":20,"prefix":"And","index":4,"text":"print uResponse"},"stepLog":"15:08:49.254 [print] {\n  \"page\": 1,\n  \"per_page\": 6,\n  \"total\": 12,\n  \"total_pages\": 2,\n  \"data\": [\n    {\n      \"id\": 1,\n      \"name\": \"cerulean\",\n      \"year\": 2000,\n      \"color\": \"#98B2D1\",\n      \"pantone_value\": \"15-4020\"\n    },\n    {\n      \"id\": 2,\n      \"name\": \"fuchsia rose\",\n      \"year\": 2001,\n      \"color\": \"#C74375\",\n      \"pantone_value\": \"17-2031\"\n    },\n    {\n      \"id\": 3,\n      \"name\": \"true red\",\n      \"year\": 2002,\n      \"color\": \"#BF1932\",\n      \"pantone_value\": \"19-1664\"\n    },\n    {\n      \"id\": 4,\n      \"name\": \"aqua sky\",\n      \"year\": 2003,\n      \"color\": \"#7BC4C4\",\n      \"pantone_value\": \"14-4811\"\n    },\n    {\n      \"id\": 5,\n      \"name\": \"tigerlily\",\n      \"year\": 2004,\n      \"color\": \"#E2583E\",\n      \"pantone_value\": \"17-1456\"\n    },\n    {\n      \"id\": 6,\n      \"name\": \"blue turquoise\",\n      \"year\": 2005,\n      \"color\": \"#53B0AE\",\n      \"pantone_value\": \"15-5217\"\n    }\n  ],\n  \"support\": {\n    \"url\": \"https:\/\/reqres.in\/#support-heading\",\n    \"text\": \"To keep ReqRes free, contributions towards server costs are appreciated!\"\n  }\n}\n \n"},{"result":{"nanos":901500,"errorMessage":"match failed: CONTAINS\n  $ | actual does not contain expected | actual array does not contain expected item - 7 (LIST:LIST)\n  [1,2,3,4,5,6]\n  [7]\n\n    $[5] | not equal (NUMBER:NUMBER)\n    6\n    7\n\n    $[4] | not equal (NUMBER:NUMBER)\n    5\n    7\n\n    $[3] | not equal (NUMBER:NUMBER)\n    4\n    7\n\n    $[2] | not equal (NUMBER:NUMBER)\n    3\n    7\n\n    $[1] | not equal (NUMBER:NUMBER)\n    2\n    7\n\n    $[0] | not equal (NUMBER:NUMBER)\n    1\n    7\n\nsrc\/test\/java\/test_ResIsReq.feature:21","millis":0.9015,"status":"failed"},"step":{"line":21,"prefix":"Then","index":5,"text":"match uResponse.data[*].id contains  [7]"},"stepLog":"15:08:49.255 src\/test\/java\/test_ResIsReq.feature:21\nThen match uResponse.data[*].id contains  [7]\nmatch failed: CONTAINS\n  $ | actual does not contain expected | actual array does not contain expected item - 7 (LIST:LIST)\n  [1,2,3,4,5,6]\n  [7]\n\n    $[5] | not equal (NUMBER:NUMBER)\n    6\n    7\n\n    $[4] | not equal (NUMBER:NUMBER)\n    5\n    7\n\n    $[3] | not equal (NUMBER:NUMBER)\n    4\n    7\n\n    $[2] | not equal (NUMBER:NUMBER)\n    3\n    7\n\n    $[1] | not equal (NUMBER:NUMBER)\n    2\n    7\n\n    $[0] | not equal (NUMBER:NUMBER)\n    1\n    7\n\nsrc\/test\/java\/test_ResIsReq.feature:21\n"},{"result":{"nanos":0,"millis":0.0,"status":"skipped"},"step":{"line":22,"prefix":"Then","index":6,"text":"def rec = uResponse.data.id = 7"}}],"line":15,"description":"","durationMillis":141.7558,"failed":true,"error":"match failed: CONTAINS\n  $ | actual does not contain expected | actual array does not contain expected item - 7 (LIST:LIST)\n  [1,2,3,4,5,6]\n  [7]\n\n    $[5] | not equal (NUMBER:NUMBER)\n    6\n    7\n\n    $[4] | not equal (NUMBER:NUMBER)\n    5\n    7\n\n    $[3] | not equal (NUMBER:NUMBER)\n    4\n    7\n\n    $[2] | not equal (NUMBER:NUMBER)\n    3\n    7\n\n    $[1] | not equal (NUMBER:NUMBER)\n    2\n    7\n\n    $[0] | not equal (NUMBER:NUMBER)\n    1\n    7\n\nsrc\/test\/java\/test_ResIsReq.feature:21","executorName":"main","name":"get if id 7 exist","startTime":1644761329112,"refId":"[2:15]","endTime":1644761329255,"exampleIndex":-1},{"sectionIndex":2,"stepResults":[{"result":{"nanos":272700,"millis":0.2727,"status":"passed"},"step":{"background":true,"line":4,"prefix":"*","index":0,"text":"url 'https:\/\/reqres.in\/api'"}},{"result":{"nanos":491500,"millis":0.4915,"status":"passed"},"step":{"line":25,"prefix":"Given","index":0,"text":"path '\/users\/2'"}},{"result":{"nanos":447449100,"millis":447.4491,"status":"passed"},"step":{"line":26,"prefix":"When","index":1,"text":"method GET"},"stepLog":"15:08:49.262 request:\n1 > GET https:\/\/reqres.in\/api\/users\/2\n1 > Host: reqres.in\n1 > Connection: Keep-Alive\n1 > User-Agent: Apache-HttpClient\/4.5.13 (Java\/17.0.1)\n1 > Accept-Encoding: gzip,deflate\n\n\n15:08:49.707 response time in milliseconds: 445\n1 < 200\n1 < Date: Sun, 13 Feb 2022 14:08:46 GMT\n1 < Content-Type: application\/json; charset=utf-8\n1 < Transfer-Encoding: chunked\n1 < Connection: keep-alive\n1 < X-Powered-By: Express\n1 < Access-Control-Allow-Origin: *\n1 < Etag: W\/\"118-pbdwwFo9SKNhD3Lx5iHJyngpq00\"\n1 < Via: 1.1 vegur\n1 < Cache-Control: max-age=14400\n1 < CF-Cache-Status: HIT\n1 < Age: 818\n1 < Expect-CT: max-age=604800, report-uri=\"https:\/\/report-uri.cloudflare.com\/cdn-cgi\/beacon\/expect-ct\"\n1 < Report-To: {\"endpoints\":[{\"url\":\"https:\\\/\\\/a.nel.cloudflare.com\\\/report\\\/v3?s=MXEfnvA84w2F5c6pSrDS0Sz6QWjlfnHMNtrl5TtQ3Hau8FbBCKME5d%2FJqLopRjSWjEoJtLMtL8vGVTW42WSl5vGG5SPB%2FZRO4MVXXzIb0KjIQZ%2BCoTH7rd69Dsk%3D\"}],\"group\":\"cf-nel\",\"max_age\":604800}\n1 < NEL: {\"success_fraction\":0,\"report_to\":\"cf-nel\",\"max_age\":604800}\n1 < Vary: Accept-Encoding\n1 < Server: cloudflare\n1 < CF-RAY: 6dcea174fde85fbe-MRS\n1 < alt-svc: h3=\":443\"; ma=86400, h3-29=\":443\"; ma=86400\n{\"data\":{\"id\":2,\"email\":\"janet.weaver@reqres.in\",\"first_name\":\"Janet\",\"last_name\":\"Weaver\",\"avatar\":\"https:\/\/reqres.in\/img\/faces\/2-image.jpg\"},\"support\":{\"url\":\"https:\/\/reqres.in\/#support-heading\",\"text\":\"To keep ReqRes free, contributions towards server costs are appreciated!\"}}\n"},{"result":{"nanos":12400,"millis":0.0124,"status":"passed"},"step":{"line":27,"prefix":"Then","index":2,"text":"status 200"}},{"result":{"nanos":337700,"millis":0.3377,"status":"passed"},"step":{"line":28,"prefix":"And","index":3,"text":"def u1Response = response"}},{"result":{"nanos":1252700,"millis":1.2527,"status":"passed"},"step":{"line":29,"prefix":"And","index":4,"text":"print u1Response"},"stepLog":"15:08:49.709 [print] {\n  \"data\": {\n    \"id\": 2,\n    \"email\": \"janet.weaver@reqres.in\",\n    \"first_name\": \"Janet\",\n    \"last_name\": \"Weaver\",\n    \"avatar\": \"https:\/\/reqres.in\/img\/faces\/2-image.jpg\"\n  },\n  \"support\": {\n    \"url\": \"https:\/\/reqres.in\/#support-heading\",\n    \"text\": \"To keep ReqRes free, contributions towards server costs are appreciated!\"\n  }\n}\n \n"},{"result":{"nanos":1384200,"errorMessage":"match failed: CONTAINS\n  $ | actual does not contain expected | actual array length is less than expected - 0:1 (LIST:LIST)\n  []\n  [\"cerulean\"]\n\n\nsrc\/test\/java\/test_ResIsReq.feature:30","millis":1.3842,"status":"failed"},"step":{"line":30,"prefix":"Then","index":5,"text":"match u1Response.data[*].name contains  ['cerulean']"},"stepLog":"15:08:49.711 src\/test\/java\/test_ResIsReq.feature:30\nThen match u1Response.data[*].name contains  ['cerulean']\nmatch failed: CONTAINS\n  $ | actual does not contain expected | actual array length is less than expected - 0:1 (LIST:LIST)\n  []\n  [\"cerulean\"]\n\n\nsrc\/test\/java\/test_ResIsReq.feature:30\n"}],"line":24,"description":"","durationMillis":451.2003,"failed":true,"error":"match failed: CONTAINS\n  $ | actual does not contain expected | actual array length is less than expected - 0:1 (LIST:LIST)\n  []\n  [\"cerulean\"]\n\n\nsrc\/test\/java\/test_ResIsReq.feature:30","executorName":"main","name":"","startTime":1644761329260,"refId":"[3:24]","endTime":1644761329711,"exampleIndex":-1},{"sectionIndex":3,"stepResults":[{"result":{"nanos":149300,"millis":0.1493,"status":"passed"},"step":{"background":true,"line":4,"prefix":"*","index":0,"text":"url 'https:\/\/reqres.in\/api'"}},{"result":{"nanos":75600,"millis":0.0756,"status":"passed"},"step":{"line":33,"prefix":"Given","index":0,"text":"path '\/users?page=2'"}},{"result":{"nanos":164800600,"millis":164.8006,"status":"passed"},"step":{"line":34,"prefix":"When","index":1,"text":"method GET"},"stepLog":"15:08:49.716 request:\n1 > GET https:\/\/reqres.in\/api\/users%3Fpage=2\n1 > Host: reqres.in\n1 > Connection: Keep-Alive\n1 > User-Agent: Apache-HttpClient\/4.5.13 (Java\/17.0.1)\n1 > Accept-Encoding: gzip,deflate\n\n\n15:08:49.880 response time in milliseconds: 164\n1 < 200\n1 < Date: Sun, 13 Feb 2022 14:08:47 GMT\n1 < Content-Type: application\/json; charset=utf-8\n1 < Transfer-Encoding: chunked\n1 < Connection: keep-alive\n1 < X-Powered-By: Express\n1 < Access-Control-Allow-Origin: *\n1 < Etag: W\/\"2c1-N6Rqerxquq2kgQhL51EiSg4x0R8\"\n1 < Via: 1.1 vegur\n1 < Cache-Control: max-age=14400\n1 < CF-Cache-Status: HIT\n1 < Age: 195\n1 < Expect-CT: max-age=604800, report-uri=\"https:\/\/report-uri.cloudflare.com\/cdn-cgi\/beacon\/expect-ct\"\n1 < Report-To: {\"endpoints\":[{\"url\":\"https:\\\/\\\/a.nel.cloudflare.com\\\/report\\\/v3?s=PjMv0GBB2cqkrwQ5YCQpZKR4gl%2FWkc5FfLj7TU%2Bumj4CklycGobN7cMkSJa%2FNVwO5RWyLapQygNdRPDAnNJxfGSbqIiou9awVZv0gD3k3D4k03F8wI9XkQi7tN4%3D\"}],\"group\":\"cf-nel\",\"max_age\":604800}\n1 < NEL: {\"success_fraction\":0,\"report_to\":\"cf-nel\",\"max_age\":604800}\n1 < Vary: Accept-Encoding\n1 < Server: cloudflare\n1 < CF-RAY: 6dcea1760eee7338-MRS\n1 < alt-svc: h3=\":443\"; ma=86400, h3-29=\":443\"; ma=86400\n{\"page\":1,\"per_page\":6,\"total\":12,\"total_pages\":2,\"data\":[{\"id\":1,\"name\":\"cerulean\",\"year\":2000,\"color\":\"#98B2D1\",\"pantone_value\":\"15-4020\"},{\"id\":2,\"name\":\"fuchsia rose\",\"year\":2001,\"color\":\"#C74375\",\"pantone_value\":\"17-2031\"},{\"id\":3,\"name\":\"true red\",\"year\":2002,\"color\":\"#BF1932\",\"pantone_value\":\"19-1664\"},{\"id\":4,\"name\":\"aqua sky\",\"year\":2003,\"color\":\"#7BC4C4\",\"pantone_value\":\"14-4811\"},{\"id\":5,\"name\":\"tigerlily\",\"year\":2004,\"color\":\"#E2583E\",\"pantone_value\":\"17-1456\"},{\"id\":6,\"name\":\"blue turquoise\",\"year\":2005,\"color\":\"#53B0AE\",\"pantone_value\":\"15-5217\"}],\"support\":{\"url\":\"https:\/\/reqres.in\/#support-heading\",\"text\":\"To keep ReqRes free, contributions towards server costs are appreciated!\"}}\n"},{"result":{"nanos":12000,"millis":0.012,"status":"passed"},"step":{"line":35,"prefix":"Then","index":2,"text":"status 200"}},{"result":{"nanos":893500,"millis":0.8935,"status":"passed"},"step":{"comments":["# * def name = 'cerulean'"],"line":37,"prefix":"*","index":3,"text":"def response = response.data"}},{"result":{"nanos":347900,"millis":0.3479,"status":"passed"},"step":{"comments":["#* def names = $[*].name","#* def index = names.indexOf(name)"],"line":40,"prefix":"*","index":4,"text":"def indexes = []"}},{"result":{"nanos":9788400,"millis":9.7884,"status":"passed"},"step":{"line":41,"prefix":"*","index":5,"text":"def fun = function(x, i){ if (x.name == 'cerulean') karate.appendTo(indexes, i) }"}},{"result":{"nanos":11423600,"errorMessage":"js failed:\n>>>>\n01: karate.log('[print]',i)\n<<<<\norg.graalvm.polyglot.PolyglotException: ReferenceError: \"i\" is not defined\n- <js>.:program(Unnamed:1)\n\nsrc\/test\/java\/test_ResIsReq.feature:42","millis":11.4236,"status":"failed"},"step":{"line":42,"prefix":"*","index":6,"text":"print i"},"stepLog":"15:08:49.904 src\/test\/java\/test_ResIsReq.feature:42\n* print i\njs failed:\n>>>>\n01: karate.log('[print]',i)\n<<<<\norg.graalvm.polyglot.PolyglotException: ReferenceError: \"i\" is not defined\n- <js>.:program(Unnamed:1)\n\nsrc\/test\/java\/test_ResIsReq.feature:42\n"},{"result":{"nanos":0,"millis":0.0,"status":"skipped"},"step":{"line":43,"prefix":"*","index":7,"text":"karate.forEach(response.items, fun)"}}],"line":32,"description":"","durationMillis":187.4909,"failed":true,"error":"js failed:\n>>>>\n01: karate.log('[print]',i)\n<<<<\norg.graalvm.polyglot.PolyglotException: ReferenceError: \"i\" is not defined\n- <js>.:program(Unnamed:1)\n\nsrc\/test\/java\/test_ResIsReq.feature:42","executorName":"main","name":"get index cerulean","startTime":1644761329715,"refId":"[4:32]","endTime":1644761329904,"exampleIndex":-1}],"callDepth":0,"name":"test request is response","description":"","resultDate":"2022-02-13 03:08:49 PM","durationMillis":1503.1487,"passedCount":1}