{"failedCount":1,"prefixedPath":"classpath:TestFeatures\/week3\/matchFromAllData.feature","packageQualifiedName":"TestFeatures.week3.matchFromAllData","loopIndex":-1,"relativePath":"TestFeatures\/week3\/matchFromAllData.feature","scenarioResults":[{"sectionIndex":0,"stepResults":[{"result":{"nanos":1399000,"millis":1.399,"status":"passed"},"step":{"comments":["#* url BaseURL"],"background":true,"line":5,"prefix":"*","index":0,"text":"def exp1 = read('classpath:\/TestData\/allData.csv')"},"stepLog":"16:26:16.823 \n"},{"result":{"nanos":238900,"millis":0.2389,"status":"passed"},"step":{"line":8,"prefix":"Given","index":0,"text":"url 'https:\/\/reqres.in\/api\/users?page=1'"}},{"result":{"nanos":197819000,"millis":197.819,"status":"passed"},"step":{"comments":["#And request { id:'#number', first_name: '#(first_name)'  }"],"line":10,"prefix":"When","index":1,"text":"method GET"},"stepLog":"16:26:16.826 request:\n1 > GET https:\/\/reqres.in\/api\/users?page=1\n1 > Host: reqres.in\n1 > Connection: Keep-Alive\n1 > User-Agent: Apache-HttpClient\/4.5.13 (Java\/17.0.1)\n1 > Accept-Encoding: gzip,deflate\n\n\n16:26:17.022 response time in milliseconds: 195\n1 < 200\n1 < Date: Sun, 20 Feb 2022 15:26:09 GMT\n1 < Content-Type: application\/json; charset=utf-8\n1 < Transfer-Encoding: chunked\n1 < Connection: keep-alive\n1 < X-Powered-By: Express\n1 < Access-Control-Allow-Origin: *\n1 < Etag: W\/\"3e4-2RLXvr5wTg9YQ6aH95CkYoFNuO8\"\n1 < Via: 1.1 vegur\n1 < Cache-Control: max-age=14400\n1 < CF-Cache-Status: HIT\n1 < Age: 6814\n1 < Expect-CT: max-age=604800, report-uri=\"https:\/\/report-uri.cloudflare.com\/cdn-cgi\/beacon\/expect-ct\"\n1 < Report-To: {\"endpoints\":[{\"url\":\"https:\\\/\\\/a.nel.cloudflare.com\\\/report\\\/v3?s=9V1PIpPByTDw3xbk0dqIEv9rAPTClx5xJCKzsQoNkNTyP5f4RU16fqPQ%2B0%2Bc%2FTZM4ZwKp5J7n%2BfmjQj%2FOmfIOfYN2vzYmXw3ONdf924Dy7MHGCfsKz8%2B%2FZPHB90%3D\"}],\"group\":\"cf-nel\",\"max_age\":604800}\n1 < NEL: {\"success_fraction\":0,\"report_to\":\"cf-nel\",\"max_age\":604800}\n1 < Vary: Accept-Encoding\n1 < Server: cloudflare\n1 < CF-RAY: 6e08c06b2df17348-MRS\n1 < alt-svc: h3=\":443\"; ma=86400, h3-29=\":443\"; ma=86400\n{\"page\":1,\"per_page\":6,\"total\":12,\"total_pages\":2,\"data\":[{\"id\":1,\"email\":\"george.bluth@reqres.in\",\"first_name\":\"George\",\"last_name\":\"Bluth\",\"avatar\":\"https:\/\/reqres.in\/img\/faces\/1-image.jpg\"},{\"id\":2,\"email\":\"janet.weaver@reqres.in\",\"first_name\":\"Janet\",\"last_name\":\"Weaver\",\"avatar\":\"https:\/\/reqres.in\/img\/faces\/2-image.jpg\"},{\"id\":3,\"email\":\"emma.wong@reqres.in\",\"first_name\":\"Emma\",\"last_name\":\"Wong\",\"avatar\":\"https:\/\/reqres.in\/img\/faces\/3-image.jpg\"},{\"id\":4,\"email\":\"eve.holt@reqres.in\",\"first_name\":\"Eve\",\"last_name\":\"Holt\",\"avatar\":\"https:\/\/reqres.in\/img\/faces\/4-image.jpg\"},{\"id\":5,\"email\":\"charles.morris@reqres.in\",\"first_name\":\"Charles\",\"last_name\":\"Morris\",\"avatar\":\"https:\/\/reqres.in\/img\/faces\/5-image.jpg\"},{\"id\":6,\"email\":\"tracey.ramos@reqres.in\",\"first_name\":\"Tracey\",\"last_name\":\"Ramos\",\"avatar\":\"https:\/\/reqres.in\/img\/faces\/6-image.jpg\"}],\"support\":{\"url\":\"https:\/\/reqres.in\/#support-heading\",\"text\":\"To keep ReqRes free, contributions towards server costs are appreciated!\"}}\n"},{"result":{"nanos":19000,"millis":0.019,"status":"passed"},"step":{"line":11,"prefix":"Then","index":2,"text":"status 200"}},{"result":{"nanos":251500,"millis":0.2515,"status":"passed"},"step":{"line":12,"prefix":"And","index":3,"text":"def acc = response"}},{"result":{"nanos":2377000,"millis":2.377,"status":"passed"},"step":{"line":13,"prefix":"*","index":4,"text":"print exp1"},"stepLog":"16:26:17.026 [print] [\n  {\n    \"﻿id;email;first_name;last_name;avatar\": \"1;george.bluth@reqres.in;George;Bluth;https:\/\/reqres.in\/img\/faces\/1-image.jpg\"\n  }\n]\n \n"},{"result":{"nanos":3468200,"errorMessage":"match failed: CONTAINS_DEEP\n  $ | actual does not contain expected | actual array does not contain expected item - {\"﻿id;email;first_name;last_name;avatar\":\"1;george.bluth@reqres.in;George;Bluth;https:\/\/reqres.in\/img\/faces\/1-image.jpg\"} (LIST:LIST)\n  [{\"id\":1,\"email\":\"george.bluth@reqres.in\",\"first_name\":\"George\",\"last_name\":\"Bluth\",\"avatar\":\"https:\/\/reqres.in\/img\/faces\/1-image.jpg\"},{\"id\":2,\"email\":\"janet.weaver@reqres.in\",\"first_name\":\"Janet\",\"last_name\":\"Weaver\",\"avatar\":\"https:\/\/reqres.in\/img\/faces\/2-image.jpg\"},{\"id\":3,\"email\":\"emma.wong@reqres.in\",\"first_name\":\"Emma\",\"last_name\":\"Wong\",\"avatar\":\"https:\/\/reqres.in\/img\/faces\/3-image.jpg\"},{\"id\":4,\"email\":\"eve.holt@reqres.in\",\"first_name\":\"Eve\",\"last_name\":\"Holt\",\"avatar\":\"https:\/\/reqres.in\/img\/faces\/4-image.jpg\"},{\"id\":5,\"email\":\"charles.morris@reqres.in\",\"first_name\":\"Charles\",\"last_name\":\"Morris\",\"avatar\":\"https:\/\/reqres.in\/img\/faces\/5-image.jpg\"},{\"id\":6,\"email\":\"tracey.ramos@reqres.in\",\"first_name\":\"Tracey\",\"last_name\":\"Ramos\",\"avatar\":\"https:\/\/reqres.in\/img\/faces\/6-image.jpg\"}]\n  [{\"﻿id;email;first_name;last_name;avatar\":\"1;george.bluth@reqres.in;George;Bluth;https:\/\/reqres.in\/img\/faces\/1-image.jpg\"}]\n\n    $[5] | actual does not contain expected | actual does not contain key - '﻿id;email;first_name;last_name;avatar' (MAP:MAP)\n    {\"id\":6,\"email\":\"tracey.ramos@reqres.in\",\"first_name\":\"Tracey\",\"last_name\":\"Ramos\",\"avatar\":\"https:\/\/reqres.in\/img\/faces\/6-image.jpg\"}\n    {\"﻿id;email;first_name;last_name;avatar\":\"1;george.bluth@reqres.in;George;Bluth;https:\/\/reqres.in\/img\/faces\/1-image.jpg\"}\n\n    $[4] | actual does not contain expected | actual does not contain key - '﻿id;email;first_name;last_name;avatar' (MAP:MAP)\n    {\"id\":5,\"email\":\"charles.morris@reqres.in\",\"first_name\":\"Charles\",\"last_name\":\"Morris\",\"avatar\":\"https:\/\/reqres.in\/img\/faces\/5-image.jpg\"}\n    {\"﻿id;email;first_name;last_name;avatar\":\"1;george.bluth@reqres.in;George;Bluth;https:\/\/reqres.in\/img\/faces\/1-image.jpg\"}\n\n    $[3] | actual does not contain expected | actual does not contain key - '﻿id;email;first_name;last_name;avatar' (MAP:MAP)\n    {\"id\":4,\"email\":\"eve.holt@reqres.in\",\"first_name\":\"Eve\",\"last_name\":\"Holt\",\"avatar\":\"https:\/\/reqres.in\/img\/faces\/4-image.jpg\"}\n    {\"﻿id;email;first_name;last_name;avatar\":\"1;george.bluth@reqres.in;George;Bluth;https:\/\/reqres.in\/img\/faces\/1-image.jpg\"}\n\n    $[2] | actual does not contain expected | actual does not contain key - '﻿id;email;first_name;last_name;avatar' (MAP:MAP)\n    {\"id\":3,\"email\":\"emma.wong@reqres.in\",\"first_name\":\"Emma\",\"last_name\":\"Wong\",\"avatar\":\"https:\/\/reqres.in\/img\/faces\/3-image.jpg\"}\n    {\"﻿id;email;first_name;last_name;avatar\":\"1;george.bluth@reqres.in;George;Bluth;https:\/\/reqres.in\/img\/faces\/1-image.jpg\"}\n\n    $[1] | actual does not contain expected | actual does not contain key - '﻿id;email;first_name;last_name;avatar' (MAP:MAP)\n    {\"id\":2,\"email\":\"janet.weaver@reqres.in\",\"first_name\":\"Janet\",\"last_name\":\"Weaver\",\"avatar\":\"https:\/\/reqres.in\/img\/faces\/2-image.jpg\"}\n    {\"﻿id;email;first_name;last_name;avatar\":\"1;george.bluth@reqres.in;George;Bluth;https:\/\/reqres.in\/img\/faces\/1-image.jpg\"}\n\n    $[0] | actual does not contain expected | actual does not contain key - '﻿id;email;first_name;last_name;avatar' (MAP:MAP)\n    {\"id\":1,\"email\":\"george.bluth@reqres.in\",\"first_name\":\"George\",\"last_name\":\"Bluth\",\"avatar\":\"https:\/\/reqres.in\/img\/faces\/1-image.jpg\"}\n    {\"﻿id;email;first_name;last_name;avatar\":\"1;george.bluth@reqres.in;George;Bluth;https:\/\/reqres.in\/img\/faces\/1-image.jpg\"}\n\n\nclasspath:TestFeatures\/week3\/matchFromAllData.feature:14","millis":3.4682,"status":"failed"},"step":{"line":14,"prefix":"*","index":5,"text":"match  acc.data[*] contains deep exp1"},"stepLog":"16:26:17.031 classpath:TestFeatures\/week3\/matchFromAllData.feature:14\n* match  acc.data[*] contains deep exp1\nmatch failed: CONTAINS_DEEP\n  $ | actual does not contain expected | actual array does not contain expected item - {\"﻿id;email;first_name;last_name;avatar\":\"1;george.bluth@reqres.in;George;Bluth;https:\/\/reqres.in\/img\/faces\/1-image.jpg\"} (LIST:LIST)\n  [{\"id\":1,\"email\":\"george.bluth@reqres.in\",\"first_name\":\"George\",\"last_name\":\"Bluth\",\"avatar\":\"https:\/\/reqres.in\/img\/faces\/1-image.jpg\"},{\"id\":2,\"email\":\"janet.weaver@reqres.in\",\"first_name\":\"Janet\",\"last_name\":\"Weaver\",\"avatar\":\"https:\/\/reqres.in\/img\/faces\/2-image.jpg\"},{\"id\":3,\"email\":\"emma.wong@reqres.in\",\"first_name\":\"Emma\",\"last_name\":\"Wong\",\"avatar\":\"https:\/\/reqres.in\/img\/faces\/3-image.jpg\"},{\"id\":4,\"email\":\"eve.holt@reqres.in\",\"first_name\":\"Eve\",\"last_name\":\"Holt\",\"avatar\":\"https:\/\/reqres.in\/img\/faces\/4-image.jpg\"},{\"id\":5,\"email\":\"charles.morris@reqres.in\",\"first_name\":\"Charles\",\"last_name\":\"Morris\",\"avatar\":\"https:\/\/reqres.in\/img\/faces\/5-image.jpg\"},{\"id\":6,\"email\":\"tracey.ramos@reqres.in\",\"first_name\":\"Tracey\",\"last_name\":\"Ramos\",\"avatar\":\"https:\/\/reqres.in\/img\/faces\/6-image.jpg\"}]\n  [{\"﻿id;email;first_name;last_name;avatar\":\"1;george.bluth@reqres.in;George;Bluth;https:\/\/reqres.in\/img\/faces\/1-image.jpg\"}]\n\n    $[5] | actual does not contain expected | actual does not contain key - '﻿id;email;first_name;last_name;avatar' (MAP:MAP)\n    {\"id\":6,\"email\":\"tracey.ramos@reqres.in\",\"first_name\":\"Tracey\",\"last_name\":\"Ramos\",\"avatar\":\"https:\/\/reqres.in\/img\/faces\/6-image.jpg\"}\n    {\"﻿id;email;first_name;last_name;avatar\":\"1;george.bluth@reqres.in;George;Bluth;https:\/\/reqres.in\/img\/faces\/1-image.jpg\"}\n\n    $[4] | actual does not contain expected | actual does not contain key - '﻿id;email;first_name;last_name;avatar' (MAP:MAP)\n    {\"id\":5,\"email\":\"charles.morris@reqres.in\",\"first_name\":\"Charles\",\"last_name\":\"Morris\",\"avatar\":\"https:\/\/reqres.in\/img\/faces\/5-image.jpg\"}\n    {\"﻿id;email;first_name;last_name;avatar\":\"1;george.bluth@reqres.in;George;Bluth;https:\/\/reqres.in\/img\/faces\/1-image.jpg\"}\n\n    $[3] | actual does not contain expected | actual does not contain key - '﻿id;email;first_name;last_name;avatar' (MAP:MAP)\n    {\"id\":4,\"email\":\"eve.holt@reqres.in\",\"first_name\":\"Eve\",\"last_name\":\"Holt\",\"avatar\":\"https:\/\/reqres.in\/img\/faces\/4-image.jpg\"}\n    {\"﻿id;email;first_name;last_name;avatar\":\"1;george.bluth@reqres.in;George;Bluth;https:\/\/reqres.in\/img\/faces\/1-image.jpg\"}\n\n    $[2] | actual does not contain expected | actual does not contain key - '﻿id;email;first_name;last_name;avatar' (MAP:MAP)\n    {\"id\":3,\"email\":\"emma.wong@reqres.in\",\"first_name\":\"Emma\",\"last_name\":\"Wong\",\"avatar\":\"https:\/\/reqres.in\/img\/faces\/3-image.jpg\"}\n    {\"﻿id;email;first_name;last_name;avatar\":\"1;george.bluth@reqres.in;George;Bluth;https:\/\/reqres.in\/img\/faces\/1-image.jpg\"}\n\n    $[1] | actual does not contain expected | actual does not contain key - '﻿id;email;first_name;last_name;avatar' (MAP:MAP)\n    {\"id\":2,\"email\":\"janet.weaver@reqres.in\",\"first_name\":\"Janet\",\"last_name\":\"Weaver\",\"avatar\":\"https:\/\/reqres.in\/img\/faces\/2-image.jpg\"}\n    {\"﻿id;email;first_name;last_name;avatar\":\"1;george.bluth@reqres.in;George;Bluth;https:\/\/reqres.in\/img\/faces\/1-image.jpg\"}\n\n    $[0] | actual does not contain expected | actual does not contain key - '﻿id;email;first_name;last_name;avatar' (MAP:MAP)\n    {\"id\":1,\"email\":\"george.bluth@reqres.in\",\"first_name\":\"George\",\"last_name\":\"Bluth\",\"avatar\":\"https:\/\/reqres.in\/img\/faces\/1-image.jpg\"}\n    {\"﻿id;email;first_name;last_name;avatar\":\"1;george.bluth@reqres.in;George;Bluth;https:\/\/reqres.in\/img\/faces\/1-image.jpg\"}\n\n\nclasspath:TestFeatures\/week3\/matchFromAllData.feature:14\n"},{"result":{"nanos":0,"millis":0.0,"status":"skipped"},"step":{"line":16,"prefix":"*","index":6,"text":"match acc.data[*].id contains deep exp1.id"}}],"line":7,"description":"","durationMillis":205.5726,"failed":true,"error":"match failed: CONTAINS_DEEP\n  $ | actual does not contain expected | actual array does not contain expected item - {\"﻿id;email;first_name;last_name;avatar\":\"1;george.bluth@reqres.in;George;Bluth;https:\/\/reqres.in\/img\/faces\/1-image.jpg\"} (LIST:LIST)\n  [{\"id\":1,\"email\":\"george.bluth@reqres.in\",\"first_name\":\"George\",\"last_name\":\"Bluth\",\"avatar\":\"https:\/\/reqres.in\/img\/faces\/1-image.jpg\"},{\"id\":2,\"email\":\"janet.weaver@reqres.in\",\"first_name\":\"Janet\",\"last_name\":\"Weaver\",\"avatar\":\"https:\/\/reqres.in\/img\/faces\/2-image.jpg\"},{\"id\":3,\"email\":\"emma.wong@reqres.in\",\"first_name\":\"Emma\",\"last_name\":\"Wong\",\"avatar\":\"https:\/\/reqres.in\/img\/faces\/3-image.jpg\"},{\"id\":4,\"email\":\"eve.holt@reqres.in\",\"first_name\":\"Eve\",\"last_name\":\"Holt\",\"avatar\":\"https:\/\/reqres.in\/img\/faces\/4-image.jpg\"},{\"id\":5,\"email\":\"charles.morris@reqres.in\",\"first_name\":\"Charles\",\"last_name\":\"Morris\",\"avatar\":\"https:\/\/reqres.in\/img\/faces\/5-image.jpg\"},{\"id\":6,\"email\":\"tracey.ramos@reqres.in\",\"first_name\":\"Tracey\",\"last_name\":\"Ramos\",\"avatar\":\"https:\/\/reqres.in\/img\/faces\/6-image.jpg\"}]\n  [{\"﻿id;email;first_name;last_name;avatar\":\"1;george.bluth@reqres.in;George;Bluth;https:\/\/reqres.in\/img\/faces\/1-image.jpg\"}]\n\n    $[5] | actual does not contain expected | actual does not contain key - '﻿id;email;first_name;last_name;avatar' (MAP:MAP)\n    {\"id\":6,\"email\":\"tracey.ramos@reqres.in\",\"first_name\":\"Tracey\",\"last_name\":\"Ramos\",\"avatar\":\"https:\/\/reqres.in\/img\/faces\/6-image.jpg\"}\n    {\"﻿id;email;first_name;last_name;avatar\":\"1;george.bluth@reqres.in;George;Bluth;https:\/\/reqres.in\/img\/faces\/1-image.jpg\"}\n\n    $[4] | actual does not contain expected | actual does not contain key - '﻿id;email;first_name;last_name;avatar' (MAP:MAP)\n    {\"id\":5,\"email\":\"charles.morris@reqres.in\",\"first_name\":\"Charles\",\"last_name\":\"Morris\",\"avatar\":\"https:\/\/reqres.in\/img\/faces\/5-image.jpg\"}\n    {\"﻿id;email;first_name;last_name;avatar\":\"1;george.bluth@reqres.in;George;Bluth;https:\/\/reqres.in\/img\/faces\/1-image.jpg\"}\n\n    $[3] | actual does not contain expected | actual does not contain key - '﻿id;email;first_name;last_name;avatar' (MAP:MAP)\n    {\"id\":4,\"email\":\"eve.holt@reqres.in\",\"first_name\":\"Eve\",\"last_name\":\"Holt\",\"avatar\":\"https:\/\/reqres.in\/img\/faces\/4-image.jpg\"}\n    {\"﻿id;email;first_name;last_name;avatar\":\"1;george.bluth@reqres.in;George;Bluth;https:\/\/reqres.in\/img\/faces\/1-image.jpg\"}\n\n    $[2] | actual does not contain expected | actual does not contain key - '﻿id;email;first_name;last_name;avatar' (MAP:MAP)\n    {\"id\":3,\"email\":\"emma.wong@reqres.in\",\"first_name\":\"Emma\",\"last_name\":\"Wong\",\"avatar\":\"https:\/\/reqres.in\/img\/faces\/3-image.jpg\"}\n    {\"﻿id;email;first_name;last_name;avatar\":\"1;george.bluth@reqres.in;George;Bluth;https:\/\/reqres.in\/img\/faces\/1-image.jpg\"}\n\n    $[1] | actual does not contain expected | actual does not contain key - '﻿id;email;first_name;last_name;avatar' (MAP:MAP)\n    {\"id\":2,\"email\":\"janet.weaver@reqres.in\",\"first_name\":\"Janet\",\"last_name\":\"Weaver\",\"avatar\":\"https:\/\/reqres.in\/img\/faces\/2-image.jpg\"}\n    {\"﻿id;email;first_name;last_name;avatar\":\"1;george.bluth@reqres.in;George;Bluth;https:\/\/reqres.in\/img\/faces\/1-image.jpg\"}\n\n    $[0] | actual does not contain expected | actual does not contain key - '﻿id;email;first_name;last_name;avatar' (MAP:MAP)\n    {\"id\":1,\"email\":\"george.bluth@reqres.in\",\"first_name\":\"George\",\"last_name\":\"Bluth\",\"avatar\":\"https:\/\/reqres.in\/img\/faces\/1-image.jpg\"}\n    {\"﻿id;email;first_name;last_name;avatar\":\"1;george.bluth@reqres.in;George;Bluth;https:\/\/reqres.in\/img\/faces\/1-image.jpg\"}\n\n\nclasspath:TestFeatures\/week3\/matchFromAllData.feature:14","executorName":"main","name":"check if response contains csv values emails","startTime":1645370776823,"refId":"[1:7]","endTime":1645370777031,"exampleIndex":-1}],"callDepth":0,"name":"verify if elements exists in csv file","description":"","resultDate":"2022-02-20 04:26:17 PM","durationMillis":205.5726,"passedCount":0}