{"failedCount":0,"prefixedPath":"classpath:TestFeatures\/Week1\/testapi.feature","packageQualifiedName":"TestFeatures.Week1.testapi","loopIndex":-1,"relativePath":"TestFeatures\/Week1\/testapi.feature","scenarioResults":[{"sectionIndex":0,"stepResults":[{"result":{"nanos":1088800,"millis":1.0888,"status":"passed"},"step":{"background":true,"line":4,"prefix":"*","index":0,"text":"url 'https:\/\/reqres.in\/api'"},"stepLog":"16:26:12.797 \n"},{"result":{"nanos":48247700,"millis":48.2477,"status":"passed"},"step":{"background":true,"line":5,"prefix":"*","index":1,"text":"def output = read('classpath:\/TestData\/response1.json')"}},{"result":{"nanos":7249800,"millis":7.2498,"status":"passed"},"step":{"background":true,"line":6,"prefix":"*","index":2,"text":"def request1 = read('classpath:\/TestData\/request1.json')"}},{"result":{"nanos":505200,"millis":0.5052,"status":"passed"},"step":{"line":9,"prefix":"Given","index":0,"text":"path '\/users?page=2'"}},{"result":{"nanos":780533300,"millis":780.5333,"status":"passed"},"step":{"line":10,"prefix":"When","index":1,"text":"method GET"},"stepLog":"16:26:13.075 request:\n1 > GET https:\/\/reqres.in\/api\/users%3Fpage=2\n1 > Host: reqres.in\n1 > Connection: Keep-Alive\n1 > User-Agent: Apache-HttpClient\/4.5.13 (Java\/17.0.1)\n1 > Accept-Encoding: gzip,deflate\n\n\n16:26:13.654 response time in milliseconds: 576\n1 < 200\n1 < Date: Sun, 20 Feb 2022 15:26:05 GMT\n1 < Content-Type: application\/json; charset=utf-8\n1 < Transfer-Encoding: chunked\n1 < Connection: keep-alive\n1 < X-Powered-By: Express\n1 < Access-Control-Allow-Origin: *\n1 < Etag: W\/\"2c1-N6Rqerxquq2kgQhL51EiSg4x0R8\"\n1 < Via: 1.1 vegur\n1 < Cache-Control: max-age=14400\n1 < CF-Cache-Status: REVALIDATED\n1 < Expect-CT: max-age=604800, report-uri=\"https:\/\/report-uri.cloudflare.com\/cdn-cgi\/beacon\/expect-ct\"\n1 < Report-To: {\"endpoints\":[{\"url\":\"https:\\\/\\\/a.nel.cloudflare.com\\\/report\\\/v3?s=7TFr%2BENFJmOn6C7t%2B23waxvREwtn0BlDpI3wr2igIIOol%2FT73gW7YOmCuyhi93hgfxdyiD1k38SwC4fIwnDMGvUmprZLernllgCwbAXxWsBPYK%2BF9MvamD4MGK8%3D\"}],\"group\":\"cf-nel\",\"max_age\":604800}\n1 < NEL: {\"success_fraction\":0,\"report_to\":\"cf-nel\",\"max_age\":604800}\n1 < Vary: Accept-Encoding\n1 < Server: cloudflare\n1 < CF-RAY: 6e08c0558b2c4202-MRS\n1 < alt-svc: h3=\":443\"; ma=86400, h3-29=\":443\"; ma=86400\n{\"page\":1,\"per_page\":6,\"total\":12,\"total_pages\":2,\"data\":[{\"id\":1,\"name\":\"cerulean\",\"year\":2000,\"color\":\"#98B2D1\",\"pantone_value\":\"15-4020\"},{\"id\":2,\"name\":\"fuchsia rose\",\"year\":2001,\"color\":\"#C74375\",\"pantone_value\":\"17-2031\"},{\"id\":3,\"name\":\"true red\",\"year\":2002,\"color\":\"#BF1932\",\"pantone_value\":\"19-1664\"},{\"id\":4,\"name\":\"aqua sky\",\"year\":2003,\"color\":\"#7BC4C4\",\"pantone_value\":\"14-4811\"},{\"id\":5,\"name\":\"tigerlily\",\"year\":2004,\"color\":\"#E2583E\",\"pantone_value\":\"17-1456\"},{\"id\":6,\"name\":\"blue turquoise\",\"year\":2005,\"color\":\"#53B0AE\",\"pantone_value\":\"15-5217\"}],\"support\":{\"url\":\"https:\/\/reqres.in\/#support-heading\",\"text\":\"To keep ReqRes free, contributions towards server costs are appreciated!\"}}\n"},{"result":{"nanos":19300,"millis":0.0193,"status":"passed"},"step":{"line":11,"prefix":"Then","index":2,"text":"status 200"}},{"result":{"nanos":1833600,"millis":1.8336,"status":"passed"},"step":{"line":12,"prefix":"And","index":3,"text":"assert response.data.length == 6"}},{"result":{"nanos":3412600,"millis":3.4126,"status":"passed"},"step":{"line":13,"prefix":"And","index":4,"text":"print response.data[1].id"},"stepLog":"16:26:13.664 [print] 2 \n"},{"result":{"nanos":8237400,"millis":8.2374,"status":"passed"},"step":{"line":14,"prefix":"And","index":5,"text":"match $.data[0].id == 1"}},{"result":{"nanos":967800,"millis":0.9678,"status":"passed"},"step":{"line":15,"prefix":"And","index":6,"text":"print response.data[0].year"},"stepLog":"16:26:13.674 [print] 2000 \n"},{"result":{"nanos":645500,"millis":0.6455,"status":"passed"},"step":{"line":16,"prefix":"And","index":7,"text":"match $.data[0].year == 2000"}}],"executorName":"main","line":8,"name":"test API get 1","description":"","durationMillis":852.741,"startTime":1645370772676,"failed":false,"refId":"[1:8]","endTime":1645370773674,"exampleIndex":-1},{"sectionIndex":1,"stepResults":[{"result":{"nanos":281100,"millis":0.2811,"status":"passed"},"step":{"background":true,"line":4,"prefix":"*","index":0,"text":"url 'https:\/\/reqres.in\/api'"},"stepLog":"16:26:13.681 \n"},{"result":{"nanos":14114300,"millis":14.1143,"status":"passed"},"step":{"background":true,"line":5,"prefix":"*","index":1,"text":"def output = read('classpath:\/TestData\/response1.json')"}},{"result":{"nanos":2274000,"millis":2.274,"status":"passed"},"step":{"background":true,"line":6,"prefix":"*","index":2,"text":"def request1 = read('classpath:\/TestData\/request1.json')"}},{"result":{"nanos":492300,"millis":0.4923,"status":"passed"},"step":{"line":19,"prefix":"Given","index":0,"text":"path '\/users'"}},{"result":{"nanos":291200,"millis":0.2912,"status":"passed"},"step":{"line":20,"prefix":"And","index":1,"text":"request {\"name\": \"Mouad\" , \"job\": \"tester\" , \"age\": 25}"}},{"result":{"nanos":328448300,"millis":328.4483,"status":"passed"},"step":{"line":21,"prefix":"When","index":2,"text":"method POST"},"stepLog":"16:26:13.740 request:\n1 > POST https:\/\/reqres.in\/api\/users\n1 > Content-Type: application\/json; charset=UTF-8\n1 > Content-Length: 40\n1 > Host: reqres.in\n1 > Connection: Keep-Alive\n1 > User-Agent: Apache-HttpClient\/4.5.13 (Java\/17.0.1)\n1 > Accept-Encoding: gzip,deflate\n{\"name\":\"Mouad\",\"job\":\"tester\",\"age\":25}\n\n16:26:14.027 response time in milliseconds: 287\n1 < 201\n1 < Date: Sun, 20 Feb 2022 15:26:06 GMT\n1 < Content-Type: application\/json; charset=utf-8\n1 < Content-Length: 89\n1 < Connection: keep-alive\n1 < X-Powered-By: Express\n1 < Access-Control-Allow-Origin: *\n1 < Etag: W\/\"59-RlFteTCArUyz55F7g7NjVMUMagA\"\n1 < Via: 1.1 vegur\n1 < CF-Cache-Status: DYNAMIC\n1 < Expect-CT: max-age=604800, report-uri=\"https:\/\/report-uri.cloudflare.com\/cdn-cgi\/beacon\/expect-ct\"\n1 < Report-To: {\"endpoints\":[{\"url\":\"https:\\\/\\\/a.nel.cloudflare.com\\\/report\\\/v3?s=JkeBk2CAZPqHTgJKzIOd6DBa3wrwCrKy%2F%2FqzIl%2BmZz3KjDkmxllFWVG1DtQEtS3bGJWQTlActMmb8Kmw%2BfZQh3n7UgBWoDg9nZd0RdAbXOp3yKnC56hnpd8onEo%3D\"}],\"group\":\"cf-nel\",\"max_age\":604800}\n1 < NEL: {\"success_fraction\":0,\"report_to\":\"cf-nel\",\"max_age\":604800}\n1 < Server: cloudflare\n1 < CF-RAY: 6e08c057fb8a73d3-MRS\n1 < alt-svc: h3=\":443\"; ma=86400, h3-29=\":443\"; ma=86400\n{\"name\":\"Mouad\",\"job\":\"tester\",\"age\":25,\"id\":\"81\",\"createdAt\":\"2022-02-20T15:26:06.132Z\"}\n"},{"result":{"nanos":6500,"millis":0.0065,"status":"passed"},"step":{"line":22,"prefix":"Then","index":3,"text":"status 201"}},{"result":{"nanos":455600,"millis":0.4556,"status":"passed"},"step":{"line":23,"prefix":"And","index":4,"text":"match response == {\"name\":\"Mouad\",\"job\":\"tester\",\"age\":25,\"id\":\"#string\",\"createdAt\":\"#ignore\"}"}},{"result":{"nanos":1037200,"millis":1.0372,"status":"passed"},"step":{"line":24,"prefix":"And","index":5,"text":"print response"},"stepLog":"16:26:14.030 [print] {\n  \"name\": \"Mouad\",\n  \"job\": \"tester\",\n  \"age\": 25,\n  \"id\": \"81\",\n  \"createdAt\": \"2022-02-20T15:26:06.132Z\"\n}\n \n"}],"executorName":"main","line":18,"name":"test API post 2","description":"","durationMillis":347.4005,"startTime":1645370773680,"failed":false,"refId":"[2:18]","endTime":1645370774030,"exampleIndex":-1},{"sectionIndex":2,"stepResults":[{"result":{"nanos":137100,"millis":0.1371,"status":"passed"},"step":{"background":true,"line":4,"prefix":"*","index":0,"text":"url 'https:\/\/reqres.in\/api'"},"stepLog":"16:26:14.034 \n"},{"result":{"nanos":1093600,"millis":1.0936,"status":"passed"},"step":{"background":true,"line":5,"prefix":"*","index":1,"text":"def output = read('classpath:\/TestData\/response1.json')"}},{"result":{"nanos":846300,"millis":0.8463,"status":"passed"},"step":{"background":true,"line":6,"prefix":"*","index":2,"text":"def request1 = read('classpath:\/TestData\/request1.json')"}},{"result":{"nanos":76100,"millis":0.0761,"status":"passed"},"step":{"line":27,"prefix":"Given","index":0,"text":"path '\/users'"}},{"result":{"nanos":119200,"millis":0.1192,"status":"passed"},"step":{"line":28,"prefix":"And","index":1,"text":"request {\"name\": \"Mouad\" , \"job\": \"tester\" }"}},{"result":{"nanos":263837300,"millis":263.8373,"status":"passed"},"step":{"line":29,"prefix":"When","index":2,"text":"method POST"},"stepLog":"16:26:14.037 request:\n1 > POST https:\/\/reqres.in\/api\/users\n1 > Content-Type: application\/json; charset=UTF-8\n1 > Content-Length: 31\n1 > Host: reqres.in\n1 > Connection: Keep-Alive\n1 > User-Agent: Apache-HttpClient\/4.5.13 (Java\/17.0.1)\n1 > Accept-Encoding: gzip,deflate\n{\"name\":\"Mouad\",\"job\":\"tester\"}\n\n16:26:14.300 response time in milliseconds: 263\n1 < 201\n1 < Date: Sun, 20 Feb 2022 15:26:06 GMT\n1 < Content-Type: application\/json; charset=utf-8\n1 < Content-Length: 81\n1 < Connection: keep-alive\n1 < X-Powered-By: Express\n1 < Access-Control-Allow-Origin: *\n1 < Etag: W\/\"51-DG4qycqp9ekGZwzw74JS8lIGhPY\"\n1 < Via: 1.1 vegur\n1 < CF-Cache-Status: DYNAMIC\n1 < Expect-CT: max-age=604800, report-uri=\"https:\/\/report-uri.cloudflare.com\/cdn-cgi\/beacon\/expect-ct\"\n1 < Report-To: {\"endpoints\":[{\"url\":\"https:\\\/\\\/a.nel.cloudflare.com\\\/report\\\/v3?s=TXzg8FnXxuV3vdY3Xmc11oJISk3tzldGXJ9FILuzymQGS7ju3eDgNW84ECq0g%2FpmSaBbXdtMdGAH5sOloygP61OI%2Bq91UUbUsw90lcxMtyaiUHzQ5CbYebgRZxQ%3D\"}],\"group\":\"cf-nel\",\"max_age\":604800}\n1 < NEL: {\"success_fraction\":0,\"report_to\":\"cf-nel\",\"max_age\":604800}\n1 < Server: cloudflare\n1 < CF-RAY: 6e08c059bf7c733c-MRS\n1 < alt-svc: h3=\":443\"; ma=86400, h3-29=\":443\"; ma=86400\n{\"name\":\"Mouad\",\"job\":\"tester\",\"id\":\"670\",\"createdAt\":\"2022-02-20T15:26:06.415Z\"}\n"},{"result":{"nanos":6900,"millis":0.0069,"status":"passed"},"step":{"line":30,"prefix":"Then","index":3,"text":"status 201"}},{"result":{"nanos":374300,"millis":0.3743,"status":"passed"},"step":{"line":31,"prefix":"And","index":4,"text":"match response == output"}},{"result":{"nanos":381400,"millis":0.3814,"status":"passed"},"step":{"line":32,"prefix":"And","index":5,"text":"print response"},"stepLog":"16:26:14.302 [print] {\n  \"name\": \"Mouad\",\n  \"job\": \"tester\",\n  \"id\": \"670\",\n  \"createdAt\": \"2022-02-20T15:26:06.415Z\"\n}\n \n"}],"executorName":"main","line":26,"name":"test API post 3","description":"","durationMillis":266.8722,"startTime":1645370774033,"failed":false,"refId":"[3:26]","endTime":1645370774302,"exampleIndex":-1},{"sectionIndex":3,"stepResults":[{"result":{"nanos":125800,"millis":0.1258,"status":"passed"},"step":{"background":true,"line":4,"prefix":"*","index":0,"text":"url 'https:\/\/reqres.in\/api'"},"stepLog":"16:26:14.305 \n"},{"result":{"nanos":1042200,"millis":1.0422,"status":"passed"},"step":{"background":true,"line":5,"prefix":"*","index":1,"text":"def output = read('classpath:\/TestData\/response1.json')"}},{"result":{"nanos":869900,"millis":0.8699,"status":"passed"},"step":{"background":true,"line":6,"prefix":"*","index":2,"text":"def request1 = read('classpath:\/TestData\/request1.json')"}},{"result":{"nanos":78500,"millis":0.0785,"status":"passed"},"step":{"line":35,"prefix":"Given","index":0,"text":"path '\/users'"}},{"result":{"nanos":460000,"millis":0.46,"status":"passed"},"step":{"line":36,"prefix":"And","index":1,"text":"request request1"}},{"result":{"nanos":270461400,"millis":270.4614,"status":"passed"},"step":{"line":37,"prefix":"When","index":2,"text":"method POST"},"stepLog":"16:26:14.309 request:\n1 > POST https:\/\/reqres.in\/api\/users\n1 > Content-Type: application\/json; charset=UTF-8\n1 > Content-Length: 31\n1 > Host: reqres.in\n1 > Connection: Keep-Alive\n1 > User-Agent: Apache-HttpClient\/4.5.13 (Java\/17.0.1)\n1 > Accept-Encoding: gzip,deflate\n{\"name\":\"Mouad\",\"job\":\"tester\"}\n\n16:26:14.578 response time in milliseconds: 269\n1 < 201\n1 < Date: Sun, 20 Feb 2022 15:26:06 GMT\n1 < Content-Type: application\/json; charset=utf-8\n1 < Content-Length: 81\n1 < Connection: keep-alive\n1 < X-Powered-By: Express\n1 < Access-Control-Allow-Origin: *\n1 < Etag: W\/\"51-eRoXN3uJBlPOsSvFHJobhIogiQc\"\n1 < Via: 1.1 vegur\n1 < CF-Cache-Status: DYNAMIC\n1 < Expect-CT: max-age=604800, report-uri=\"https:\/\/report-uri.cloudflare.com\/cdn-cgi\/beacon\/expect-ct\"\n1 < Report-To: {\"endpoints\":[{\"url\":\"https:\\\/\\\/a.nel.cloudflare.com\\\/report\\\/v3?s=mYlzBvmPwfqXKRlAvFg8Rr7IZeSUItc4a307Pzfrib6sv6kxse27QG1goRxVMVrW%2Ftva%2B8WDnDeMdI3n6a7q7KVrmj6vtGYatYFt1TFUZNvaRCv4fr%2FCDpp%2FrJg%3D\"}],\"group\":\"cf-nel\",\"max_age\":604800}\n1 < NEL: {\"success_fraction\":0,\"report_to\":\"cf-nel\",\"max_age\":604800}\n1 < Server: cloudflare\n1 < CF-RAY: 6e08c05b7afd73bf-MRS\n1 < alt-svc: h3=\":443\"; ma=86400, h3-29=\":443\"; ma=86400\n{\"name\":\"Mouad\",\"job\":\"tester\",\"id\":\"343\",\"createdAt\":\"2022-02-20T15:26:06.696Z\"}\n"},{"result":{"nanos":6400,"millis":0.0064,"status":"passed"},"step":{"line":38,"prefix":"Then","index":3,"text":"status 201"}},{"result":{"nanos":265500,"millis":0.2655,"status":"passed"},"step":{"line":39,"prefix":"And","index":4,"text":"match response == output"}},{"result":{"nanos":344600,"millis":0.3446,"status":"passed"},"step":{"line":40,"prefix":"And","index":5,"text":"print response"},"stepLog":"16:26:14.580 [print] {\n  \"name\": \"Mouad\",\n  \"job\": \"tester\",\n  \"id\": \"343\",\n  \"createdAt\": \"2022-02-20T15:26:06.696Z\"\n}\n \n"}],"executorName":"main","line":34,"name":"test API post 3","description":"","durationMillis":273.6543,"startTime":1645370774305,"failed":false,"refId":"[4:34]","endTime":1645370774580,"exampleIndex":-1}],"callDepth":0,"name":"test sample API","description":"","resultDate":"2022-02-20 04:26:14 PM","durationMillis":1740.668,"passedCount":4}