{"failedCount":1,"prefixedPath":"classpath:TestFeatures\/week3\/callGetPerson.feature","packageQualifiedName":"TestFeatures.week3.callGetPerson","loopIndex":-1,"relativePath":"TestFeatures\/week3\/callGetPerson.feature","scenarioResults":[{"sectionIndex":0,"stepResults":[{"result":{"nanos":49400,"millis":0.0494,"status":"passed"},"step":{"line":5,"prefix":"Given","index":0,"text":"url 'https:\/\/reqres.in\/api\/users?page=2'"},"stepLog":"16:26:16.209 \n"},{"result":{"nanos":206914700,"millis":206.9147,"status":"passed"},"step":{"line":6,"prefix":"When","index":1,"text":"method GET"},"stepLog":"16:26:16.210 request:\n1 > GET https:\/\/reqres.in\/api\/users?page=2\n1 > Host: reqres.in\n1 > Connection: Keep-Alive\n1 > User-Agent: Apache-HttpClient\/4.5.13 (Java\/17.0.1)\n1 > Accept-Encoding: gzip,deflate\n\n\n16:26:16.415 response time in milliseconds: 205\n1 < 200\n1 < Date: Sun, 20 Feb 2022 15:26:08 GMT\n1 < Content-Type: application\/json; charset=utf-8\n1 < Transfer-Encoding: chunked\n1 < Connection: keep-alive\n1 < X-Powered-By: Express\n1 < Access-Control-Allow-Origin: *\n1 < Etag: W\/\"406-ut0vzoCuidvyMf8arZpMpJ6ZRDw\"\n1 < Via: 1.1 vegur\n1 < Cache-Control: max-age=14400\n1 < CF-Cache-Status: HIT\n1 < Age: 6543\n1 < Expect-CT: max-age=604800, report-uri=\"https:\/\/report-uri.cloudflare.com\/cdn-cgi\/beacon\/expect-ct\"\n1 < Report-To: {\"endpoints\":[{\"url\":\"https:\\\/\\\/a.nel.cloudflare.com\\\/report\\\/v3?s=khLHQUKrt7Uz81OmqXZ0dARwiggY8cp7nySIjF%2F%2Bzk%2Ftg4ZyQRsTAVa7hgW%2BEIkaLzZWmNlCI5wopT%2FQishqGS5mCjOgT2WUhAFSBrB%2Fc6nBf%2FU0EGkbknpKdXU%3D\"}],\"group\":\"cf-nel\",\"max_age\":604800}\n1 < NEL: {\"success_fraction\":0,\"report_to\":\"cf-nel\",\"max_age\":604800}\n1 < Vary: Accept-Encoding\n1 < Server: cloudflare\n1 < CF-RAY: 6e08c06758f85f9b-MRS\n1 < alt-svc: h3=\":443\"; ma=86400, h3-29=\":443\"; ma=86400\n{\"page\":2,\"per_page\":6,\"total\":12,\"total_pages\":2,\"data\":[{\"id\":7,\"email\":\"michael.lawson@reqres.in\",\"first_name\":\"Michael\",\"last_name\":\"Lawson\",\"avatar\":\"https:\/\/reqres.in\/img\/faces\/7-image.jpg\"},{\"id\":8,\"email\":\"lindsay.ferguson@reqres.in\",\"first_name\":\"Lindsay\",\"last_name\":\"Ferguson\",\"avatar\":\"https:\/\/reqres.in\/img\/faces\/8-image.jpg\"},{\"id\":9,\"email\":\"tobias.funke@reqres.in\",\"first_name\":\"Tobias\",\"last_name\":\"Funke\",\"avatar\":\"https:\/\/reqres.in\/img\/faces\/9-image.jpg\"},{\"id\":10,\"email\":\"byron.fields@reqres.in\",\"first_name\":\"Byron\",\"last_name\":\"Fields\",\"avatar\":\"https:\/\/reqres.in\/img\/faces\/10-image.jpg\"},{\"id\":11,\"email\":\"george.edwards@reqres.in\",\"first_name\":\"George\",\"last_name\":\"Edwards\",\"avatar\":\"https:\/\/reqres.in\/img\/faces\/11-image.jpg\"},{\"id\":12,\"email\":\"rachel.howell@reqres.in\",\"first_name\":\"Rachel\",\"last_name\":\"Howell\",\"avatar\":\"https:\/\/reqres.in\/img\/faces\/12-image.jpg\"}],\"support\":{\"url\":\"https:\/\/reqres.in\/#support-heading\",\"text\":\"To keep ReqRes free, contributions towards server costs are appreciated!\"}}\n"},{"result":{"nanos":17900,"millis":0.0179,"status":"passed"},"step":{"line":7,"prefix":"Then","index":2,"text":"status 200"}},{"result":{"nanos":218955500,"millis":218.9555,"status":"passed"},"step":{"line":8,"prefix":"*","index":3,"text":"def person = call read('classpath:\/reusableFeatures\/getPerson.feature')"},"callResults":[{"failedCount":0,"prefixedPath":"classpath:reusableFeatures\/getPerson.feature","packageQualifiedName":"reusableFeatures.getPerson","loopIndex":-1,"relativePath":"reusableFeatures\/getPerson.feature","scenarioResults":[{"sectionIndex":0,"stepResults":[{"result":{"nanos":276800,"millis":0.2768,"status":"passed"},"step":{"line":5,"prefix":"Given","index":0,"text":"url 'https:\/\/reqres.in\/api\/users?page=1'"}},{"result":{"nanos":212080700,"millis":212.0807,"status":"passed"},"step":{"line":6,"prefix":"When","index":1,"text":"method GET"},"stepLog":"16:26:16.423 request:\n1 > GET https:\/\/reqres.in\/api\/users?page=1\n1 > Host: reqres.in\n1 > Connection: Keep-Alive\n1 > User-Agent: Apache-HttpClient\/4.5.13 (Java\/17.0.1)\n1 > Accept-Encoding: gzip,deflate\n\n\n16:26:16.635 response time in milliseconds: 211\n1 < 200\n1 < Date: Sun, 20 Feb 2022 15:26:08 GMT\n1 < Content-Type: application\/json; charset=utf-8\n1 < Transfer-Encoding: chunked\n1 < Connection: keep-alive\n1 < X-Powered-By: Express\n1 < Access-Control-Allow-Origin: *\n1 < Etag: W\/\"3e4-2RLXvr5wTg9YQ6aH95CkYoFNuO8\"\n1 < Via: 1.1 vegur\n1 < Cache-Control: max-age=14400\n1 < CF-Cache-Status: HIT\n1 < Age: 6813\n1 < Expect-CT: max-age=604800, report-uri=\"https:\/\/report-uri.cloudflare.com\/cdn-cgi\/beacon\/expect-ct\"\n1 < Report-To: {\"endpoints\":[{\"url\":\"https:\\\/\\\/a.nel.cloudflare.com\\\/report\\\/v3?s=CUKgkA%2FfmE%2F5Zypp%2B14k79yCsh9FUSgN2ybyN1V2oQR9jo13ZhN95WvRJpCORuhZfd1NDey3%2FRVN8agJNqgENztIoLbyBs%2Fjwr%2FVOeFSRlcgLna3y%2BiJCIDIEo8%3D\"}],\"group\":\"cf-nel\",\"max_age\":604800}\n1 < NEL: {\"success_fraction\":0,\"report_to\":\"cf-nel\",\"max_age\":604800}\n1 < Vary: Accept-Encoding\n1 < Server: cloudflare\n1 < CF-RAY: 6e08c068ad6a41d0-MRS\n1 < alt-svc: h3=\":443\"; ma=86400, h3-29=\":443\"; ma=86400\n{\"page\":1,\"per_page\":6,\"total\":12,\"total_pages\":2,\"data\":[{\"id\":1,\"email\":\"george.bluth@reqres.in\",\"first_name\":\"George\",\"last_name\":\"Bluth\",\"avatar\":\"https:\/\/reqres.in\/img\/faces\/1-image.jpg\"},{\"id\":2,\"email\":\"janet.weaver@reqres.in\",\"first_name\":\"Janet\",\"last_name\":\"Weaver\",\"avatar\":\"https:\/\/reqres.in\/img\/faces\/2-image.jpg\"},{\"id\":3,\"email\":\"emma.wong@reqres.in\",\"first_name\":\"Emma\",\"last_name\":\"Wong\",\"avatar\":\"https:\/\/reqres.in\/img\/faces\/3-image.jpg\"},{\"id\":4,\"email\":\"eve.holt@reqres.in\",\"first_name\":\"Eve\",\"last_name\":\"Holt\",\"avatar\":\"https:\/\/reqres.in\/img\/faces\/4-image.jpg\"},{\"id\":5,\"email\":\"charles.morris@reqres.in\",\"first_name\":\"Charles\",\"last_name\":\"Morris\",\"avatar\":\"https:\/\/reqres.in\/img\/faces\/5-image.jpg\"},{\"id\":6,\"email\":\"tracey.ramos@reqres.in\",\"first_name\":\"Tracey\",\"last_name\":\"Ramos\",\"avatar\":\"https:\/\/reqres.in\/img\/faces\/6-image.jpg\"}],\"support\":{\"url\":\"https:\/\/reqres.in\/#support-heading\",\"text\":\"To keep ReqRes free, contributions towards server costs are appreciated!\"}}\n"},{"result":{"nanos":6700,"millis":0.0067,"status":"passed"},"step":{"line":7,"prefix":"Then","index":2,"text":"status 200"}},{"result":{"nanos":302300,"millis":0.3023,"status":"passed"},"step":{"line":8,"prefix":"*","index":3,"text":"def email = 'george.bluth@reqres.in'"}},{"result":{"nanos":355600,"millis":0.3556,"status":"passed"},"step":{"line":9,"prefix":"And","index":4,"text":"match response.data[*].email contains email"}},{"result":{"nanos":63800,"millis":0.0638,"status":"passed"},"step":{"line":10,"prefix":"*","index":5,"text":"def exp = email"}}],"executorName":"main","line":4,"name":"check person in page 1","description":"","durationMillis":213.0859,"startTime":1645370776422,"failed":false,"refId":"[1:4]","endTime":1645370776636,"exampleIndex":-1}],"callDepth":1,"name":"Get person from list","description":"","resultDate":"2022-02-20 04:26:16 PM","durationMillis":213.0859,"passedCount":1}]},{"result":{"nanos":289600,"millis":0.2896,"status":"passed"},"step":{"line":9,"prefix":"*","index":4,"text":"def exp = person.exp"}},{"result":{"nanos":426500,"millis":0.4265,"status":"passed"},"step":{"line":10,"prefix":"And","index":5,"text":"print exp"},"stepLog":"16:26:16.637 [print] george.bluth@reqres.in \n"},{"result":{"nanos":341200,"errorMessage":"match failed: CONTAINS\n  $ | actual does not contain expected | actual array does not contain expected item - george.bluth@reqres.in (LIST:STRING)\n  [\"michael.lawson@reqres.in\",\"lindsay.ferguson@reqres.in\",\"tobias.funke@reqres.in\",\"byron.fields@reqres.in\",\"george.edwards@reqres.in\",\"rachel.howell@reqres.in\"]\n  'george.bluth@reqres.in'\n\n    $[5] | not equal (STRING:STRING)\n    'rachel.howell@reqres.in'\n    'george.bluth@reqres.in'\n\n    $[4] | not equal (STRING:STRING)\n    'george.edwards@reqres.in'\n    'george.bluth@reqres.in'\n\n    $[3] | not equal (STRING:STRING)\n    'byron.fields@reqres.in'\n    'george.bluth@reqres.in'\n\n    $[2] | not equal (STRING:STRING)\n    'tobias.funke@reqres.in'\n    'george.bluth@reqres.in'\n\n    $[1] | not equal (STRING:STRING)\n    'lindsay.ferguson@reqres.in'\n    'george.bluth@reqres.in'\n\n    $[0] | not equal (STRING:STRING)\n    'michael.lawson@reqres.in'\n    'george.bluth@reqres.in'\n\nclasspath:TestFeatures\/week3\/callGetPerson.feature:11","millis":0.3412,"status":"failed"},"step":{"line":11,"prefix":"And","index":6,"text":"match response.data[*].email contains exp"},"stepLog":"16:26:16.637 classpath:TestFeatures\/week3\/callGetPerson.feature:11\nAnd match response.data[*].email contains exp\nmatch failed: CONTAINS\n  $ | actual does not contain expected | actual array does not contain expected item - george.bluth@reqres.in (LIST:STRING)\n  [\"michael.lawson@reqres.in\",\"lindsay.ferguson@reqres.in\",\"tobias.funke@reqres.in\",\"byron.fields@reqres.in\",\"george.edwards@reqres.in\",\"rachel.howell@reqres.in\"]\n  'george.bluth@reqres.in'\n\n    $[5] | not equal (STRING:STRING)\n    'rachel.howell@reqres.in'\n    'george.bluth@reqres.in'\n\n    $[4] | not equal (STRING:STRING)\n    'george.edwards@reqres.in'\n    'george.bluth@reqres.in'\n\n    $[3] | not equal (STRING:STRING)\n    'byron.fields@reqres.in'\n    'george.bluth@reqres.in'\n\n    $[2] | not equal (STRING:STRING)\n    'tobias.funke@reqres.in'\n    'george.bluth@reqres.in'\n\n    $[1] | not equal (STRING:STRING)\n    'lindsay.ferguson@reqres.in'\n    'george.bluth@reqres.in'\n\n    $[0] | not equal (STRING:STRING)\n    'michael.lawson@reqres.in'\n    'george.bluth@reqres.in'\n\nclasspath:TestFeatures\/week3\/callGetPerson.feature:11\n"}],"line":4,"description":"","durationMillis":426.9948,"failed":true,"error":"match failed: CONTAINS\n  $ | actual does not contain expected | actual array does not contain expected item - george.bluth@reqres.in (LIST:STRING)\n  [\"michael.lawson@reqres.in\",\"lindsay.ferguson@reqres.in\",\"tobias.funke@reqres.in\",\"byron.fields@reqres.in\",\"george.edwards@reqres.in\",\"rachel.howell@reqres.in\"]\n  'george.bluth@reqres.in'\n\n    $[5] | not equal (STRING:STRING)\n    'rachel.howell@reqres.in'\n    'george.bluth@reqres.in'\n\n    $[4] | not equal (STRING:STRING)\n    'george.edwards@reqres.in'\n    'george.bluth@reqres.in'\n\n    $[3] | not equal (STRING:STRING)\n    'byron.fields@reqres.in'\n    'george.bluth@reqres.in'\n\n    $[2] | not equal (STRING:STRING)\n    'tobias.funke@reqres.in'\n    'george.bluth@reqres.in'\n\n    $[1] | not equal (STRING:STRING)\n    'lindsay.ferguson@reqres.in'\n    'george.bluth@reqres.in'\n\n    $[0] | not equal (STRING:STRING)\n    'michael.lawson@reqres.in'\n    'george.bluth@reqres.in'\n\nclasspath:TestFeatures\/week3\/callGetPerson.feature:11","tags":["tag1"],"executorName":"main","name":"verify if email exist in page 2","startTime":1645370776209,"refId":"[1:4]","endTime":1645370776637,"exampleIndex":-1}],"callDepth":0,"name":"get person and verify if exist","description":"","resultDate":"2022-02-20 04:26:16 PM","durationMillis":426.9948,"passedCount":0}