{"failedCount":0,"prefixedPath":"src\/test\/java\/test_ResIsReq.feature","packageQualifiedName":"src.test.java.test_ResIsReq","loopIndex":-1,"relativePath":"src\/test\/java\/test_ResIsReq.feature","scenarioResults":[{"sectionIndex":0,"stepResults":[{"result":{"nanos":139950300,"millis":139.9503,"status":"passed"},"step":{"background":true,"line":4,"prefix":"*","index":0,"text":"url 'https:\/\/reqres.in\/api'"}},{"result":{"nanos":697000,"millis":0.697,"status":"passed"},"step":{"line":7,"prefix":"Given","index":0,"text":"path '\/users?page=2'"}},{"result":{"nanos":1064050800,"millis":1064.0508,"status":"passed"},"step":{"line":8,"prefix":"When","index":1,"text":"method GET"},"stepLog":"00:53:07.698 request:\n1 > GET https:\/\/reqres.in\/api\/users%3Fpage=2\n1 > Host: reqres.in\n1 > Connection: Keep-Alive\n1 > User-Agent: Apache-HttpClient\/4.5.13 (Java\/17.0.1)\n1 > Accept-Encoding: gzip,deflate\n\n\n00:53:08.401 response time in milliseconds: 697\n1 < 200\n1 < Date: Sat, 12 Feb 2022 23:53:05 GMT\n1 < Content-Type: application\/json; charset=utf-8\n1 < Transfer-Encoding: chunked\n1 < Connection: keep-alive\n1 < X-Powered-By: Express\n1 < Access-Control-Allow-Origin: *\n1 < Etag: W\/\"2c1-N6Rqerxquq2kgQhL51EiSg4x0R8\"\n1 < Via: 1.1 vegur\n1 < Cache-Control: max-age=14400\n1 < CF-Cache-Status: HIT\n1 < Age: 615\n1 < Expect-CT: max-age=604800, report-uri=\"https:\/\/report-uri.cloudflare.com\/cdn-cgi\/beacon\/expect-ct\"\n1 < Report-To: {\"endpoints\":[{\"url\":\"https:\\\/\\\/a.nel.cloudflare.com\\\/report\\\/v3?s=NL%2BBo%2FRWfLXYuesHIedMZq0J%2Fef3EzEu4flTo2FJEJuXq6ajb3KOi3KUX6hOkYq2aMWF91Y1hufZfcT1M8kC9aR2yElesbliTqQJLrvu5J6FhNcw%2BPh5ho59lJ0%3D\"}],\"group\":\"cf-nel\",\"max_age\":604800}\n1 < NEL: {\"success_fraction\":0,\"report_to\":\"cf-nel\",\"max_age\":604800}\n1 < Vary: Accept-Encoding\n1 < Server: cloudflare\n1 < CF-RAY: 6dc9bc0358c52e3e-BRU\n1 < alt-svc: h3=\":443\"; ma=86400, h3-29=\":443\"; ma=86400\n{\"page\":1,\"per_page\":6,\"total\":12,\"total_pages\":2,\"data\":[{\"id\":1,\"name\":\"cerulean\",\"year\":2000,\"color\":\"#98B2D1\",\"pantone_value\":\"15-4020\"},{\"id\":2,\"name\":\"fuchsia rose\",\"year\":2001,\"color\":\"#C74375\",\"pantone_value\":\"17-2031\"},{\"id\":3,\"name\":\"true red\",\"year\":2002,\"color\":\"#BF1932\",\"pantone_value\":\"19-1664\"},{\"id\":4,\"name\":\"aqua sky\",\"year\":2003,\"color\":\"#7BC4C4\",\"pantone_value\":\"14-4811\"},{\"id\":5,\"name\":\"tigerlily\",\"year\":2004,\"color\":\"#E2583E\",\"pantone_value\":\"17-1456\"},{\"id\":6,\"name\":\"blue turquoise\",\"year\":2005,\"color\":\"#53B0AE\",\"pantone_value\":\"15-5217\"}],\"support\":{\"url\":\"https:\/\/reqres.in\/#support-heading\",\"text\":\"To keep ReqRes free, contributions towards server costs are appreciated!\"}}\n"},{"result":{"nanos":23900,"millis":0.0239,"status":"passed"},"step":{"line":9,"prefix":"Then","index":2,"text":"status 200"}},{"result":{"nanos":28225500,"millis":28.2255,"status":"passed"},"step":{"line":10,"prefix":"And","index":3,"text":"def uResponse = response"}},{"result":{"nanos":64161800,"millis":64.1618,"status":"passed"},"step":{"line":11,"prefix":"And","index":4,"text":"print uResponse"},"stepLog":"00:53:08.566 [print] {\n  \"page\": 1,\n  \"per_page\": 6,\n  \"total\": 12,\n  \"total_pages\": 2,\n  \"data\": [\n    {\n      \"id\": 1,\n      \"name\": \"cerulean\",\n      \"year\": 2000,\n      \"color\": \"#98B2D1\",\n      \"pantone_value\": \"15-4020\"\n    },\n    {\n      \"id\": 2,\n      \"name\": \"fuchsia rose\",\n      \"year\": 2001,\n      \"color\": \"#C74375\",\n      \"pantone_value\": \"17-2031\"\n    },\n    {\n      \"id\": 3,\n      \"name\": \"true red\",\n      \"year\": 2002,\n      \"color\": \"#BF1932\",\n      \"pantone_value\": \"19-1664\"\n    },\n    {\n      \"id\": 4,\n      \"name\": \"aqua sky\",\n      \"year\": 2003,\n      \"color\": \"#7BC4C4\",\n      \"pantone_value\": \"14-4811\"\n    },\n    {\n      \"id\": 5,\n      \"name\": \"tigerlily\",\n      \"year\": 2004,\n      \"color\": \"#E2583E\",\n      \"pantone_value\": \"17-1456\"\n    },\n    {\n      \"id\": 6,\n      \"name\": \"blue turquoise\",\n      \"year\": 2005,\n      \"color\": \"#53B0AE\",\n      \"pantone_value\": \"15-5217\"\n    }\n  ],\n  \"support\": {\n    \"url\": \"https:\/\/reqres.in\/#support-heading\",\n    \"text\": \"To keep ReqRes free, contributions towards server costs are appreciated!\"\n  }\n}\n \n"},{"result":{"nanos":22599500,"millis":22.5995,"status":"passed"},"step":{"line":12,"prefix":"Then","index":5,"text":"match uResponse.data[*].name contains  ['cerulean']"}},{"result":{"nanos":3134600,"millis":3.1346,"status":"passed"},"step":{"line":13,"prefix":"Then","index":6,"text":"def rec = uResponse.data.name = 'cerulean'"}}],"executorName":"main","line":6,"name":"get if cerulean exist","description":"","durationMillis":1322.8434,"startTime":1644709987252,"failed":false,"refId":"[1:6]","endTime":1644709988592,"exampleIndex":-1}],"callDepth":0,"name":"test request is response","description":"","resultDate":"2022-02-13 12:53:08 AM","durationMillis":1322.8434,"passedCount":1}