{"failedCount":1,"prefixedPath":"src\/test\/java\/test_ResIsReq.feature","packageQualifiedName":"src.test.java.test_ResIsReq","loopIndex":-1,"relativePath":"src\/test\/java\/test_ResIsReq.feature","scenarioResults":[{"sectionIndex":0,"stepResults":[{"result":{"nanos":73805300,"millis":73.8053,"status":"passed"},"step":{"background":true,"line":4,"prefix":"*","index":0,"text":"url 'https:\/\/reqres.in\/api'"}},{"result":{"nanos":500200,"millis":0.5002,"status":"passed"},"step":{"line":6,"prefix":"Given","index":0,"text":"path '\/users?page=2'"}},{"result":{"nanos":1131686000,"millis":1131.686,"status":"passed"},"step":{"line":7,"prefix":"When","index":1,"text":"method GET"},"stepLog":"20:44:58.986 request:\n1 > GET https:\/\/reqres.in\/api\/users%3Fpage=2\n1 > Host: reqres.in\n1 > Connection: Keep-Alive\n1 > User-Agent: Apache-HttpClient\/4.5.13 (Java\/17.0.1)\n1 > Accept-Encoding: gzip,deflate\n\n\n20:44:59.735 response time in milliseconds: 745\n1 < 200\n1 < Date: Thu, 10 Feb 2022 19:44:57 GMT\n1 < Content-Type: application\/json; charset=utf-8\n1 < Transfer-Encoding: chunked\n1 < Connection: keep-alive\n1 < X-Powered-By: Express\n1 < Access-Control-Allow-Origin: *\n1 < Etag: W\/\"2c1-N6Rqerxquq2kgQhL51EiSg4x0R8\"\n1 < Via: 1.1 vegur\n1 < Cache-Control: max-age=14400\n1 < CF-Cache-Status: HIT\n1 < Age: 4902\n1 < Expect-CT: max-age=604800, report-uri=\"https:\/\/report-uri.cloudflare.com\/cdn-cgi\/beacon\/expect-ct\"\n1 < Report-To: {\"endpoints\":[{\"url\":\"https:\\\/\\\/a.nel.cloudflare.com\\\/report\\\/v3?s=qiAbwug1zKY8rHWgqwGLLQkqHuDQrhN%2BUC1ZGiZ5p3o7rkgUtABdn8WzxgVf4K%2B%2BnpRXwPbOc7QFgzWkx%2Fc3bTbpB1bXydjVbi0b4UDsSmjIZvIuMmCASKKogzI%3D\"}],\"group\":\"cf-nel\",\"max_age\":604800}\n1 < NEL: {\"success_fraction\":0,\"report_to\":\"cf-nel\",\"max_age\":604800}\n1 < Vary: Accept-Encoding\n1 < Server: cloudflare\n1 < CF-RAY: 6db7d5ca1c647361-MRS\n1 < alt-svc: h3=\":443\"; ma=86400, h3-29=\":443\"; ma=86400\n{\"page\":1,\"per_page\":6,\"total\":12,\"total_pages\":2,\"data\":[{\"id\":1,\"name\":\"cerulean\",\"year\":2000,\"color\":\"#98B2D1\",\"pantone_value\":\"15-4020\"},{\"id\":2,\"name\":\"fuchsia rose\",\"year\":2001,\"color\":\"#C74375\",\"pantone_value\":\"17-2031\"},{\"id\":3,\"name\":\"true red\",\"year\":2002,\"color\":\"#BF1932\",\"pantone_value\":\"19-1664\"},{\"id\":4,\"name\":\"aqua sky\",\"year\":2003,\"color\":\"#7BC4C4\",\"pantone_value\":\"14-4811\"},{\"id\":5,\"name\":\"tigerlily\",\"year\":2004,\"color\":\"#E2583E\",\"pantone_value\":\"17-1456\"},{\"id\":6,\"name\":\"blue turquoise\",\"year\":2005,\"color\":\"#53B0AE\",\"pantone_value\":\"15-5217\"}],\"support\":{\"url\":\"https:\/\/reqres.in\/#support-heading\",\"text\":\"To keep ReqRes free, contributions towards server costs are appreciated!\"}}\n"},{"result":{"nanos":32200,"millis":0.0322,"status":"passed"},"step":{"line":8,"prefix":"Then","index":2,"text":"status 200"}},{"result":{"nanos":78283800,"errorMessage":"js failed:\n>>>>\n01: JSON.parse(response)\n<<<<\norg.graalvm.polyglot.PolyglotException: SyntaxError: Invalid JSON: <json>:1:1 Expected json literal but found o\n[object Object]\n ^\n- <js>.:program(Unnamed:1)\n\nsrc\/test\/java\/test_ResIsReq.feature:9","millis":78.2838,"status":"failed"},"step":{"line":9,"prefix":"*","index":3,"text":"def response = JSON.parse(response)"},"stepLog":"20:44:59.865 src\/test\/java\/test_ResIsReq.feature:9\n* def response = JSON.parse(response)\njs failed:\n>>>>\n01: JSON.parse(response)\n<<<<\norg.graalvm.polyglot.PolyglotException: SyntaxError: Invalid JSON: <json>:1:1 Expected json literal but found o\n[object Object]\n ^\n- <js>.:program(Unnamed:1)\n\nsrc\/test\/java\/test_ResIsReq.feature:9\n"},{"result":{"nanos":0,"millis":0.0,"status":"skipped"},"step":{"line":10,"prefix":"And","index":4,"text":"match response contains {id: '1'}"}}],"line":5,"description":"","durationMillis":1284.3075,"failed":true,"error":"js failed:\n>>>>\n01: JSON.parse(response)\n<<<<\norg.graalvm.polyglot.PolyglotException: SyntaxError: Invalid JSON: <json>:1:1 Expected json literal but found o\n[object Object]\n ^\n- <js>.:program(Unnamed:1)\n\nsrc\/test\/java\/test_ResIsReq.feature:9","executorName":"main","name":"","startTime":1644522298572,"refId":"[1:5]","endTime":1644522299865,"exampleIndex":-1}],"callDepth":0,"name":"test request is response","description":"","resultDate":"2022-02-10 08:44:59 PM","durationMillis":1284.3075,"passedCount":0}