{"failedCount":2,"prefixedPath":"src\/test\/java\/test_ResIsReq.feature","packageQualifiedName":"src.test.java.test_ResIsReq","loopIndex":-1,"relativePath":"src\/test\/java\/test_ResIsReq.feature","scenarioResults":[{"sectionIndex":0,"stepResults":[{"result":{"nanos":52622200,"millis":52.6222,"status":"passed"},"step":{"background":true,"line":4,"prefix":"*","index":0,"text":"url 'https:\/\/reqres.in\/api'"}},{"result":{"nanos":439700,"millis":0.4397,"status":"passed"},"step":{"line":7,"prefix":"Given","index":0,"text":"path '\/users?page=2'"}},{"result":{"nanos":638311700,"millis":638.3117,"status":"passed"},"step":{"line":8,"prefix":"When","index":1,"text":"method GET"},"stepLog":"15:05:03.882 request:\n1 > GET https:\/\/reqres.in\/api\/users%3Fpage=2\n1 > Host: reqres.in\n1 > Connection: Keep-Alive\n1 > User-Agent: Apache-HttpClient\/4.5.13 (Java\/17.0.1)\n1 > Accept-Encoding: gzip,deflate\n\n\n15:05:04.294 response time in milliseconds: 411\n1 < 200\n1 < Date: Sun, 13 Feb 2022 14:05:01 GMT\n1 < Content-Type: application\/json; charset=utf-8\n1 < Transfer-Encoding: chunked\n1 < Connection: keep-alive\n1 < X-Powered-By: Express\n1 < Access-Control-Allow-Origin: *\n1 < Etag: W\/\"2c1-N6Rqerxquq2kgQhL51EiSg4x0R8\"\n1 < Via: 1.1 vegur\n1 < Cache-Control: max-age=14400\n1 < CF-Cache-Status: HIT\n1 < Age: 288\n1 < Expect-CT: max-age=604800, report-uri=\"https:\/\/report-uri.cloudflare.com\/cdn-cgi\/beacon\/expect-ct\"\n1 < Report-To: {\"endpoints\":[{\"url\":\"https:\\\/\\\/a.nel.cloudflare.com\\\/report\\\/v3?s=hIJQRkE95jcFGqEKavd4OifHEcTsLDBd1XznCx7D%2FfmMhrZhZAnogguqSs2te5Coo8AUoQ5VeLrsdxGGla66Fr5rOdHCyR%2BOHg1LHcvjGuuqM5Xd7Qj0ENHz%2BP4%3D\"}],\"group\":\"cf-nel\",\"max_age\":604800}\n1 < NEL: {\"success_fraction\":0,\"report_to\":\"cf-nel\",\"max_age\":604800}\n1 < Vary: Accept-Encoding\n1 < Server: cloudflare\n1 < CF-RAY: 6dce9bf3dd8a83c6-BRU\n1 < alt-svc: h3=\":443\"; ma=86400, h3-29=\":443\"; ma=86400\n{\"page\":1,\"per_page\":6,\"total\":12,\"total_pages\":2,\"data\":[{\"id\":1,\"name\":\"cerulean\",\"year\":2000,\"color\":\"#98B2D1\",\"pantone_value\":\"15-4020\"},{\"id\":2,\"name\":\"fuchsia rose\",\"year\":2001,\"color\":\"#C74375\",\"pantone_value\":\"17-2031\"},{\"id\":3,\"name\":\"true red\",\"year\":2002,\"color\":\"#BF1932\",\"pantone_value\":\"19-1664\"},{\"id\":4,\"name\":\"aqua sky\",\"year\":2003,\"color\":\"#7BC4C4\",\"pantone_value\":\"14-4811\"},{\"id\":5,\"name\":\"tigerlily\",\"year\":2004,\"color\":\"#E2583E\",\"pantone_value\":\"17-1456\"},{\"id\":6,\"name\":\"blue turquoise\",\"year\":2005,\"color\":\"#53B0AE\",\"pantone_value\":\"15-5217\"}],\"support\":{\"url\":\"https:\/\/reqres.in\/#support-heading\",\"text\":\"To keep ReqRes free, contributions towards server costs are appreciated!\"}}\n"},{"result":{"nanos":16500,"millis":0.0165,"status":"passed"},"step":{"line":9,"prefix":"Then","index":2,"text":"status 200"}},{"result":{"nanos":20727700,"millis":20.7277,"status":"passed"},"step":{"line":10,"prefix":"And","index":3,"text":"def uResponse = response"}},{"result":{"nanos":44744500,"millis":44.7445,"status":"passed"},"step":{"line":11,"prefix":"And","index":4,"text":"print uResponse"},"stepLog":"15:05:04.379 [print] {\n  \"page\": 1,\n  \"per_page\": 6,\n  \"total\": 12,\n  \"total_pages\": 2,\n  \"data\": [\n    {\n      \"id\": 1,\n      \"name\": \"cerulean\",\n      \"year\": 2000,\n      \"color\": \"#98B2D1\",\n      \"pantone_value\": \"15-4020\"\n    },\n    {\n      \"id\": 2,\n      \"name\": \"fuchsia rose\",\n      \"year\": 2001,\n      \"color\": \"#C74375\",\n      \"pantone_value\": \"17-2031\"\n    },\n    {\n      \"id\": 3,\n      \"name\": \"true red\",\n      \"year\": 2002,\n      \"color\": \"#BF1932\",\n      \"pantone_value\": \"19-1664\"\n    },\n    {\n      \"id\": 4,\n      \"name\": \"aqua sky\",\n      \"year\": 2003,\n      \"color\": \"#7BC4C4\",\n      \"pantone_value\": \"14-4811\"\n    },\n    {\n      \"id\": 5,\n      \"name\": \"tigerlily\",\n      \"year\": 2004,\n      \"color\": \"#E2583E\",\n      \"pantone_value\": \"17-1456\"\n    },\n    {\n      \"id\": 6,\n      \"name\": \"blue turquoise\",\n      \"year\": 2005,\n      \"color\": \"#53B0AE\",\n      \"pantone_value\": \"15-5217\"\n    }\n  ],\n  \"support\": {\n    \"url\": \"https:\/\/reqres.in\/#support-heading\",\n    \"text\": \"To keep ReqRes free, contributions towards server costs are appreciated!\"\n  }\n}\n \n"},{"result":{"nanos":17876300,"millis":17.8763,"status":"passed"},"step":{"line":12,"prefix":"Then","index":5,"text":"match uResponse.data[*].name contains  ['cerulean']"}},{"result":{"nanos":2300000,"millis":2.3,"status":"passed"},"step":{"line":13,"prefix":"Then","index":6,"text":"def rec = uResponse.data.name = 'cerulean'"}}],"executorName":"main","line":6,"name":"get if cerulean exist","description":"","durationMillis":777.0386,"startTime":1644761103616,"failed":false,"refId":"[1:6]","endTime":1644761104401,"exampleIndex":-1},{"sectionIndex":1,"stepResults":[{"result":{"nanos":346600,"millis":0.3466,"status":"passed"},"step":{"background":true,"line":4,"prefix":"*","index":0,"text":"url 'https:\/\/reqres.in\/api'"}},{"result":{"nanos":187800,"millis":0.1878,"status":"passed"},"step":{"line":16,"prefix":"Given","index":0,"text":"path '\/users\/2'"}},{"result":{"nanos":353494600,"millis":353.4946,"status":"passed"},"step":{"line":17,"prefix":"When","index":1,"text":"method GET"},"stepLog":"15:05:04.407 request:\n1 > GET https:\/\/reqres.in\/api\/users\/2\n1 > Host: reqres.in\n1 > Connection: Keep-Alive\n1 > User-Agent: Apache-HttpClient\/4.5.13 (Java\/17.0.1)\n1 > Accept-Encoding: gzip,deflate\n\n\n15:05:04.759 response time in milliseconds: 352\n1 < 200\n1 < Date: Sun, 13 Feb 2022 14:05:01 GMT\n1 < Content-Type: application\/json; charset=utf-8\n1 < Transfer-Encoding: chunked\n1 < Connection: keep-alive\n1 < X-Powered-By: Express\n1 < Access-Control-Allow-Origin: *\n1 < Etag: W\/\"118-pbdwwFo9SKNhD3Lx5iHJyngpq00\"\n1 < Via: 1.1 vegur\n1 < Cache-Control: max-age=14400\n1 < CF-Cache-Status: HIT\n1 < Age: 7090\n1 < Expect-CT: max-age=604800, report-uri=\"https:\/\/report-uri.cloudflare.com\/cdn-cgi\/beacon\/expect-ct\"\n1 < Report-To: {\"endpoints\":[{\"url\":\"https:\\\/\\\/a.nel.cloudflare.com\\\/report\\\/v3?s=zVqh9KJVLIVfR1j3H2OsM6J3kxpgyStdHRVM7JcG%2FOCfa%2F8tY%2BPFknNPYOw6RDn3djFEYH38%2BJsx60vn%2FI5DLRL%2FjnE05ZPkVMc2gQBxDnr4qlWsA%2BMmSKPbHzA%3D\"}],\"group\":\"cf-nel\",\"max_age\":604800}\n1 < NEL: {\"success_fraction\":0,\"report_to\":\"cf-nel\",\"max_age\":604800}\n1 < Vary: Accept-Encoding\n1 < Server: cloudflare\n1 < CF-RAY: 6dce9bf64854f969-BRU\n1 < alt-svc: h3=\":443\"; ma=86400, h3-29=\":443\"; ma=86400\n{\"data\":{\"id\":2,\"email\":\"janet.weaver@reqres.in\",\"first_name\":\"Janet\",\"last_name\":\"Weaver\",\"avatar\":\"https:\/\/reqres.in\/img\/faces\/2-image.jpg\"},\"support\":{\"url\":\"https:\/\/reqres.in\/#support-heading\",\"text\":\"To keep ReqRes free, contributions towards server costs are appreciated!\"}}\n"},{"result":{"nanos":8300,"millis":0.0083,"status":"passed"},"step":{"line":18,"prefix":"Then","index":2,"text":"status 200"}},{"result":{"nanos":241900,"millis":0.2419,"status":"passed"},"step":{"line":19,"prefix":"And","index":3,"text":"def u1Response = response"}},{"result":{"nanos":865700,"millis":0.8657,"status":"passed"},"step":{"line":20,"prefix":"And","index":4,"text":"print u1Response"},"stepLog":"15:05:04.761 [print] {\n  \"data\": {\n    \"id\": 2,\n    \"email\": \"janet.weaver@reqres.in\",\n    \"first_name\": \"Janet\",\n    \"last_name\": \"Weaver\",\n    \"avatar\": \"https:\/\/reqres.in\/img\/faces\/2-image.jpg\"\n  },\n  \"support\": {\n    \"url\": \"https:\/\/reqres.in\/#support-heading\",\n    \"text\": \"To keep ReqRes free, contributions towards server costs are appreciated!\"\n  }\n}\n \n"},{"result":{"nanos":1051400,"errorMessage":"match failed: CONTAINS\n  $ | actual does not contain expected | actual array length is less than expected - 0:1 (LIST:LIST)\n  []\n  [\"cerulean\"]\n\n\nsrc\/test\/java\/test_ResIsReq.feature:21","millis":1.0514,"status":"failed"},"step":{"line":21,"prefix":"Then","index":5,"text":"match u1Response.data[*].name contains  ['cerulean']"},"stepLog":"15:05:04.762 src\/test\/java\/test_ResIsReq.feature:21\nThen match u1Response.data[*].name contains  ['cerulean']\nmatch failed: CONTAINS\n  $ | actual does not contain expected | actual array length is less than expected - 0:1 (LIST:LIST)\n  []\n  [\"cerulean\"]\n\n\nsrc\/test\/java\/test_ResIsReq.feature:21\n"}],"line":15,"description":"","durationMillis":356.1963,"failed":true,"error":"match failed: CONTAINS\n  $ | actual does not contain expected | actual array length is less than expected - 0:1 (LIST:LIST)\n  []\n  [\"cerulean\"]\n\n\nsrc\/test\/java\/test_ResIsReq.feature:21","executorName":"main","name":"","startTime":1644761104405,"refId":"[2:15]","endTime":1644761104762,"exampleIndex":-1},{"sectionIndex":2,"stepResults":[{"result":{"nanos":358800,"millis":0.3588,"status":"passed"},"step":{"background":true,"line":4,"prefix":"*","index":0,"text":"url 'https:\/\/reqres.in\/api'"}},{"result":{"nanos":497800,"millis":0.4978,"status":"passed"},"step":{"line":24,"prefix":"Given","index":0,"text":"path '\/users?page=2'"}},{"result":{"nanos":271753100,"millis":271.7531,"status":"passed"},"step":{"line":25,"prefix":"When","index":1,"text":"method GET"},"stepLog":"15:05:04.767 request:\n1 > GET https:\/\/reqres.in\/api\/users%3Fpage=2\n1 > Host: reqres.in\n1 > Connection: Keep-Alive\n1 > User-Agent: Apache-HttpClient\/4.5.13 (Java\/17.0.1)\n1 > Accept-Encoding: gzip,deflate\n\n\n15:05:05.038 response time in milliseconds: 271\n1 < 200\n1 < Date: Sun, 13 Feb 2022 14:05:02 GMT\n1 < Content-Type: application\/json; charset=utf-8\n1 < Transfer-Encoding: chunked\n1 < Connection: keep-alive\n1 < X-Powered-By: Express\n1 < Access-Control-Allow-Origin: *\n1 < Etag: W\/\"2c1-N6Rqerxquq2kgQhL51EiSg4x0R8\"\n1 < Via: 1.1 vegur\n1 < Cache-Control: max-age=14400\n1 < CF-Cache-Status: HIT\n1 < Age: 289\n1 < Expect-CT: max-age=604800, report-uri=\"https:\/\/report-uri.cloudflare.com\/cdn-cgi\/beacon\/expect-ct\"\n1 < Report-To: {\"endpoints\":[{\"url\":\"https:\\\/\\\/a.nel.cloudflare.com\\\/report\\\/v3?s=lVjbMCR5OXKPOMkXtOOM8Ykkj7bmfOdzYgqHm8OrsKdBUuBn6UKKQmTFyumvrbh01FB%2FUr%2BnQiS%2FyjSOLn1PKc%2F9mrHjb3bGpC8T%2Btaby1PFx%2FH9bWndfiDmxfU%3D\"}],\"group\":\"cf-nel\",\"max_age\":604800}\n1 < NEL: {\"success_fraction\":0,\"report_to\":\"cf-nel\",\"max_age\":604800}\n1 < Vary: Accept-Encoding\n1 < Server: cloudflare\n1 < CF-RAY: 6dce9bf83f6c2e4a-BRU\n1 < alt-svc: h3=\":443\"; ma=86400, h3-29=\":443\"; ma=86400\n{\"page\":1,\"per_page\":6,\"total\":12,\"total_pages\":2,\"data\":[{\"id\":1,\"name\":\"cerulean\",\"year\":2000,\"color\":\"#98B2D1\",\"pantone_value\":\"15-4020\"},{\"id\":2,\"name\":\"fuchsia rose\",\"year\":2001,\"color\":\"#C74375\",\"pantone_value\":\"17-2031\"},{\"id\":3,\"name\":\"true red\",\"year\":2002,\"color\":\"#BF1932\",\"pantone_value\":\"19-1664\"},{\"id\":4,\"name\":\"aqua sky\",\"year\":2003,\"color\":\"#7BC4C4\",\"pantone_value\":\"14-4811\"},{\"id\":5,\"name\":\"tigerlily\",\"year\":2004,\"color\":\"#E2583E\",\"pantone_value\":\"17-1456\"},{\"id\":6,\"name\":\"blue turquoise\",\"year\":2005,\"color\":\"#53B0AE\",\"pantone_value\":\"15-5217\"}],\"support\":{\"url\":\"https:\/\/reqres.in\/#support-heading\",\"text\":\"To keep ReqRes free, contributions towards server costs are appreciated!\"}}\n"},{"result":{"nanos":7000,"millis":0.007,"status":"passed"},"step":{"line":26,"prefix":"Then","index":2,"text":"status 200"}},{"result":{"nanos":271500,"millis":0.2715,"status":"passed"},"step":{"comments":["# * def name = 'cerulean'","# * def response = response.data","#* def names = $[*].name","#* def index = names.indexOf(name)"],"line":31,"prefix":"*","index":3,"text":"def indexes = []"}},{"result":{"nanos":9722200,"millis":9.7222,"status":"passed"},"step":{"line":32,"prefix":"*","index":4,"text":"def fun = function(x, i){ if (x.name == 'cerulean') karate.appendTo(indexes, i) }"}},{"result":{"nanos":12823200,"errorMessage":"js failed:\n>>>>\n01: karate.forEach(response.items, fun)\n<<<<\norg.graalvm.polyglot.PolyglotException: not an array or object: undefined\n- com.intuit.karate.core.ScenarioBridge.forEach(ScenarioBridge.java:427)\n- <js>.:program(Unnamed:1)\n\nsrc\/test\/java\/test_ResIsReq.feature:33","millis":12.8232,"status":"failed"},"step":{"line":33,"prefix":"*","index":5,"text":"karate.forEach(response.items, fun)"},"stepLog":"15:05:05.062 src\/test\/java\/test_ResIsReq.feature:33\n* karate.forEach(response.items, fun)\njs failed:\n>>>>\n01: karate.forEach(response.items, fun)\n<<<<\norg.graalvm.polyglot.PolyglotException: not an array or object: undefined\n- com.intuit.karate.core.ScenarioBridge.forEach(ScenarioBridge.java:427)\n- <js>.:program(Unnamed:1)\n\nsrc\/test\/java\/test_ResIsReq.feature:33\n"}],"line":23,"description":"","durationMillis":295.4336,"failed":true,"error":"js failed:\n>>>>\n01: karate.forEach(response.items, fun)\n<<<<\norg.graalvm.polyglot.PolyglotException: not an array or object: undefined\n- com.intuit.karate.core.ScenarioBridge.forEach(ScenarioBridge.java:427)\n- <js>.:program(Unnamed:1)\n\nsrc\/test\/java\/test_ResIsReq.feature:33","executorName":"main","name":"get index cerulean","startTime":1644761104765,"refId":"[3:23]","endTime":1644761105062,"exampleIndex":-1}],"callDepth":0,"name":"test request is response","description":"","resultDate":"2022-02-13 03:05:05 PM","durationMillis":1428.6685,"passedCount":1}