{"failedCount":0,"prefixedPath":"classpath:TestFeatures\/Week1\/testapi.feature","packageQualifiedName":"TestFeatures.Week1.testapi","loopIndex":-1,"relativePath":"TestFeatures\/Week1\/testapi.feature","scenarioResults":[{"sectionIndex":0,"stepResults":[{"result":{"nanos":1395800,"millis":1.3958,"status":"passed"},"step":{"background":true,"line":4,"prefix":"*","index":0,"text":"url 'https:\/\/reqres.in\/api'"},"stepLog":"17:38:52.738 \n"},{"result":{"nanos":48537100,"millis":48.5371,"status":"passed"},"step":{"background":true,"line":5,"prefix":"*","index":1,"text":"def output = read('classpath:\/TestData\/response1.json')"}},{"result":{"nanos":4785500,"millis":4.7855,"status":"passed"},"step":{"background":true,"line":6,"prefix":"*","index":2,"text":"def request1 = read('classpath:\/TestData\/request1.json')"}},{"result":{"nanos":419800,"millis":0.4198,"status":"passed"},"step":{"line":9,"prefix":"Given","index":0,"text":"path '\/users?page=2'"}},{"result":{"nanos":4491849300,"millis":4491.8493,"status":"passed"},"step":{"line":10,"prefix":"When","index":1,"text":"method GET"},"stepLog":"17:38:53.013 request:\n1 > GET https:\/\/reqres.in\/api\/users%3Fpage=2\n1 > Host: reqres.in\n1 > Connection: Keep-Alive\n1 > User-Agent: Apache-HttpClient\/4.5.13 (Java\/17.0.1)\n1 > Accept-Encoding: gzip,deflate\n\n\n17:38:57.308 response time in milliseconds: 4293\n1 < 200\n1 < Date: Sun, 20 Feb 2022 16:38:47 GMT\n1 < Content-Type: application\/json; charset=utf-8\n1 < Transfer-Encoding: chunked\n1 < Connection: keep-alive\n1 < X-Powered-By: Express\n1 < Access-Control-Allow-Origin: *\n1 < Etag: W\/\"2c1-N6Rqerxquq2kgQhL51EiSg4x0R8\"\n1 < Via: 1.1 vegur\n1 < Cache-Control: max-age=14400\n1 < CF-Cache-Status: HIT\n1 < Age: 4362\n1 < Expect-CT: max-age=604800, report-uri=\"https:\/\/report-uri.cloudflare.com\/cdn-cgi\/beacon\/expect-ct\"\n1 < Report-To: {\"endpoints\":[{\"url\":\"https:\\\/\\\/a.nel.cloudflare.com\\\/report\\\/v3?s=bhT%2B5QtPixEtBq37DVM2qB3EC20sSdjRLR1YtJgTHhq6n4P5ndl2%2Bo4uFfJXiu%2FSjQ%2F%2BBv%2BzpySVJVSsFkkPzBoTPoTKWoFHDWhf667VvAPmpFvJ6PL%2FG4ZN7FE%3D\"}],\"group\":\"cf-nel\",\"max_age\":604800}\n1 < NEL: {\"success_fraction\":0,\"report_to\":\"cf-nel\",\"max_age\":604800}\n1 < Vary: Accept-Encoding\n1 < Server: cloudflare\n1 < CF-RAY: 6e092ad45b9673bb-MRS\n1 < alt-svc: h3=\":443\"; ma=86400, h3-29=\":443\"; ma=86400\n{\"page\":1,\"per_page\":6,\"total\":12,\"total_pages\":2,\"data\":[{\"id\":1,\"name\":\"cerulean\",\"year\":2000,\"color\":\"#98B2D1\",\"pantone_value\":\"15-4020\"},{\"id\":2,\"name\":\"fuchsia rose\",\"year\":2001,\"color\":\"#C74375\",\"pantone_value\":\"17-2031\"},{\"id\":3,\"name\":\"true red\",\"year\":2002,\"color\":\"#BF1932\",\"pantone_value\":\"19-1664\"},{\"id\":4,\"name\":\"aqua sky\",\"year\":2003,\"color\":\"#7BC4C4\",\"pantone_value\":\"14-4811\"},{\"id\":5,\"name\":\"tigerlily\",\"year\":2004,\"color\":\"#E2583E\",\"pantone_value\":\"17-1456\"},{\"id\":6,\"name\":\"blue turquoise\",\"year\":2005,\"color\":\"#53B0AE\",\"pantone_value\":\"15-5217\"}],\"support\":{\"url\":\"https:\/\/reqres.in\/#support-heading\",\"text\":\"To keep ReqRes free, contributions towards server costs are appreciated!\"}}\n"},{"result":{"nanos":16200,"millis":0.0162,"status":"passed"},"step":{"line":11,"prefix":"Then","index":2,"text":"status 200"}},{"result":{"nanos":1322000,"millis":1.322,"status":"passed"},"step":{"line":12,"prefix":"And","index":3,"text":"assert response.data.length == 6"}},{"result":{"nanos":2593900,"millis":2.5939,"status":"passed"},"step":{"line":13,"prefix":"And","index":4,"text":"print response.data[1].id"},"stepLog":"17:38:57.314 [print] 2 \n"},{"result":{"nanos":6696100,"millis":6.6961,"status":"passed"},"step":{"line":14,"prefix":"And","index":5,"text":"match $.data[0].id == 1"}},{"result":{"nanos":891800,"millis":0.8918,"status":"passed"},"step":{"line":15,"prefix":"And","index":6,"text":"print response.data[0].year"},"stepLog":"17:38:57.322 [print] 2000 \n"},{"result":{"nanos":600100,"millis":0.6001,"status":"passed"},"step":{"line":16,"prefix":"And","index":7,"text":"match $.data[0].year == 2000"}}],"executorName":"main","line":8,"name":"test API get 1","description":"","durationMillis":4559.1076,"startTime":1645375132619,"failed":false,"refId":"[1:8]","endTime":1645375137323,"exampleIndex":-1},{"sectionIndex":1,"stepResults":[{"result":{"nanos":283100,"millis":0.2831,"status":"passed"},"step":{"background":true,"line":4,"prefix":"*","index":0,"text":"url 'https:\/\/reqres.in\/api'"},"stepLog":"17:38:57.330 \n"},{"result":{"nanos":11516800,"millis":11.5168,"status":"passed"},"step":{"background":true,"line":5,"prefix":"*","index":1,"text":"def output = read('classpath:\/TestData\/response1.json')"}},{"result":{"nanos":2063700,"millis":2.0637,"status":"passed"},"step":{"background":true,"line":6,"prefix":"*","index":2,"text":"def request1 = read('classpath:\/TestData\/request1.json')"}},{"result":{"nanos":640600,"millis":0.6406,"status":"passed"},"step":{"line":19,"prefix":"Given","index":0,"text":"path '\/users'"}},{"result":{"nanos":368800,"millis":0.3688,"status":"passed"},"step":{"line":20,"prefix":"And","index":1,"text":"request {\"name\": \"Mouad\" , \"job\": \"tester\" , \"age\": 25}"}},{"result":{"nanos":458017100,"millis":458.0171,"status":"passed"},"step":{"line":21,"prefix":"When","index":2,"text":"method POST"},"stepLog":"17:38:57.384 request:\n1 > POST https:\/\/reqres.in\/api\/users\n1 > Content-Type: application\/json; charset=UTF-8\n1 > Content-Length: 40\n1 > Host: reqres.in\n1 > Connection: Keep-Alive\n1 > User-Agent: Apache-HttpClient\/4.5.13 (Java\/17.0.1)\n1 > Accept-Encoding: gzip,deflate\n{\"name\":\"Mouad\",\"job\":\"tester\",\"age\":25}\n\n17:38:57.803 response time in milliseconds: 419\n1 < 201\n1 < Date: Sun, 20 Feb 2022 16:38:49 GMT\n1 < Content-Type: application\/json; charset=utf-8\n1 < Content-Length: 90\n1 < Connection: keep-alive\n1 < X-Powered-By: Express\n1 < Access-Control-Allow-Origin: *\n1 < Etag: W\/\"5a-jMDcbq5R1kvgHJX6VeLEoUnupxs\"\n1 < Via: 1.1 vegur\n1 < CF-Cache-Status: DYNAMIC\n1 < Expect-CT: max-age=604800, report-uri=\"https:\/\/report-uri.cloudflare.com\/cdn-cgi\/beacon\/expect-ct\"\n1 < Report-To: {\"endpoints\":[{\"url\":\"https:\\\/\\\/a.nel.cloudflare.com\\\/report\\\/v3?s=gZajqfhQZ8bnkacAHbO8LcoGROn8WkzqFBL8gJ7IzphHvWJ3FxfNQqyqQpqZZ53BLUIIvSbxUFnOzQGXmwBYQyUjH67hwD2TmkTlB%2BIA3Sr8%2FBQ2jKx%2BkSiaK7I%3D\"}],\"group\":\"cf-nel\",\"max_age\":604800}\n1 < NEL: {\"success_fraction\":0,\"report_to\":\"cf-nel\",\"max_age\":604800}\n1 < Server: cloudflare\n1 < CF-RAY: 6e092ae14eba73ab-MRS\n1 < alt-svc: h3=\":443\"; ma=86400, h3-29=\":443\"; ma=86400\n{\"name\":\"Mouad\",\"job\":\"tester\",\"age\":25,\"id\":\"366\",\"createdAt\":\"2022-02-20T16:38:49.865Z\"}\n"},{"result":{"nanos":6100,"millis":0.0061,"status":"passed"},"step":{"line":22,"prefix":"Then","index":3,"text":"status 201"}},{"result":{"nanos":465400,"millis":0.4654,"status":"passed"},"step":{"line":23,"prefix":"And","index":4,"text":"match response == {\"name\":\"Mouad\",\"job\":\"tester\",\"age\":25,\"id\":\"#string\",\"createdAt\":\"#ignore\"}"}},{"result":{"nanos":1045000,"millis":1.045,"status":"passed"},"step":{"line":24,"prefix":"And","index":5,"text":"print response"},"stepLog":"17:38:57.806 [print] {\n  \"name\": \"Mouad\",\n  \"job\": \"tester\",\n  \"age\": 25,\n  \"id\": \"366\",\n  \"createdAt\": \"2022-02-20T16:38:49.865Z\"\n}\n \n"}],"executorName":"main","line":18,"name":"test API post 2","description":"","durationMillis":474.4066,"startTime":1645375137328,"failed":false,"refId":"[2:18]","endTime":1645375137806,"exampleIndex":-1},{"sectionIndex":2,"stepResults":[{"result":{"nanos":149600,"millis":0.1496,"status":"passed"},"step":{"background":true,"line":4,"prefix":"*","index":0,"text":"url 'https:\/\/reqres.in\/api'"},"stepLog":"17:38:57.810 \n"},{"result":{"nanos":1125700,"millis":1.1257,"status":"passed"},"step":{"background":true,"line":5,"prefix":"*","index":1,"text":"def output = read('classpath:\/TestData\/response1.json')"}},{"result":{"nanos":855500,"millis":0.8555,"status":"passed"},"step":{"background":true,"line":6,"prefix":"*","index":2,"text":"def request1 = read('classpath:\/TestData\/request1.json')"}},{"result":{"nanos":82500,"millis":0.0825,"status":"passed"},"step":{"line":27,"prefix":"Given","index":0,"text":"path '\/users'"}},{"result":{"nanos":113000,"millis":0.113,"status":"passed"},"step":{"line":28,"prefix":"And","index":1,"text":"request {\"name\": \"Mouad\" , \"job\": \"tester\" }"}},{"result":{"nanos":657953700,"millis":657.9537,"status":"passed"},"step":{"line":29,"prefix":"When","index":2,"text":"method POST"},"stepLog":"17:38:57.813 request:\n1 > POST https:\/\/reqres.in\/api\/users\n1 > Content-Type: application\/json; charset=UTF-8\n1 > Content-Length: 31\n1 > Host: reqres.in\n1 > Connection: Keep-Alive\n1 > User-Agent: Apache-HttpClient\/4.5.13 (Java\/17.0.1)\n1 > Accept-Encoding: gzip,deflate\n{\"name\":\"Mouad\",\"job\":\"tester\"}\n\n17:38:58.470 response time in milliseconds: 657\n1 < 201\n1 < Date: Sun, 20 Feb 2022 16:38:50 GMT\n1 < Content-Type: application\/json; charset=utf-8\n1 < Content-Length: 81\n1 < Connection: keep-alive\n1 < X-Powered-By: Express\n1 < Access-Control-Allow-Origin: *\n1 < Etag: W\/\"51-FBDcNKgRZylu9qkaBXkgy8uAgS0\"\n1 < Via: 1.1 vegur\n1 < CF-Cache-Status: DYNAMIC\n1 < Expect-CT: max-age=604800, report-uri=\"https:\/\/report-uri.cloudflare.com\/cdn-cgi\/beacon\/expect-ct\"\n1 < Report-To: {\"endpoints\":[{\"url\":\"https:\\\/\\\/a.nel.cloudflare.com\\\/report\\\/v3?s=NntVQ2e2W44cnkigm1RdsXPbuXQvYP5KB5iBbNLlS1%2B8TZA1v0wo52uvwW%2F7q91sdrzr%2B%2BXremEYEozn1QwPbRXFMGVHkZmORofp7wmZE9wccEcPWo%2F3V4wMAWI%3D\"}],\"group\":\"cf-nel\",\"max_age\":604800}\n1 < NEL: {\"success_fraction\":0,\"report_to\":\"cf-nel\",\"max_age\":604800}\n1 < Server: cloudflare\n1 < CF-RAY: 6e092ae5ab3b73b3-MRS\n1 < alt-svc: h3=\":443\"; ma=86400, h3-29=\":443\"; ma=86400\n{\"name\":\"Mouad\",\"job\":\"tester\",\"id\":\"485\",\"createdAt\":\"2022-02-20T16:38:50.562Z\"}\n"},{"result":{"nanos":5700,"millis":0.0057,"status":"passed"},"step":{"line":30,"prefix":"Then","index":3,"text":"status 201"}},{"result":{"nanos":419100,"millis":0.4191,"status":"passed"},"step":{"line":31,"prefix":"And","index":4,"text":"match response == output"}},{"result":{"nanos":377700,"millis":0.3777,"status":"passed"},"step":{"line":32,"prefix":"And","index":5,"text":"print response"},"stepLog":"17:38:58.472 [print] {\n  \"name\": \"Mouad\",\n  \"job\": \"tester\",\n  \"id\": \"485\",\n  \"createdAt\": \"2022-02-20T16:38:50.562Z\"\n}\n \n"}],"executorName":"main","line":26,"name":"test API post 3","description":"","durationMillis":661.0825,"startTime":1645375137809,"failed":false,"refId":"[3:26]","endTime":1645375138472,"exampleIndex":-1},{"sectionIndex":3,"stepResults":[{"result":{"nanos":135300,"millis":0.1353,"status":"passed"},"step":{"background":true,"line":4,"prefix":"*","index":0,"text":"url 'https:\/\/reqres.in\/api'"},"stepLog":"17:38:58.475 \n"},{"result":{"nanos":1016000,"millis":1.016,"status":"passed"},"step":{"background":true,"line":5,"prefix":"*","index":1,"text":"def output = read('classpath:\/TestData\/response1.json')"}},{"result":{"nanos":832400,"millis":0.8324,"status":"passed"},"step":{"background":true,"line":6,"prefix":"*","index":2,"text":"def request1 = read('classpath:\/TestData\/request1.json')"}},{"result":{"nanos":76800,"millis":0.0768,"status":"passed"},"step":{"line":35,"prefix":"Given","index":0,"text":"path '\/users'"}},{"result":{"nanos":490300,"millis":0.4903,"status":"passed"},"step":{"line":36,"prefix":"And","index":1,"text":"request request1"}},{"result":{"nanos":425081300,"millis":425.0813,"status":"passed"},"step":{"line":37,"prefix":"When","index":2,"text":"method POST"},"stepLog":"17:38:58.479 request:\n1 > POST https:\/\/reqres.in\/api\/users\n1 > Content-Type: application\/json; charset=UTF-8\n1 > Content-Length: 31\n1 > Host: reqres.in\n1 > Connection: Keep-Alive\n1 > User-Agent: Apache-HttpClient\/4.5.13 (Java\/17.0.1)\n1 > Accept-Encoding: gzip,deflate\n{\"name\":\"Mouad\",\"job\":\"tester\"}\n\n17:38:58.902 response time in milliseconds: 423\n1 < 201\n1 < Date: Sun, 20 Feb 2022 16:38:51 GMT\n1 < Content-Type: application\/json; charset=utf-8\n1 < Content-Length: 81\n1 < Connection: keep-alive\n1 < X-Powered-By: Express\n1 < Access-Control-Allow-Origin: *\n1 < Etag: W\/\"51-39fnX2peLt\/a2WAlVDzZ8NfiFTE\"\n1 < Via: 1.1 vegur\n1 < CF-Cache-Status: DYNAMIC\n1 < Expect-CT: max-age=604800, report-uri=\"https:\/\/report-uri.cloudflare.com\/cdn-cgi\/beacon\/expect-ct\"\n1 < Report-To: {\"endpoints\":[{\"url\":\"https:\\\/\\\/a.nel.cloudflare.com\\\/report\\\/v3?s=04iMbX3N6MD55JDtOXIFpwyd6vOvF%2Fls%2Fx1XKJvd%2FQhevYFeZeoC%2BKTGSG4ASeNPdsiXEofJVThZ0%2BD6z89jqSZPycjHfgAUxDGdF%2FqAXWXKHjsU9jvFabsj7Xc%3D\"}],\"group\":\"cf-nel\",\"max_age\":604800}\n1 < NEL: {\"success_fraction\":0,\"report_to\":\"cf-nel\",\"max_age\":604800}\n1 < Server: cloudflare\n1 < CF-RAY: 6e092ae8485b41f7-MRS\n1 < alt-svc: h3=\":443\"; ma=86400, h3-29=\":443\"; ma=86400\n{\"name\":\"Mouad\",\"job\":\"tester\",\"id\":\"573\",\"createdAt\":\"2022-02-20T16:38:50.994Z\"}\n"},{"result":{"nanos":5500,"millis":0.0055,"status":"passed"},"step":{"line":38,"prefix":"Then","index":3,"text":"status 201"}},{"result":{"nanos":280000,"millis":0.28,"status":"passed"},"step":{"line":39,"prefix":"And","index":4,"text":"match response == output"}},{"result":{"nanos":333400,"millis":0.3334,"status":"passed"},"step":{"line":40,"prefix":"And","index":5,"text":"print response"},"stepLog":"17:38:58.904 [print] {\n  \"name\": \"Mouad\",\n  \"job\": \"tester\",\n  \"id\": \"573\",\n  \"createdAt\": \"2022-02-20T16:38:50.994Z\"\n}\n \n"}],"executorName":"main","line":34,"name":"test API post 3","description":"","durationMillis":428.251,"startTime":1645375138475,"failed":false,"refId":"[4:34]","endTime":1645375138904,"exampleIndex":-1}],"callDepth":0,"name":"test sample API","description":"","resultDate":"2022-02-20 05:38:58 PM","durationMillis":6122.8477,"passedCount":4}