{"failedCount":0,"prefixedPath":"classpath:TestFeatures\/week2\/verifiInCsv.feature","packageQualifiedName":"TestFeatures.week2.verifiInCsv","loopIndex":-1,"relativePath":"TestFeatures\/week2\/verifiInCsv.feature","scenarioResults":[{"sectionIndex":0,"stepResults":[{"result":{"nanos":5509400,"millis":5.5094,"status":"passed"},"step":{"comments":["#* url BaseURL"],"background":true,"line":5,"prefix":"*","index":0,"text":"def exp = read('classpath:\/TestData\/data.csv')"},"stepLog":"17:39:01.941 \n"},{"result":{"nanos":1475200,"millis":1.4752,"status":"passed"},"step":{"background":true,"line":6,"prefix":"*","index":1,"text":"def exp1 = read('classpath:\/TestData\/data1.csv')"}},{"result":{"nanos":202900,"millis":0.2029,"status":"passed"},"step":{"line":9,"prefix":"Given","index":0,"text":"url 'https:\/\/reqres.in\/api\/users?page=2'"}},{"result":{"nanos":1036055200,"millis":1036.0552,"status":"passed"},"step":{"comments":["# Given path '\/users?page=2'"],"line":11,"prefix":"When","index":1,"text":"method GET"},"stepLog":"17:39:01.949 request:\n1 > GET https:\/\/reqres.in\/api\/users?page=2\n1 > Host: reqres.in\n1 > Connection: Keep-Alive\n1 > User-Agent: Apache-HttpClient\/4.5.13 (Java\/17.0.1)\n1 > Accept-Encoding: gzip,deflate\n\n\n17:39:02.983 response time in milliseconds: 1034\n1 < 200\n1 < Date: Sun, 20 Feb 2022 16:38:54 GMT\n1 < Content-Type: application\/json; charset=utf-8\n1 < Transfer-Encoding: chunked\n1 < Connection: keep-alive\n1 < X-Powered-By: Express\n1 < Access-Control-Allow-Origin: *\n1 < Etag: W\/\"406-ut0vzoCuidvyMf8arZpMpJ6ZRDw\"\n1 < Via: 1.1 vegur\n1 < Cache-Control: max-age=14400\n1 < CF-Cache-Status: HIT\n1 < Age: 444\n1 < Expect-CT: max-age=604800, report-uri=\"https:\/\/report-uri.cloudflare.com\/cdn-cgi\/beacon\/expect-ct\"\n1 < Report-To: {\"endpoints\":[{\"url\":\"https:\\\/\\\/a.nel.cloudflare.com\\\/report\\\/v3?s=wiYLRP%2B75Uw5Eee8Yph%2BdfYKDFdJHcKFpontycdODmkeB351FWe7sGyiGoVM6bXKqx7KclDZG%2BVyvolw%2BXKUdYR3ao8Pp86CH9h4%2FyqVM5HGEJs13imUrHQxhX8%3D\"}],\"group\":\"cf-nel\",\"max_age\":604800}\n1 < NEL: {\"success_fraction\":0,\"report_to\":\"cf-nel\",\"max_age\":604800}\n1 < Vary: Accept-Encoding\n1 < Server: cloudflare\n1 < CF-RAY: 6e092afd3e6e0fd6-MRS\n1 < alt-svc: h3=\":443\"; ma=86400, h3-29=\":443\"; ma=86400\n{\"page\":2,\"per_page\":6,\"total\":12,\"total_pages\":2,\"data\":[{\"id\":7,\"email\":\"michael.lawson@reqres.in\",\"first_name\":\"Michael\",\"last_name\":\"Lawson\",\"avatar\":\"https:\/\/reqres.in\/img\/faces\/7-image.jpg\"},{\"id\":8,\"email\":\"lindsay.ferguson@reqres.in\",\"first_name\":\"Lindsay\",\"last_name\":\"Ferguson\",\"avatar\":\"https:\/\/reqres.in\/img\/faces\/8-image.jpg\"},{\"id\":9,\"email\":\"tobias.funke@reqres.in\",\"first_name\":\"Tobias\",\"last_name\":\"Funke\",\"avatar\":\"https:\/\/reqres.in\/img\/faces\/9-image.jpg\"},{\"id\":10,\"email\":\"byron.fields@reqres.in\",\"first_name\":\"Byron\",\"last_name\":\"Fields\",\"avatar\":\"https:\/\/reqres.in\/img\/faces\/10-image.jpg\"},{\"id\":11,\"email\":\"george.edwards@reqres.in\",\"first_name\":\"George\",\"last_name\":\"Edwards\",\"avatar\":\"https:\/\/reqres.in\/img\/faces\/11-image.jpg\"},{\"id\":12,\"email\":\"rachel.howell@reqres.in\",\"first_name\":\"Rachel\",\"last_name\":\"Howell\",\"avatar\":\"https:\/\/reqres.in\/img\/faces\/12-image.jpg\"}],\"support\":{\"url\":\"https:\/\/reqres.in\/#support-heading\",\"text\":\"To keep ReqRes free, contributions towards server costs are appreciated!\"}}\n"},{"result":{"nanos":10900,"millis":0.0109,"status":"passed"},"step":{"line":12,"prefix":"Then","index":2,"text":"status 200"}},{"result":{"nanos":4859900,"millis":4.8599,"status":"passed"},"step":{"comments":["#i used this fuction to convert string to number"],"line":14,"prefix":"*","index":3,"text":"def fun = function(x){ x.id = ~~x.id; return x }"}},{"result":{"nanos":7675600,"millis":7.6756,"status":"passed"},"step":{"line":15,"prefix":"*","index":4,"text":"def exp = karate.map(exp, fun)"}},{"result":{"nanos":258300,"millis":0.2583,"status":"passed"},"step":{"line":16,"prefix":"And","index":5,"text":"def acc = response"}},{"result":{"nanos":632000,"millis":0.632,"status":"passed"},"step":{"comments":["#i used deep to check 2 arrays"],"line":18,"prefix":"*","index":6,"text":"match acc.data[*] contains deep exp"}}],"executorName":"main","line":8,"name":"check if response contains csv values ids","description":"","durationMillis":1056.6794,"startTime":1645375141941,"failed":false,"refId":"[1:8]","endTime":1645375142998,"exampleIndex":-1},{"sectionIndex":1,"stepResults":[{"result":{"nanos":847400,"millis":0.8474,"status":"passed"},"step":{"comments":["#* url BaseURL"],"background":true,"line":5,"prefix":"*","index":0,"text":"def exp = read('classpath:\/TestData\/data.csv')"},"stepLog":"17:39:03.000 \n"},{"result":{"nanos":606900,"millis":0.6069,"status":"passed"},"step":{"background":true,"line":6,"prefix":"*","index":1,"text":"def exp1 = read('classpath:\/TestData\/data1.csv')"}},{"result":{"nanos":39500,"millis":0.0395,"status":"passed"},"step":{"line":21,"prefix":"Given","index":0,"text":"url 'https:\/\/reqres.in\/api\/users?page=2'"}},{"result":{"nanos":2254805500,"millis":2254.8055,"status":"passed"},"step":{"line":22,"prefix":"When","index":1,"text":"method GET"},"stepLog":"17:39:03.003 request:\n1 > GET https:\/\/reqres.in\/api\/users?page=2\n1 > Host: reqres.in\n1 > Connection: Keep-Alive\n1 > User-Agent: Apache-HttpClient\/4.5.13 (Java\/17.0.1)\n1 > Accept-Encoding: gzip,deflate\n\n\n17:39:05.255 response time in milliseconds: 2252\n1 < 200\n1 < Date: Sun, 20 Feb 2022 16:38:56 GMT\n1 < Content-Type: application\/json; charset=utf-8\n1 < Transfer-Encoding: chunked\n1 < Connection: keep-alive\n1 < X-Powered-By: Express\n1 < Access-Control-Allow-Origin: *\n1 < Etag: W\/\"406-ut0vzoCuidvyMf8arZpMpJ6ZRDw\"\n1 < Via: 1.1 vegur\n1 < Cache-Control: max-age=14400\n1 < CF-Cache-Status: HIT\n1 < Age: 446\n1 < Expect-CT: max-age=604800, report-uri=\"https:\/\/report-uri.cloudflare.com\/cdn-cgi\/beacon\/expect-ct\"\n1 < Report-To: {\"endpoints\":[{\"url\":\"https:\\\/\\\/a.nel.cloudflare.com\\\/report\\\/v3?s=vZ8iqzBcaNDqnGPwNbvB%2F7mAjp9cvX257mBYWOkaJSgZ3mwjd3klUGjuW4HmE55nXfv6QJxkPdbUiE36FjEupMKf3NrOrI1iUWVkITBG7k5%2BsANSskMwrN7JNKA%3D\"}],\"group\":\"cf-nel\",\"max_age\":604800}\n1 < NEL: {\"success_fraction\":0,\"report_to\":\"cf-nel\",\"max_age\":604800}\n1 < Vary: Accept-Encoding\n1 < Server: cloudflare\n1 < CF-RAY: 6e092b0a3e557393-MRS\n1 < alt-svc: h3=\":443\"; ma=86400, h3-29=\":443\"; ma=86400\n{\"page\":2,\"per_page\":6,\"total\":12,\"total_pages\":2,\"data\":[{\"id\":7,\"email\":\"michael.lawson@reqres.in\",\"first_name\":\"Michael\",\"last_name\":\"Lawson\",\"avatar\":\"https:\/\/reqres.in\/img\/faces\/7-image.jpg\"},{\"id\":8,\"email\":\"lindsay.ferguson@reqres.in\",\"first_name\":\"Lindsay\",\"last_name\":\"Ferguson\",\"avatar\":\"https:\/\/reqres.in\/img\/faces\/8-image.jpg\"},{\"id\":9,\"email\":\"tobias.funke@reqres.in\",\"first_name\":\"Tobias\",\"last_name\":\"Funke\",\"avatar\":\"https:\/\/reqres.in\/img\/faces\/9-image.jpg\"},{\"id\":10,\"email\":\"byron.fields@reqres.in\",\"first_name\":\"Byron\",\"last_name\":\"Fields\",\"avatar\":\"https:\/\/reqres.in\/img\/faces\/10-image.jpg\"},{\"id\":11,\"email\":\"george.edwards@reqres.in\",\"first_name\":\"George\",\"last_name\":\"Edwards\",\"avatar\":\"https:\/\/reqres.in\/img\/faces\/11-image.jpg\"},{\"id\":12,\"email\":\"rachel.howell@reqres.in\",\"first_name\":\"Rachel\",\"last_name\":\"Howell\",\"avatar\":\"https:\/\/reqres.in\/img\/faces\/12-image.jpg\"}],\"support\":{\"url\":\"https:\/\/reqres.in\/#support-heading\",\"text\":\"To keep ReqRes free, contributions towards server costs are appreciated!\"}}\n"},{"result":{"nanos":21500,"millis":0.0215,"status":"passed"},"step":{"line":23,"prefix":"Then","index":2,"text":"status 200"}},{"result":{"nanos":196000,"millis":0.196,"status":"passed"},"step":{"line":24,"prefix":"And","index":3,"text":"def acc = response"}},{"result":{"nanos":255800,"millis":0.2558,"status":"passed"},"step":{"line":25,"prefix":"*","index":4,"text":"match acc.data[*] contains deep exp1"}}],"executorName":"main","line":20,"name":"check if response contains csv values emails","description":"","durationMillis":2256.7726,"startTime":1645375143000,"failed":false,"refId":"[2:20]","endTime":1645375145258,"exampleIndex":-1}],"callDepth":0,"name":"verify if elements exists in csv file","description":"","resultDate":"2022-02-20 05:39:05 PM","durationMillis":3313.452,"passedCount":2}