{"failedCount":1,"prefixedPath":"src\/test\/java\/test_ResIsReq.feature","packageQualifiedName":"src.test.java.test_ResIsReq","loopIndex":-1,"relativePath":"src\/test\/java\/test_ResIsReq.feature","scenarioResults":[{"sectionIndex":0,"stepResults":[{"result":{"nanos":90726500,"millis":90.7265,"status":"passed"},"step":{"background":true,"line":4,"prefix":"*","index":0,"text":"url 'https:\/\/reqres.in\/api'"}},{"result":{"nanos":566900,"millis":0.5669,"status":"passed"},"step":{"line":6,"prefix":"Given","index":0,"text":"path '\/users?page=2'"}},{"result":{"nanos":1335335700,"millis":1335.3357,"status":"passed"},"step":{"line":7,"prefix":"When","index":1,"text":"method GET"},"stepLog":"00:36:45.721 request:\n1 > GET https:\/\/reqres.in\/api\/users%3Fpage=2\n1 > Host: reqres.in\n1 > Connection: Keep-Alive\n1 > User-Agent: Apache-HttpClient\/4.5.13 (Java\/17.0.1)\n1 > Accept-Encoding: gzip,deflate\n\n\n00:36:46.664 response time in milliseconds: 937\n1 < 200\n1 < Date: Sat, 12 Feb 2022 23:36:44 GMT\n1 < Content-Type: application\/json; charset=utf-8\n1 < Transfer-Encoding: chunked\n1 < Connection: keep-alive\n1 < X-Powered-By: Express\n1 < Access-Control-Allow-Origin: *\n1 < Etag: W\/\"2c1-N6Rqerxquq2kgQhL51EiSg4x0R8\"\n1 < Via: 1.1 vegur\n1 < Cache-Control: max-age=14400\n1 < CF-Cache-Status: MISS\n1 < Expect-CT: max-age=604800, report-uri=\"https:\/\/report-uri.cloudflare.com\/cdn-cgi\/beacon\/expect-ct\"\n1 < Report-To: {\"endpoints\":[{\"url\":\"https:\\\/\\\/a.nel.cloudflare.com\\\/report\\\/v3?s=PwTrgwBkvmjwHEfr2%2BO%2BEBE0nVT8KhtVnLm6tPl0gNAyxzJFTx8WsRIk%2F4g2N4gpZuVr7TRwoYKnPqJQk4q8Y3Jm%2FiC4abaFH2IV7%2FvLzd7JJ4LvXZ3LIBQNdgQ%3D\"}],\"group\":\"cf-nel\",\"max_age\":604800}\n1 < NEL: {\"success_fraction\":0,\"report_to\":\"cf-nel\",\"max_age\":604800}\n1 < Vary: Accept-Encoding\n1 < Server: cloudflare\n1 < CF-RAY: 6dc9a40b3e125fdd-MRS\n1 < alt-svc: h3=\":443\"; ma=86400, h3-29=\":443\"; ma=86400\n{\"page\":1,\"per_page\":6,\"total\":12,\"total_pages\":2,\"data\":[{\"id\":1,\"name\":\"cerulean\",\"year\":2000,\"color\":\"#98B2D1\",\"pantone_value\":\"15-4020\"},{\"id\":2,\"name\":\"fuchsia rose\",\"year\":2001,\"color\":\"#C74375\",\"pantone_value\":\"17-2031\"},{\"id\":3,\"name\":\"true red\",\"year\":2002,\"color\":\"#BF1932\",\"pantone_value\":\"19-1664\"},{\"id\":4,\"name\":\"aqua sky\",\"year\":2003,\"color\":\"#7BC4C4\",\"pantone_value\":\"14-4811\"},{\"id\":5,\"name\":\"tigerlily\",\"year\":2004,\"color\":\"#E2583E\",\"pantone_value\":\"17-1456\"},{\"id\":6,\"name\":\"blue turquoise\",\"year\":2005,\"color\":\"#53B0AE\",\"pantone_value\":\"15-5217\"}],\"support\":{\"url\":\"https:\/\/reqres.in\/#support-heading\",\"text\":\"To keep ReqRes free, contributions towards server costs are appreciated!\"}}\n"},{"result":{"nanos":49100,"millis":0.0491,"status":"passed"},"step":{"line":8,"prefix":"Then","index":2,"text":"status 200"}},{"result":{"nanos":62872900,"millis":62.8729,"status":"passed"},"step":{"comments":["# * def response = JSON.parse(response)","# And match response.id  == '#null'"],"line":11,"prefix":"And","index":3,"text":"def uResponse = response"}},{"result":{"nanos":31184600,"errorMessage":"match failed: CONTAINS\n  $ | actual path does not exist (STRING:LIST)\n  '#notpresent'\n  [\"1\"]\n\nsrc\/test\/java\/test_ResIsReq.feature:12","millis":31.1846,"status":"failed"},"step":{"line":12,"prefix":"Then","index":4,"text":"match uResponse.id contains  ['1']"},"stepLog":"00:36:46.840 src\/test\/java\/test_ResIsReq.feature:12\nThen match uResponse.id contains  ['1']\nmatch failed: CONTAINS\n  $ | actual path does not exist (STRING:LIST)\n  '#notpresent'\n  [\"1\"]\n\nsrc\/test\/java\/test_ResIsReq.feature:12\n"}],"line":5,"description":"","durationMillis":1520.7357,"failed":true,"error":"match failed: CONTAINS\n  $ | actual path does not exist (STRING:LIST)\n  '#notpresent'\n  [\"1\"]\n\nsrc\/test\/java\/test_ResIsReq.feature:12","executorName":"main","name":"","startTime":1644709005307,"refId":"[1:5]","endTime":1644709006840,"exampleIndex":-1}],"callDepth":0,"name":"test request is response","description":"","resultDate":"2022-02-13 12:36:46 AM","durationMillis":1520.7357,"passedCount":0}