{"failedCount":1,"prefixedPath":"src\/test\/java\/reusableFeatures\/getPerson.feature","packageQualifiedName":"src.test.java.reusableFeatures.getPerson","loopIndex":-1,"relativePath":"src\/test\/java\/reusableFeatures\/getPerson.feature","scenarioResults":[{"sectionIndex":0,"stepResults":[{"result":{"nanos":1129601,"millis":1.129601,"status":"passed"},"step":{"line":5,"prefix":"Given","index":0,"text":"url 'https:\/\/reqres.in\/api\/users?page=1'"},"stepLog":"00:44:16.756 \n"},{"result":{"nanos":1123953999,"millis":1123.953999,"status":"passed"},"step":{"line":6,"prefix":"When","index":1,"text":"method GET"},"stepLog":"00:44:17.086 request:\n1 > GET https:\/\/reqres.in\/api\/users?page=1\n1 > Host: reqres.in\n1 > Connection: Keep-Alive\n1 > User-Agent: Apache-HttpClient\/4.5.13 (Java\/17.0.1)\n1 > Accept-Encoding: gzip,deflate\n\n\n00:44:17.838 response time in milliseconds: 745\n1 < 200\n1 < Date: Sat, 19 Feb 2022 23:44:11 GMT\n1 < Content-Type: application\/json; charset=utf-8\n1 < Transfer-Encoding: chunked\n1 < Connection: keep-alive\n1 < X-Powered-By: Express\n1 < Access-Control-Allow-Origin: *\n1 < Etag: W\/\"3e4-2RLXvr5wTg9YQ6aH95CkYoFNuO8\"\n1 < Via: 1.1 vegur\n1 < Cache-Control: max-age=14400\n1 < CF-Cache-Status: HIT\n1 < Age: 1475\n1 < Expect-CT: max-age=604800, report-uri=\"https:\/\/report-uri.cloudflare.com\/cdn-cgi\/beacon\/expect-ct\"\n1 < Report-To: {\"endpoints\":[{\"url\":\"https:\\\/\\\/a.nel.cloudflare.com\\\/report\\\/v3?s=oA%2BteUgJw2R3dk2US%2F%2FVfs6aQJkpzhIs63zOwDtuxYlneQv%2B5XYz1h8CnF2oub4keEcMxDxPrXbda3p4yBzPDidPdsPAhNw3CyTAmBEr0UlVdjuYuLBY3MPLBNk%3D\"}],\"group\":\"cf-nel\",\"max_age\":604800}\n1 < NEL: {\"success_fraction\":0,\"report_to\":\"cf-nel\",\"max_age\":604800}\n1 < Vary: Accept-Encoding\n1 < Server: cloudflare\n1 < CF-RAY: 6e035c94baf873c7-MRS\n1 < alt-svc: h3=\":443\"; ma=86400, h3-29=\":443\"; ma=86400\n{\"page\":1,\"per_page\":6,\"total\":12,\"total_pages\":2,\"data\":[{\"id\":1,\"email\":\"george.bluth@reqres.in\",\"first_name\":\"George\",\"last_name\":\"Bluth\",\"avatar\":\"https:\/\/reqres.in\/img\/faces\/1-image.jpg\"},{\"id\":2,\"email\":\"janet.weaver@reqres.in\",\"first_name\":\"Janet\",\"last_name\":\"Weaver\",\"avatar\":\"https:\/\/reqres.in\/img\/faces\/2-image.jpg\"},{\"id\":3,\"email\":\"emma.wong@reqres.in\",\"first_name\":\"Emma\",\"last_name\":\"Wong\",\"avatar\":\"https:\/\/reqres.in\/img\/faces\/3-image.jpg\"},{\"id\":4,\"email\":\"eve.holt@reqres.in\",\"first_name\":\"Eve\",\"last_name\":\"Holt\",\"avatar\":\"https:\/\/reqres.in\/img\/faces\/4-image.jpg\"},{\"id\":5,\"email\":\"charles.morris@reqres.in\",\"first_name\":\"Charles\",\"last_name\":\"Morris\",\"avatar\":\"https:\/\/reqres.in\/img\/faces\/5-image.jpg\"},{\"id\":6,\"email\":\"tracey.ramos@reqres.in\",\"first_name\":\"Tracey\",\"last_name\":\"Ramos\",\"avatar\":\"https:\/\/reqres.in\/img\/faces\/6-image.jpg\"}],\"support\":{\"url\":\"https:\/\/reqres.in\/#support-heading\",\"text\":\"To keep ReqRes free, contributions towards server costs are appreciated!\"}}\n"},{"result":{"nanos":34500,"millis":0.0345,"status":"passed"},"step":{"line":7,"prefix":"Then","index":2,"text":"status 200"}},{"result":{"nanos":30069601,"errorMessage":"match failed: EQUALS\n  $ | not equal | match failed for name: 'first_name' (MAP:MAP)\n  {\"id\":1,\"email\":\"george.bluth@reqres.in\",\"first_name\":\"George\",\"last_name\":\"Bluth\",\"avatar\":\"https:\/\/reqres.in\/img\/faces\/1-image.jpg\"}\n  {\"id\":1,\"email\":\"#ignore\",\"first_name\":\"#String\",\"last_name\":\"#String\",\"avatar\":\"#String\"}\n\n\nsrc\/test\/java\/reusableFeatures\/getPerson.feature:8","millis":30.069601,"status":"failed"},"step":{"line":8,"prefix":"And","index":3,"text":"match response.data[0] == {id:1,email:'#ignore',first_name:'#String',last_name:'#String',avatar:'#String'}"},"stepLog":"00:44:17.941 src\/test\/java\/reusableFeatures\/getPerson.feature:8\nAnd match response.data[0] == {id:1,email:'#ignore',first_name:'#String',last_name:'#String',avatar:'#String'}\nmatch failed: EQUALS\n  $ | not equal | match failed for name: 'first_name' (MAP:MAP)\n  {\"id\":1,\"email\":\"george.bluth@reqres.in\",\"first_name\":\"George\",\"last_name\":\"Bluth\",\"avatar\":\"https:\/\/reqres.in\/img\/faces\/1-image.jpg\"}\n  {\"id\":1,\"email\":\"#ignore\",\"first_name\":\"#String\",\"last_name\":\"#String\",\"avatar\":\"#String\"}\n\n\nsrc\/test\/java\/reusableFeatures\/getPerson.feature:8\n"}],"line":4,"description":"","durationMillis":1155.187701,"failed":true,"error":"match failed: EQUALS\n  $ | not equal | match failed for name: 'first_name' (MAP:MAP)\n  {\"id\":1,\"email\":\"george.bluth@reqres.in\",\"first_name\":\"George\",\"last_name\":\"Bluth\",\"avatar\":\"https:\/\/reqres.in\/img\/faces\/1-image.jpg\"}\n  {\"id\":1,\"email\":\"#ignore\",\"first_name\":\"#String\",\"last_name\":\"#String\",\"avatar\":\"#String\"}\n\n\nsrc\/test\/java\/reusableFeatures\/getPerson.feature:8","executorName":"main","name":"get person <id>","startTime":1645314256603,"refId":"[1:4]","endTime":1645314257941,"exampleIndex":-1}],"callDepth":0,"name":"Get person from list","description":"","resultDate":"2022-02-20 12:44:17 AM","durationMillis":1155.187701,"passedCount":0}