{"failedCount":1,"prefixedPath":"src\/test\/java\/testapi.feature","packageQualifiedName":"src.test.java.testapi","loopIndex":-1,"relativePath":"src\/test\/java\/testapi.feature","scenarioResults":[{"sectionIndex":0,"stepResults":[{"result":{"nanos":60580900,"millis":60.5809,"status":"passed"},"step":{"background":true,"line":4,"prefix":"*","index":0,"text":"url 'https:\/\/reqres.in\/api'"}},{"result":{"nanos":87002100,"millis":87.0021,"status":"passed"},"step":{"background":true,"line":5,"prefix":"*","index":1,"text":"def output = read('response1.json')"}},{"result":{"nanos":1199700,"millis":1.1997,"status":"passed"},"step":{"background":true,"line":6,"prefix":"*","index":2,"text":"def request1 = read('request1.json')"}},{"result":{"nanos":293500,"millis":0.2935,"status":"passed"},"step":{"line":9,"prefix":"Given","index":0,"text":"path '\/users?page=2'"}},{"result":{"nanos":630740100,"millis":630.7401,"status":"passed"},"step":{"line":10,"prefix":"When","index":1,"text":"method GET"},"stepLog":"19:05:12.775 request:\n1 > GET https:\/\/reqres.in\/api\/users%3Fpage=2\n1 > Host: reqres.in\n1 > Connection: Keep-Alive\n1 > User-Agent: Apache-HttpClient\/4.5.13 (Java\/17.0.1)\n1 > Accept-Encoding: gzip,deflate\n\n\n19:05:13.211 response time in milliseconds: 433\n1 < 200\n1 < Date: Sat, 05 Feb 2022 18:05:08 GMT\n1 < Content-Type: application\/json; charset=utf-8\n1 < Transfer-Encoding: chunked\n1 < Connection: keep-alive\n1 < x-powered-by: Express\n1 < access-control-allow-origin: *\n1 < etag: W\/\"2c1-N6Rqerxquq2kgQhL51EiSg4x0R8\"\n1 < via: 1.1 vegur\n1 < Cache-Control: max-age=14400\n1 < CF-Cache-Status: HIT\n1 < Age: 251\n1 < Expect-CT: max-age=604800, report-uri=\"https:\/\/report-uri.cloudflare.com\/cdn-cgi\/beacon\/expect-ct\"\n1 < Report-To: {\"endpoints\":[{\"url\":\"https:\\\/\\\/a.nel.cloudflare.com\\\/report\\\/v3?s=AOiLKbM%2BJAW0bHQLojcujkdF9XwSll8Ek%2BnDc0rVWb3aQB6jKancYGQg480Rkk5f1%2FUSHFQL1qoV1vZ61Btc4BGjtt1SxFTrm%2BpmCS1zY0%2B94sgWGcEJiVSoP0c%3D\"}],\"group\":\"cf-nel\",\"max_age\":604800}\n1 < NEL: {\"success_fraction\":0,\"report_to\":\"cf-nel\",\"max_age\":604800}\n1 < Vary: Accept-Encoding\n1 < Server: cloudflare\n1 < CF-RAY: 6d8e10acfc330639-LHR\n1 < alt-svc: h3=\":443\"; ma=86400, h3-29=\":443\"; ma=86400\n{\"page\":1,\"per_page\":6,\"total\":12,\"total_pages\":2,\"data\":[{\"id\":1,\"name\":\"cerulean\",\"year\":2000,\"color\":\"#98B2D1\",\"pantone_value\":\"15-4020\"},{\"id\":2,\"name\":\"fuchsia rose\",\"year\":2001,\"color\":\"#C74375\",\"pantone_value\":\"17-2031\"},{\"id\":3,\"name\":\"true red\",\"year\":2002,\"color\":\"#BF1932\",\"pantone_value\":\"19-1664\"},{\"id\":4,\"name\":\"aqua sky\",\"year\":2003,\"color\":\"#7BC4C4\",\"pantone_value\":\"14-4811\"},{\"id\":5,\"name\":\"tigerlily\",\"year\":2004,\"color\":\"#E2583E\",\"pantone_value\":\"17-1456\"},{\"id\":6,\"name\":\"blue turquoise\",\"year\":2005,\"color\":\"#53B0AE\",\"pantone_value\":\"15-5217\"}],\"support\":{\"url\":\"https:\/\/reqres.in\/#support-heading\",\"text\":\"To keep ReqRes free, contributions towards server costs are appreciated!\"}}\n"},{"result":{"nanos":22000,"millis":0.022,"status":"passed"},"step":{"line":11,"prefix":"Then","index":2,"text":"status 200"}},{"result":{"nanos":9977800,"millis":9.9778,"status":"passed"},"step":{"line":12,"prefix":"And","index":3,"text":"assert response.data.length == 6"}},{"result":{"nanos":15010200,"errorMessage":"match failed: EQUALS\n  $ | data types don't match (NUMBER:STRING)\n  2\n  '8'\n\nsrc\/test\/java\/testapi.feature:13","millis":15.0102,"status":"failed"},"step":{"line":13,"prefix":"And","index":4,"text":"match $.data[1].id == \"8\""},"stepLog":"19:05:13.241 src\/test\/java\/testapi.feature:13\nAnd match $.data[1].id == \"8\"\nmatch failed: EQUALS\n  $ | data types don't match (NUMBER:STRING)\n  2\n  '8'\n\nsrc\/test\/java\/testapi.feature:13\n"},{"result":{"nanos":0,"millis":0.0,"status":"skipped"},"step":{"line":14,"prefix":"And","index":5,"text":"match $.data[0].email == 'michael.lawson@reqres.in'"}}],"line":8,"description":"","durationMillis":804.8263,"failed":true,"error":"match failed: EQUALS\n  $ | data types don't match (NUMBER:STRING)\n  2\n  '8'\n\nsrc\/test\/java\/testapi.feature:13","executorName":"main","name":"test API get 1","startTime":1644084312428,"refId":"[1:8]","endTime":1644084313241,"exampleIndex":-1},{"sectionIndex":1,"stepResults":[{"result":{"nanos":346700,"millis":0.3467,"status":"passed"},"step":{"background":true,"line":4,"prefix":"*","index":0,"text":"url 'https:\/\/reqres.in\/api'"}},{"result":{"nanos":724600,"millis":0.7246,"status":"passed"},"step":{"background":true,"line":5,"prefix":"*","index":1,"text":"def output = read('response1.json')"}},{"result":{"nanos":654100,"millis":0.6541,"status":"passed"},"step":{"background":true,"line":6,"prefix":"*","index":2,"text":"def request1 = read('request1.json')"}},{"result":{"nanos":281900,"millis":0.2819,"status":"passed"},"step":{"comments":["#Given path '\/users'"],"line":18,"prefix":"Given","index":0,"text":"path '\/users'"}},{"result":{"nanos":196200,"millis":0.1962,"status":"passed"},"step":{"line":19,"prefix":"And","index":1,"text":"request {\"name\": \"Mouad\" , \"job\": \"tester\" , \"age\": 25}"}},{"result":{"nanos":297458000,"millis":297.458,"status":"passed"},"step":{"line":20,"prefix":"When","index":2,"text":"method POST"},"stepLog":"19:05:13.280 request:\n1 > POST https:\/\/reqres.in\/api\/users\n1 > Content-Type: application\/json; charset=UTF-8\n1 > Content-Length: 40\n1 > Host: reqres.in\n1 > Connection: Keep-Alive\n1 > User-Agent: Apache-HttpClient\/4.5.13 (Java\/17.0.1)\n1 > Accept-Encoding: gzip,deflate\n{\"name\":\"Mouad\",\"job\":\"tester\",\"age\":25}\n\n19:05:13.544 response time in milliseconds: 264\n1 < 201\n1 < Date: Sat, 05 Feb 2022 18:05:08 GMT\n1 < Content-Type: application\/json; charset=utf-8\n1 < Content-Length: 90\n1 < Connection: keep-alive\n1 < x-powered-by: Express\n1 < access-control-allow-origin: *\n1 < etag: W\/\"5a-0ZXTT+vPwF9vvLHf3tCNZi6M7Bg\"\n1 < via: 1.1 vegur\n1 < CF-Cache-Status: DYNAMIC\n1 < Expect-CT: max-age=604800, report-uri=\"https:\/\/report-uri.cloudflare.com\/cdn-cgi\/beacon\/expect-ct\"\n1 < Report-To: {\"endpoints\":[{\"url\":\"https:\\\/\\\/a.nel.cloudflare.com\\\/report\\\/v3?s=J%2BdgwmncvmoUIhZJU9mPktquQ8C212Ey%2BkdV8eU%2F4VTBkQ%2BClyc%2B8pnlh06gf5KZHBMdR1L6KRSylvNPJYUr8aLONBrXffehz60VftOv2%2BSc7Ldq9c9VOrGwrf8%3D\"}],\"group\":\"cf-nel\",\"max_age\":604800}\n1 < NEL: {\"success_fraction\":0,\"report_to\":\"cf-nel\",\"max_age\":604800}\n1 < Server: cloudflare\n1 < CF-RAY: 6d8e10af1f5e06c9-LHR\n1 < alt-svc: h3=\":443\"; ma=86400, h3-29=\":443\"; ma=86400\n{\"name\":\"Mouad\",\"job\":\"tester\",\"age\":25,\"id\":\"888\",\"createdAt\":\"2022-02-05T18:05:08.377Z\"}\n"},{"result":{"nanos":6500,"millis":0.0065,"status":"passed"},"step":{"line":21,"prefix":"Then","index":3,"text":"status 201"}},{"result":{"nanos":431400,"millis":0.4314,"status":"passed"},"step":{"line":22,"prefix":"And","index":4,"text":"match response == {\"name\":\"Mouad\",\"job\":\"tester\",\"age\":25,\"id\":\"#string\",\"createdAt\":\"#ignore\"}"}},{"result":{"nanos":7439900,"millis":7.4399,"status":"passed"},"step":{"line":23,"prefix":"And","index":5,"text":"print response"},"stepLog":"19:05:13.552 [print] {\n  \"name\": \"Mouad\",\n  \"job\": \"tester\",\n  \"age\": 25,\n  \"id\": \"888\",\n  \"createdAt\": \"2022-02-05T18:05:08.377Z\"\n}\n \n"}],"executorName":"main","line":16,"name":"test API post 2","description":"","durationMillis":307.5393,"startTime":1644084313244,"failed":false,"refId":"[2:16]","endTime":1644084313553,"exampleIndex":-1},{"sectionIndex":2,"stepResults":[{"result":{"nanos":151600,"millis":0.1516,"status":"passed"},"step":{"background":true,"line":4,"prefix":"*","index":0,"text":"url 'https:\/\/reqres.in\/api'"}},{"result":{"nanos":470400,"millis":0.4704,"status":"passed"},"step":{"background":true,"line":5,"prefix":"*","index":1,"text":"def output = read('response1.json')"}},{"result":{"nanos":329200,"millis":0.3292,"status":"passed"},"step":{"background":true,"line":6,"prefix":"*","index":2,"text":"def request1 = read('request1.json')"}},{"result":{"nanos":66500,"millis":0.0665,"status":"passed"},"step":{"comments":["#Given path '\/users'"],"line":27,"prefix":"Given","index":0,"text":"path '\/users'"}},{"result":{"nanos":218300,"millis":0.2183,"status":"passed"},"step":{"line":28,"prefix":"And","index":1,"text":"request {\"name\": \"Mouad\" , \"job\": \"tester\" }"}},{"result":{"nanos":242273600,"millis":242.2736,"status":"passed"},"step":{"line":29,"prefix":"When","index":2,"text":"method POST"},"stepLog":"19:05:13.558 request:\n1 > POST https:\/\/reqres.in\/api\/users\n1 > Content-Type: application\/json; charset=UTF-8\n1 > Content-Length: 31\n1 > Host: reqres.in\n1 > Connection: Keep-Alive\n1 > User-Agent: Apache-HttpClient\/4.5.13 (Java\/17.0.1)\n1 > Accept-Encoding: gzip,deflate\n{\"name\":\"Mouad\",\"job\":\"tester\"}\n\n19:05:13.800 response time in milliseconds: 242\n1 < 201\n1 < Date: Sat, 05 Feb 2022 18:05:08 GMT\n1 < Content-Type: application\/json; charset=utf-8\n1 < Content-Length: 81\n1 < Connection: keep-alive\n1 < x-powered-by: Express\n1 < access-control-allow-origin: *\n1 < etag: W\/\"51-YvI2iPOLFFBDiLaP9uHXwoMwhYg\"\n1 < via: 1.1 vegur\n1 < CF-Cache-Status: DYNAMIC\n1 < Expect-CT: max-age=604800, report-uri=\"https:\/\/report-uri.cloudflare.com\/cdn-cgi\/beacon\/expect-ct\"\n1 < Report-To: {\"endpoints\":[{\"url\":\"https:\\\/\\\/a.nel.cloudflare.com\\\/report\\\/v3?s=eIqJ7BrbCxuyiPGdRt2bNxdotQfjS0VWucLZ5K1iQ1%2FoI7a%2BUWWBn%2FCOO5zT7KLzLGEyTAfiS1S9pOGoA2jr5NlqB2Qzdgom62p%2Bk7MWIWN2cQuy9%2FrzBvHEU4M%3D\"}],\"group\":\"cf-nel\",\"max_age\":604800}\n1 < NEL: {\"success_fraction\":0,\"report_to\":\"cf-nel\",\"max_age\":604800}\n1 < Server: cloudflare\n1 < CF-RAY: 6d8e10b0b83ee620-LHR\n1 < alt-svc: h3=\":443\"; ma=86400, h3-29=\":443\"; ma=86400\n{\"name\":\"Mouad\",\"job\":\"tester\",\"id\":\"216\",\"createdAt\":\"2022-02-05T18:05:08.631Z\"}\n"},{"result":{"nanos":6200,"millis":0.0062,"status":"passed"},"step":{"line":30,"prefix":"Then","index":3,"text":"status 201"}},{"result":{"nanos":308300,"millis":0.3083,"status":"passed"},"step":{"line":31,"prefix":"And","index":4,"text":"match response == output"}},{"result":{"nanos":305000,"millis":0.305,"status":"passed"},"step":{"line":32,"prefix":"And","index":5,"text":"print response"},"stepLog":"19:05:13.801 [print] {\n  \"name\": \"Mouad\",\n  \"job\": \"tester\",\n  \"id\": \"216\",\n  \"createdAt\": \"2022-02-05T18:05:08.631Z\"\n}\n \n"}],"executorName":"main","line":25,"name":"test API post 3","description":"","durationMillis":244.1291,"startTime":1644084313555,"failed":false,"refId":"[3:25]","endTime":1644084313801,"exampleIndex":-1},{"sectionIndex":3,"stepResults":[{"result":{"nanos":106000,"millis":0.106,"status":"passed"},"step":{"background":true,"line":4,"prefix":"*","index":0,"text":"url 'https:\/\/reqres.in\/api'"}},{"result":{"nanos":446700,"millis":0.4467,"status":"passed"},"step":{"background":true,"line":5,"prefix":"*","index":1,"text":"def output = read('response1.json')"}},{"result":{"nanos":314400,"millis":0.3144,"status":"passed"},"step":{"background":true,"line":6,"prefix":"*","index":2,"text":"def request1 = read('request1.json')"}},{"result":{"nanos":61300,"millis":0.0613,"status":"passed"},"step":{"comments":["#Given path '\/users'"],"line":36,"prefix":"Given","index":0,"text":"path '\/users'"}},{"result":{"nanos":413900,"millis":0.4139,"status":"passed"},"step":{"line":37,"prefix":"And","index":1,"text":"request request1"}},{"result":{"nanos":256140800,"millis":256.1408,"status":"passed"},"step":{"line":38,"prefix":"When","index":2,"text":"method POST"},"stepLog":"19:05:13.806 request:\n1 > POST https:\/\/reqres.in\/api\/users\n1 > Content-Type: application\/json; charset=UTF-8\n1 > Content-Length: 31\n1 > Host: reqres.in\n1 > Connection: Keep-Alive\n1 > User-Agent: Apache-HttpClient\/4.5.13 (Java\/17.0.1)\n1 > Accept-Encoding: gzip,deflate\n{\"name\":\"Mouad\",\"job\":\"tester\"}\n\n19:05:14.061 response time in milliseconds: 255\n1 < 201\n1 < Date: Sat, 05 Feb 2022 18:05:08 GMT\n1 < Content-Type: application\/json; charset=utf-8\n1 < Content-Length: 81\n1 < Connection: keep-alive\n1 < x-powered-by: Express\n1 < access-control-allow-origin: *\n1 < etag: W\/\"51-nSmTlszqtmzDcJqkRWAlhZn18ec\"\n1 < via: 1.1 vegur\n1 < CF-Cache-Status: DYNAMIC\n1 < Expect-CT: max-age=604800, report-uri=\"https:\/\/report-uri.cloudflare.com\/cdn-cgi\/beacon\/expect-ct\"\n1 < Report-To: {\"endpoints\":[{\"url\":\"https:\\\/\\\/a.nel.cloudflare.com\\\/report\\\/v3?s=KIZ7EoFDm3jEY6ziqZlK%2Bq6xt78vaQ80Uvx9zHmT3A762mFnj%2BAjfqL6l0eMTeo6wn8WphSUiTkzqpYsEyZOOtRNBkyrwyhLNCk9uec73yKHvUhsL%2BkcJ3%2BrVSw%3D\"}],\"group\":\"cf-nel\",\"max_age\":604800}\n1 < NEL: {\"success_fraction\":0,\"report_to\":\"cf-nel\",\"max_age\":604800}\n1 < Server: cloudflare\n1 < CF-RAY: 6d8e10b2180741dd-MRS\n1 < alt-svc: h3=\":443\"; ma=86400, h3-29=\":443\"; ma=86400\n{\"name\":\"Mouad\",\"job\":\"tester\",\"id\":\"436\",\"createdAt\":\"2022-02-05T18:05:08.877Z\"}\n"},{"result":{"nanos":5500,"millis":0.0055,"status":"passed"},"step":{"line":39,"prefix":"Then","index":3,"text":"status 201"}},{"result":{"nanos":263000,"millis":0.263,"status":"passed"},"step":{"line":40,"prefix":"And","index":4,"text":"match response == output"}},{"result":{"nanos":401900,"millis":0.4019,"status":"passed"},"step":{"line":41,"prefix":"And","index":5,"text":"print response"},"stepLog":"19:05:14.062 [print] {\n  \"name\": \"Mouad\",\n  \"job\": \"tester\",\n  \"id\": \"436\",\n  \"createdAt\": \"2022-02-05T18:05:08.877Z\"\n}\n \n"}],"executorName":"main","line":34,"name":"test API post 3","description":"","durationMillis":258.1535,"startTime":1644084313803,"failed":false,"refId":"[4:34]","endTime":1644084314062,"exampleIndex":-1}],"callDepth":0,"name":"test sample API","description":"","resultDate":"2022-02-05 07:05:14 PM","durationMillis":1614.6482,"passedCount":3}