{"failedCount":1,"prefixedPath":"src\/test\/java\/testapi.feature","packageQualifiedName":"src.test.java.testapi","loopIndex":-1,"relativePath":"src\/test\/java\/testapi.feature","scenarioResults":[{"sectionIndex":0,"stepResults":[{"result":{"nanos":60332300,"millis":60.3323,"status":"passed"},"step":{"background":true,"line":4,"prefix":"*","index":0,"text":"url 'https:\/\/reqres.in\/api'"}},{"result":{"nanos":90902000,"millis":90.902,"status":"passed"},"step":{"background":true,"line":5,"prefix":"*","index":1,"text":"def output = read('response1.json')"}},{"result":{"nanos":1080200,"millis":1.0802,"status":"passed"},"step":{"background":true,"line":6,"prefix":"*","index":2,"text":"def request1 = read('request1.json')"}},{"result":{"nanos":340600,"millis":0.3406,"status":"passed"},"step":{"line":9,"prefix":"Given","index":0,"text":"path '\/users?page=2'"}},{"result":{"nanos":1101051800,"millis":1101.0518,"status":"passed"},"step":{"line":10,"prefix":"When","index":1,"text":"method GET"},"stepLog":"19:03:21.597 request:\n1 > GET https:\/\/reqres.in\/api\/users%3Fpage=2\n1 > Host: reqres.in\n1 > Connection: Keep-Alive\n1 > User-Agent: Apache-HttpClient\/4.5.13 (Java\/17.0.1)\n1 > Accept-Encoding: gzip,deflate\n\n\n19:03:22.502 response time in milliseconds: 904\n1 < 200\n1 < Date: Sat, 05 Feb 2022 18:03:17 GMT\n1 < Content-Type: application\/json; charset=utf-8\n1 < Transfer-Encoding: chunked\n1 < Connection: keep-alive\n1 < x-powered-by: Express\n1 < access-control-allow-origin: *\n1 < etag: W\/\"2c1-N6Rqerxquq2kgQhL51EiSg4x0R8\"\n1 < via: 1.1 vegur\n1 < Cache-Control: max-age=14400\n1 < CF-Cache-Status: MISS\n1 < Expect-CT: max-age=604800, report-uri=\"https:\/\/report-uri.cloudflare.com\/cdn-cgi\/beacon\/expect-ct\"\n1 < Report-To: {\"endpoints\":[{\"url\":\"https:\\\/\\\/a.nel.cloudflare.com\\\/report\\\/v3?s=2kATOfcQ%2BXPgiFOuUNEB98t0d6aVRwwVMAh06MtjWk7bFH0eNRr%2B6qIywPArdd0y7UvICIj4adnlHWGrBQcIturJpF%2BAarO%2BKyM7fYbZtpRRIxrTWeROjt6RP44%3D\"}],\"group\":\"cf-nel\",\"max_age\":604800}\n1 < NEL: {\"success_fraction\":0,\"report_to\":\"cf-nel\",\"max_age\":604800}\n1 < Vary: Accept-Encoding\n1 < Server: cloudflare\n1 < CF-RAY: 6d8e0df8c9a3103b-MRS\n1 < alt-svc: h3=\":443\"; ma=86400, h3-29=\":443\"; ma=86400\n{\"page\":1,\"per_page\":6,\"total\":12,\"total_pages\":2,\"data\":[{\"id\":1,\"name\":\"cerulean\",\"year\":2000,\"color\":\"#98B2D1\",\"pantone_value\":\"15-4020\"},{\"id\":2,\"name\":\"fuchsia rose\",\"year\":2001,\"color\":\"#C74375\",\"pantone_value\":\"17-2031\"},{\"id\":3,\"name\":\"true red\",\"year\":2002,\"color\":\"#BF1932\",\"pantone_value\":\"19-1664\"},{\"id\":4,\"name\":\"aqua sky\",\"year\":2003,\"color\":\"#7BC4C4\",\"pantone_value\":\"14-4811\"},{\"id\":5,\"name\":\"tigerlily\",\"year\":2004,\"color\":\"#E2583E\",\"pantone_value\":\"17-1456\"},{\"id\":6,\"name\":\"blue turquoise\",\"year\":2005,\"color\":\"#53B0AE\",\"pantone_value\":\"15-5217\"}],\"support\":{\"url\":\"https:\/\/reqres.in\/#support-heading\",\"text\":\"To keep ReqRes free, contributions towards server costs are appreciated!\"}}\n"},{"result":{"nanos":15100,"millis":0.0151,"status":"passed"},"step":{"line":11,"prefix":"Then","index":2,"text":"status 200"}},{"result":{"nanos":6284000,"millis":6.284,"status":"passed"},"step":{"line":12,"prefix":"And","index":3,"text":"assert response.data.length == 6"}},{"result":{"nanos":13129000,"errorMessage":"match failed: EQUALS\n  $ | not equal (NUMBER:NUMBER)\n  2\n  8\n\nsrc\/test\/java\/testapi.feature:13","millis":13.129,"status":"failed"},"step":{"line":13,"prefix":"And","index":4,"text":"match $.data[1].id == 8"},"stepLog":"19:03:22.525 src\/test\/java\/testapi.feature:13\nAnd match $.data[1].id == 8\nmatch failed: EQUALS\n  $ | not equal (NUMBER:NUMBER)\n  2\n  8\n\nsrc\/test\/java\/testapi.feature:13\n"},{"result":{"nanos":0,"millis":0.0,"status":"skipped"},"step":{"line":14,"prefix":"And","index":5,"text":"match $.data[0].email == 'michael.lawson@reqres.in'"}}],"line":8,"description":"","durationMillis":1273.135,"failed":true,"error":"match failed: EQUALS\n  $ | not equal (NUMBER:NUMBER)\n  2\n  8\n\nsrc\/test\/java\/testapi.feature:13","executorName":"main","name":"test API get 1","startTime":1644084201242,"refId":"[1:8]","endTime":1644084202525,"exampleIndex":-1},{"sectionIndex":1,"stepResults":[{"result":{"nanos":314300,"millis":0.3143,"status":"passed"},"step":{"background":true,"line":4,"prefix":"*","index":0,"text":"url 'https:\/\/reqres.in\/api'"}},{"result":{"nanos":728400,"millis":0.7284,"status":"passed"},"step":{"background":true,"line":5,"prefix":"*","index":1,"text":"def output = read('response1.json')"}},{"result":{"nanos":558700,"millis":0.5587,"status":"passed"},"step":{"background":true,"line":6,"prefix":"*","index":2,"text":"def request1 = read('request1.json')"}},{"result":{"nanos":177400,"millis":0.1774,"status":"passed"},"step":{"comments":["#Given path '\/users'"],"line":18,"prefix":"Given","index":0,"text":"path '\/users'"}},{"result":{"nanos":153400,"millis":0.1534,"status":"passed"},"step":{"line":19,"prefix":"And","index":1,"text":"request {\"name\": \"Mouad\" , \"job\": \"tester\" , \"age\": 25}"}},{"result":{"nanos":301990900,"millis":301.9909,"status":"passed"},"step":{"line":20,"prefix":"When","index":2,"text":"method POST"},"stepLog":"19:03:22.559 request:\n1 > POST https:\/\/reqres.in\/api\/users\n1 > Content-Type: application\/json; charset=UTF-8\n1 > Content-Length: 40\n1 > Host: reqres.in\n1 > Connection: Keep-Alive\n1 > User-Agent: Apache-HttpClient\/4.5.13 (Java\/17.0.1)\n1 > Accept-Encoding: gzip,deflate\n{\"name\":\"Mouad\",\"job\":\"tester\",\"age\":25}\n\n19:03:22.832 response time in milliseconds: 273\n1 < 201\n1 < Date: Sat, 05 Feb 2022 18:03:17 GMT\n1 < Content-Type: application\/json; charset=utf-8\n1 < Content-Length: 90\n1 < Connection: keep-alive\n1 < x-powered-by: Express\n1 < access-control-allow-origin: *\n1 < etag: W\/\"5a-Gy\/ihJABIztyetYLIi3AbCVmX\/E\"\n1 < via: 1.1 vegur\n1 < CF-Cache-Status: DYNAMIC\n1 < Expect-CT: max-age=604800, report-uri=\"https:\/\/report-uri.cloudflare.com\/cdn-cgi\/beacon\/expect-ct\"\n1 < Report-To: {\"endpoints\":[{\"url\":\"https:\\\/\\\/a.nel.cloudflare.com\\\/report\\\/v3?s=OxPB74wrsYETgbgjcU937gp6ekiv2EI1Vtbi6HE%2FRHYTfX4iZWQi0GjmB%2BBUNyxPaRd%2F9wGYGhYGsb0xjdc1cuA1WHWInjYrlE1sKBM915ECgSumU%2FbFHd6xP8U%3D\"}],\"group\":\"cf-nel\",\"max_age\":604800}\n1 < NEL: {\"success_fraction\":0,\"report_to\":\"cf-nel\",\"max_age\":604800}\n1 < Server: cloudflare\n1 < CF-RAY: 6d8e0dfb0c01e678-LHR\n1 < alt-svc: h3=\":443\"; ma=86400, h3-29=\":443\"; ma=86400\n{\"name\":\"Mouad\",\"job\":\"tester\",\"age\":25,\"id\":\"788\",\"createdAt\":\"2022-02-05T18:03:17.650Z\"}\n"},{"result":{"nanos":13400,"millis":0.0134,"status":"passed"},"step":{"line":21,"prefix":"Then","index":3,"text":"status 201"}},{"result":{"nanos":921200,"millis":0.9212,"status":"passed"},"step":{"line":22,"prefix":"And","index":4,"text":"match response == {\"name\":\"Mouad\",\"job\":\"tester\",\"age\":25,\"id\":\"#string\",\"createdAt\":\"#ignore\"}"}},{"result":{"nanos":8808400,"millis":8.8084,"status":"passed"},"step":{"line":23,"prefix":"And","index":5,"text":"print response"},"stepLog":"19:03:22.843 [print] {\n  \"name\": \"Mouad\",\n  \"job\": \"tester\",\n  \"age\": 25,\n  \"id\": \"788\",\n  \"createdAt\": \"2022-02-05T18:03:17.650Z\"\n}\n \n"}],"executorName":"main","line":16,"name":"test API post 2","description":"","durationMillis":313.6661,"startTime":1644084202529,"failed":false,"refId":"[2:16]","endTime":1644084202843,"exampleIndex":-1},{"sectionIndex":2,"stepResults":[{"result":{"nanos":144200,"millis":0.1442,"status":"passed"},"step":{"background":true,"line":4,"prefix":"*","index":0,"text":"url 'https:\/\/reqres.in\/api'"}},{"result":{"nanos":743900,"millis":0.7439,"status":"passed"},"step":{"background":true,"line":5,"prefix":"*","index":1,"text":"def output = read('response1.json')"}},{"result":{"nanos":312900,"millis":0.3129,"status":"passed"},"step":{"background":true,"line":6,"prefix":"*","index":2,"text":"def request1 = read('request1.json')"}},{"result":{"nanos":62900,"millis":0.0629,"status":"passed"},"step":{"comments":["#Given path '\/users'"],"line":27,"prefix":"Given","index":0,"text":"path '\/users'"}},{"result":{"nanos":80300,"millis":0.0803,"status":"passed"},"step":{"line":28,"prefix":"And","index":1,"text":"request {\"name\": \"Mouad\" , \"job\": \"tester\" }"}},{"result":{"nanos":237946800,"millis":237.9468,"status":"passed"},"step":{"line":29,"prefix":"When","index":2,"text":"method POST"},"stepLog":"19:03:22.848 request:\n1 > POST https:\/\/reqres.in\/api\/users\n1 > Content-Type: application\/json; charset=UTF-8\n1 > Content-Length: 31\n1 > Host: reqres.in\n1 > Connection: Keep-Alive\n1 > User-Agent: Apache-HttpClient\/4.5.13 (Java\/17.0.1)\n1 > Accept-Encoding: gzip,deflate\n{\"name\":\"Mouad\",\"job\":\"tester\"}\n\n19:03:23.085 response time in milliseconds: 237\n1 < 201\n1 < Date: Sat, 05 Feb 2022 18:03:17 GMT\n1 < Content-Type: application\/json; charset=utf-8\n1 < Content-Length: 81\n1 < Connection: keep-alive\n1 < x-powered-by: Express\n1 < access-control-allow-origin: *\n1 < etag: W\/\"51-6ybqitdbPXuvTsONKcyq\/w5Anrc\"\n1 < via: 1.1 vegur\n1 < CF-Cache-Status: DYNAMIC\n1 < Expect-CT: max-age=604800, report-uri=\"https:\/\/report-uri.cloudflare.com\/cdn-cgi\/beacon\/expect-ct\"\n1 < Report-To: {\"endpoints\":[{\"url\":\"https:\\\/\\\/a.nel.cloudflare.com\\\/report\\\/v3?s=FmEovxwGKxe%2FLGobd4XtYzz81ZYsgoyE%2BDFd%2Fshi%2FbcX6HpxXOn8gwJSL8zJDooGNdVNLBBI0bW8DhdFtO%2F2XppRvyMpr5kwdNzbhkGM4e6kXQsAuW5iopQYmXc%3D\"}],\"group\":\"cf-nel\",\"max_age\":604800}\n1 < NEL: {\"success_fraction\":0,\"report_to\":\"cf-nel\",\"max_age\":604800}\n1 < Server: cloudflare\n1 < CF-RAY: 6d8e0dfc8c14734a-MRS\n1 < alt-svc: h3=\":443\"; ma=86400, h3-29=\":443\"; ma=86400\n{\"name\":\"Mouad\",\"job\":\"tester\",\"id\":\"439\",\"createdAt\":\"2022-02-05T18:03:17.909Z\"}\n"},{"result":{"nanos":7000,"millis":0.007,"status":"passed"},"step":{"line":30,"prefix":"Then","index":3,"text":"status 201"}},{"result":{"nanos":326200,"millis":0.3262,"status":"passed"},"step":{"line":31,"prefix":"And","index":4,"text":"match response == output"}},{"result":{"nanos":361900,"millis":0.3619,"status":"passed"},"step":{"line":32,"prefix":"And","index":5,"text":"print response"},"stepLog":"19:03:23.087 [print] {\n  \"name\": \"Mouad\",\n  \"job\": \"tester\",\n  \"id\": \"439\",\n  \"createdAt\": \"2022-02-05T18:03:17.909Z\"\n}\n \n"}],"executorName":"main","line":25,"name":"test API post 3","description":"","durationMillis":239.9861,"startTime":1644084202846,"failed":false,"refId":"[3:25]","endTime":1644084203087,"exampleIndex":-1},{"sectionIndex":3,"stepResults":[{"result":{"nanos":154700,"millis":0.1547,"status":"passed"},"step":{"background":true,"line":4,"prefix":"*","index":0,"text":"url 'https:\/\/reqres.in\/api'"}},{"result":{"nanos":460100,"millis":0.4601,"status":"passed"},"step":{"background":true,"line":5,"prefix":"*","index":1,"text":"def output = read('response1.json')"}},{"result":{"nanos":358500,"millis":0.3585,"status":"passed"},"step":{"background":true,"line":6,"prefix":"*","index":2,"text":"def request1 = read('request1.json')"}},{"result":{"nanos":75500,"millis":0.0755,"status":"passed"},"step":{"comments":["#Given path '\/users'"],"line":36,"prefix":"Given","index":0,"text":"path '\/users'"}},{"result":{"nanos":489600,"millis":0.4896,"status":"passed"},"step":{"line":37,"prefix":"And","index":1,"text":"request request1"}},{"result":{"nanos":256643200,"millis":256.6432,"status":"passed"},"step":{"line":38,"prefix":"When","index":2,"text":"method POST"},"stepLog":"19:03:23.092 request:\n1 > POST https:\/\/reqres.in\/api\/users\n1 > Content-Type: application\/json; charset=UTF-8\n1 > Content-Length: 31\n1 > Host: reqres.in\n1 > Connection: Keep-Alive\n1 > User-Agent: Apache-HttpClient\/4.5.13 (Java\/17.0.1)\n1 > Accept-Encoding: gzip,deflate\n{\"name\":\"Mouad\",\"job\":\"tester\"}\n\n19:03:23.347 response time in milliseconds: 255\n1 < 201\n1 < Date: Sat, 05 Feb 2022 18:03:18 GMT\n1 < Content-Type: application\/json; charset=utf-8\n1 < Content-Length: 81\n1 < Connection: keep-alive\n1 < x-powered-by: Express\n1 < access-control-allow-origin: *\n1 < etag: W\/\"51-CGVXB2FPcQ1jVjZHI2U6ceKkQ4k\"\n1 < via: 1.1 vegur\n1 < CF-Cache-Status: DYNAMIC\n1 < Expect-CT: max-age=604800, report-uri=\"https:\/\/report-uri.cloudflare.com\/cdn-cgi\/beacon\/expect-ct\"\n1 < Report-To: {\"endpoints\":[{\"url\":\"https:\\\/\\\/a.nel.cloudflare.com\\\/report\\\/v3?s=nhYfNrw2BL2NmNKr9A9RSsrfOTUNBXVHdGvxeLtwmVv9vRnNL8af50s9Wd6LEAX5aXyC8CXT%2FDC6Wpo4Ndf3ps4ALEyDn97HgZzG2viUXUsFQojruldKIghwYK4%3D\"}],\"group\":\"cf-nel\",\"max_age\":604800}\n1 < NEL: {\"success_fraction\":0,\"report_to\":\"cf-nel\",\"max_age\":604800}\n1 < Server: cloudflare\n1 < CF-RAY: 6d8e0dfe5c0e002a-LHR\n1 < alt-svc: h3=\":443\"; ma=86400, h3-29=\":443\"; ma=86400\n{\"name\":\"Mouad\",\"job\":\"tester\",\"id\":\"155\",\"createdAt\":\"2022-02-05T18:03:18.177Z\"}\n"},{"result":{"nanos":5600,"millis":0.0056,"status":"passed"},"step":{"line":39,"prefix":"Then","index":3,"text":"status 201"}},{"result":{"nanos":214000,"millis":0.214,"status":"passed"},"step":{"line":40,"prefix":"And","index":4,"text":"match response == output"}},{"result":{"nanos":310500,"millis":0.3105,"status":"passed"},"step":{"line":41,"prefix":"And","index":5,"text":"print response"},"stepLog":"19:03:23.348 [print] {\n  \"name\": \"Mouad\",\n  \"job\": \"tester\",\n  \"id\": \"155\",\n  \"createdAt\": \"2022-02-05T18:03:18.177Z\"\n}\n \n"}],"executorName":"main","line":34,"name":"test API post 3","description":"","durationMillis":258.7117,"startTime":1644084203089,"failed":false,"refId":"[4:34]","endTime":1644084203349,"exampleIndex":-1}],"callDepth":0,"name":"test sample API","description":"","resultDate":"2022-02-05 07:03:23 PM","durationMillis":2085.4989,"passedCount":3}