{"failedCount":1,"prefixedPath":"src\/test\/java\/testapi.feature","packageQualifiedName":"src.test.java.testapi","loopIndex":-1,"relativePath":"src\/test\/java\/testapi.feature","scenarioResults":[{"sectionIndex":0,"stepResults":[{"result":{"nanos":62641100,"millis":62.6411,"status":"passed"},"step":{"background":true,"line":4,"prefix":"*","index":0,"text":"url 'https:\/\/reqres.in\/api'"}},{"result":{"nanos":85792900,"millis":85.7929,"status":"passed"},"step":{"background":true,"line":5,"prefix":"*","index":1,"text":"def output = read('response1.json')"}},{"result":{"nanos":1038900,"millis":1.0389,"status":"passed"},"step":{"background":true,"line":6,"prefix":"*","index":2,"text":"def request1 = read('request1.json')"}},{"result":{"nanos":309900,"millis":0.3099,"status":"passed"},"step":{"line":9,"prefix":"Given","index":0,"text":"path '\/users?page=2'"}},{"result":{"nanos":628341300,"millis":628.3413,"status":"passed"},"step":{"line":10,"prefix":"When","index":1,"text":"method GET"},"stepLog":"19:07:07.603 request:\n1 > GET https:\/\/reqres.in\/api\/users%3Fpage=2\n1 > Host: reqres.in\n1 > Connection: Keep-Alive\n1 > User-Agent: Apache-HttpClient\/4.5.13 (Java\/17.0.1)\n1 > Accept-Encoding: gzip,deflate\n\n\n19:07:08.040 response time in milliseconds: 435\n1 < 200\n1 < Date: Sat, 05 Feb 2022 18:07:02 GMT\n1 < Content-Type: application\/json; charset=utf-8\n1 < Transfer-Encoding: chunked\n1 < Connection: keep-alive\n1 < x-powered-by: Express\n1 < access-control-allow-origin: *\n1 < etag: W\/\"2c1-N6Rqerxquq2kgQhL51EiSg4x0R8\"\n1 < via: 1.1 vegur\n1 < Cache-Control: max-age=14400\n1 < CF-Cache-Status: HIT\n1 < Age: 976\n1 < Expect-CT: max-age=604800, report-uri=\"https:\/\/report-uri.cloudflare.com\/cdn-cgi\/beacon\/expect-ct\"\n1 < Report-To: {\"endpoints\":[{\"url\":\"https:\\\/\\\/a.nel.cloudflare.com\\\/report\\\/v3?s=vuFpA3mYCjuQudFQj7hrMme0F%2B388glClHTw7mepdqMKz%2FndFZ3cNzvPIGQMyMFp0L%2Bq5T8BbgLKY4ZgYtRLz8RS3pOmy6gog3bZB9q%2B%2FlEvis1ggTdi61X3icA%3D\"}],\"group\":\"cf-nel\",\"max_age\":604800}\n1 < NEL: {\"success_fraction\":0,\"report_to\":\"cf-nel\",\"max_age\":604800}\n1 < Vary: Accept-Encoding\n1 < Server: cloudflare\n1 < CF-RAY: 6d8e137aca8a2e5c-BRU\n1 < alt-svc: h3=\":443\"; ma=86400, h3-29=\":443\"; ma=86400\n{\"page\":1,\"per_page\":6,\"total\":12,\"total_pages\":2,\"data\":[{\"id\":1,\"name\":\"cerulean\",\"year\":2000,\"color\":\"#98B2D1\",\"pantone_value\":\"15-4020\"},{\"id\":2,\"name\":\"fuchsia rose\",\"year\":2001,\"color\":\"#C74375\",\"pantone_value\":\"17-2031\"},{\"id\":3,\"name\":\"true red\",\"year\":2002,\"color\":\"#BF1932\",\"pantone_value\":\"19-1664\"},{\"id\":4,\"name\":\"aqua sky\",\"year\":2003,\"color\":\"#7BC4C4\",\"pantone_value\":\"14-4811\"},{\"id\":5,\"name\":\"tigerlily\",\"year\":2004,\"color\":\"#E2583E\",\"pantone_value\":\"17-1456\"},{\"id\":6,\"name\":\"blue turquoise\",\"year\":2005,\"color\":\"#53B0AE\",\"pantone_value\":\"15-5217\"}],\"support\":{\"url\":\"https:\/\/reqres.in\/#support-heading\",\"text\":\"To keep ReqRes free, contributions towards server costs are appreciated!\"}}\n"},{"result":{"nanos":16500,"millis":0.0165,"status":"passed"},"step":{"line":11,"prefix":"Then","index":2,"text":"status 200"}},{"result":{"nanos":7036300,"millis":7.0363,"status":"passed"},"step":{"line":12,"prefix":"And","index":3,"text":"assert response.data.length == 6"}},{"result":{"nanos":14960800,"errorMessage":"js failed:\n>>>>\n01: karate.log('[print]',$.data[1].id)\n<<<<\norg.graalvm.polyglot.PolyglotException: ReferenceError: \"$\" is not defined\n- <js>.:program(Unnamed:1)\n\nsrc\/test\/java\/testapi.feature:13","millis":14.9608,"status":"failed"},"step":{"line":13,"prefix":"And","index":4,"text":"print $.data[1].id"},"stepLog":"19:07:08.065 src\/test\/java\/testapi.feature:13\nAnd print $.data[1].id\njs failed:\n>>>>\n01: karate.log('[print]',$.data[1].id)\n<<<<\norg.graalvm.polyglot.PolyglotException: ReferenceError: \"$\" is not defined\n- <js>.:program(Unnamed:1)\n\nsrc\/test\/java\/testapi.feature:13\n"},{"result":{"nanos":0,"millis":0.0,"status":"skipped"},"step":{"line":14,"prefix":"And","index":5,"text":"match $.data[1].id == 8"}},{"result":{"nanos":0,"millis":0.0,"status":"skipped"},"step":{"line":15,"prefix":"And","index":6,"text":"match $.data[0].email == 'michael.lawson@reqres.in'"}}],"line":8,"description":"","durationMillis":800.1377,"failed":true,"error":"js failed:\n>>>>\n01: karate.log('[print]',$.data[1].id)\n<<<<\norg.graalvm.polyglot.PolyglotException: ReferenceError: \"$\" is not defined\n- <js>.:program(Unnamed:1)\n\nsrc\/test\/java\/testapi.feature:13","executorName":"main","name":"test API get 1","startTime":1644084427256,"refId":"[1:8]","endTime":1644084428065,"exampleIndex":-1},{"sectionIndex":1,"stepResults":[{"result":{"nanos":341400,"millis":0.3414,"status":"passed"},"step":{"background":true,"line":4,"prefix":"*","index":0,"text":"url 'https:\/\/reqres.in\/api'"}},{"result":{"nanos":722200,"millis":0.7222,"status":"passed"},"step":{"background":true,"line":5,"prefix":"*","index":1,"text":"def output = read('response1.json')"}},{"result":{"nanos":588000,"millis":0.588,"status":"passed"},"step":{"background":true,"line":6,"prefix":"*","index":2,"text":"def request1 = read('request1.json')"}},{"result":{"nanos":180000,"millis":0.18,"status":"passed"},"step":{"comments":["#Given path '\/users'"],"line":19,"prefix":"Given","index":0,"text":"path '\/users'"}},{"result":{"nanos":134400,"millis":0.1344,"status":"passed"},"step":{"line":20,"prefix":"And","index":1,"text":"request {\"name\": \"Mouad\" , \"job\": \"tester\" , \"age\": 25}"}},{"result":{"nanos":369344400,"millis":369.3444,"status":"passed"},"step":{"line":21,"prefix":"When","index":2,"text":"method POST"},"stepLog":"19:07:08.100 request:\n1 > POST https:\/\/reqres.in\/api\/users\n1 > Content-Type: application\/json; charset=UTF-8\n1 > Content-Length: 40\n1 > Host: reqres.in\n1 > Connection: Keep-Alive\n1 > User-Agent: Apache-HttpClient\/4.5.13 (Java\/17.0.1)\n1 > Accept-Encoding: gzip,deflate\n{\"name\":\"Mouad\",\"job\":\"tester\",\"age\":25}\n\n19:07:08.439 response time in milliseconds: 339\n1 < 201\n1 < Date: Sat, 05 Feb 2022 18:07:03 GMT\n1 < Content-Type: application\/json; charset=utf-8\n1 < Content-Length: 90\n1 < Connection: keep-alive\n1 < x-powered-by: Express\n1 < access-control-allow-origin: *\n1 < etag: W\/\"5a-GvJc8q8DyVCDkAi27n\/1iRb6Uls\"\n1 < via: 1.1 vegur\n1 < CF-Cache-Status: DYNAMIC\n1 < Expect-CT: max-age=604800, report-uri=\"https:\/\/report-uri.cloudflare.com\/cdn-cgi\/beacon\/expect-ct\"\n1 < Report-To: {\"endpoints\":[{\"url\":\"https:\\\/\\\/a.nel.cloudflare.com\\\/report\\\/v3?s=AVgNME%2FSZpNGAqb2U3pHrZf0vnnWPEmRVojjghFK05ZyUZnJyHSkcbtoO5t%2FbW509W7xD%2BD5%2F4W2xVLFy%2BkWd7jR09%2F4IGvrgziitTSw09cThStCiLJyfmq%2FNw8%3D\"}],\"group\":\"cf-nel\",\"max_age\":604800}\n1 < NEL: {\"success_fraction\":0,\"report_to\":\"cf-nel\",\"max_age\":604800}\n1 < Server: cloudflare\n1 < CF-RAY: 6d8e137cc9c8d494-BRU\n1 < alt-svc: h3=\":443\"; ma=86400, h3-29=\":443\"; ma=86400\n{\"name\":\"Mouad\",\"job\":\"tester\",\"age\":25,\"id\":\"350\",\"createdAt\":\"2022-02-05T18:07:03.248Z\"}\n"},{"result":{"nanos":6200,"millis":0.0062,"status":"passed"},"step":{"line":22,"prefix":"Then","index":3,"text":"status 201"}},{"result":{"nanos":7861900,"millis":7.8619,"status":"passed"},"step":{"line":23,"prefix":"And","index":4,"text":"match response == {\"name\":\"Mouad\",\"job\":\"tester\",\"age\":25,\"id\":\"#string\",\"createdAt\":\"#ignore\"}"}},{"result":{"nanos":7201600,"millis":7.2016,"status":"passed"},"step":{"line":24,"prefix":"And","index":5,"text":"print response"},"stepLog":"19:07:08.455 [print] {\n  \"name\": \"Mouad\",\n  \"job\": \"tester\",\n  \"age\": 25,\n  \"id\": \"350\",\n  \"createdAt\": \"2022-02-05T18:07:03.248Z\"\n}\n \n"}],"executorName":"main","line":17,"name":"test API post 2","description":"","durationMillis":386.3801,"startTime":1644084428068,"failed":false,"refId":"[2:17]","endTime":1644084428456,"exampleIndex":-1},{"sectionIndex":2,"stepResults":[{"result":{"nanos":142100,"millis":0.1421,"status":"passed"},"step":{"background":true,"line":4,"prefix":"*","index":0,"text":"url 'https:\/\/reqres.in\/api'"}},{"result":{"nanos":454100,"millis":0.4541,"status":"passed"},"step":{"background":true,"line":5,"prefix":"*","index":1,"text":"def output = read('response1.json')"}},{"result":{"nanos":392500,"millis":0.3925,"status":"passed"},"step":{"background":true,"line":6,"prefix":"*","index":2,"text":"def request1 = read('request1.json')"}},{"result":{"nanos":66100,"millis":0.0661,"status":"passed"},"step":{"comments":["#Given path '\/users'"],"line":28,"prefix":"Given","index":0,"text":"path '\/users'"}},{"result":{"nanos":128600,"millis":0.1286,"status":"passed"},"step":{"line":29,"prefix":"And","index":1,"text":"request {\"name\": \"Mouad\" , \"job\": \"tester\" }"}},{"result":{"nanos":275030900,"millis":275.0309,"status":"passed"},"step":{"line":30,"prefix":"When","index":2,"text":"method POST"},"stepLog":"19:07:08.461 request:\n1 > POST https:\/\/reqres.in\/api\/users\n1 > Content-Type: application\/json; charset=UTF-8\n1 > Content-Length: 31\n1 > Host: reqres.in\n1 > Connection: Keep-Alive\n1 > User-Agent: Apache-HttpClient\/4.5.13 (Java\/17.0.1)\n1 > Accept-Encoding: gzip,deflate\n{\"name\":\"Mouad\",\"job\":\"tester\"}\n\n19:07:08.734 response time in milliseconds: 273\n1 < 201\n1 < Date: Sat, 05 Feb 2022 18:07:03 GMT\n1 < Content-Type: application\/json; charset=utf-8\n1 < Content-Length: 81\n1 < Connection: keep-alive\n1 < x-powered-by: Express\n1 < access-control-allow-origin: *\n1 < etag: W\/\"51-3v97gJPE3+\/uqF88ko1oZC5jOYc\"\n1 < via: 1.1 vegur\n1 < CF-Cache-Status: DYNAMIC\n1 < Expect-CT: max-age=604800, report-uri=\"https:\/\/report-uri.cloudflare.com\/cdn-cgi\/beacon\/expect-ct\"\n1 < Report-To: {\"endpoints\":[{\"url\":\"https:\\\/\\\/a.nel.cloudflare.com\\\/report\\\/v3?s=r5YHWCrfUA%2BJgDTcV%2FDTeeqaAZgZwTRIiGkcOXpunntb3BERH8MbGSFo6%2BGylOxgAvI6%2B9WhXMCb3smOCvyIBFO9b6GxzKxsq0nGKccS8i20vB%2BOeLxtuw5Knhc%3D\"}],\"group\":\"cf-nel\",\"max_age\":604800}\n1 < NEL: {\"success_fraction\":0,\"report_to\":\"cf-nel\",\"max_age\":604800}\n1 < Server: cloudflare\n1 < CF-RAY: 6d8e137edfd483c7-BRU\n1 < alt-svc: h3=\":443\"; ma=86400, h3-29=\":443\"; ma=86400\n{\"name\":\"Mouad\",\"job\":\"tester\",\"id\":\"113\",\"createdAt\":\"2022-02-05T18:07:03.554Z\"}\n"},{"result":{"nanos":5900,"millis":0.0059,"status":"passed"},"step":{"line":31,"prefix":"Then","index":3,"text":"status 201"}},{"result":{"nanos":319800,"millis":0.3198,"status":"passed"},"step":{"line":32,"prefix":"And","index":4,"text":"match response == output"}},{"result":{"nanos":302000,"millis":0.302,"status":"passed"},"step":{"line":33,"prefix":"And","index":5,"text":"print response"},"stepLog":"19:07:08.735 [print] {\n  \"name\": \"Mouad\",\n  \"job\": \"tester\",\n  \"id\": \"113\",\n  \"createdAt\": \"2022-02-05T18:07:03.554Z\"\n}\n \n"}],"executorName":"main","line":26,"name":"test API post 3","description":"","durationMillis":276.842,"startTime":1644084428458,"failed":false,"refId":"[3:26]","endTime":1644084428735,"exampleIndex":-1},{"sectionIndex":3,"stepResults":[{"result":{"nanos":99300,"millis":0.0993,"status":"passed"},"step":{"background":true,"line":4,"prefix":"*","index":0,"text":"url 'https:\/\/reqres.in\/api'"}},{"result":{"nanos":453000,"millis":0.453,"status":"passed"},"step":{"background":true,"line":5,"prefix":"*","index":1,"text":"def output = read('response1.json')"}},{"result":{"nanos":301300,"millis":0.3013,"status":"passed"},"step":{"background":true,"line":6,"prefix":"*","index":2,"text":"def request1 = read('request1.json')"}},{"result":{"nanos":63400,"millis":0.0634,"status":"passed"},"step":{"comments":["#Given path '\/users'"],"line":37,"prefix":"Given","index":0,"text":"path '\/users'"}},{"result":{"nanos":386600,"millis":0.3866,"status":"passed"},"step":{"line":38,"prefix":"And","index":1,"text":"request request1"}},{"result":{"nanos":302188800,"millis":302.1888,"status":"passed"},"step":{"line":39,"prefix":"When","index":2,"text":"method POST"},"stepLog":"19:07:08.740 request:\n1 > POST https:\/\/reqres.in\/api\/users\n1 > Content-Type: application\/json; charset=UTF-8\n1 > Content-Length: 31\n1 > Host: reqres.in\n1 > Connection: Keep-Alive\n1 > User-Agent: Apache-HttpClient\/4.5.13 (Java\/17.0.1)\n1 > Accept-Encoding: gzip,deflate\n{\"name\":\"Mouad\",\"job\":\"tester\"}\n\n19:07:09.041 response time in milliseconds: 301\n1 < 201\n1 < Date: Sat, 05 Feb 2022 18:07:03 GMT\n1 < Content-Type: application\/json; charset=utf-8\n1 < Content-Length: 81\n1 < Connection: keep-alive\n1 < x-powered-by: Express\n1 < access-control-allow-origin: *\n1 < etag: W\/\"51-Ey73OVPp13sWAe4V6F3lkBgXPXg\"\n1 < via: 1.1 vegur\n1 < CF-Cache-Status: DYNAMIC\n1 < Expect-CT: max-age=604800, report-uri=\"https:\/\/report-uri.cloudflare.com\/cdn-cgi\/beacon\/expect-ct\"\n1 < Report-To: {\"endpoints\":[{\"url\":\"https:\\\/\\\/a.nel.cloudflare.com\\\/report\\\/v3?s=op5w%2F%2FjBSFHO5EODVFvWI%2B7%2F5rc1hKkAlLW9CEwCDwR50%2FNCYXrJMB%2FxcdqfsPsH6O1N6LSGxlPUHTjtUFuEhX7wBl7IPHfjMqtD0LQNyJphNeu9aou99fcR5io%3D\"}],\"group\":\"cf-nel\",\"max_age\":604800}\n1 < NEL: {\"success_fraction\":0,\"report_to\":\"cf-nel\",\"max_age\":604800}\n1 < Server: cloudflare\n1 < CF-RAY: 6d8e13809f812e14-BRU\n1 < alt-svc: h3=\":443\"; ma=86400, h3-29=\":443\"; ma=86400\n{\"name\":\"Mouad\",\"job\":\"tester\",\"id\":\"565\",\"createdAt\":\"2022-02-05T18:07:03.832Z\"}\n"},{"result":{"nanos":6500,"millis":0.0065,"status":"passed"},"step":{"line":40,"prefix":"Then","index":3,"text":"status 201"}},{"result":{"nanos":403500,"millis":0.4035,"status":"passed"},"step":{"line":41,"prefix":"And","index":4,"text":"match response == output"}},{"result":{"nanos":448500,"millis":0.4485,"status":"passed"},"step":{"line":42,"prefix":"And","index":5,"text":"print response"},"stepLog":"19:07:09.043 [print] {\n  \"name\": \"Mouad\",\n  \"job\": \"tester\",\n  \"id\": \"565\",\n  \"createdAt\": \"2022-02-05T18:07:03.832Z\"\n}\n \n"}],"executorName":"main","line":35,"name":"test API post 3","description":"","durationMillis":304.3509,"startTime":1644084428737,"failed":false,"refId":"[4:35]","endTime":1644084429043,"exampleIndex":-1}],"callDepth":0,"name":"test sample API","description":"","resultDate":"2022-02-05 07:07:09 PM","durationMillis":1767.7107,"passedCount":3}