{"failedCount":1,"prefixedPath":"src\/test\/java\/TestFeatures\/week3\/callGetPerson.feature","packageQualifiedName":"src.test.java.TestFeatures.week3.callGetPerson","loopIndex":-1,"relativePath":"src\/test\/java\/TestFeatures\/week3\/callGetPerson.feature","scenarioResults":[{"sectionIndex":0,"stepResults":[{"result":{"nanos":1714700,"millis":1.7147,"status":"passed"},"step":{"line":9,"prefix":"Given","index":0,"text":"url 'https:\/\/reqres.in\/api\/users?page=1'"},"stepLog":"01:04:28.041 \n"},{"result":{"nanos":1160624500,"millis":1160.6245,"status":"passed"},"step":{"line":10,"prefix":"When","index":1,"text":"method GET"},"stepLog":"01:04:28.408 request:\n1 > GET https:\/\/reqres.in\/api\/users?page=1\n1 > Host: reqres.in\n1 > Connection: Keep-Alive\n1 > User-Agent: Apache-HttpClient\/4.5.13 (Java\/17.0.1)\n1 > Accept-Encoding: gzip,deflate\n\n\n01:04:29.164 response time in milliseconds: 751\n1 < 200\n1 < Date: Sun, 20 Feb 2022 00:04:22 GMT\n1 < Content-Type: application\/json; charset=utf-8\n1 < Transfer-Encoding: chunked\n1 < Connection: keep-alive\n1 < x-powered-by: Express\n1 < access-control-allow-origin: *\n1 < etag: W\/\"3e4-2RLXvr5wTg9YQ6aH95CkYoFNuO8\"\n1 < via: 1.1 vegur\n1 < Cache-Control: max-age=14400\n1 < CF-Cache-Status: HIT\n1 < Age: 6998\n1 < Expect-CT: max-age=604800, report-uri=\"https:\/\/report-uri.cloudflare.com\/cdn-cgi\/beacon\/expect-ct\"\n1 < Report-To: {\"endpoints\":[{\"url\":\"https:\\\/\\\/a.nel.cloudflare.com\\\/report\\\/v3?s=ebpv%2BtxCD1DQqIBm%2F1bNsGcRDPmXGChmUuedPIwexQN%2FEC3YIoHBHl%2F8ZaP%2BBd2uw32xKQOwnxpO%2Fbz07kv9RcQAvfdWv0yRA94n3YGi7bxvMfe7Qj3IvtXpjRg%3D\"}],\"group\":\"cf-nel\",\"max_age\":604800}\n1 < NEL: {\"success_fraction\":0,\"report_to\":\"cf-nel\",\"max_age\":604800}\n1 < Vary: Accept-Encoding\n1 < Server: cloudflare\n1 < CF-RAY: 6e037a277bb283c4-BRU\n1 < alt-svc: h3=\":443\"; ma=86400, h3-29=\":443\"; ma=86400\n{\"page\":1,\"per_page\":6,\"total\":12,\"total_pages\":2,\"data\":[{\"id\":1,\"email\":\"george.bluth@reqres.in\",\"first_name\":\"George\",\"last_name\":\"Bluth\",\"avatar\":\"https:\/\/reqres.in\/img\/faces\/1-image.jpg\"},{\"id\":2,\"email\":\"janet.weaver@reqres.in\",\"first_name\":\"Janet\",\"last_name\":\"Weaver\",\"avatar\":\"https:\/\/reqres.in\/img\/faces\/2-image.jpg\"},{\"id\":3,\"email\":\"emma.wong@reqres.in\",\"first_name\":\"Emma\",\"last_name\":\"Wong\",\"avatar\":\"https:\/\/reqres.in\/img\/faces\/3-image.jpg\"},{\"id\":4,\"email\":\"eve.holt@reqres.in\",\"first_name\":\"Eve\",\"last_name\":\"Holt\",\"avatar\":\"https:\/\/reqres.in\/img\/faces\/4-image.jpg\"},{\"id\":5,\"email\":\"charles.morris@reqres.in\",\"first_name\":\"Charles\",\"last_name\":\"Morris\",\"avatar\":\"https:\/\/reqres.in\/img\/faces\/5-image.jpg\"},{\"id\":6,\"email\":\"tracey.ramos@reqres.in\",\"first_name\":\"Tracey\",\"last_name\":\"Ramos\",\"avatar\":\"https:\/\/reqres.in\/img\/faces\/6-image.jpg\"}],\"support\":{\"url\":\"https:\/\/reqres.in\/#support-heading\",\"text\":\"To keep ReqRes free, contributions towards server costs are appreciated!\"}}\n"},{"result":{"nanos":45800,"millis":0.0458,"status":"passed"},"step":{"line":11,"prefix":"Then","index":2,"text":"status 200"}},{"result":{"nanos":35339300,"errorMessage":"js failed:\n>>>>\n01: read('\/java\/reusableFeatures\/getPerson.feature')\n<<<<\norg.graalvm.polyglot.PolyglotException: java.io.FileNotFoundException: C:\\Users\\malouan\\eclipse-workspace\\karate\\src\\test\\java\\TestFeatures\\week3\\java\\reusableFeatures\\getPerson.feature (Le chemin d\u2019accès spécifié est introuvable)\n- com.intuit.karate.resource.FileResource.getStream(FileResource.java:98)\n- com.intuit.karate.core.FeatureParser.parse(FeatureParser.java:70)\n- com.intuit.karate.core.Feature.read(Feature.java:67)\n- com.intuit.karate.core.ScenarioFileReader.readFile(ScenarioFileReader.java:64)\n- com.intuit.karate.core.ScenarioEngine.lambda$new$0(ScenarioEngine.java:124)\n- <js>.:program(Unnamed:1)\n\nsrc\/test\/java\/TestFeatures\/week3\/callGetPerson.feature:12","millis":35.3393,"status":"failed"},"step":{"line":12,"prefix":"*","index":3,"text":"def person = call read('\/java\/reusableFeatures\/getPerson.feature'){ id: 1 }"},"stepLog":"01:04:29.278 src\/test\/java\/TestFeatures\/week3\/callGetPerson.feature:12\n* def person = call read('\/java\/reusableFeatures\/getPerson.feature'){ id: 1 }\njs failed:\n>>>>\n01: read('\/java\/reusableFeatures\/getPerson.feature')\n<<<<\norg.graalvm.polyglot.PolyglotException: java.io.FileNotFoundException: C:\\Users\\malouan\\eclipse-workspace\\karate\\src\\test\\java\\TestFeatures\\week3\\java\\reusableFeatures\\getPerson.feature (Le chemin d\u2019accès spécifié est introuvable)\n- com.intuit.karate.resource.FileResource.getStream(FileResource.java:98)\n- com.intuit.karate.core.FeatureParser.parse(FeatureParser.java:70)\n- com.intuit.karate.core.Feature.read(Feature.java:67)\n- com.intuit.karate.core.ScenarioFileReader.readFile(ScenarioFileReader.java:64)\n- com.intuit.karate.core.ScenarioEngine.lambda$new$0(ScenarioEngine.java:124)\n- <js>.:program(Unnamed:1)\n\nsrc\/test\/java\/TestFeatures\/week3\/callGetPerson.feature:12\n"},{"result":{"nanos":0,"millis":0.0,"status":"skipped"},"step":{"line":13,"prefix":"And","index":4,"text":"print person.response"}}],"line":8,"description":"","durationMillis":1197.7243,"failed":true,"error":"js failed:\n>>>>\n01: read('\/java\/reusableFeatures\/getPerson.feature')\n<<<<\norg.graalvm.polyglot.PolyglotException: java.io.FileNotFoundException: C:\\Users\\malouan\\eclipse-workspace\\karate\\src\\test\\java\\TestFeatures\\week3\\java\\reusableFeatures\\getPerson.feature (Le chemin d\u2019accès spécifié est introuvable)\n- com.intuit.karate.resource.FileResource.getStream(FileResource.java:98)\n- com.intuit.karate.core.FeatureParser.parse(FeatureParser.java:70)\n- com.intuit.karate.core.Feature.read(Feature.java:67)\n- com.intuit.karate.core.ScenarioFileReader.readFile(ScenarioFileReader.java:64)\n- com.intuit.karate.core.ScenarioEngine.lambda$new$0(ScenarioEngine.java:124)\n- <js>.:program(Unnamed:1)\n\nsrc\/test\/java\/TestFeatures\/week3\/callGetPerson.feature:12","tags":["tag1"],"executorName":"main","name":"Title of your scenario","startTime":1645315467856,"refId":"[1:8]","endTime":1645315469278,"exampleIndex":-1}],"callDepth":0,"name":"Title of your feature","description":"I want to use this template for my feature file","resultDate":"2022-02-20 01:04:29 AM","durationMillis":1197.7243,"passedCount":0}