{"failedCount":1,"prefixedPath":"src\/test\/java\/testRunner\/verifiInCsv.feature","packageQualifiedName":"src.test.java.testRunner.verifiInCsv","loopIndex":-1,"relativePath":"src\/test\/java\/testRunner\/verifiInCsv.feature","scenarioResults":[{"sectionIndex":0,"stepResults":[{"result":{"nanos":151795200,"millis":151.7952,"status":"passed"},"step":{"background":true,"line":4,"prefix":"*","index":0,"text":"def exp = read('data.csv')"}},{"result":{"nanos":1107300,"millis":1.1073,"status":"passed"},"step":{"background":true,"line":5,"prefix":"*","index":1,"text":"def exp1 = read('data1.csv')"}},{"result":{"nanos":1706900,"millis":1.7069,"status":"passed"},"step":{"line":8,"prefix":"Given","index":0,"text":"url 'https:\/\/reqres.in\/api\/users?page=2'"}},{"result":{"nanos":1045338500,"millis":1045.3385,"status":"passed"},"step":{"line":9,"prefix":"When","index":1,"text":"method GET"},"stepLog":"21:24:55.771 request:\n1 > GET https:\/\/reqres.in\/api\/users?page=2\n1 > Host: reqres.in\n1 > Connection: Keep-Alive\n1 > User-Agent: Apache-HttpClient\/4.5.13 (Java\/17.0.1)\n1 > Accept-Encoding: gzip,deflate\n\n\n21:24:56.540 response time in milliseconds: 764\n1 < 200\n1 < Date: Sun, 13 Feb 2022 20:24:53 GMT\n1 < Content-Type: application\/json; charset=utf-8\n1 < Transfer-Encoding: chunked\n1 < Connection: keep-alive\n1 < X-Powered-By: Express\n1 < Access-Control-Allow-Origin: *\n1 < Etag: W\/\"406-ut0vzoCuidvyMf8arZpMpJ6ZRDw\"\n1 < Via: 1.1 vegur\n1 < Cache-Control: max-age=14400\n1 < CF-Cache-Status: REVALIDATED\n1 < Expect-CT: max-age=604800, report-uri=\"https:\/\/report-uri.cloudflare.com\/cdn-cgi\/beacon\/expect-ct\"\n1 < Report-To: {\"endpoints\":[{\"url\":\"https:\\\/\\\/a.nel.cloudflare.com\\\/report\\\/v3?s=3s6K4XUonxHP7k1e6WYv4tJRMSPzmdPNzx8zWtSOWVJKBf3bEZfBx1La25aVnV6%2FEMmCY25oxghtt55EQ9Liz%2BQudgChWI%2FjKvPwRA8QSftz9LnLBu1K0GI8388%3D\"}],\"group\":\"cf-nel\",\"max_age\":604800}\n1 < NEL: {\"success_fraction\":0,\"report_to\":\"cf-nel\",\"max_age\":604800}\n1 < Vary: Accept-Encoding\n1 < Server: cloudflare\n1 < CF-RAY: 6dd0c8631e8a7342-MRS\n1 < alt-svc: h3=\":443\"; ma=86400, h3-29=\":443\"; ma=86400\n{\"page\":2,\"per_page\":6,\"total\":12,\"total_pages\":2,\"data\":[{\"id\":7,\"email\":\"michael.lawson@reqres.in\",\"first_name\":\"Michael\",\"last_name\":\"Lawson\",\"avatar\":\"https:\/\/reqres.in\/img\/faces\/7-image.jpg\"},{\"id\":8,\"email\":\"lindsay.ferguson@reqres.in\",\"first_name\":\"Lindsay\",\"last_name\":\"Ferguson\",\"avatar\":\"https:\/\/reqres.in\/img\/faces\/8-image.jpg\"},{\"id\":9,\"email\":\"tobias.funke@reqres.in\",\"first_name\":\"Tobias\",\"last_name\":\"Funke\",\"avatar\":\"https:\/\/reqres.in\/img\/faces\/9-image.jpg\"},{\"id\":10,\"email\":\"byron.fields@reqres.in\",\"first_name\":\"Byron\",\"last_name\":\"Fields\",\"avatar\":\"https:\/\/reqres.in\/img\/faces\/10-image.jpg\"},{\"id\":11,\"email\":\"george.edwards@reqres.in\",\"first_name\":\"George\",\"last_name\":\"Edwards\",\"avatar\":\"https:\/\/reqres.in\/img\/faces\/11-image.jpg\"},{\"id\":12,\"email\":\"rachel.howell@reqres.in\",\"first_name\":\"Rachel\",\"last_name\":\"Howell\",\"avatar\":\"https:\/\/reqres.in\/img\/faces\/12-image.jpg\"}],\"support\":{\"url\":\"https:\/\/reqres.in\/#support-heading\",\"text\":\"To keep ReqRes free, contributions towards server costs are appreciated!\"}}\n"},{"result":{"nanos":31900,"millis":0.0319,"status":"passed"},"step":{"line":10,"prefix":"Then","index":2,"text":"status 200"}},{"result":{"nanos":11849800,"millis":11.8498,"status":"passed"},"step":{"comments":["#i used this fuction to convert string to number"],"line":12,"prefix":"*","index":3,"text":"def fun = function(x){ x.id = ~~x.id; return x }"}},{"result":{"nanos":17938800,"millis":17.9388,"status":"passed"},"step":{"line":13,"prefix":"*","index":4,"text":"def exp = karate.map(exp, fun)"}},{"result":{"nanos":8414300,"millis":8.4143,"status":"passed"},"step":{"line":14,"prefix":"And","index":5,"text":"def acc = response"}},{"result":{"nanos":16128800,"millis":16.1288,"status":"passed"},"step":{"comments":["#i used deep to check 2 arrays"],"line":16,"prefix":"*","index":6,"text":"match acc.data[*] contains deep exp"}}],"executorName":"main","line":7,"name":"GET request with CSV table","description":"","durationMillis":1254.3115,"startTime":1644783895336,"failed":false,"refId":"[1:7]","endTime":1644783896599,"exampleIndex":-1},{"sectionIndex":1,"stepResults":[{"result":{"nanos":754700,"millis":0.7547,"status":"passed"},"step":{"background":true,"line":4,"prefix":"*","index":0,"text":"def exp = read('data.csv')"}},{"result":{"nanos":565600,"millis":0.5656,"status":"passed"},"step":{"background":true,"line":5,"prefix":"*","index":1,"text":"def exp1 = read('data1.csv')"}},{"result":{"nanos":223400,"millis":0.2234,"status":"passed"},"step":{"line":19,"prefix":"Given","index":0,"text":"url 'https:\/\/reqres.in\/api\/users?page=2'"}},{"result":{"nanos":152282300,"millis":152.2823,"status":"passed"},"step":{"line":20,"prefix":"When","index":1,"text":"method GET"},"stepLog":"21:24:56.606 request:\n1 > GET https:\/\/reqres.in\/api\/users?page=2\n1 > Host: reqres.in\n1 > Connection: Keep-Alive\n1 > User-Agent: Apache-HttpClient\/4.5.13 (Java\/17.0.1)\n1 > Accept-Encoding: gzip,deflate\n\n\n21:24:56.756 response time in milliseconds: 149\n1 < 200\n1 < Date: Sun, 13 Feb 2022 20:24:53 GMT\n1 < Content-Type: application\/json; charset=utf-8\n1 < Transfer-Encoding: chunked\n1 < Connection: keep-alive\n1 < X-Powered-By: Express\n1 < Access-Control-Allow-Origin: *\n1 < Etag: W\/\"406-ut0vzoCuidvyMf8arZpMpJ6ZRDw\"\n1 < Via: 1.1 vegur\n1 < Cache-Control: max-age=14400\n1 < CF-Cache-Status: HIT\n1 < Age: 0\n1 < Expect-CT: max-age=604800, report-uri=\"https:\/\/report-uri.cloudflare.com\/cdn-cgi\/beacon\/expect-ct\"\n1 < Report-To: {\"endpoints\":[{\"url\":\"https:\\\/\\\/a.nel.cloudflare.com\\\/report\\\/v3?s=MREhQ%2B%2BGVyZ7QD3eUivjPZBc%2FwsOxp%2Bl6IH9wNolP9mMzsC1aAYR526WfcJsVJRbUD%2FPNYez13WrJpe0Z2ftMFA14h%2FArWt4mAb6aDC8VuDQ4BJSiLKO1fwn100%3D\"}],\"group\":\"cf-nel\",\"max_age\":604800}\n1 < NEL: {\"success_fraction\":0,\"report_to\":\"cf-nel\",\"max_age\":604800}\n1 < Vary: Accept-Encoding\n1 < Server: cloudflare\n1 < CF-RAY: 6dd0c8652cd941f1-MRS\n1 < alt-svc: h3=\":443\"; ma=86400, h3-29=\":443\"; ma=86400\n{\"page\":2,\"per_page\":6,\"total\":12,\"total_pages\":2,\"data\":[{\"id\":7,\"email\":\"michael.lawson@reqres.in\",\"first_name\":\"Michael\",\"last_name\":\"Lawson\",\"avatar\":\"https:\/\/reqres.in\/img\/faces\/7-image.jpg\"},{\"id\":8,\"email\":\"lindsay.ferguson@reqres.in\",\"first_name\":\"Lindsay\",\"last_name\":\"Ferguson\",\"avatar\":\"https:\/\/reqres.in\/img\/faces\/8-image.jpg\"},{\"id\":9,\"email\":\"tobias.funke@reqres.in\",\"first_name\":\"Tobias\",\"last_name\":\"Funke\",\"avatar\":\"https:\/\/reqres.in\/img\/faces\/9-image.jpg\"},{\"id\":10,\"email\":\"byron.fields@reqres.in\",\"first_name\":\"Byron\",\"last_name\":\"Fields\",\"avatar\":\"https:\/\/reqres.in\/img\/faces\/10-image.jpg\"},{\"id\":11,\"email\":\"george.edwards@reqres.in\",\"first_name\":\"George\",\"last_name\":\"Edwards\",\"avatar\":\"https:\/\/reqres.in\/img\/faces\/11-image.jpg\"},{\"id\":12,\"email\":\"rachel.howell@reqres.in\",\"first_name\":\"Rachel\",\"last_name\":\"Howell\",\"avatar\":\"https:\/\/reqres.in\/img\/faces\/12-image.jpg\"}],\"support\":{\"url\":\"https:\/\/reqres.in\/#support-heading\",\"text\":\"To keep ReqRes free, contributions towards server costs are appreciated!\"}}\n"},{"result":{"nanos":19300,"millis":0.0193,"status":"passed"},"step":{"line":21,"prefix":"Then","index":2,"text":"status 200"}},{"result":{"nanos":713400,"millis":0.7134,"status":"passed"},"step":{"comments":["#i used this fuction to convert string to number","#* def fun = function(x){ x.id = ~~x.id; return x }","#* def exp = karate.map(exp, fun)"],"line":25,"prefix":"And","index":3,"text":"def acc = response"}},{"result":{"nanos":3979800,"errorMessage":"match failed: CONTAINS_DEEP\n  $ | actual does not contain expected | actual array does not contain expected item - {\"email\":\"'lindsay.ferguson@reqres.in'\"} (LIST:LIST)\n  [{\"id\":7,\"email\":\"michael.lawson@reqres.in\",\"first_name\":\"Michael\",\"last_name\":\"Lawson\",\"avatar\":\"https:\/\/reqres.in\/img\/faces\/7-image.jpg\"},{\"id\":8,\"email\":\"lindsay.ferguson@reqres.in\",\"first_name\":\"Lindsay\",\"last_name\":\"Ferguson\",\"avatar\":\"https:\/\/reqres.in\/img\/faces\/8-image.jpg\"},{\"id\":9,\"email\":\"tobias.funke@reqres.in\",\"first_name\":\"Tobias\",\"last_name\":\"Funke\",\"avatar\":\"https:\/\/reqres.in\/img\/faces\/9-image.jpg\"},{\"id\":10,\"email\":\"byron.fields@reqres.in\",\"first_name\":\"Byron\",\"last_name\":\"Fields\",\"avatar\":\"https:\/\/reqres.in\/img\/faces\/10-image.jpg\"},{\"id\":11,\"email\":\"george.edwards@reqres.in\",\"first_name\":\"George\",\"last_name\":\"Edwards\",\"avatar\":\"https:\/\/reqres.in\/img\/faces\/11-image.jpg\"},{\"id\":12,\"email\":\"rachel.howell@reqres.in\",\"first_name\":\"Rachel\",\"last_name\":\"Howell\",\"avatar\":\"https:\/\/reqres.in\/img\/faces\/12-image.jpg\"}]\n  [{\"email\":\"'lindsay.ferguson@reqres.in'\"},{\"email\":\"'michael.lawson@reqres.in'\"}]\n\n    $[5] | actual does not contain expected | all key-values did not match, expected has un-matched keys - [email] (MAP:MAP)\n    {\"id\":12,\"email\":\"rachel.howell@reqres.in\",\"first_name\":\"Rachel\",\"last_name\":\"Howell\",\"avatar\":\"https:\/\/reqres.in\/img\/faces\/12-image.jpg\"}\n    {\"email\":\"'lindsay.ferguson@reqres.in'\"}\n\n      $[5].email | not equal (STRING:STRING)\n      'rachel.howell@reqres.in'\n      ''lindsay.ferguson@reqres.in''\n\n        $[4] | actual does not contain expected | all key-values did not match, expected has un-matched keys - [email] (MAP:MAP)\n        {\"id\":11,\"email\":\"george.edwards@reqres.in\",\"first_name\":\"George\",\"last_name\":\"Edwards\",\"avatar\":\"https:\/\/reqres.in\/img\/faces\/11-image.jpg\"}\n        {\"email\":\"'lindsay.ferguson@reqres.in'\"}\n\n          $[4].email | not equal (STRING:STRING)\n          'george.edwards@reqres.in'\n          ''lindsay.ferguson@reqres.in''\n\n            $[3] | actual does not contain expected | all key-values did not match, expected has un-matched keys - [email] (MAP:MAP)\n            {\"id\":10,\"email\":\"byron.fields@reqres.in\",\"first_name\":\"Byron\",\"last_name\":\"Fields\",\"avatar\":\"https:\/\/reqres.in\/img\/faces\/10-image.jpg\"}\n            {\"email\":\"'lindsay.ferguson@reqres.in'\"}\n\n              $[3].email | not equal (STRING:STRING)\n              'byron.fields@reqres.in'\n              ''lindsay.ferguson@reqres.in''\n\n                $[2] | actual does not contain expected | all key-values did not match, expected has un-matched keys - [email] (MAP:MAP)\n                {\"id\":9,\"email\":\"tobias.funke@reqres.in\",\"first_name\":\"Tobias\",\"last_name\":\"Funke\",\"avatar\":\"https:\/\/reqres.in\/img\/faces\/9-image.jpg\"}\n                {\"email\":\"'lindsay.ferguson@reqres.in'\"}\n\n                  $[2].email | not equal (STRING:STRING)\n                  'tobias.funke@reqres.in'\n                  ''lindsay.ferguson@reqres.in''\n\n                    $[1] | actual does not contain expected | all key-values did not match, expected has un-matched keys - [email] (MAP:MAP)\n                    {\"id\":8,\"email\":\"lindsay.ferguson@reqres.in\",\"first_name\":\"Lindsay\",\"last_name\":\"Ferguson\",\"avatar\":\"https:\/\/reqres.in\/img\/faces\/8-image.jpg\"}\n                    {\"email\":\"'lindsay.ferguson@reqres.in'\"}\n\n                      $[1].email | not equal (STRING:STRING)\n                      'lindsay.ferguson@reqres.in'\n                      ''lindsay.ferguson@reqres.in''\n\n                        $[0] | actual does not contain expected | all key-values did not match, expected has un-matched keys - [email] (MAP:MAP)\n                        {\"id\":7,\"email\":\"michael.lawson@reqres.in\",\"first_name\":\"Michael\",\"last_name\":\"Lawson\",\"avatar\":\"https:\/\/reqres.in\/img\/faces\/7-image.jpg\"}\n                        {\"email\":\"'lindsay.ferguson@reqres.in'\"}\n\n                          $[0].email | not equal (STRING:STRING)\n                          'michael.lawson@reqres.in'\n                          ''lindsay.ferguson@reqres.in''\n\nsrc\/test\/java\/testRunner\/verifiInCsv.feature:27","millis":3.9798,"status":"failed"},"step":{"comments":["#i used deep to check 2 arrays"],"line":27,"prefix":"*","index":4,"text":"match acc.data[*] contains deep exp1"},"stepLog":"21:24:56.764 src\/test\/java\/testRunner\/verifiInCsv.feature:27\n* match acc.data[*] contains deep exp1\nmatch failed: CONTAINS_DEEP\n  $ | actual does not contain expected | actual array does not contain expected item - {\"email\":\"'lindsay.ferguson@reqres.in'\"} (LIST:LIST)\n  [{\"id\":7,\"email\":\"michael.lawson@reqres.in\",\"first_name\":\"Michael\",\"last_name\":\"Lawson\",\"avatar\":\"https:\/\/reqres.in\/img\/faces\/7-image.jpg\"},{\"id\":8,\"email\":\"lindsay.ferguson@reqres.in\",\"first_name\":\"Lindsay\",\"last_name\":\"Ferguson\",\"avatar\":\"https:\/\/reqres.in\/img\/faces\/8-image.jpg\"},{\"id\":9,\"email\":\"tobias.funke@reqres.in\",\"first_name\":\"Tobias\",\"last_name\":\"Funke\",\"avatar\":\"https:\/\/reqres.in\/img\/faces\/9-image.jpg\"},{\"id\":10,\"email\":\"byron.fields@reqres.in\",\"first_name\":\"Byron\",\"last_name\":\"Fields\",\"avatar\":\"https:\/\/reqres.in\/img\/faces\/10-image.jpg\"},{\"id\":11,\"email\":\"george.edwards@reqres.in\",\"first_name\":\"George\",\"last_name\":\"Edwards\",\"avatar\":\"https:\/\/reqres.in\/img\/faces\/11-image.jpg\"},{\"id\":12,\"email\":\"rachel.howell@reqres.in\",\"first_name\":\"Rachel\",\"last_name\":\"Howell\",\"avatar\":\"https:\/\/reqres.in\/img\/faces\/12-image.jpg\"}]\n  [{\"email\":\"'lindsay.ferguson@reqres.in'\"},{\"email\":\"'michael.lawson@reqres.in'\"}]\n\n    $[5] | actual does not contain expected | all key-values did not match, expected has un-matched keys - [email] (MAP:MAP)\n    {\"id\":12,\"email\":\"rachel.howell@reqres.in\",\"first_name\":\"Rachel\",\"last_name\":\"Howell\",\"avatar\":\"https:\/\/reqres.in\/img\/faces\/12-image.jpg\"}\n    {\"email\":\"'lindsay.ferguson@reqres.in'\"}\n\n      $[5].email | not equal (STRING:STRING)\n      'rachel.howell@reqres.in'\n      ''lindsay.ferguson@reqres.in''\n\n        $[4] | actual does not contain expected | all key-values did not match, expected has un-matched keys - [email] (MAP:MAP)\n        {\"id\":11,\"email\":\"george.edwards@reqres.in\",\"first_name\":\"George\",\"last_name\":\"Edwards\",\"avatar\":\"https:\/\/reqres.in\/img\/faces\/11-image.jpg\"}\n        {\"email\":\"'lindsay.ferguson@reqres.in'\"}\n\n          $[4].email | not equal (STRING:STRING)\n          'george.edwards@reqres.in'\n          ''lindsay.ferguson@reqres.in''\n\n            $[3] | actual does not contain expected | all key-values did not match, expected has un-matched keys - [email] (MAP:MAP)\n            {\"id\":10,\"email\":\"byron.fields@reqres.in\",\"first_name\":\"Byron\",\"last_name\":\"Fields\",\"avatar\":\"https:\/\/reqres.in\/img\/faces\/10-image.jpg\"}\n            {\"email\":\"'lindsay.ferguson@reqres.in'\"}\n\n              $[3].email | not equal (STRING:STRING)\n              'byron.fields@reqres.in'\n              ''lindsay.ferguson@reqres.in''\n\n                $[2] | actual does not contain expected | all key-values did not match, expected has un-matched keys - [email] (MAP:MAP)\n                {\"id\":9,\"email\":\"tobias.funke@reqres.in\",\"first_name\":\"Tobias\",\"last_name\":\"Funke\",\"avatar\":\"https:\/\/reqres.in\/img\/faces\/9-image.jpg\"}\n                {\"email\":\"'lindsay.ferguson@reqres.in'\"}\n\n                  $[2].email | not equal (STRING:STRING)\n                  'tobias.funke@reqres.in'\n                  ''lindsay.ferguson@reqres.in''\n\n                    $[1] | actual does not contain expected | all key-values did not match, expected has un-matched keys - [email] (MAP:MAP)\n                    {\"id\":8,\"email\":\"lindsay.ferguson@reqres.in\",\"first_name\":\"Lindsay\",\"last_name\":\"Ferguson\",\"avatar\":\"https:\/\/reqres.in\/img\/faces\/8-image.jpg\"}\n                    {\"email\":\"'lindsay.ferguson@reqres.in'\"}\n\n                      $[1].email | not equal (STRING:STRING)\n                      'lindsay.ferguson@reqres.in'\n                      ''lindsay.ferguson@reqres.in''\n\n                        $[0] | actual does not contain expected | all key-values did not match, expected has un-matched keys - [email] (MAP:MAP)\n                        {\"id\":7,\"email\":\"michael.lawson@reqres.in\",\"first_name\":\"Michael\",\"last_name\":\"Lawson\",\"avatar\":\"https:\/\/reqres.in\/img\/faces\/7-image.jpg\"}\n                        {\"email\":\"'lindsay.ferguson@reqres.in'\"}\n\n                          $[0].email | not equal (STRING:STRING)\n                          'michael.lawson@reqres.in'\n                          ''lindsay.ferguson@reqres.in''\n\nsrc\/test\/java\/testRunner\/verifiInCsv.feature:27\n"}],"line":18,"description":"","durationMillis":158.5385,"failed":true,"error":"match failed: CONTAINS_DEEP\n  $ | actual does not contain expected | actual array does not contain expected item - {\"email\":\"'lindsay.ferguson@reqres.in'\"} (LIST:LIST)\n  [{\"id\":7,\"email\":\"michael.lawson@reqres.in\",\"first_name\":\"Michael\",\"last_name\":\"Lawson\",\"avatar\":\"https:\/\/reqres.in\/img\/faces\/7-image.jpg\"},{\"id\":8,\"email\":\"lindsay.ferguson@reqres.in\",\"first_name\":\"Lindsay\",\"last_name\":\"Ferguson\",\"avatar\":\"https:\/\/reqres.in\/img\/faces\/8-image.jpg\"},{\"id\":9,\"email\":\"tobias.funke@reqres.in\",\"first_name\":\"Tobias\",\"last_name\":\"Funke\",\"avatar\":\"https:\/\/reqres.in\/img\/faces\/9-image.jpg\"},{\"id\":10,\"email\":\"byron.fields@reqres.in\",\"first_name\":\"Byron\",\"last_name\":\"Fields\",\"avatar\":\"https:\/\/reqres.in\/img\/faces\/10-image.jpg\"},{\"id\":11,\"email\":\"george.edwards@reqres.in\",\"first_name\":\"George\",\"last_name\":\"Edwards\",\"avatar\":\"https:\/\/reqres.in\/img\/faces\/11-image.jpg\"},{\"id\":12,\"email\":\"rachel.howell@reqres.in\",\"first_name\":\"Rachel\",\"last_name\":\"Howell\",\"avatar\":\"https:\/\/reqres.in\/img\/faces\/12-image.jpg\"}]\n  [{\"email\":\"'lindsay.ferguson@reqres.in'\"},{\"email\":\"'michael.lawson@reqres.in'\"}]\n\n    $[5] | actual does not contain expected | all key-values did not match, expected has un-matched keys - [email] (MAP:MAP)\n    {\"id\":12,\"email\":\"rachel.howell@reqres.in\",\"first_name\":\"Rachel\",\"last_name\":\"Howell\",\"avatar\":\"https:\/\/reqres.in\/img\/faces\/12-image.jpg\"}\n    {\"email\":\"'lindsay.ferguson@reqres.in'\"}\n\n      $[5].email | not equal (STRING:STRING)\n      'rachel.howell@reqres.in'\n      ''lindsay.ferguson@reqres.in''\n\n        $[4] | actual does not contain expected | all key-values did not match, expected has un-matched keys - [email] (MAP:MAP)\n        {\"id\":11,\"email\":\"george.edwards@reqres.in\",\"first_name\":\"George\",\"last_name\":\"Edwards\",\"avatar\":\"https:\/\/reqres.in\/img\/faces\/11-image.jpg\"}\n        {\"email\":\"'lindsay.ferguson@reqres.in'\"}\n\n          $[4].email | not equal (STRING:STRING)\n          'george.edwards@reqres.in'\n          ''lindsay.ferguson@reqres.in''\n\n            $[3] | actual does not contain expected | all key-values did not match, expected has un-matched keys - [email] (MAP:MAP)\n            {\"id\":10,\"email\":\"byron.fields@reqres.in\",\"first_name\":\"Byron\",\"last_name\":\"Fields\",\"avatar\":\"https:\/\/reqres.in\/img\/faces\/10-image.jpg\"}\n            {\"email\":\"'lindsay.ferguson@reqres.in'\"}\n\n              $[3].email | not equal (STRING:STRING)\n              'byron.fields@reqres.in'\n              ''lindsay.ferguson@reqres.in''\n\n                $[2] | actual does not contain expected | all key-values did not match, expected has un-matched keys - [email] (MAP:MAP)\n                {\"id\":9,\"email\":\"tobias.funke@reqres.in\",\"first_name\":\"Tobias\",\"last_name\":\"Funke\",\"avatar\":\"https:\/\/reqres.in\/img\/faces\/9-image.jpg\"}\n                {\"email\":\"'lindsay.ferguson@reqres.in'\"}\n\n                  $[2].email | not equal (STRING:STRING)\n                  'tobias.funke@reqres.in'\n                  ''lindsay.ferguson@reqres.in''\n\n                    $[1] | actual does not contain expected | all key-values did not match, expected has un-matched keys - [email] (MAP:MAP)\n                    {\"id\":8,\"email\":\"lindsay.ferguson@reqres.in\",\"first_name\":\"Lindsay\",\"last_name\":\"Ferguson\",\"avatar\":\"https:\/\/reqres.in\/img\/faces\/8-image.jpg\"}\n                    {\"email\":\"'lindsay.ferguson@reqres.in'\"}\n\n                      $[1].email | not equal (STRING:STRING)\n                      'lindsay.ferguson@reqres.in'\n                      ''lindsay.ferguson@reqres.in''\n\n                        $[0] | actual does not contain expected | all key-values did not match, expected has un-matched keys - [email] (MAP:MAP)\n                        {\"id\":7,\"email\":\"michael.lawson@reqres.in\",\"first_name\":\"Michael\",\"last_name\":\"Lawson\",\"avatar\":\"https:\/\/reqres.in\/img\/faces\/7-image.jpg\"}\n                        {\"email\":\"'lindsay.ferguson@reqres.in'\"}\n\n                          $[0].email | not equal (STRING:STRING)\n                          'michael.lawson@reqres.in'\n                          ''lindsay.ferguson@reqres.in''\n\nsrc\/test\/java\/testRunner\/verifiInCsv.feature:27","executorName":"main","name":"GET request with CSV table","startTime":1644783896603,"refId":"[2:18]","endTime":1644783896764,"exampleIndex":-1}],"callDepth":0,"name":"verify if elements exists in csv file","description":"","resultDate":"2022-02-13 09:24:56 PM","durationMillis":1412.85,"passedCount":1}