{"failedCount":1,"prefixedPath":"src\/test\/java\/TestFeatures\/week3\/callGetPerson.feature","packageQualifiedName":"src.test.java.TestFeatures.week3.callGetPerson","loopIndex":-1,"relativePath":"src\/test\/java\/TestFeatures\/week3\/callGetPerson.feature","scenarioResults":[{"sectionIndex":0,"stepResults":[{"result":{"nanos":1452000,"millis":1.452,"status":"passed"},"step":{"line":9,"prefix":"Given","index":0,"text":"url 'https:\/\/reqres.in\/api\/users?page=1'"},"stepLog":"14:43:24.098 \n"},{"result":{"nanos":623203600,"millis":623.2036,"status":"passed"},"step":{"line":10,"prefix":"When","index":1,"text":"method GET"},"stepLog":"14:43:24.322 request:\n1 > GET https:\/\/reqres.in\/api\/users?page=1\n1 > Host: reqres.in\n1 > Connection: Keep-Alive\n1 > User-Agent: Apache-HttpClient\/4.5.13 (Java\/17.0.1)\n1 > Accept-Encoding: gzip,deflate\n\n\n14:43:24.725 response time in milliseconds: 401\n1 < 200\n1 < Date: Sun, 20 Feb 2022 13:43:16 GMT\n1 < Content-Type: application\/json; charset=utf-8\n1 < Transfer-Encoding: chunked\n1 < Connection: keep-alive\n1 < x-powered-by: Express\n1 < access-control-allow-origin: *\n1 < etag: W\/\"3e4-2RLXvr5wTg9YQ6aH95CkYoFNuO8\"\n1 < via: 1.1 vegur\n1 < Cache-Control: max-age=14400\n1 < CF-Cache-Status: HIT\n1 < Age: 331\n1 < Expect-CT: max-age=604800, report-uri=\"https:\/\/report-uri.cloudflare.com\/cdn-cgi\/beacon\/expect-ct\"\n1 < Report-To: {\"endpoints\":[{\"url\":\"https:\\\/\\\/a.nel.cloudflare.com\\\/report\\\/v3?s=xq8815CYMu60waVI8JWh%2Be1BEjdwoKPcCgSrZpfZGwl5mBYIIe7cb3n3OQRjjPF18mSE3GeUo390XwZRbv41Jb2ACs%2BgHRMBZ%2FxA4vrBjvqSZcxx2njiMpOtCos%3D\"}],\"group\":\"cf-nel\",\"max_age\":604800}\n1 < NEL: {\"success_fraction\":0,\"report_to\":\"cf-nel\",\"max_age\":604800}\n1 < Vary: Accept-Encoding\n1 < Server: cloudflare\n1 < CF-RAY: 6e0829ba5fe42e02-BRU\n1 < alt-svc: h3=\":443\"; ma=86400, h3-29=\":443\"; ma=86400\n{\"page\":1,\"per_page\":6,\"total\":12,\"total_pages\":2,\"data\":[{\"id\":1,\"email\":\"george.bluth@reqres.in\",\"first_name\":\"George\",\"last_name\":\"Bluth\",\"avatar\":\"https:\/\/reqres.in\/img\/faces\/1-image.jpg\"},{\"id\":2,\"email\":\"janet.weaver@reqres.in\",\"first_name\":\"Janet\",\"last_name\":\"Weaver\",\"avatar\":\"https:\/\/reqres.in\/img\/faces\/2-image.jpg\"},{\"id\":3,\"email\":\"emma.wong@reqres.in\",\"first_name\":\"Emma\",\"last_name\":\"Wong\",\"avatar\":\"https:\/\/reqres.in\/img\/faces\/3-image.jpg\"},{\"id\":4,\"email\":\"eve.holt@reqres.in\",\"first_name\":\"Eve\",\"last_name\":\"Holt\",\"avatar\":\"https:\/\/reqres.in\/img\/faces\/4-image.jpg\"},{\"id\":5,\"email\":\"charles.morris@reqres.in\",\"first_name\":\"Charles\",\"last_name\":\"Morris\",\"avatar\":\"https:\/\/reqres.in\/img\/faces\/5-image.jpg\"},{\"id\":6,\"email\":\"tracey.ramos@reqres.in\",\"first_name\":\"Tracey\",\"last_name\":\"Ramos\",\"avatar\":\"https:\/\/reqres.in\/img\/faces\/6-image.jpg\"}],\"support\":{\"url\":\"https:\/\/reqres.in\/#support-heading\",\"text\":\"To keep ReqRes free, contributions towards server costs are appreciated!\"}}\n"},{"result":{"nanos":17200,"millis":0.0172,"status":"passed"},"step":{"line":11,"prefix":"Then","index":2,"text":"status 200"}},{"result":{"nanos":1636100,"millis":1.6361,"status":"passed"},"step":{"endLine":14,"line":12,"prefix":"*","index":3,"text":"table ids","table":[{"line":13,"row":["id"]},{"line":14,"row":["1"]}]}},{"result":{"nanos":375580600,"errorMessage":"feature call loop failed at index: 0, match failed: CONTAINS\n  $ | actual does not contain expected | actual array does not contain expected item - {\"id\":1} (LIST:MAP)\n  [1,2,3,4,5,6]\n  {\"id\":1}\n\n    $[5] | data types don't match (NUMBER:MAP)\n    6\n    {\"id\":1}\n\n    $[4] | data types don't match (NUMBER:MAP)\n    5\n    {\"id\":1}\n\n    $[3] | data types don't match (NUMBER:MAP)\n    4\n    {\"id\":1}\n\n    $[2] | data types don't match (NUMBER:MAP)\n    3\n    {\"id\":1}\n\n    $[1] | data types don't match (NUMBER:MAP)\n    2\n    {\"id\":1}\n\n    $[0] | data types don't match (NUMBER:MAP)\n    1\n    {\"id\":1}\n\nclasspath:reusableFeatures\/getPerson.feature:10\nsrc\/test\/java\/TestFeatures\/week3\/callGetPerson.feature:15","millis":375.5806,"status":"failed"},"step":{"line":15,"prefix":"*","index":4,"text":"def person = call read('classpath:\/reusableFeatures\/getPerson.feature') ids"},"stepLog":"14:43:25.124 src\/test\/java\/TestFeatures\/week3\/callGetPerson.feature:15\n* def person = call read('classpath:\/reusableFeatures\/getPerson.feature') ids\nfeature call loop failed at index: 0, match failed: CONTAINS\n  $ | actual does not contain expected | actual array does not contain expected item - {\"id\":1} (LIST:MAP)\n  [1,2,3,4,5,6]\n  {\"id\":1}\n\n    $[5] | data types don't match (NUMBER:MAP)\n    6\n    {\"id\":1}\n\n    $[4] | data types don't match (NUMBER:MAP)\n    5\n    {\"id\":1}\n\n    $[3] | data types don't match (NUMBER:MAP)\n    4\n    {\"id\":1}\n\n    $[2] | data types don't match (NUMBER:MAP)\n    3\n    {\"id\":1}\n\n    $[1] | data types don't match (NUMBER:MAP)\n    2\n    {\"id\":1}\n\n    $[0] | data types don't match (NUMBER:MAP)\n    1\n    {\"id\":1}\n\nclasspath:reusableFeatures\/getPerson.feature:10\n14:43:25.124 src\/test\/java\/TestFeatures\/week3\/callGetPerson.feature:15\n* def person = call read('classpath:\/reusableFeatures\/getPerson.feature') ids\nfeature call loop failed at index: 0, match failed: CONTAINS\n  $ | actual does not contain expected | actual array does not contain expected item - {\"id\":1} (LIST:MAP)\n  [1,2,3,4,5,6]\n  {\"id\":1}\n\n    $[5] | data types don't match (NUMBER:MAP)\n    6\n    {\"id\":1}\n\n    $[4] | data types don't match (NUMBER:MAP)\n    5\n    {\"id\":1}\n\n    $[3] | data types don't match (NUMBER:MAP)\n    4\n    {\"id\":1}\n\n    $[2] | data types don't match (NUMBER:MAP)\n    3\n    {\"id\":1}\n\n    $[1] | data types don't match (NUMBER:MAP)\n    2\n    {\"id\":1}\n\n    $[0] | data types don't match (NUMBER:MAP)\n    1\n    {\"id\":1}\n\nclasspath:reusableFeatures\/getPerson.feature:10\nsrc\/test\/java\/TestFeatures\/week3\/callGetPerson.feature:15\n","callResults":[{"prefixedPath":"classpath:reusableFeatures\/getPerson.feature","loopIndex":0,"callDepth":1,"description":"","resultDate":"2022-02-20 02:43:25 PM","durationMillis":348.8373,"callArg":{"id":1},"failedCount":1,"packageQualifiedName":"reusableFeatures.getPerson","relativePath":"reusableFeatures\/getPerson.feature","scenarioResults":[{"sectionIndex":0,"stepResults":[{"result":{"nanos":379500,"millis":0.3795,"status":"passed"},"step":{"line":5,"prefix":"Given","index":0,"text":"url 'https:\/\/reqres.in\/api\/users?page=1'"}},{"result":{"nanos":11729200,"millis":11.7292,"status":"passed"},"step":{"line":6,"prefix":"And","index":1,"text":"request { id: #(id) }"}},{"result":{"nanos":329788600,"millis":329.7886,"status":"passed"},"step":{"line":7,"prefix":"When","index":2,"text":"method GET"},"stepLog":"14:43:24.842 request:\n1 > GET https:\/\/reqres.in\/api\/users?page=1\n1 > Content-Type: application\/json; charset=UTF-8\n1 > Content-Length: 8\n1 > Host: reqres.in\n1 > Connection: Keep-Alive\n1 > User-Agent: Apache-HttpClient\/4.5.13 (Java\/17.0.1)\n1 > Accept-Encoding: gzip,deflate\n{\"id\":1}\n\n14:43:25.115 response time in milliseconds: 273\n1 < 200\n1 < Date: Sun, 20 Feb 2022 13:43:17 GMT\n1 < Content-Type: application\/json; charset=utf-8\n1 < Transfer-Encoding: chunked\n1 < Connection: keep-alive\n1 < x-powered-by: Express\n1 < access-control-allow-origin: *\n1 < etag: W\/\"3e4-2RLXvr5wTg9YQ6aH95CkYoFNuO8\"\n1 < via: 1.1 vegur\n1 < Cache-Control: max-age=14400\n1 < CF-Cache-Status: HIT\n1 < Age: 332\n1 < Expect-CT: max-age=604800, report-uri=\"https:\/\/report-uri.cloudflare.com\/cdn-cgi\/beacon\/expect-ct\"\n1 < Report-To: {\"endpoints\":[{\"url\":\"https:\\\/\\\/a.nel.cloudflare.com\\\/report\\\/v3?s=SWHDKrb%2B2%2FYWhMS9yzr1gPmyWC2Rdxl%2B6yCqIs6i6MmD%2FqeOoPvwiQ993hqlg5TTP7aNyoyQmSN%2FqnYM4r6ygCAmDYw3pvxSq4vvz93OsQ5cCCWSgZQqd47osRk%3D\"}],\"group\":\"cf-nel\",\"max_age\":604800}\n1 < NEL: {\"success_fraction\":0,\"report_to\":\"cf-nel\",\"max_age\":604800}\n1 < Vary: Accept-Encoding\n1 < Server: cloudflare\n1 < CF-RAY: 6e0829bceaef83e4-BRU\n1 < alt-svc: h3=\":443\"; ma=86400, h3-29=\":443\"; ma=86400\n{\"page\":1,\"per_page\":6,\"total\":12,\"total_pages\":2,\"data\":[{\"id\":1,\"email\":\"george.bluth@reqres.in\",\"first_name\":\"George\",\"last_name\":\"Bluth\",\"avatar\":\"https:\/\/reqres.in\/img\/faces\/1-image.jpg\"},{\"id\":2,\"email\":\"janet.weaver@reqres.in\",\"first_name\":\"Janet\",\"last_name\":\"Weaver\",\"avatar\":\"https:\/\/reqres.in\/img\/faces\/2-image.jpg\"},{\"id\":3,\"email\":\"emma.wong@reqres.in\",\"first_name\":\"Emma\",\"last_name\":\"Wong\",\"avatar\":\"https:\/\/reqres.in\/img\/faces\/3-image.jpg\"},{\"id\":4,\"email\":\"eve.holt@reqres.in\",\"first_name\":\"Eve\",\"last_name\":\"Holt\",\"avatar\":\"https:\/\/reqres.in\/img\/faces\/4-image.jpg\"},{\"id\":5,\"email\":\"charles.morris@reqres.in\",\"first_name\":\"Charles\",\"last_name\":\"Morris\",\"avatar\":\"https:\/\/reqres.in\/img\/faces\/5-image.jpg\"},{\"id\":6,\"email\":\"tracey.ramos@reqres.in\",\"first_name\":\"Tracey\",\"last_name\":\"Ramos\",\"avatar\":\"https:\/\/reqres.in\/img\/faces\/6-image.jpg\"}],\"support\":{\"url\":\"https:\/\/reqres.in\/#support-heading\",\"text\":\"To keep ReqRes free, contributions towards server costs are appreciated!\"}}\n"},{"result":{"nanos":7200,"millis":0.0072,"status":"passed"},"step":{"line":8,"prefix":"Then","index":3,"text":"status 200"}},{"result":{"nanos":6932800,"errorMessage":"match failed: CONTAINS\n  $ | actual does not contain expected | actual array does not contain expected item - {\"id\":1} (LIST:MAP)\n  [1,2,3,4,5,6]\n  {\"id\":1}\n\n    $[5] | data types don't match (NUMBER:MAP)\n    6\n    {\"id\":1}\n\n    $[4] | data types don't match (NUMBER:MAP)\n    5\n    {\"id\":1}\n\n    $[3] | data types don't match (NUMBER:MAP)\n    4\n    {\"id\":1}\n\n    $[2] | data types don't match (NUMBER:MAP)\n    3\n    {\"id\":1}\n\n    $[1] | data types don't match (NUMBER:MAP)\n    2\n    {\"id\":1}\n\n    $[0] | data types don't match (NUMBER:MAP)\n    1\n    {\"id\":1}\n\nclasspath:reusableFeatures\/getPerson.feature:10","millis":6.9328,"status":"failed"},"step":{"comments":["#And match response.data[*] contains {id: id,email:'#ignore',first_name:'#ignore',last_name:'#ignore',avatar:'#ignore'}"],"line":10,"prefix":"And","index":4,"text":"match response.data[*].id contains {id : 1}"},"stepLog":"14:43:25.124 classpath:reusableFeatures\/getPerson.feature:10\nAnd match response.data[*].id contains {id : 1}\nmatch failed: CONTAINS\n  $ | actual does not contain expected | actual array does not contain expected item - {\"id\":1} (LIST:MAP)\n  [1,2,3,4,5,6]\n  {\"id\":1}\n\n    $[5] | data types don't match (NUMBER:MAP)\n    6\n    {\"id\":1}\n\n    $[4] | data types don't match (NUMBER:MAP)\n    5\n    {\"id\":1}\n\n    $[3] | data types don't match (NUMBER:MAP)\n    4\n    {\"id\":1}\n\n    $[2] | data types don't match (NUMBER:MAP)\n    3\n    {\"id\":1}\n\n    $[1] | data types don't match (NUMBER:MAP)\n    2\n    {\"id\":1}\n\n    $[0] | data types don't match (NUMBER:MAP)\n    1\n    {\"id\":1}\n\nclasspath:reusableFeatures\/getPerson.feature:10\n"}],"line":4,"description":"","durationMillis":348.8373,"failed":true,"error":"match failed: CONTAINS\n  $ | actual does not contain expected | actual array does not contain expected item - {\"id\":1} (LIST:MAP)\n  [1,2,3,4,5,6]\n  {\"id\":1}\n\n    $[5] | data types don't match (NUMBER:MAP)\n    6\n    {\"id\":1}\n\n    $[4] | data types don't match (NUMBER:MAP)\n    5\n    {\"id\":1}\n\n    $[3] | data types don't match (NUMBER:MAP)\n    4\n    {\"id\":1}\n\n    $[2] | data types don't match (NUMBER:MAP)\n    3\n    {\"id\":1}\n\n    $[1] | data types don't match (NUMBER:MAP)\n    2\n    {\"id\":1}\n\n    $[0] | data types don't match (NUMBER:MAP)\n    1\n    {\"id\":1}\n\nclasspath:reusableFeatures\/getPerson.feature:10","executorName":"main","name":"get person","startTime":1645364604774,"refId":"[1:4]","endTime":1645364605124,"exampleIndex":-1}],"name":"Get person from list","passedCount":0}]},{"result":{"nanos":0,"millis":0.0,"status":"skipped"},"step":{"line":16,"prefix":"And","index":5,"text":"print person.response"}}],"line":8,"description":"","durationMillis":1001.8895,"failed":true,"error":"feature call loop failed at index: 0, match failed: CONTAINS\n  $ | actual does not contain expected | actual array does not contain expected item - {\"id\":1} (LIST:MAP)\n  [1,2,3,4,5,6]\n  {\"id\":1}\n\n    $[5] | data types don't match (NUMBER:MAP)\n    6\n    {\"id\":1}\n\n    $[4] | data types don't match (NUMBER:MAP)\n    5\n    {\"id\":1}\n\n    $[3] | data types don't match (NUMBER:MAP)\n    4\n    {\"id\":1}\n\n    $[2] | data types don't match (NUMBER:MAP)\n    3\n    {\"id\":1}\n\n    $[1] | data types don't match (NUMBER:MAP)\n    2\n    {\"id\":1}\n\n    $[0] | data types don't match (NUMBER:MAP)\n    1\n    {\"id\":1}\n\nclasspath:reusableFeatures\/getPerson.feature:10\nsrc\/test\/java\/TestFeatures\/week3\/callGetPerson.feature:15","tags":["tag1"],"executorName":"main","name":"Title of your scenario","startTime":1645364603976,"refId":"[1:8]","endTime":1645364605124,"exampleIndex":-1}],"callDepth":0,"name":"Title of your feature","description":"I want to use this template for my feature file","resultDate":"2022-02-20 02:43:25 PM","durationMillis":1001.8895,"passedCount":0}