{"failedCount":1,"prefixedPath":"src\/test\/java\/testapi.feature","packageQualifiedName":"src.test.java.testapi","loopIndex":-1,"relativePath":"src\/test\/java\/testapi.feature","scenarioResults":[{"sectionIndex":0,"stepResults":[{"result":{"nanos":101559500,"millis":101.5595,"status":"passed"},"step":{"background":true,"line":4,"prefix":"*","index":0,"text":"url 'https:\/\/reqres.in\/api'"}},{"result":{"nanos":120084600,"millis":120.0846,"status":"passed"},"step":{"background":true,"line":5,"prefix":"*","index":1,"text":"def output = read('response1.json')"}},{"result":{"nanos":1145400,"millis":1.1454,"status":"passed"},"step":{"background":true,"line":6,"prefix":"*","index":2,"text":"def request1 = read('request1.json')"}},{"result":{"nanos":310800,"millis":0.3108,"status":"passed"},"step":{"line":9,"prefix":"Given","index":0,"text":"path '\/users?page=2'"}},{"result":{"nanos":698383100,"millis":698.3831,"status":"passed"},"step":{"line":10,"prefix":"When","index":1,"text":"method GET"},"stepLog":"20:08:43.570 request:\n1 > GET https:\/\/reqres.in\/api\/users%3Fpage=2\n1 > Host: reqres.in\n1 > Connection: Keep-Alive\n1 > User-Agent: Apache-HttpClient\/4.5.13 (Java\/17.0.1)\n1 > Accept-Encoding: gzip,deflate\n\n\n20:08:44.015 response time in milliseconds: 442\n1 < 200\n1 < Date: Sat, 05 Feb 2022 19:08:38 GMT\n1 < Content-Type: application\/json; charset=utf-8\n1 < Transfer-Encoding: chunked\n1 < Connection: keep-alive\n1 < x-powered-by: Express\n1 < access-control-allow-origin: *\n1 < etag: W\/\"2c1-N6Rqerxquq2kgQhL51EiSg4x0R8\"\n1 < via: 1.1 vegur\n1 < Cache-Control: max-age=14400\n1 < CF-Cache-Status: HIT\n1 < Age: 4672\n1 < Expect-CT: max-age=604800, report-uri=\"https:\/\/report-uri.cloudflare.com\/cdn-cgi\/beacon\/expect-ct\"\n1 < Report-To: {\"endpoints\":[{\"url\":\"https:\\\/\\\/a.nel.cloudflare.com\\\/report\\\/v3?s=eWpThtba4j%2FQac%2F6Kgr2gdKOpx74t0D5JdyHswuWSOrO3GU2EbDU8YrZY6xzHCtshRJW83SL4Soh8F0mM%2FJ4CAabWm%2BLn%2BKwq1ACh7PZDcbE7%2B0zwslDh2zP7B0%3D\"}],\"group\":\"cf-nel\",\"max_age\":604800}\n1 < NEL: {\"success_fraction\":0,\"report_to\":\"cf-nel\",\"max_age\":604800}\n1 < Vary: Accept-Encoding\n1 < Server: cloudflare\n1 < CF-RAY: 6d8e6db67bc22e6e-BRU\n1 < alt-svc: h3=\":443\"; ma=86400, h3-29=\":443\"; ma=86400\n{\"page\":1,\"per_page\":6,\"total\":12,\"total_pages\":2,\"data\":[{\"id\":1,\"name\":\"cerulean\",\"year\":2000,\"color\":\"#98B2D1\",\"pantone_value\":\"15-4020\"},{\"id\":2,\"name\":\"fuchsia rose\",\"year\":2001,\"color\":\"#C74375\",\"pantone_value\":\"17-2031\"},{\"id\":3,\"name\":\"true red\",\"year\":2002,\"color\":\"#BF1932\",\"pantone_value\":\"19-1664\"},{\"id\":4,\"name\":\"aqua sky\",\"year\":2003,\"color\":\"#7BC4C4\",\"pantone_value\":\"14-4811\"},{\"id\":5,\"name\":\"tigerlily\",\"year\":2004,\"color\":\"#E2583E\",\"pantone_value\":\"17-1456\"},{\"id\":6,\"name\":\"blue turquoise\",\"year\":2005,\"color\":\"#53B0AE\",\"pantone_value\":\"15-5217\"}],\"support\":{\"url\":\"https:\/\/reqres.in\/#support-heading\",\"text\":\"To keep ReqRes free, contributions towards server costs are appreciated!\"}}\n"},{"result":{"nanos":22400,"millis":0.0224,"status":"passed"},"step":{"line":11,"prefix":"Then","index":2,"text":"status 200"}},{"result":{"nanos":9400800,"millis":9.4008,"status":"passed"},"step":{"line":12,"prefix":"And","index":3,"text":"assert response.data.length == 6"}},{"result":{"nanos":14865700,"millis":14.8657,"status":"passed"},"step":{"line":13,"prefix":"And","index":4,"text":"print response.data[1].id"},"stepLog":"20:08:44.043 [print] 2 \n"},{"result":{"nanos":12108800,"millis":12.1088,"status":"passed"},"step":{"line":14,"prefix":"And","index":5,"text":"match $.data[0].id == 1"}},{"result":{"nanos":885300,"millis":0.8853,"status":"passed"},"step":{"line":15,"prefix":"And","index":6,"text":"print response.data[0].year"},"stepLog":"20:08:44.058 [print] 2000 \n"},{"result":{"nanos":944100,"errorMessage":"match failed: EQUALS\n  $ | data types don't match (NUMBER:STRING)\n  2000\n  '2000'\n\nsrc\/test\/java\/testapi.feature:16","millis":0.9441,"status":"failed"},"step":{"line":16,"prefix":"And","index":7,"text":"match $.data[0].year == '2000'"},"stepLog":"20:08:44.059 src\/test\/java\/testapi.feature:16\nAnd match $.data[0].year == '2000'\nmatch failed: EQUALS\n  $ | data types don't match (NUMBER:STRING)\n  2000\n  '2000'\n\nsrc\/test\/java\/testapi.feature:16\n"}],"line":8,"description":"","durationMillis":959.7105,"failed":true,"error":"match failed: EQUALS\n  $ | data types don't match (NUMBER:STRING)\n  2000\n  '2000'\n\nsrc\/test\/java\/testapi.feature:16","executorName":"main","name":"test API get 1","startTime":1644088123082,"refId":"[1:8]","endTime":1644088124059,"exampleIndex":-1},{"sectionIndex":1,"stepResults":[{"result":{"nanos":334600,"millis":0.3346,"status":"passed"},"step":{"background":true,"line":4,"prefix":"*","index":0,"text":"url 'https:\/\/reqres.in\/api'"}},{"result":{"nanos":827400,"millis":0.8274,"status":"passed"},"step":{"background":true,"line":5,"prefix":"*","index":1,"text":"def output = read('response1.json')"}},{"result":{"nanos":659900,"millis":0.6599,"status":"passed"},"step":{"background":true,"line":6,"prefix":"*","index":2,"text":"def request1 = read('request1.json')"}},{"result":{"nanos":215100,"millis":0.2151,"status":"passed"},"step":{"comments":["#Given path '\/users'"],"line":20,"prefix":"Given","index":0,"text":"path '\/users'"}},{"result":{"nanos":116000,"millis":0.116,"status":"passed"},"step":{"line":21,"prefix":"And","index":1,"text":"request {\"name\": \"Mouad\" , \"job\": \"tester\" , \"age\": 25}"}},{"result":{"nanos":348609600,"millis":348.6096,"status":"passed"},"step":{"line":22,"prefix":"When","index":2,"text":"method POST"},"stepLog":"20:08:44.099 request:\n1 > POST https:\/\/reqres.in\/api\/users\n1 > Content-Type: application\/json; charset=UTF-8\n1 > Content-Length: 40\n1 > Host: reqres.in\n1 > Connection: Keep-Alive\n1 > User-Agent: Apache-HttpClient\/4.5.13 (Java\/17.0.1)\n1 > Accept-Encoding: gzip,deflate\n{\"name\":\"Mouad\",\"job\":\"tester\",\"age\":25}\n\n20:08:44.412 response time in milliseconds: 313\n1 < 201\n1 < Date: Sat, 05 Feb 2022 19:08:39 GMT\n1 < Content-Type: application\/json; charset=utf-8\n1 < Content-Length: 90\n1 < Connection: keep-alive\n1 < x-powered-by: Express\n1 < access-control-allow-origin: *\n1 < etag: W\/\"5a-5LienIBAs5hIJfHyww8ryocGqhA\"\n1 < via: 1.1 vegur\n1 < CF-Cache-Status: DYNAMIC\n1 < Expect-CT: max-age=604800, report-uri=\"https:\/\/report-uri.cloudflare.com\/cdn-cgi\/beacon\/expect-ct\"\n1 < Report-To: {\"endpoints\":[{\"url\":\"https:\\\/\\\/a.nel.cloudflare.com\\\/report\\\/v3?s=JfyBh2ng5S8cKEHkbTQIquoe48fBUDcTx2zL869smNr2MKFyjpQuVuWs7sS%2Fjxqho2N9FmcH0qTv7Ock%2BgJau8jxK0eHTwDNV5YAOsAXl4sT7w3kXuYQ3O2ItkQ%3D\"}],\"group\":\"cf-nel\",\"max_age\":604800}\n1 < NEL: {\"success_fraction\":0,\"report_to\":\"cf-nel\",\"max_age\":604800}\n1 < Server: cloudflare\n1 < CF-RAY: 6d8e6db8ae95f959-BRU\n1 < alt-svc: h3=\":443\"; ma=86400, h3-29=\":443\"; ma=86400\n{\"name\":\"Mouad\",\"job\":\"tester\",\"age\":25,\"id\":\"774\",\"createdAt\":\"2022-02-05T19:08:39.220Z\"}\n"},{"result":{"nanos":22200,"millis":0.0222,"status":"passed"},"step":{"line":23,"prefix":"Then","index":3,"text":"status 201"}},{"result":{"nanos":1561400,"millis":1.5614,"status":"passed"},"step":{"line":24,"prefix":"And","index":4,"text":"match response == {\"name\":\"Mouad\",\"job\":\"tester\",\"age\":25,\"id\":\"#string\",\"createdAt\":\"#ignore\"}"}},{"result":{"nanos":3886400,"millis":3.8864,"status":"passed"},"step":{"line":25,"prefix":"And","index":5,"text":"print response"},"stepLog":"20:08:44.420 [print] {\n  \"name\": \"Mouad\",\n  \"job\": \"tester\",\n  \"age\": 25,\n  \"id\": \"774\",\n  \"createdAt\": \"2022-02-05T19:08:39.220Z\"\n}\n \n"}],"executorName":"main","line":18,"name":"test API post 2","description":"","durationMillis":356.2326,"startTime":1644088124063,"failed":false,"refId":"[2:18]","endTime":1644088124421,"exampleIndex":-1},{"sectionIndex":2,"stepResults":[{"result":{"nanos":583300,"millis":0.5833,"status":"passed"},"step":{"background":true,"line":4,"prefix":"*","index":0,"text":"url 'https:\/\/reqres.in\/api'"}},{"result":{"nanos":1899800,"millis":1.8998,"status":"passed"},"step":{"background":true,"line":5,"prefix":"*","index":1,"text":"def output = read('response1.json')"}},{"result":{"nanos":1724600,"millis":1.7246,"status":"passed"},"step":{"background":true,"line":6,"prefix":"*","index":2,"text":"def request1 = read('request1.json')"}},{"result":{"nanos":358900,"millis":0.3589,"status":"passed"},"step":{"comments":["#Given path '\/users'"],"line":29,"prefix":"Given","index":0,"text":"path '\/users'"}},{"result":{"nanos":634300,"millis":0.6343,"status":"passed"},"step":{"line":30,"prefix":"And","index":1,"text":"request {\"name\": \"Mouad\" , \"job\": \"tester\" }"}},{"result":{"nanos":308319000,"millis":308.319,"status":"passed"},"step":{"line":31,"prefix":"When","index":2,"text":"method POST"},"stepLog":"20:08:44.442 request:\n1 > POST https:\/\/reqres.in\/api\/users\n1 > Content-Type: application\/json; charset=UTF-8\n1 > Content-Length: 31\n1 > Host: reqres.in\n1 > Connection: Keep-Alive\n1 > User-Agent: Apache-HttpClient\/4.5.13 (Java\/17.0.1)\n1 > Accept-Encoding: gzip,deflate\n{\"name\":\"Mouad\",\"job\":\"tester\"}\n\n20:08:44.746 response time in milliseconds: 303\n1 < 201\n1 < Date: Sat, 05 Feb 2022 19:08:39 GMT\n1 < Content-Type: application\/json; charset=utf-8\n1 < Content-Length: 81\n1 < Connection: keep-alive\n1 < x-powered-by: Express\n1 < access-control-allow-origin: *\n1 < etag: W\/\"51-H8Ee2N2d+jjd5tcTAlIV07ppPKE\"\n1 < via: 1.1 vegur\n1 < CF-Cache-Status: DYNAMIC\n1 < Expect-CT: max-age=604800, report-uri=\"https:\/\/report-uri.cloudflare.com\/cdn-cgi\/beacon\/expect-ct\"\n1 < Report-To: {\"endpoints\":[{\"url\":\"https:\\\/\\\/a.nel.cloudflare.com\\\/report\\\/v3?s=v0yhdpd%2FoDCVrDwy%2Bt8uHDXwRAjBHSCNT1ERNoAOy8LTsxCF75NPIpz%2FI5%2FXPs5E4t%2FI5hqWqnsSwyq46883SDRAPoXyGLrtEgGXxg5q7%2B4AtZiw84MJ9yq02U4%3D\"}],\"group\":\"cf-nel\",\"max_age\":604800}\n1 < NEL: {\"success_fraction\":0,\"report_to\":\"cf-nel\",\"max_age\":604800}\n1 < Server: cloudflare\n1 < CF-RAY: 6d8e6dbadc1e83d3-BRU\n1 < alt-svc: h3=\":443\"; ma=86400, h3-29=\":443\"; ma=86400\n{\"name\":\"Mouad\",\"job\":\"tester\",\"id\":\"590\",\"createdAt\":\"2022-02-05T19:08:39.546Z\"}\n"},{"result":{"nanos":22300,"millis":0.0223,"status":"passed"},"step":{"line":32,"prefix":"Then","index":3,"text":"status 201"}},{"result":{"nanos":1273600,"millis":1.2736,"status":"passed"},"step":{"line":33,"prefix":"And","index":4,"text":"match response == output"}},{"result":{"nanos":1151200,"millis":1.1512,"status":"passed"},"step":{"line":34,"prefix":"And","index":5,"text":"print response"},"stepLog":"20:08:44.750 [print] {\n  \"name\": \"Mouad\",\n  \"job\": \"tester\",\n  \"id\": \"590\",\n  \"createdAt\": \"2022-02-05T19:08:39.546Z\"\n}\n \n"}],"executorName":"main","line":27,"name":"test API post 3","description":"","durationMillis":315.967,"startTime":1644088124431,"failed":false,"refId":"[3:27]","endTime":1644088124751,"exampleIndex":-1},{"sectionIndex":3,"stepResults":[{"result":{"nanos":486500,"millis":0.4865,"status":"passed"},"step":{"background":true,"line":4,"prefix":"*","index":0,"text":"url 'https:\/\/reqres.in\/api'"}},{"result":{"nanos":1864600,"millis":1.8646,"status":"passed"},"step":{"background":true,"line":5,"prefix":"*","index":1,"text":"def output = read('response1.json')"}},{"result":{"nanos":1535700,"millis":1.5357,"status":"passed"},"step":{"background":true,"line":6,"prefix":"*","index":2,"text":"def request1 = read('request1.json')"}},{"result":{"nanos":285000,"millis":0.285,"status":"passed"},"step":{"comments":["#Given path '\/users'"],"line":38,"prefix":"Given","index":0,"text":"path '\/users'"}},{"result":{"nanos":1650900,"millis":1.6509,"status":"passed"},"step":{"line":39,"prefix":"And","index":1,"text":"request request1"}},{"result":{"nanos":278238800,"millis":278.2388,"status":"passed"},"step":{"line":40,"prefix":"When","index":2,"text":"method POST"},"stepLog":"20:08:44.770 request:\n1 > POST https:\/\/reqres.in\/api\/users\n1 > Content-Type: application\/json; charset=UTF-8\n1 > Content-Length: 31\n1 > Host: reqres.in\n1 > Connection: Keep-Alive\n1 > User-Agent: Apache-HttpClient\/4.5.13 (Java\/17.0.1)\n1 > Accept-Encoding: gzip,deflate\n{\"name\":\"Mouad\",\"job\":\"tester\"}\n\n20:08:45.045 response time in milliseconds: 273\n1 < 201\n1 < Date: Sat, 05 Feb 2022 19:08:39 GMT\n1 < Content-Type: application\/json; charset=utf-8\n1 < Content-Length: 81\n1 < Connection: keep-alive\n1 < x-powered-by: Express\n1 < access-control-allow-origin: *\n1 < etag: W\/\"51-1Q9KGZW79TkO0zhxzdxkj\/zBHq8\"\n1 < via: 1.1 vegur\n1 < CF-Cache-Status: DYNAMIC\n1 < Expect-CT: max-age=604800, report-uri=\"https:\/\/report-uri.cloudflare.com\/cdn-cgi\/beacon\/expect-ct\"\n1 < Report-To: {\"endpoints\":[{\"url\":\"https:\\\/\\\/a.nel.cloudflare.com\\\/report\\\/v3?s=SA7297wN8xq%2FDkAPtOyB0Vj7GJ2pkVi03NTgYL9gohlNK3d20eA1%2F8e3%2FwH%2FCu9NZVRrIqNfEus6ZBdMuHG4OwLdGr5QWWjK9%2BGKp%2FTRJA4JeV6c3iFrV3%2BHNjQ%3D\"}],\"group\":\"cf-nel\",\"max_age\":604800}\n1 < NEL: {\"success_fraction\":0,\"report_to\":\"cf-nel\",\"max_age\":604800}\n1 < Server: cloudflare\n1 < CF-RAY: 6d8e6dbcbc162e50-BRU\n1 < alt-svc: h3=\":443\"; ma=86400, h3-29=\":443\"; ma=86400\n{\"name\":\"Mouad\",\"job\":\"tester\",\"id\":\"348\",\"createdAt\":\"2022-02-05T19:08:39.851Z\"}\n"},{"result":{"nanos":24600,"millis":0.0246,"status":"passed"},"step":{"line":41,"prefix":"Then","index":3,"text":"status 201"}},{"result":{"nanos":870500,"millis":0.8705,"status":"passed"},"step":{"line":42,"prefix":"And","index":4,"text":"match response == output"}},{"result":{"nanos":1212400,"millis":1.2124,"status":"passed"},"step":{"line":43,"prefix":"And","index":5,"text":"print response"},"stepLog":"20:08:45.049 [print] {\n  \"name\": \"Mouad\",\n  \"job\": \"tester\",\n  \"id\": \"348\",\n  \"createdAt\": \"2022-02-05T19:08:39.851Z\"\n}\n \n"}],"executorName":"main","line":36,"name":"test API post 3","description":"","durationMillis":286.169,"startTime":1644088124761,"failed":false,"refId":"[4:36]","endTime":1644088125050,"exampleIndex":-1}],"callDepth":0,"name":"test sample API","description":"","resultDate":"2022-02-05 08:08:45 PM","durationMillis":1918.0791,"passedCount":3}