{"failedCount":1,"prefixedPath":"classpath:TestFeatures\/week3\/matchFromAllData.feature","packageQualifiedName":"TestFeatures.week3.matchFromAllData","loopIndex":-1,"relativePath":"TestFeatures\/week3\/matchFromAllData.feature","scenarioResults":[{"sectionIndex":0,"stepResults":[{"result":{"nanos":1688501,"millis":1.688501,"status":"passed"},"step":{"comments":["#* url BaseURL"],"background":true,"line":5,"prefix":"*","index":0,"text":"def exp1 = read('classpath:\/TestData\/allData.csv')"},"stepLog":"00:42:23.978 \n"},{"result":{"nanos":382600,"millis":0.3826,"status":"passed"},"step":{"line":8,"prefix":"Given","index":0,"text":"url 'https:\/\/reqres.in\/api\/users?page=1'"}},{"result":{"nanos":411758400,"millis":411.7584,"status":"passed"},"step":{"comments":["#And request { id:'#number', first_name: '#(first_name)'  }"],"line":10,"prefix":"When","index":1,"text":"method GET"},"stepLog":"00:42:23.982 request:\n1 > GET https:\/\/reqres.in\/api\/users?page=1\n1 > Host: reqres.in\n1 > Connection: Keep-Alive\n1 > User-Agent: Apache-HttpClient\/4.5.13 (Java\/17.0.1)\n1 > Accept-Encoding: gzip,deflate\n\n\n00:42:24.390 response time in milliseconds: 408\n1 < 200\n1 < Date: Sat, 19 Feb 2022 23:42:17 GMT\n1 < Content-Type: application\/json; charset=utf-8\n1 < Transfer-Encoding: chunked\n1 < Connection: keep-alive\n1 < X-Powered-By: Express\n1 < Access-Control-Allow-Origin: *\n1 < Etag: W\/\"3e4-2RLXvr5wTg9YQ6aH95CkYoFNuO8\"\n1 < Via: 1.1 vegur\n1 < Cache-Control: max-age=14400\n1 < CF-Cache-Status: HIT\n1 < Age: 1361\n1 < Expect-CT: max-age=604800, report-uri=\"https:\/\/report-uri.cloudflare.com\/cdn-cgi\/beacon\/expect-ct\"\n1 < Report-To: {\"endpoints\":[{\"url\":\"https:\\\/\\\/a.nel.cloudflare.com\\\/report\\\/v3?s=NST6%2F6P64VCXSPfiemoBAqb70Bp1x1I8nktguYI8TuJa15tMsDbtF2WW7Zc8uoaUDpD6ckhFbdTpB4h7q91qQQ1GgWn0UTzA%2B5Mm%2F9AdkM%2B6MmML6F2StbYUlLU%3D\"}],\"group\":\"cf-nel\",\"max_age\":604800}\n1 < NEL: {\"success_fraction\":0,\"report_to\":\"cf-nel\",\"max_age\":604800}\n1 < Vary: Accept-Encoding\n1 < Server: cloudflare\n1 < CF-RAY: 6e0359cfef78d791-MRS\n1 < alt-svc: h3=\":443\"; ma=86400, h3-29=\":443\"; ma=86400\n{\"page\":1,\"per_page\":6,\"total\":12,\"total_pages\":2,\"data\":[{\"id\":1,\"email\":\"george.bluth@reqres.in\",\"first_name\":\"George\",\"last_name\":\"Bluth\",\"avatar\":\"https:\/\/reqres.in\/img\/faces\/1-image.jpg\"},{\"id\":2,\"email\":\"janet.weaver@reqres.in\",\"first_name\":\"Janet\",\"last_name\":\"Weaver\",\"avatar\":\"https:\/\/reqres.in\/img\/faces\/2-image.jpg\"},{\"id\":3,\"email\":\"emma.wong@reqres.in\",\"first_name\":\"Emma\",\"last_name\":\"Wong\",\"avatar\":\"https:\/\/reqres.in\/img\/faces\/3-image.jpg\"},{\"id\":4,\"email\":\"eve.holt@reqres.in\",\"first_name\":\"Eve\",\"last_name\":\"Holt\",\"avatar\":\"https:\/\/reqres.in\/img\/faces\/4-image.jpg\"},{\"id\":5,\"email\":\"charles.morris@reqres.in\",\"first_name\":\"Charles\",\"last_name\":\"Morris\",\"avatar\":\"https:\/\/reqres.in\/img\/faces\/5-image.jpg\"},{\"id\":6,\"email\":\"tracey.ramos@reqres.in\",\"first_name\":\"Tracey\",\"last_name\":\"Ramos\",\"avatar\":\"https:\/\/reqres.in\/img\/faces\/6-image.jpg\"}],\"support\":{\"url\":\"https:\/\/reqres.in\/#support-heading\",\"text\":\"To keep ReqRes free, contributions towards server costs are appreciated!\"}}\n"},{"result":{"nanos":22501,"millis":0.022501,"status":"passed"},"step":{"line":11,"prefix":"Then","index":2,"text":"status 200"}},{"result":{"nanos":3278200,"millis":3.2782,"status":"passed"},"step":{"line":12,"prefix":"And","index":3,"text":"print exp1.response"},"stepLog":"00:42:24.395 [print] null \n"},{"result":{"nanos":461099,"millis":0.461099,"status":"passed"},"step":{"line":13,"prefix":"And","index":4,"text":"def acc = response"}},{"result":{"nanos":6939200,"errorMessage":"js failed:\n>>>>\n01: karate.log('[print]',exp)\n<<<<\norg.graalvm.polyglot.PolyglotException: ReferenceError: \"exp\" is not defined\n- <js>.:program(Unnamed:1)\n\nclasspath:TestFeatures\/week3\/matchFromAllData.feature:14","millis":6.9392,"status":"failed"},"step":{"line":14,"prefix":"And","index":5,"text":"print exp"},"stepLog":"00:42:24.403 classpath:TestFeatures\/week3\/matchFromAllData.feature:14\nAnd print exp\njs failed:\n>>>>\n01: karate.log('[print]',exp)\n<<<<\norg.graalvm.polyglot.PolyglotException: ReferenceError: \"exp\" is not defined\n- <js>.:program(Unnamed:1)\n\nclasspath:TestFeatures\/week3\/matchFromAllData.feature:14\n"},{"result":{"nanos":0,"millis":0.0,"status":"skipped"},"step":{"line":15,"prefix":"And","index":6,"text":"match response contains exp"}},{"result":{"nanos":0,"millis":0.0,"status":"skipped"},"step":{"line":17,"prefix":"*","index":7,"text":"match each acc contains '#(^exp1)'"}},{"result":{"nanos":0,"millis":0.0,"status":"skipped"},"step":{"line":19,"prefix":"*","index":8,"text":"match acc.data[*].id contains deep exp1.id"}}],"line":7,"description":"","durationMillis":424.530501,"failed":true,"error":"js failed:\n>>>>\n01: karate.log('[print]',exp)\n<<<<\norg.graalvm.polyglot.PolyglotException: ReferenceError: \"exp\" is not defined\n- <js>.:program(Unnamed:1)\n\nclasspath:TestFeatures\/week3\/matchFromAllData.feature:14","executorName":"main","name":"check if response contains csv values emails","startTime":1645314143977,"refId":"[1:7]","endTime":1645314144403,"exampleIndex":-1}],"callDepth":0,"name":"verify if elements exists in csv file","description":"","resultDate":"2022-02-20 12:42:24 AM","durationMillis":424.530501,"passedCount":0}