{"failedCount":0,"prefixedPath":"classpath:TestFeatures\/week2\/elementFromUrl2url.feature","packageQualifiedName":"TestFeatures.week2.elementFromUrl2url","loopIndex":-1,"relativePath":"TestFeatures\/week2\/elementFromUrl2url.feature","scenarioResults":[{"sectionIndex":0,"stepResults":[{"result":{"nanos":342900,"millis":0.3429,"status":"passed"},"step":{"background":true,"line":4,"prefix":"*","index":0,"text":"def baseUrl = 'https:\/\/reqres.in\/api'"},"stepLog":"00:42:21.756 \n"},{"result":{"nanos":348100,"millis":0.3481,"status":"passed"},"step":{"line":8,"prefix":"Given","index":0,"text":"url baseUrl"}},{"result":{"nanos":414900,"millis":0.4149,"status":"passed"},"step":{"line":9,"prefix":"And","index":1,"text":"path '\/users?page=2'"}},{"result":{"nanos":317959800,"millis":317.9598,"status":"passed"},"step":{"line":10,"prefix":"When","index":2,"text":"method GET"},"stepLog":"00:42:21.759 request:\n1 > GET https:\/\/reqres.in\/api\/users%3Fpage=2\n1 > Host: reqres.in\n1 > Connection: Keep-Alive\n1 > User-Agent: Apache-HttpClient\/4.5.13 (Java\/17.0.1)\n1 > Accept-Encoding: gzip,deflate\n\n\n00:42:22.073 response time in milliseconds: 313\n1 < 200\n1 < Date: Sat, 19 Feb 2022 23:42:15 GMT\n1 < Content-Type: application\/json; charset=utf-8\n1 < Transfer-Encoding: chunked\n1 < Connection: keep-alive\n1 < X-Powered-By: Express\n1 < Access-Control-Allow-Origin: *\n1 < Etag: W\/\"2c1-N6Rqerxquq2kgQhL51EiSg4x0R8\"\n1 < Via: 1.1 vegur\n1 < Cache-Control: max-age=14400\n1 < CF-Cache-Status: HIT\n1 < Age: 1365\n1 < Expect-CT: max-age=604800, report-uri=\"https:\/\/report-uri.cloudflare.com\/cdn-cgi\/beacon\/expect-ct\"\n1 < Report-To: {\"endpoints\":[{\"url\":\"https:\\\/\\\/a.nel.cloudflare.com\\\/report\\\/v3?s=3xVSc%2FmZZcMFGG5Tt0TrZf%2B4eLe4PtdpGCs9bjeV31tOAcxwXxPan9UNf%2BA3TaVKKx4vxcEXLqM6kRv0tdvRUpM5nK8p%2BAFBME4uxRHzAi0UMzo5ot7BcHiKNew%3D\"}],\"group\":\"cf-nel\",\"max_age\":604800}\n1 < NEL: {\"success_fraction\":0,\"report_to\":\"cf-nel\",\"max_age\":604800}\n1 < Vary: Accept-Encoding\n1 < Server: cloudflare\n1 < CF-RAY: 6e0359c16eb7e914-MRS\n1 < alt-svc: h3=\":443\"; ma=86400, h3-29=\":443\"; ma=86400\n{\"page\":1,\"per_page\":6,\"total\":12,\"total_pages\":2,\"data\":[{\"id\":1,\"name\":\"cerulean\",\"year\":2000,\"color\":\"#98B2D1\",\"pantone_value\":\"15-4020\"},{\"id\":2,\"name\":\"fuchsia rose\",\"year\":2001,\"color\":\"#C74375\",\"pantone_value\":\"17-2031\"},{\"id\":3,\"name\":\"true red\",\"year\":2002,\"color\":\"#BF1932\",\"pantone_value\":\"19-1664\"},{\"id\":4,\"name\":\"aqua sky\",\"year\":2003,\"color\":\"#7BC4C4\",\"pantone_value\":\"14-4811\"},{\"id\":5,\"name\":\"tigerlily\",\"year\":2004,\"color\":\"#E2583E\",\"pantone_value\":\"17-1456\"},{\"id\":6,\"name\":\"blue turquoise\",\"year\":2005,\"color\":\"#53B0AE\",\"pantone_value\":\"15-5217\"}],\"support\":{\"url\":\"https:\/\/reqres.in\/#support-heading\",\"text\":\"To keep ReqRes free, contributions towards server costs are appreciated!\"}}\n"},{"result":{"nanos":24600,"millis":0.0246,"status":"passed"},"step":{"line":11,"prefix":"Then","index":3,"text":"status 200"}},{"result":{"nanos":599701,"millis":0.599701,"status":"passed"},"step":{"line":12,"prefix":"And","index":4,"text":"def uResponse = response"}},{"result":{"nanos":4191101,"millis":4.191101,"status":"passed"},"step":{"line":13,"prefix":"And","index":5,"text":"print uResponse"},"stepLog":"00:42:22.080 [print] {\n  \"page\": 1,\n  \"per_page\": 6,\n  \"total\": 12,\n  \"total_pages\": 2,\n  \"data\": [\n    {\n      \"id\": 1,\n      \"name\": \"cerulean\",\n      \"year\": 2000,\n      \"color\": \"#98B2D1\",\n      \"pantone_value\": \"15-4020\"\n    },\n    {\n      \"id\": 2,\n      \"name\": \"fuchsia rose\",\n      \"year\": 2001,\n      \"color\": \"#C74375\",\n      \"pantone_value\": \"17-2031\"\n    },\n    {\n      \"id\": 3,\n      \"name\": \"true red\",\n      \"year\": 2002,\n      \"color\": \"#BF1932\",\n      \"pantone_value\": \"19-1664\"\n    },\n    {\n      \"id\": 4,\n      \"name\": \"aqua sky\",\n      \"year\": 2003,\n      \"color\": \"#7BC4C4\",\n      \"pantone_value\": \"14-4811\"\n    },\n    {\n      \"id\": 5,\n      \"name\": \"tigerlily\",\n      \"year\": 2004,\n      \"color\": \"#E2583E\",\n      \"pantone_value\": \"17-1456\"\n    },\n    {\n      \"id\": 6,\n      \"name\": \"blue turquoise\",\n      \"year\": 2005,\n      \"color\": \"#53B0AE\",\n      \"pantone_value\": \"15-5217\"\n    }\n  ],\n  \"support\": {\n    \"url\": \"https:\/\/reqres.in\/#support-heading\",\n    \"text\": \"To keep ReqRes free, contributions towards server costs are appreciated!\"\n  }\n}\n \n"},{"result":{"nanos":2145899,"millis":2.145899,"status":"passed"},"step":{"line":14,"prefix":"Then","index":6,"text":"match uResponse.data[*].name contains  ['cerulean']"}},{"result":{"nanos":2407600,"millis":2.4076,"status":"passed"},"step":{"line":15,"prefix":"Then","index":7,"text":"def rec = uResponse.data.name = 'cerulean'"}}],"line":7,"description":"","durationMillis":328.434601,"failed":false,"tags":["tag1"],"executorName":"main","name":"get if cerulean exist","startTime":1645314141754,"refId":"[1:7]","endTime":1645314142086,"exampleIndex":-1},{"sectionIndex":1,"stepResults":[{"result":{"nanos":388101,"millis":0.388101,"status":"passed"},"step":{"background":true,"line":4,"prefix":"*","index":0,"text":"def baseUrl = 'https:\/\/reqres.in\/api'"},"stepLog":"00:42:22.097 \n"},{"result":{"nanos":166901,"millis":0.166901,"status":"passed"},"step":{"line":20,"prefix":"Given","index":0,"text":"url baseUrl"}},{"result":{"nanos":138099,"millis":0.138099,"status":"passed"},"step":{"line":21,"prefix":"And","index":1,"text":"path '\/users?page=2'"}},{"result":{"nanos":309658599,"millis":309.658599,"status":"passed"},"step":{"line":22,"prefix":"When","index":2,"text":"method GET"},"stepLog":"00:42:22.102 request:\n1 > GET https:\/\/reqres.in\/api\/users%3Fpage=2\n1 > Host: reqres.in\n1 > Connection: Keep-Alive\n1 > User-Agent: Apache-HttpClient\/4.5.13 (Java\/17.0.1)\n1 > Accept-Encoding: gzip,deflate\n\n\n00:42:22.407 response time in milliseconds: 305\n1 < 200\n1 < Date: Sat, 19 Feb 2022 23:42:15 GMT\n1 < Content-Type: application\/json; charset=utf-8\n1 < Transfer-Encoding: chunked\n1 < Connection: keep-alive\n1 < X-Powered-By: Express\n1 < Access-Control-Allow-Origin: *\n1 < Etag: W\/\"2c1-N6Rqerxquq2kgQhL51EiSg4x0R8\"\n1 < Via: 1.1 vegur\n1 < Cache-Control: max-age=14400\n1 < CF-Cache-Status: HIT\n1 < Age: 1365\n1 < Expect-CT: max-age=604800, report-uri=\"https:\/\/report-uri.cloudflare.com\/cdn-cgi\/beacon\/expect-ct\"\n1 < Report-To: {\"endpoints\":[{\"url\":\"https:\\\/\\\/a.nel.cloudflare.com\\\/report\\\/v3?s=2VKZmzCcMnnEJCRZo54D172uEtuuPUTt5FqpsHQ7r1PhXWxZBCSHETxoYYqtVA1mB97q9MDQyeBNy7VMFDKdoYdjO5TXGka%2BspsK1tSYePG4n1XpACm4CrSM870%3D\"}],\"group\":\"cf-nel\",\"max_age\":604800}\n1 < NEL: {\"success_fraction\":0,\"report_to\":\"cf-nel\",\"max_age\":604800}\n1 < Vary: Accept-Encoding\n1 < Server: cloudflare\n1 < CF-RAY: 6e0359c37ca541ca-MRS\n1 < alt-svc: h3=\":443\"; ma=86400, h3-29=\":443\"; ma=86400\n{\"page\":1,\"per_page\":6,\"total\":12,\"total_pages\":2,\"data\":[{\"id\":1,\"name\":\"cerulean\",\"year\":2000,\"color\":\"#98B2D1\",\"pantone_value\":\"15-4020\"},{\"id\":2,\"name\":\"fuchsia rose\",\"year\":2001,\"color\":\"#C74375\",\"pantone_value\":\"17-2031\"},{\"id\":3,\"name\":\"true red\",\"year\":2002,\"color\":\"#BF1932\",\"pantone_value\":\"19-1664\"},{\"id\":4,\"name\":\"aqua sky\",\"year\":2003,\"color\":\"#7BC4C4\",\"pantone_value\":\"14-4811\"},{\"id\":5,\"name\":\"tigerlily\",\"year\":2004,\"color\":\"#E2583E\",\"pantone_value\":\"17-1456\"},{\"id\":6,\"name\":\"blue turquoise\",\"year\":2005,\"color\":\"#53B0AE\",\"pantone_value\":\"15-5217\"}],\"support\":{\"url\":\"https:\/\/reqres.in\/#support-heading\",\"text\":\"To keep ReqRes free, contributions towards server costs are appreciated!\"}}\n"},{"result":{"nanos":22500,"millis":0.0225,"status":"passed"},"step":{"line":23,"prefix":"Then","index":3,"text":"status 200"}},{"result":{"nanos":486300,"millis":0.4863,"status":"passed"},"step":{"line":24,"prefix":"And","index":4,"text":"def uResponse = response"}},{"result":{"nanos":1696300,"millis":1.6963,"status":"passed"},"step":{"line":25,"prefix":"And","index":5,"text":"print uResponse"},"stepLog":"00:42:22.412 [print] {\n  \"page\": 1,\n  \"per_page\": 6,\n  \"total\": 12,\n  \"total_pages\": 2,\n  \"data\": [\n    {\n      \"id\": 1,\n      \"name\": \"cerulean\",\n      \"year\": 2000,\n      \"color\": \"#98B2D1\",\n      \"pantone_value\": \"15-4020\"\n    },\n    {\n      \"id\": 2,\n      \"name\": \"fuchsia rose\",\n      \"year\": 2001,\n      \"color\": \"#C74375\",\n      \"pantone_value\": \"17-2031\"\n    },\n    {\n      \"id\": 3,\n      \"name\": \"true red\",\n      \"year\": 2002,\n      \"color\": \"#BF1932\",\n      \"pantone_value\": \"19-1664\"\n    },\n    {\n      \"id\": 4,\n      \"name\": \"aqua sky\",\n      \"year\": 2003,\n      \"color\": \"#7BC4C4\",\n      \"pantone_value\": \"14-4811\"\n    },\n    {\n      \"id\": 5,\n      \"name\": \"tigerlily\",\n      \"year\": 2004,\n      \"color\": \"#E2583E\",\n      \"pantone_value\": \"17-1456\"\n    },\n    {\n      \"id\": 6,\n      \"name\": \"blue turquoise\",\n      \"year\": 2005,\n      \"color\": \"#53B0AE\",\n      \"pantone_value\": \"15-5217\"\n    }\n  ],\n  \"support\": {\n    \"url\": \"https:\/\/reqres.in\/#support-heading\",\n    \"text\": \"To keep ReqRes free, contributions towards server costs are appreciated!\"\n  }\n}\n \n"},{"result":{"nanos":1521600,"millis":1.5216,"status":"passed"},"step":{"line":26,"prefix":"Then","index":6,"text":"match uResponse.data[*].id contains  [2]"}},{"result":{"nanos":2220800,"millis":2.2208,"status":"passed"},"step":{"line":27,"prefix":"Then","index":7,"text":"def idNumber = uResponse.data.id = 2"}},{"result":{"nanos":1975300,"millis":1.9753,"status":"passed"},"step":{"line":28,"prefix":"And","index":8,"text":"print idNumber"},"stepLog":"00:42:22.418 [print] 2 \n"},{"result":{"nanos":987800,"millis":0.9878,"status":"passed"},"step":{"line":30,"prefix":"Given","index":9,"text":"url 'https:\/\/reqres.in\/api\/users\/'"}},{"result":{"nanos":710600,"millis":0.7106,"status":"passed"},"step":{"line":31,"prefix":"And","index":10,"text":"path idNumber"}},{"result":{"nanos":307013100,"millis":307.0131,"status":"passed"},"step":{"line":32,"prefix":"When","index":11,"text":"method GET"},"stepLog":"00:42:22.423 request:\n2 > GET https:\/\/reqres.in\/api\/users\/2\n2 > Host: reqres.in\n2 > Connection: Keep-Alive\n2 > User-Agent: Apache-HttpClient\/4.5.13 (Java\/17.0.1)\n2 > Accept-Encoding: gzip,deflate\n\n\n00:42:22.726 response time in milliseconds: 303\n2 < 200\n2 < Date: Sat, 19 Feb 2022 23:42:15 GMT\n2 < Content-Type: application\/json; charset=utf-8\n2 < Transfer-Encoding: chunked\n2 < Connection: keep-alive\n2 < X-Powered-By: Express\n2 < Access-Control-Allow-Origin: *\n2 < Etag: W\/\"118-pbdwwFo9SKNhD3Lx5iHJyngpq00\"\n2 < Via: 1.1 vegur\n2 < Cache-Control: max-age=14400\n2 < CF-Cache-Status: HIT\n2 < Age: 5534\n2 < Expect-CT: max-age=604800, report-uri=\"https:\/\/report-uri.cloudflare.com\/cdn-cgi\/beacon\/expect-ct\"\n2 < Report-To: {\"endpoints\":[{\"url\":\"https:\\\/\\\/a.nel.cloudflare.com\\\/report\\\/v3?s=0Iemcyu7nyL7fLlQqy7Ml4sQuZIO1tQU33UhWVcPliFTTyFqzgDQTM0Q5pWyGPfzlv7AutbzJ%2F1hhPNgEg312Gnt22nvTv%2BqdBx1PsZCCQf5Ro53Cy0dBYcipj4%3D\"}],\"group\":\"cf-nel\",\"max_age\":604800}\n2 < NEL: {\"success_fraction\":0,\"report_to\":\"cf-nel\",\"max_age\":604800}\n2 < Vary: Accept-Encoding\n2 < Server: cloudflare\n2 < CF-RAY: 6e0359c58de141f6-MRS\n2 < alt-svc: h3=\":443\"; ma=86400, h3-29=\":443\"; ma=86400\n{\"data\":{\"id\":2,\"email\":\"janet.weaver@reqres.in\",\"first_name\":\"Janet\",\"last_name\":\"Weaver\",\"avatar\":\"https:\/\/reqres.in\/img\/faces\/2-image.jpg\"},\"support\":{\"url\":\"https:\/\/reqres.in\/#support-heading\",\"text\":\"To keep ReqRes free, contributions towards server costs are appreciated!\"}}\n"},{"result":{"nanos":433700,"millis":0.4337,"status":"passed"},"step":{"line":33,"prefix":"Then","index":12,"text":"print response"},"stepLog":"00:42:22.728 [print] {\n  \"data\": {\n    \"id\": 2,\n    \"email\": \"janet.weaver@reqres.in\",\n    \"first_name\": \"Janet\",\n    \"last_name\": \"Weaver\",\n    \"avatar\": \"https:\/\/reqres.in\/img\/faces\/2-image.jpg\"\n  },\n  \"support\": {\n    \"url\": \"https:\/\/reqres.in\/#support-heading\",\n    \"text\": \"To keep ReqRes free, contributions towards server costs are appreciated!\"\n  }\n}\n \n"},{"result":{"nanos":601199,"millis":0.601199,"status":"passed"},"step":{"line":34,"prefix":"And","index":13,"text":"match $.data.last_name == 'Weaver'"}}],"line":19,"description":"","durationMillis":628.020899,"failed":false,"tags":["tag2"],"executorName":"main","name":"get if id 2 exist and verify the name  in the second url","startTime":1645314142097,"refId":"[2:19]","endTime":1645314142729,"exampleIndex":-1}],"callDepth":0,"name":"test request is response","description":"","resultDate":"2022-02-20 12:42:22 AM","durationMillis":956.4555,"passedCount":2}