{"failedCount":1,"prefixedPath":"src\/main\/java\/first_test_k.feature","packageQualifiedName":"src.main.java.first_test_k","loopIndex":-1,"relativePath":"src\/main\/java\/first_test_k.feature","scenarioResults":[{"sectionIndex":0,"stepResults":[{"result":{"nanos":54958200,"millis":54.9582,"status":"passed"},"step":{"line":4,"prefix":"Given","index":0,"text":"url \"https:\/\/reqres.in\/api\/users?page=2\""}},{"result":{"nanos":907415700,"millis":907.4157,"status":"passed"},"step":{"line":5,"prefix":"When","index":1,"text":"method GET"},"stepLog":"18:03:40.081 request:\n1 > GET https:\/\/reqres.in\/api\/users?page=2\n1 > Host: reqres.in\n1 > Connection: Keep-Alive\n1 > User-Agent: Apache-HttpClient\/4.5.13 (Java\/17.0.1)\n1 > Accept-Encoding: gzip,deflate\n\n\n18:03:40.759 response time in milliseconds: 677\n1 < 200\n1 < Date: Fri, 28 Jan 2022 17:03:40 GMT\n1 < Content-Type: application\/json; charset=utf-8\n1 < Transfer-Encoding: chunked\n1 < Connection: keep-alive\n1 < x-powered-by: Express\n1 < access-control-allow-origin: *\n1 < etag: W\/\"406-ut0vzoCuidvyMf8arZpMpJ6ZRDw\"\n1 < via: 1.1 vegur\n1 < Cache-Control: max-age=14400\n1 < CF-Cache-Status: REVALIDATED\n1 < Expect-CT: max-age=604800, report-uri=\"https:\/\/report-uri.cloudflare.com\/cdn-cgi\/beacon\/expect-ct\"\n1 < Report-To: {\"endpoints\":[{\"url\":\"https:\\\/\\\/a.nel.cloudflare.com\\\/report\\\/v3?s=qNDoAPcrUU3ai8UYDpJ1QZz%2FkY0os1yI6bB6opwhB4r9xgaKryYfbMShkqyoZRwujw6fFq6YVtOYSE8skwqwxoYp%2B%2FpFYXWoATcU3KLP0%2BcjIJ4eRflW45AC%2FYo%3D\"}],\"group\":\"cf-nel\",\"max_age\":604800}\n1 < NEL: {\"success_fraction\":0,\"report_to\":\"cf-nel\",\"max_age\":604800}\n1 < Vary: Accept-Encoding\n1 < Server: cloudflare\n1 < CF-RAY: 6d4bcba64928ff14-MAD\n1 < alt-svc: h3=\":443\"; ma=86400, h3-29=\":443\"; ma=86400\n{\"page\":2,\"per_page\":6,\"total\":12,\"total_pages\":2,\"data\":[{\"id\":7,\"email\":\"michael.lawson@reqres.in\",\"first_name\":\"Michael\",\"last_name\":\"Lawson\",\"avatar\":\"https:\/\/reqres.in\/img\/faces\/7-image.jpg\"},{\"id\":8,\"email\":\"lindsay.ferguson@reqres.in\",\"first_name\":\"Lindsay\",\"last_name\":\"Ferguson\",\"avatar\":\"https:\/\/reqres.in\/img\/faces\/8-image.jpg\"},{\"id\":9,\"email\":\"tobias.funke@reqres.in\",\"first_name\":\"Tobias\",\"last_name\":\"Funke\",\"avatar\":\"https:\/\/reqres.in\/img\/faces\/9-image.jpg\"},{\"id\":10,\"email\":\"byron.fields@reqres.in\",\"first_name\":\"Byron\",\"last_name\":\"Fields\",\"avatar\":\"https:\/\/reqres.in\/img\/faces\/10-image.jpg\"},{\"id\":11,\"email\":\"george.edwards@reqres.in\",\"first_name\":\"George\",\"last_name\":\"Edwards\",\"avatar\":\"https:\/\/reqres.in\/img\/faces\/11-image.jpg\"},{\"id\":12,\"email\":\"rachel.howell@reqres.in\",\"first_name\":\"Rachel\",\"last_name\":\"Howell\",\"avatar\":\"https:\/\/reqres.in\/img\/faces\/12-image.jpg\"}],\"support\":{\"url\":\"https:\/\/reqres.in\/#support-heading\",\"text\":\"To keep ReqRes free, contributions towards server costs are appreciated!\"}}\n"},{"result":{"nanos":18200,"millis":0.0182,"status":"passed"},"step":{"line":6,"prefix":"Then","index":2,"text":"status 200"}}],"executorName":"main","line":3,"name":"test API get","description":"","durationMillis":962.3921,"startTime":1643389419810,"failed":false,"refId":"[1:3]","endTime":1643389420781,"exampleIndex":-1},{"sectionIndex":1,"stepResults":[{"result":{"nanos":381700,"millis":0.3817,"status":"passed"},"step":{"line":9,"prefix":"Given","index":0,"text":"url \"https:\/\/reqres.in\/api\/users\""}},{"result":{"nanos":336050100,"millis":336.0501,"status":"passed"},"step":{"line":10,"prefix":"When","index":1,"text":"method POST"},"stepLog":"18:03:40.788 request:\n1 > POST https:\/\/reqres.in\/api\/users\n1 > Host: reqres.in\n1 > Connection: Keep-Alive\n1 > User-Agent: Apache-HttpClient\/4.5.13 (Java\/17.0.1)\n1 > Accept-Encoding: gzip,deflate\n\n\n18:03:41.122 response time in milliseconds: 334\n1 < 201\n1 < Date: Fri, 28 Jan 2022 17:03:41 GMT\n1 < Content-Type: application\/json; charset=utf-8\n1 < Content-Length: 51\n1 < Connection: keep-alive\n1 < x-powered-by: Express\n1 < access-control-allow-origin: *\n1 < etag: W\/\"33-6QNQWdHaiDz52WHx06ckE+wUBNE\"\n1 < via: 1.1 vegur\n1 < CF-Cache-Status: DYNAMIC\n1 < Expect-CT: max-age=604800, report-uri=\"https:\/\/report-uri.cloudflare.com\/cdn-cgi\/beacon\/expect-ct\"\n1 < Report-To: {\"endpoints\":[{\"url\":\"https:\\\/\\\/a.nel.cloudflare.com\\\/report\\\/v3?s=aaYNcSwHUCWf2tZyk6M1n%2FxouzorY7bG70owf9W8t1SQvUmvnBAcSNQZFToRX4QI%2BN3CWCgVl%2BCMAdamw5hduvZbHb7UqP6iAdyjVyvBm57HhSwfmRmHTeZfkAk%3D\"}],\"group\":\"cf-nel\",\"max_age\":604800}\n1 < NEL: {\"success_fraction\":0,\"report_to\":\"cf-nel\",\"max_age\":604800}\n1 < Server: cloudflare\n1 < CF-RAY: 6d4bcba89f3311bf-BCN\n1 < alt-svc: h3=\":443\"; ma=86400, h3-29=\":443\"; ma=86400\n{\"id\":\"622\",\"createdAt\":\"2022-01-28T17:03:40.991Z\"}\n"},{"result":{"nanos":6300,"millis":0.0063,"status":"passed"},"step":{"line":11,"prefix":"Then","index":2,"text":"status 201"}},{"result":{"nanos":39294000,"errorMessage":"js failed:\n>>>>\n01: response.data.lenght == 6\n<<<<\norg.graalvm.polyglot.PolyglotException: TypeError: Cannot read property \"lenght\" from undefined\n- <js>.:program(Unnamed:1)\n\nsrc\/main\/java\/first_test_k.feature:12","millis":39.294,"status":"failed"},"step":{"line":12,"prefix":"And","index":3,"text":"assert response.data.lenght == 6"},"stepLog":"18:03:41.163 src\/main\/java\/first_test_k.feature:12\nAnd assert response.data.lenght == 6\njs failed:\n>>>>\n01: response.data.lenght == 6\n<<<<\norg.graalvm.polyglot.PolyglotException: TypeError: Cannot read property \"lenght\" from undefined\n- <js>.:program(Unnamed:1)\n\nsrc\/main\/java\/first_test_k.feature:12\n"}],"line":8,"description":"","durationMillis":375.7321,"failed":true,"error":"js failed:\n>>>>\n01: response.data.lenght == 6\n<<<<\norg.graalvm.polyglot.PolyglotException: TypeError: Cannot read property \"lenght\" from undefined\n- <js>.:program(Unnamed:1)\n\nsrc\/main\/java\/first_test_k.feature:12","executorName":"main","name":"test API post","startTime":1643389420785,"refId":"[2:8]","endTime":1643389421163,"exampleIndex":-1}],"callDepth":0,"name":"test sample API","description":"","resultDate":"2022-01-28 06:03:41 PM","durationMillis":1338.1242,"passedCount":1}