{"failedCount":1,"prefixedPath":"src\/test\/java\/test_ResIsReq.feature","packageQualifiedName":"src.test.java.test_ResIsReq","loopIndex":-1,"relativePath":"src\/test\/java\/test_ResIsReq.feature","scenarioResults":[{"sectionIndex":0,"stepResults":[{"result":{"nanos":92410400,"millis":92.4104,"status":"passed"},"step":{"background":true,"line":4,"prefix":"*","index":0,"text":"url 'https:\/\/reqres.in\/api'"}},{"result":{"nanos":586400,"millis":0.5864,"status":"passed"},"step":{"line":6,"prefix":"Given","index":0,"text":"path '\/users?page=2'"}},{"result":{"nanos":1076469300,"millis":1076.4693,"status":"passed"},"step":{"line":7,"prefix":"When","index":1,"text":"method GET"},"stepLog":"22:58:48.871 request:\n1 > GET https:\/\/reqres.in\/api\/users%3Fpage=2\n1 > Host: reqres.in\n1 > Connection: Keep-Alive\n1 > User-Agent: Apache-HttpClient\/4.5.13 (Java\/17.0.1)\n1 > Accept-Encoding: gzip,deflate\n\n\n22:58:49.541 response time in milliseconds: 665\n1 < 200\n1 < Date: Sat, 12 Feb 2022 21:58:46 GMT\n1 < Content-Type: application\/json; charset=utf-8\n1 < Transfer-Encoding: chunked\n1 < Connection: keep-alive\n1 < X-Powered-By: Express\n1 < Access-Control-Allow-Origin: *\n1 < Etag: W\/\"2c1-N6Rqerxquq2kgQhL51EiSg4x0R8\"\n1 < Via: 1.1 vegur\n1 < Cache-Control: max-age=14400\n1 < CF-Cache-Status: MISS\n1 < Expect-CT: max-age=604800, report-uri=\"https:\/\/report-uri.cloudflare.com\/cdn-cgi\/beacon\/expect-ct\"\n1 < Report-To: {\"endpoints\":[{\"url\":\"https:\\\/\\\/a.nel.cloudflare.com\\\/report\\\/v3?s=Aq0VthXEo%2F0kN5Gil%2B2Ei07BV0dmJgEQjHZ5dS52%2F7wL9OBaIvm4vQW64Tfue9JK0kOOX6O86ala9r4%2Bp%2BbHGEBhopMM%2F%2FwFEk%2Fr94HNWuAuhXogSgU%2BYDviPXA%3D\"}],\"group\":\"cf-nel\",\"max_age\":604800}\n1 < NEL: {\"success_fraction\":0,\"report_to\":\"cf-nel\",\"max_age\":604800}\n1 < Vary: Accept-Encoding\n1 < Server: cloudflare\n1 < CF-RAY: 6dc9148f4d7e2e08-BRU\n1 < alt-svc: h3=\":443\"; ma=86400, h3-29=\":443\"; ma=86400\n{\"page\":1,\"per_page\":6,\"total\":12,\"total_pages\":2,\"data\":[{\"id\":1,\"name\":\"cerulean\",\"year\":2000,\"color\":\"#98B2D1\",\"pantone_value\":\"15-4020\"},{\"id\":2,\"name\":\"fuchsia rose\",\"year\":2001,\"color\":\"#C74375\",\"pantone_value\":\"17-2031\"},{\"id\":3,\"name\":\"true red\",\"year\":2002,\"color\":\"#BF1932\",\"pantone_value\":\"19-1664\"},{\"id\":4,\"name\":\"aqua sky\",\"year\":2003,\"color\":\"#7BC4C4\",\"pantone_value\":\"14-4811\"},{\"id\":5,\"name\":\"tigerlily\",\"year\":2004,\"color\":\"#E2583E\",\"pantone_value\":\"17-1456\"},{\"id\":6,\"name\":\"blue turquoise\",\"year\":2005,\"color\":\"#53B0AE\",\"pantone_value\":\"15-5217\"}],\"support\":{\"url\":\"https:\/\/reqres.in\/#support-heading\",\"text\":\"To keep ReqRes free, contributions towards server costs are appreciated!\"}}\n"},{"result":{"nanos":23100,"millis":0.0231,"status":"passed"},"step":{"line":8,"prefix":"Then","index":2,"text":"status 200"}},{"result":{"nanos":45488400,"errorMessage":"js failed:\n>>>>\n01: == {\"id\": 7,\"email\": \"michael.lawson@reqres.in\",\"first_name\": \"Michael\",\"last_name\": \"Lawson\",\"avatar\": \"https:\/\/reqres.in\/img\/faces\/7-image.jpg\"}\n<<<<\norg.graalvm.polyglot.PolyglotException: SyntaxError: Unnamed:1:0 Expected an operand but found ==\r\n== {\"id\": 7,\"email\": \"michael.lawson@reqres.in\",\"first_name\": \"Michael\",\"last_name\": \"Lawson\",\"avatar\": \"https:\/\/reqres.in\/img\/faces\/7-image.jpg\"}\r\n^\n\n- org.graalvm.polyglot.Context.eval(Context.java:401)\n- com.intuit.karate.graal.JsEngine.evalForValue(JsEngine.java:141)\n- com.intuit.karate.graal.JsEngine.eval(JsEngine.java:137)\n- com.intuit.karate.core.ScenarioEngine.evalJs(ScenarioEngine.java:1252)\n- com.intuit.karate.core.ScenarioEngine.evalKarateExpression(ScenarioEngine.java:2205)\n- com.intuit.karate.core.ScenarioEngine.match(ScenarioEngine.java:1802)\n- com.intuit.karate.core.ScenarioEngine.matchResult(ScenarioEngine.java:178)\n\nsrc\/test\/java\/test_ResIsReq.feature:11","millis":45.4884,"status":"failed"},"step":{"comments":["# * def response = JSON.parse(response)","# And match response.id  == '#null'"],"line":11,"prefix":"And","index":3,"text":"match response contains  == {\"id\": 7,\"email\": \"michael.lawson@reqres.in\",\"first_name\": \"Michael\",\"last_name\": \"Lawson\",\"avatar\": \"https:\/\/reqres.in\/img\/faces\/7-image.jpg\"}"},"stepLog":"22:58:49.630 src\/test\/java\/test_ResIsReq.feature:11\nAnd match response contains  == {\"id\": 7,\"email\": \"michael.lawson@reqres.in\",\"first_name\": \"Michael\",\"last_name\": \"Lawson\",\"avatar\": \"https:\/\/reqres.in\/img\/faces\/7-image.jpg\"}\njs failed:\n>>>>\n01: == {\"id\": 7,\"email\": \"michael.lawson@reqres.in\",\"first_name\": \"Michael\",\"last_name\": \"Lawson\",\"avatar\": \"https:\/\/reqres.in\/img\/faces\/7-image.jpg\"}\n<<<<\norg.graalvm.polyglot.PolyglotException: SyntaxError: Unnamed:1:0 Expected an operand but found ==\r\n== {\"id\": 7,\"email\": \"michael.lawson@reqres.in\",\"first_name\": \"Michael\",\"last_name\": \"Lawson\",\"avatar\": \"https:\/\/reqres.in\/img\/faces\/7-image.jpg\"}\r\n^\n\n- org.graalvm.polyglot.Context.eval(Context.java:401)\n- com.intuit.karate.graal.JsEngine.evalForValue(JsEngine.java:141)\n- com.intuit.karate.graal.JsEngine.eval(JsEngine.java:137)\n- com.intuit.karate.core.ScenarioEngine.evalJs(ScenarioEngine.java:1252)\n- com.intuit.karate.core.ScenarioEngine.evalKarateExpression(ScenarioEngine.java:2205)\n- com.intuit.karate.core.ScenarioEngine.match(ScenarioEngine.java:1802)\n- com.intuit.karate.core.ScenarioEngine.matchResult(ScenarioEngine.java:178)\n\nsrc\/test\/java\/test_ResIsReq.feature:11\n"}],"line":5,"description":"","durationMillis":1214.9776,"failed":true,"error":"js failed:\n>>>>\n01: == {\"id\": 7,\"email\": \"michael.lawson@reqres.in\",\"first_name\": \"Michael\",\"last_name\": \"Lawson\",\"avatar\": \"https:\/\/reqres.in\/img\/faces\/7-image.jpg\"}\n<<<<\norg.graalvm.polyglot.PolyglotException: SyntaxError: Unnamed:1:0 Expected an operand but found ==\r\n== {\"id\": 7,\"email\": \"michael.lawson@reqres.in\",\"first_name\": \"Michael\",\"last_name\": \"Lawson\",\"avatar\": \"https:\/\/reqres.in\/img\/faces\/7-image.jpg\"}\r\n^\n\n- org.graalvm.polyglot.Context.eval(Context.java:401)\n- com.intuit.karate.graal.JsEngine.evalForValue(JsEngine.java:141)\n- com.intuit.karate.graal.JsEngine.eval(JsEngine.java:137)\n- com.intuit.karate.core.ScenarioEngine.evalJs(ScenarioEngine.java:1252)\n- com.intuit.karate.core.ScenarioEngine.evalKarateExpression(ScenarioEngine.java:2205)\n- com.intuit.karate.core.ScenarioEngine.match(ScenarioEngine.java:1802)\n- com.intuit.karate.core.ScenarioEngine.matchResult(ScenarioEngine.java:178)\n\nsrc\/test\/java\/test_ResIsReq.feature:11","executorName":"main","name":"","startTime":1644703128397,"refId":"[1:5]","endTime":1644703129630,"exampleIndex":-1}],"callDepth":0,"name":"test request is response","description":"","resultDate":"2022-02-12 10:58:49 PM","durationMillis":1214.9776,"passedCount":0}