{"failedCount":1,"prefixedPath":"src\/test\/java\/testapi.feature","packageQualifiedName":"src.test.java.testapi","loopIndex":-1,"relativePath":"src\/test\/java\/testapi.feature","scenarioResults":[{"sectionIndex":0,"stepResults":[{"result":{"nanos":64369000,"millis":64.369,"status":"passed"},"step":{"background":true,"line":4,"prefix":"*","index":0,"text":"url 'https:\/\/reqres.in\/api'"}},{"result":{"nanos":96711100,"millis":96.7111,"status":"passed"},"step":{"background":true,"line":5,"prefix":"*","index":1,"text":"def output = read('response1.json')"}},{"result":{"nanos":1057800,"millis":1.0578,"status":"passed"},"step":{"background":true,"line":6,"prefix":"*","index":2,"text":"def request1 = read('request1.json')"}},{"result":{"nanos":296500,"millis":0.2965,"status":"passed"},"step":{"line":9,"prefix":"Given","index":0,"text":"path '\/users?page=2'"}},{"result":{"nanos":953041500,"millis":953.0415,"status":"passed"},"step":{"line":10,"prefix":"When","index":1,"text":"method GET"},"stepLog":"20:08:06.028 request:\n1 > GET https:\/\/reqres.in\/api\/users%3Fpage=2\n1 > Host: reqres.in\n1 > Connection: Keep-Alive\n1 > User-Agent: Apache-HttpClient\/4.5.13 (Java\/17.0.1)\n1 > Accept-Encoding: gzip,deflate\n\n\n20:08:06.735 response time in milliseconds: 702\n1 < 200\n1 < Date: Sat, 05 Feb 2022 19:08:01 GMT\n1 < Content-Type: application\/json; charset=utf-8\n1 < Transfer-Encoding: chunked\n1 < Connection: keep-alive\n1 < x-powered-by: Express\n1 < access-control-allow-origin: *\n1 < etag: W\/\"2c1-N6Rqerxquq2kgQhL51EiSg4x0R8\"\n1 < via: 1.1 vegur\n1 < Cache-Control: max-age=14400\n1 < CF-Cache-Status: HIT\n1 < Age: 4635\n1 < Expect-CT: max-age=604800, report-uri=\"https:\/\/report-uri.cloudflare.com\/cdn-cgi\/beacon\/expect-ct\"\n1 < Report-To: {\"endpoints\":[{\"url\":\"https:\\\/\\\/a.nel.cloudflare.com\\\/report\\\/v3?s=LXCUXNmJgvEAhtgvAHUeOAGuhJcAgpZDHvl7MWIhrChEPfnsjrVrFBkEpRFKqFfi0sJWuN%2F9nemCGSJ6U9Znn5Lq9oe8M%2FVnaGCsJWwbp1jeV0x2d%2FtpBhJ75yg%3D\"}],\"group\":\"cf-nel\",\"max_age\":604800}\n1 < NEL: {\"success_fraction\":0,\"report_to\":\"cf-nel\",\"max_age\":604800}\n1 < Vary: Accept-Encoding\n1 < Server: cloudflare\n1 < CF-RAY: 6d8e6ccd59d383de-BRU\n1 < alt-svc: h3=\":443\"; ma=86400, h3-29=\":443\"; ma=86400\n{\"page\":1,\"per_page\":6,\"total\":12,\"total_pages\":2,\"data\":[{\"id\":1,\"name\":\"cerulean\",\"year\":2000,\"color\":\"#98B2D1\",\"pantone_value\":\"15-4020\"},{\"id\":2,\"name\":\"fuchsia rose\",\"year\":2001,\"color\":\"#C74375\",\"pantone_value\":\"17-2031\"},{\"id\":3,\"name\":\"true red\",\"year\":2002,\"color\":\"#BF1932\",\"pantone_value\":\"19-1664\"},{\"id\":4,\"name\":\"aqua sky\",\"year\":2003,\"color\":\"#7BC4C4\",\"pantone_value\":\"14-4811\"},{\"id\":5,\"name\":\"tigerlily\",\"year\":2004,\"color\":\"#E2583E\",\"pantone_value\":\"17-1456\"},{\"id\":6,\"name\":\"blue turquoise\",\"year\":2005,\"color\":\"#53B0AE\",\"pantone_value\":\"15-5217\"}],\"support\":{\"url\":\"https:\/\/reqres.in\/#support-heading\",\"text\":\"To keep ReqRes free, contributions towards server costs are appreciated!\"}}\n"},{"result":{"nanos":26100,"millis":0.0261,"status":"passed"},"step":{"line":11,"prefix":"Then","index":2,"text":"status 200"}},{"result":{"nanos":11395700,"millis":11.3957,"status":"passed"},"step":{"line":12,"prefix":"And","index":3,"text":"assert response.data.length == 6"}},{"result":{"nanos":15425100,"millis":15.4251,"status":"passed"},"step":{"line":13,"prefix":"And","index":4,"text":"print response.data[1].id"},"stepLog":"20:08:06.766 [print] 2 \n"},{"result":{"nanos":12549300,"millis":12.5493,"status":"passed"},"step":{"line":14,"prefix":"And","index":5,"text":"match $.data[0].id == 1"}},{"result":{"nanos":870600,"millis":0.8706,"status":"passed"},"step":{"line":15,"prefix":"And","index":6,"text":"print response.data[0].year"},"stepLog":"20:08:06.780 [print] 2000 \n"},{"result":{"nanos":1129200,"errorMessage":"match failed: EQUALS\n  $ | actual path does not exist (STRING:STRING)\n  '#notpresent'\n  '2000'\n\nsrc\/test\/java\/testapi.feature:16","millis":1.1292,"status":"failed"},"step":{"line":16,"prefix":"And","index":7,"text":"match $.data[0].email == '2000'"},"stepLog":"20:08:06.782 src\/test\/java\/testapi.feature:16\nAnd match $.data[0].email == '2000'\nmatch failed: EQUALS\n  $ | actual path does not exist (STRING:STRING)\n  '#notpresent'\n  '2000'\n\nsrc\/test\/java\/testapi.feature:16\n"}],"line":8,"description":"","durationMillis":1156.8719,"failed":true,"error":"match failed: EQUALS\n  $ | actual path does not exist (STRING:STRING)\n  '#notpresent'\n  '2000'\n\nsrc\/test\/java\/testapi.feature:16","executorName":"main","name":"test API get 1","startTime":1644088085616,"refId":"[1:8]","endTime":1644088086782,"exampleIndex":-1},{"sectionIndex":1,"stepResults":[{"result":{"nanos":311400,"millis":0.3114,"status":"passed"},"step":{"background":true,"line":4,"prefix":"*","index":0,"text":"url 'https:\/\/reqres.in\/api'"}},{"result":{"nanos":748900,"millis":0.7489,"status":"passed"},"step":{"background":true,"line":5,"prefix":"*","index":1,"text":"def output = read('response1.json')"}},{"result":{"nanos":612600,"millis":0.6126,"status":"passed"},"step":{"background":true,"line":6,"prefix":"*","index":2,"text":"def request1 = read('request1.json')"}},{"result":{"nanos":211600,"millis":0.2116,"status":"passed"},"step":{"comments":["#Given path '\/users'"],"line":20,"prefix":"Given","index":0,"text":"path '\/users'"}},{"result":{"nanos":144800,"millis":0.1448,"status":"passed"},"step":{"line":21,"prefix":"And","index":1,"text":"request {\"name\": \"Mouad\" , \"job\": \"tester\" , \"age\": 25}"}},{"result":{"nanos":445824900,"millis":445.8249,"status":"passed"},"step":{"line":22,"prefix":"When","index":2,"text":"method POST"},"stepLog":"20:08:06.822 request:\n1 > POST https:\/\/reqres.in\/api\/users\n1 > Content-Type: application\/json; charset=UTF-8\n1 > Content-Length: 40\n1 > Host: reqres.in\n1 > Connection: Keep-Alive\n1 > User-Agent: Apache-HttpClient\/4.5.13 (Java\/17.0.1)\n1 > Accept-Encoding: gzip,deflate\n{\"name\":\"Mouad\",\"job\":\"tester\",\"age\":25}\n\n20:08:07.234 response time in milliseconds: 412\n1 < 201\n1 < Date: Sat, 05 Feb 2022 19:08:02 GMT\n1 < Content-Type: application\/json; charset=utf-8\n1 < Content-Length: 90\n1 < Connection: keep-alive\n1 < x-powered-by: Express\n1 < access-control-allow-origin: *\n1 < etag: W\/\"5a-UAoTYzT3dzsXUNb+FL9orzCfuTM\"\n1 < via: 1.1 vegur\n1 < CF-Cache-Status: DYNAMIC\n1 < Expect-CT: max-age=604800, report-uri=\"https:\/\/report-uri.cloudflare.com\/cdn-cgi\/beacon\/expect-ct\"\n1 < Report-To: {\"endpoints\":[{\"url\":\"https:\\\/\\\/a.nel.cloudflare.com\\\/report\\\/v3?s=BpM6vV4iXr1U4WNqnTzIbbG2TAtpyHKGg%2FAlTkgZvTqU7FxPJEnZMtttUS%2FNcOpe7MeIa%2BxGLdXn%2FvsmyHuowWWmtzjr43t41Zpfspd3HIymJMDmhyFFt0NCgXg%3D\"}],\"group\":\"cf-nel\",\"max_age\":604800}\n1 < NEL: {\"success_fraction\":0,\"report_to\":\"cf-nel\",\"max_age\":604800}\n1 < Server: cloudflare\n1 < CF-RAY: 6d8e6cd0493b83c4-BRU\n1 < alt-svc: h3=\":443\"; ma=86400, h3-29=\":443\"; ma=86400\n{\"name\":\"Mouad\",\"job\":\"tester\",\"age\":25,\"id\":\"835\",\"createdAt\":\"2022-02-05T19:08:02.028Z\"}\n"},{"result":{"nanos":7700,"millis":0.0077,"status":"passed"},"step":{"line":23,"prefix":"Then","index":3,"text":"status 201"}},{"result":{"nanos":1015900,"millis":1.0159,"status":"passed"},"step":{"line":24,"prefix":"And","index":4,"text":"match response == {\"name\":\"Mouad\",\"job\":\"tester\",\"age\":25,\"id\":\"#string\",\"createdAt\":\"#ignore\"}"}},{"result":{"nanos":2435800,"millis":2.4358,"status":"passed"},"step":{"line":25,"prefix":"And","index":5,"text":"print response"},"stepLog":"20:08:07.238 [print] {\n  \"name\": \"Mouad\",\n  \"job\": \"tester\",\n  \"age\": 25,\n  \"id\": \"835\",\n  \"createdAt\": \"2022-02-05T19:08:02.028Z\"\n}\n \n"}],"executorName":"main","line":18,"name":"test API post 2","description":"","durationMillis":451.3136,"startTime":1644088086786,"failed":false,"refId":"[2:18]","endTime":1644088087238,"exampleIndex":-1},{"sectionIndex":2,"stepResults":[{"result":{"nanos":370900,"millis":0.3709,"status":"passed"},"step":{"background":true,"line":4,"prefix":"*","index":0,"text":"url 'https:\/\/reqres.in\/api'"}},{"result":{"nanos":1239700,"millis":1.2397,"status":"passed"},"step":{"background":true,"line":5,"prefix":"*","index":1,"text":"def output = read('response1.json')"}},{"result":{"nanos":939400,"millis":0.9394,"status":"passed"},"step":{"background":true,"line":6,"prefix":"*","index":2,"text":"def request1 = read('request1.json')"}},{"result":{"nanos":181400,"millis":0.1814,"status":"passed"},"step":{"comments":["#Given path '\/users'"],"line":29,"prefix":"Given","index":0,"text":"path '\/users'"}},{"result":{"nanos":339600,"millis":0.3396,"status":"passed"},"step":{"line":30,"prefix":"And","index":1,"text":"request {\"name\": \"Mouad\" , \"job\": \"tester\" }"}},{"result":{"nanos":344053100,"millis":344.0531,"status":"passed"},"step":{"line":31,"prefix":"When","index":2,"text":"method POST"},"stepLog":"20:08:07.252 request:\n1 > POST https:\/\/reqres.in\/api\/users\n1 > Content-Type: application\/json; charset=UTF-8\n1 > Content-Length: 31\n1 > Host: reqres.in\n1 > Connection: Keep-Alive\n1 > User-Agent: Apache-HttpClient\/4.5.13 (Java\/17.0.1)\n1 > Accept-Encoding: gzip,deflate\n{\"name\":\"Mouad\",\"job\":\"tester\"}\n\n20:08:07.592 response time in milliseconds: 339\n1 < 201\n1 < Date: Sat, 05 Feb 2022 19:08:02 GMT\n1 < Content-Type: application\/json; charset=utf-8\n1 < Content-Length: 81\n1 < Connection: keep-alive\n1 < x-powered-by: Express\n1 < access-control-allow-origin: *\n1 < etag: W\/\"51-4tmd0a9xV5TLMsFi8X1o2FtVDeA\"\n1 < via: 1.1 vegur\n1 < CF-Cache-Status: DYNAMIC\n1 < Expect-CT: max-age=604800, report-uri=\"https:\/\/report-uri.cloudflare.com\/cdn-cgi\/beacon\/expect-ct\"\n1 < Report-To: {\"endpoints\":[{\"url\":\"https:\\\/\\\/a.nel.cloudflare.com\\\/report\\\/v3?s=WpjyLFUW0n5S3E7WVWXXWTdNhklRN08e9wv4x9u8i%2BVkUKv6gCLZoc1HqZzcn1jVFtsr4FlNNQu150r8b%2FJFXXWYRiJAmn9aPhSqkwpOAcAl8vZX%2B64FWq1g0iw%3D\"}],\"group\":\"cf-nel\",\"max_age\":604800}\n1 < NEL: {\"success_fraction\":0,\"report_to\":\"cf-nel\",\"max_age\":604800}\n1 < Server: cloudflare\n1 < CF-RAY: 6d8e6cd2883d2dd6-BRU\n1 < alt-svc: h3=\":443\"; ma=86400, h3-29=\":443\"; ma=86400\n{\"name\":\"Mouad\",\"job\":\"tester\",\"id\":\"424\",\"createdAt\":\"2022-02-05T19:08:02.385Z\"}\n"},{"result":{"nanos":21400,"millis":0.0214,"status":"passed"},"step":{"line":32,"prefix":"Then","index":3,"text":"status 201"}},{"result":{"nanos":826100,"millis":0.8261,"status":"passed"},"step":{"line":33,"prefix":"And","index":4,"text":"match response == output"}},{"result":{"nanos":399100,"millis":0.3991,"status":"passed"},"step":{"line":34,"prefix":"And","index":5,"text":"print response"},"stepLog":"20:08:07.595 [print] {\n  \"name\": \"Mouad\",\n  \"job\": \"tester\",\n  \"id\": \"424\",\n  \"createdAt\": \"2022-02-05T19:08:02.385Z\"\n}\n \n"}],"executorName":"main","line":27,"name":"test API post 3","description":"","durationMillis":348.3707,"startTime":1644088087245,"failed":false,"refId":"[3:27]","endTime":1644088087595,"exampleIndex":-1},{"sectionIndex":3,"stepResults":[{"result":{"nanos":138500,"millis":0.1385,"status":"passed"},"step":{"background":true,"line":4,"prefix":"*","index":0,"text":"url 'https:\/\/reqres.in\/api'"}},{"result":{"nanos":592000,"millis":0.592,"status":"passed"},"step":{"background":true,"line":5,"prefix":"*","index":1,"text":"def output = read('response1.json')"}},{"result":{"nanos":448300,"millis":0.4483,"status":"passed"},"step":{"background":true,"line":6,"prefix":"*","index":2,"text":"def request1 = read('request1.json')"}},{"result":{"nanos":84600,"millis":0.0846,"status":"passed"},"step":{"comments":["#Given path '\/users'"],"line":38,"prefix":"Given","index":0,"text":"path '\/users'"}},{"result":{"nanos":535900,"millis":0.5359,"status":"passed"},"step":{"line":39,"prefix":"And","index":1,"text":"request request1"}},{"result":{"nanos":276921000,"millis":276.921,"status":"passed"},"step":{"line":40,"prefix":"When","index":2,"text":"method POST"},"stepLog":"20:08:07.603 request:\n1 > POST https:\/\/reqres.in\/api\/users\n1 > Content-Type: application\/json; charset=UTF-8\n1 > Content-Length: 31\n1 > Host: reqres.in\n1 > Connection: Keep-Alive\n1 > User-Agent: Apache-HttpClient\/4.5.13 (Java\/17.0.1)\n1 > Accept-Encoding: gzip,deflate\n{\"name\":\"Mouad\",\"job\":\"tester\"}\n\n20:08:07.877 response time in milliseconds: 274\n1 < 201\n1 < Date: Sat, 05 Feb 2022 19:08:02 GMT\n1 < Content-Type: application\/json; charset=utf-8\n1 < Content-Length: 81\n1 < Connection: keep-alive\n1 < x-powered-by: Express\n1 < access-control-allow-origin: *\n1 < etag: W\/\"51-bd+rYafCU6ZW+P7C\/Wymjoc4B+I\"\n1 < via: 1.1 vegur\n1 < CF-Cache-Status: DYNAMIC\n1 < Expect-CT: max-age=604800, report-uri=\"https:\/\/report-uri.cloudflare.com\/cdn-cgi\/beacon\/expect-ct\"\n1 < Report-To: {\"endpoints\":[{\"url\":\"https:\\\/\\\/a.nel.cloudflare.com\\\/report\\\/v3?s=h93O7bgRZfraHLzOrRRdnrefsCQl4wNDDCqj011YL6IbXrf98izdTImyiE4zHrT2Pt27i8l0wJhrVLG6gd7zkLzp%2F75xCtjgItkbnF0R7Iryut2xR8qYzRdMbnQ%3D\"}],\"group\":\"cf-nel\",\"max_age\":604800}\n1 < NEL: {\"success_fraction\":0,\"report_to\":\"cf-nel\",\"max_age\":604800}\n1 < Server: cloudflare\n1 < CF-RAY: 6d8e6cd45c33f959-BRU\n1 < alt-svc: h3=\":443\"; ma=86400, h3-29=\":443\"; ma=86400\n{\"name\":\"Mouad\",\"job\":\"tester\",\"id\":\"491\",\"createdAt\":\"2022-02-05T19:08:02.680Z\"}\n"},{"result":{"nanos":22100,"millis":0.0221,"status":"passed"},"step":{"line":41,"prefix":"Then","index":3,"text":"status 201"}},{"result":{"nanos":812700,"millis":0.8127,"status":"passed"},"step":{"line":42,"prefix":"And","index":4,"text":"match response == output"}},{"result":{"nanos":1143300,"millis":1.1433,"status":"passed"},"step":{"line":43,"prefix":"And","index":5,"text":"print response"},"stepLog":"20:08:07.881 [print] {\n  \"name\": \"Mouad\",\n  \"job\": \"tester\",\n  \"id\": \"491\",\n  \"createdAt\": \"2022-02-05T19:08:02.680Z\"\n}\n \n"}],"executorName":"main","line":36,"name":"test API post 3","description":"","durationMillis":280.6984,"startTime":1644088087599,"failed":false,"refId":"[4:36]","endTime":1644088087881,"exampleIndex":-1}],"callDepth":0,"name":"test sample API","description":"","resultDate":"2022-02-05 08:08:07 PM","durationMillis":2237.2546,"passedCount":3}