{"failedCount":1,"prefixedPath":"src\/test\/java\/testRunner\/verifiInCsv.feature","packageQualifiedName":"src.test.java.testRunner.verifiInCsv","loopIndex":-1,"relativePath":"src\/test\/java\/testRunner\/verifiInCsv.feature","scenarioResults":[{"sectionIndex":0,"stepResults":[{"result":{"nanos":1008800,"millis":1.0088,"status":"passed"},"step":{"background":true,"line":4,"prefix":"*","index":0,"text":"url BaseURL"},"stepLog":"21:51:31.862 \n"},{"result":{"nanos":38513000,"millis":38.513,"status":"passed"},"step":{"background":true,"line":5,"prefix":"*","index":1,"text":"def exp = read('data.csv')"}},{"result":{"nanos":1133800,"millis":1.1338,"status":"passed"},"step":{"background":true,"line":6,"prefix":"*","index":2,"text":"def exp1 = read('data1.csv')"}},{"result":{"nanos":308100,"millis":0.3081,"status":"passed"},"step":{"comments":["# Given url 'https:\/\/reqres.in\/api\/users?page=2'"],"line":10,"prefix":"Given","index":0,"text":"path '\/users?page=2'"}},{"result":{"nanos":797140500,"millis":797.1405,"status":"passed"},"step":{"line":11,"prefix":"When","index":1,"text":"method GET"},"stepLog":"21:51:32.231 request:\n1 > GET https:\/\/reqres.in\/api\/users%3Fpage=2\n1 > Host: reqres.in\n1 > Connection: Keep-Alive\n1 > User-Agent: Apache-HttpClient\/4.5.13 (Java\/17.0.1)\n1 > Accept-Encoding: gzip,deflate\n\n\n21:51:32.726 response time in milliseconds: 491\n1 < 200\n1 < Date: Sun, 13 Feb 2022 20:51:29 GMT\n1 < Content-Type: application\/json; charset=utf-8\n1 < Transfer-Encoding: chunked\n1 < Connection: keep-alive\n1 < X-Powered-By: Express\n1 < Access-Control-Allow-Origin: *\n1 < Etag: W\/\"2c1-N6Rqerxquq2kgQhL51EiSg4x0R8\"\n1 < Via: 1.1 vegur\n1 < Cache-Control: max-age=14400\n1 < CF-Cache-Status: HIT\n1 < Age: 337\n1 < Expect-CT: max-age=604800, report-uri=\"https:\/\/report-uri.cloudflare.com\/cdn-cgi\/beacon\/expect-ct\"\n1 < Report-To: {\"endpoints\":[{\"url\":\"https:\\\/\\\/a.nel.cloudflare.com\\\/report\\\/v3?s=%2FnyrFPH91O2st6PgSrQLGu8OG9TZLRxlZVCBNbGBeQkT2Zw8KzPyL4mkt%2F1D5mQbydiQKjgijGu3hlqIdetL2IJXRMVyg2C%2BUdXTM5ui6TWUgcYrs%2FnxGCBcpEg%3D\"}],\"group\":\"cf-nel\",\"max_age\":604800}\n1 < NEL: {\"success_fraction\":0,\"report_to\":\"cf-nel\",\"max_age\":604800}\n1 < Vary: Accept-Encoding\n1 < Server: cloudflare\n1 < CF-RAY: 6dd0ef5b689f735d-MRS\n1 < alt-svc: h3=\":443\"; ma=86400, h3-29=\":443\"; ma=86400\n{\"page\":1,\"per_page\":6,\"total\":12,\"total_pages\":2,\"data\":[{\"id\":1,\"name\":\"cerulean\",\"year\":2000,\"color\":\"#98B2D1\",\"pantone_value\":\"15-4020\"},{\"id\":2,\"name\":\"fuchsia rose\",\"year\":2001,\"color\":\"#C74375\",\"pantone_value\":\"17-2031\"},{\"id\":3,\"name\":\"true red\",\"year\":2002,\"color\":\"#BF1932\",\"pantone_value\":\"19-1664\"},{\"id\":4,\"name\":\"aqua sky\",\"year\":2003,\"color\":\"#7BC4C4\",\"pantone_value\":\"14-4811\"},{\"id\":5,\"name\":\"tigerlily\",\"year\":2004,\"color\":\"#E2583E\",\"pantone_value\":\"17-1456\"},{\"id\":6,\"name\":\"blue turquoise\",\"year\":2005,\"color\":\"#53B0AE\",\"pantone_value\":\"15-5217\"}],\"support\":{\"url\":\"https:\/\/reqres.in\/#support-heading\",\"text\":\"To keep ReqRes free, contributions towards server costs are appreciated!\"}}\n"},{"result":{"nanos":25800,"millis":0.0258,"status":"passed"},"step":{"line":12,"prefix":"Then","index":2,"text":"status 200"}},{"result":{"nanos":4059400,"millis":4.0594,"status":"passed"},"step":{"comments":["#i used this fuction to convert string to number"],"line":14,"prefix":"*","index":3,"text":"def fun = function(x){ x.id = ~~x.id; return x }"}},{"result":{"nanos":12460100,"millis":12.4601,"status":"passed"},"step":{"line":15,"prefix":"*","index":4,"text":"def exp = karate.map(exp, fun)"}},{"result":{"nanos":239300,"millis":0.2393,"status":"passed"},"step":{"line":16,"prefix":"And","index":5,"text":"def acc = response"}},{"result":{"nanos":18450200,"errorMessage":"match failed: CONTAINS_DEEP\n  $ | actual does not contain expected | actual array does not contain expected item - {\"id\":7} (LIST:LIST)\n  [{\"id\":1,\"name\":\"cerulean\",\"year\":2000,\"color\":\"#98B2D1\",\"pantone_value\":\"15-4020\"},{\"id\":2,\"name\":\"fuchsia rose\",\"year\":2001,\"color\":\"#C74375\",\"pantone_value\":\"17-2031\"},{\"id\":3,\"name\":\"true red\",\"year\":2002,\"color\":\"#BF1932\",\"pantone_value\":\"19-1664\"},{\"id\":4,\"name\":\"aqua sky\",\"year\":2003,\"color\":\"#7BC4C4\",\"pantone_value\":\"14-4811\"},{\"id\":5,\"name\":\"tigerlily\",\"year\":2004,\"color\":\"#E2583E\",\"pantone_value\":\"17-1456\"},{\"id\":6,\"name\":\"blue turquoise\",\"year\":2005,\"color\":\"#53B0AE\",\"pantone_value\":\"15-5217\"}]\n  [{\"id\":7},{\"id\":8},{\"id\":9}]\n\n    $[5] | actual does not contain expected | all key-values did not match, expected has un-matched keys - [id] (MAP:MAP)\n    {\"id\":6,\"name\":\"blue turquoise\",\"year\":2005,\"color\":\"#53B0AE\",\"pantone_value\":\"15-5217\"}\n    {\"id\":7}\n\n      $[5].id | not equal (NUMBER:NUMBER)\n      6\n      7\n\n        $[4] | actual does not contain expected | all key-values did not match, expected has un-matched keys - [id] (MAP:MAP)\n        {\"id\":5,\"name\":\"tigerlily\",\"year\":2004,\"color\":\"#E2583E\",\"pantone_value\":\"17-1456\"}\n        {\"id\":7}\n\n          $[4].id | not equal (NUMBER:NUMBER)\n          5\n          7\n\n            $[3] | actual does not contain expected | all key-values did not match, expected has un-matched keys - [id] (MAP:MAP)\n            {\"id\":4,\"name\":\"aqua sky\",\"year\":2003,\"color\":\"#7BC4C4\",\"pantone_value\":\"14-4811\"}\n            {\"id\":7}\n\n              $[3].id | not equal (NUMBER:NUMBER)\n              4\n              7\n\n                $[2] | actual does not contain expected | all key-values did not match, expected has un-matched keys - [id] (MAP:MAP)\n                {\"id\":3,\"name\":\"true red\",\"year\":2002,\"color\":\"#BF1932\",\"pantone_value\":\"19-1664\"}\n                {\"id\":7}\n\n                  $[2].id | not equal (NUMBER:NUMBER)\n                  3\n                  7\n\n                    $[1] | actual does not contain expected | all key-values did not match, expected has un-matched keys - [id] (MAP:MAP)\n                    {\"id\":2,\"name\":\"fuchsia rose\",\"year\":2001,\"color\":\"#C74375\",\"pantone_value\":\"17-2031\"}\n                    {\"id\":7}\n\n                      $[1].id | not equal (NUMBER:NUMBER)\n                      2\n                      7\n\n                        $[0] | actual does not contain expected | all key-values did not match, expected has un-matched keys - [id] (MAP:MAP)\n                        {\"id\":1,\"name\":\"cerulean\",\"year\":2000,\"color\":\"#98B2D1\",\"pantone_value\":\"15-4020\"}\n                        {\"id\":7}\n\n                          $[0].id | not equal (NUMBER:NUMBER)\n                          1\n                          7\n\nsrc\/test\/java\/testRunner\/verifiInCsv.feature:18","millis":18.4502,"status":"failed"},"step":{"comments":["#i used deep to check 2 arrays"],"line":18,"prefix":"*","index":6,"text":"match acc.data[*] contains deep exp"},"stepLog":"21:51:32.768 src\/test\/java\/testRunner\/verifiInCsv.feature:18\n* match acc.data[*] contains deep exp\nmatch failed: CONTAINS_DEEP\n  $ | actual does not contain expected | actual array does not contain expected item - {\"id\":7} (LIST:LIST)\n  [{\"id\":1,\"name\":\"cerulean\",\"year\":2000,\"color\":\"#98B2D1\",\"pantone_value\":\"15-4020\"},{\"id\":2,\"name\":\"fuchsia rose\",\"year\":2001,\"color\":\"#C74375\",\"pantone_value\":\"17-2031\"},{\"id\":3,\"name\":\"true red\",\"year\":2002,\"color\":\"#BF1932\",\"pantone_value\":\"19-1664\"},{\"id\":4,\"name\":\"aqua sky\",\"year\":2003,\"color\":\"#7BC4C4\",\"pantone_value\":\"14-4811\"},{\"id\":5,\"name\":\"tigerlily\",\"year\":2004,\"color\":\"#E2583E\",\"pantone_value\":\"17-1456\"},{\"id\":6,\"name\":\"blue turquoise\",\"year\":2005,\"color\":\"#53B0AE\",\"pantone_value\":\"15-5217\"}]\n  [{\"id\":7},{\"id\":8},{\"id\":9}]\n\n    $[5] | actual does not contain expected | all key-values did not match, expected has un-matched keys - [id] (MAP:MAP)\n    {\"id\":6,\"name\":\"blue turquoise\",\"year\":2005,\"color\":\"#53B0AE\",\"pantone_value\":\"15-5217\"}\n    {\"id\":7}\n\n      $[5].id | not equal (NUMBER:NUMBER)\n      6\n      7\n\n        $[4] | actual does not contain expected | all key-values did not match, expected has un-matched keys - [id] (MAP:MAP)\n        {\"id\":5,\"name\":\"tigerlily\",\"year\":2004,\"color\":\"#E2583E\",\"pantone_value\":\"17-1456\"}\n        {\"id\":7}\n\n          $[4].id | not equal (NUMBER:NUMBER)\n          5\n          7\n\n            $[3] | actual does not contain expected | all key-values did not match, expected has un-matched keys - [id] (MAP:MAP)\n            {\"id\":4,\"name\":\"aqua sky\",\"year\":2003,\"color\":\"#7BC4C4\",\"pantone_value\":\"14-4811\"}\n            {\"id\":7}\n\n              $[3].id | not equal (NUMBER:NUMBER)\n              4\n              7\n\n                $[2] | actual does not contain expected | all key-values did not match, expected has un-matched keys - [id] (MAP:MAP)\n                {\"id\":3,\"name\":\"true red\",\"year\":2002,\"color\":\"#BF1932\",\"pantone_value\":\"19-1664\"}\n                {\"id\":7}\n\n                  $[2].id | not equal (NUMBER:NUMBER)\n                  3\n                  7\n\n                    $[1] | actual does not contain expected | all key-values did not match, expected has un-matched keys - [id] (MAP:MAP)\n                    {\"id\":2,\"name\":\"fuchsia rose\",\"year\":2001,\"color\":\"#C74375\",\"pantone_value\":\"17-2031\"}\n                    {\"id\":7}\n\n                      $[1].id | not equal (NUMBER:NUMBER)\n                      2\n                      7\n\n                        $[0] | actual does not contain expected | all key-values did not match, expected has un-matched keys - [id] (MAP:MAP)\n                        {\"id\":1,\"name\":\"cerulean\",\"year\":2000,\"color\":\"#98B2D1\",\"pantone_value\":\"15-4020\"}\n                        {\"id\":7}\n\n                          $[0].id | not equal (NUMBER:NUMBER)\n                          1\n                          7\n\nsrc\/test\/java\/testRunner\/verifiInCsv.feature:18\n"}],"line":8,"description":"","durationMillis":873.339,"failed":true,"error":"match failed: CONTAINS_DEEP\n  $ | actual does not contain expected | actual array does not contain expected item - {\"id\":7} (LIST:LIST)\n  [{\"id\":1,\"name\":\"cerulean\",\"year\":2000,\"color\":\"#98B2D1\",\"pantone_value\":\"15-4020\"},{\"id\":2,\"name\":\"fuchsia rose\",\"year\":2001,\"color\":\"#C74375\",\"pantone_value\":\"17-2031\"},{\"id\":3,\"name\":\"true red\",\"year\":2002,\"color\":\"#BF1932\",\"pantone_value\":\"19-1664\"},{\"id\":4,\"name\":\"aqua sky\",\"year\":2003,\"color\":\"#7BC4C4\",\"pantone_value\":\"14-4811\"},{\"id\":5,\"name\":\"tigerlily\",\"year\":2004,\"color\":\"#E2583E\",\"pantone_value\":\"17-1456\"},{\"id\":6,\"name\":\"blue turquoise\",\"year\":2005,\"color\":\"#53B0AE\",\"pantone_value\":\"15-5217\"}]\n  [{\"id\":7},{\"id\":8},{\"id\":9}]\n\n    $[5] | actual does not contain expected | all key-values did not match, expected has un-matched keys - [id] (MAP:MAP)\n    {\"id\":6,\"name\":\"blue turquoise\",\"year\":2005,\"color\":\"#53B0AE\",\"pantone_value\":\"15-5217\"}\n    {\"id\":7}\n\n      $[5].id | not equal (NUMBER:NUMBER)\n      6\n      7\n\n        $[4] | actual does not contain expected | all key-values did not match, expected has un-matched keys - [id] (MAP:MAP)\n        {\"id\":5,\"name\":\"tigerlily\",\"year\":2004,\"color\":\"#E2583E\",\"pantone_value\":\"17-1456\"}\n        {\"id\":7}\n\n          $[4].id | not equal (NUMBER:NUMBER)\n          5\n          7\n\n            $[3] | actual does not contain expected | all key-values did not match, expected has un-matched keys - [id] (MAP:MAP)\n            {\"id\":4,\"name\":\"aqua sky\",\"year\":2003,\"color\":\"#7BC4C4\",\"pantone_value\":\"14-4811\"}\n            {\"id\":7}\n\n              $[3].id | not equal (NUMBER:NUMBER)\n              4\n              7\n\n                $[2] | actual does not contain expected | all key-values did not match, expected has un-matched keys - [id] (MAP:MAP)\n                {\"id\":3,\"name\":\"true red\",\"year\":2002,\"color\":\"#BF1932\",\"pantone_value\":\"19-1664\"}\n                {\"id\":7}\n\n                  $[2].id | not equal (NUMBER:NUMBER)\n                  3\n                  7\n\n                    $[1] | actual does not contain expected | all key-values did not match, expected has un-matched keys - [id] (MAP:MAP)\n                    {\"id\":2,\"name\":\"fuchsia rose\",\"year\":2001,\"color\":\"#C74375\",\"pantone_value\":\"17-2031\"}\n                    {\"id\":7}\n\n                      $[1].id | not equal (NUMBER:NUMBER)\n                      2\n                      7\n\n                        $[0] | actual does not contain expected | all key-values did not match, expected has un-matched keys - [id] (MAP:MAP)\n                        {\"id\":1,\"name\":\"cerulean\",\"year\":2000,\"color\":\"#98B2D1\",\"pantone_value\":\"15-4020\"}\n                        {\"id\":7}\n\n                          $[0].id | not equal (NUMBER:NUMBER)\n                          1\n                          7\n\nsrc\/test\/java\/testRunner\/verifiInCsv.feature:18","executorName":"main","name":"check if response contains csv values ids","startTime":1644785491690,"refId":"[1:8]","endTime":1644785492768,"exampleIndex":-1},{"sectionIndex":1,"stepResults":[{"result":{"nanos":77700,"millis":0.0777,"status":"passed"},"step":{"background":true,"line":4,"prefix":"*","index":0,"text":"url BaseURL"},"stepLog":"21:51:32.774 \n"},{"result":{"nanos":615000,"millis":0.615,"status":"passed"},"step":{"background":true,"line":5,"prefix":"*","index":1,"text":"def exp = read('data.csv')"}},{"result":{"nanos":540100,"millis":0.5401,"status":"passed"},"step":{"background":true,"line":6,"prefix":"*","index":2,"text":"def exp1 = read('data1.csv')"}},{"result":{"nanos":244600,"millis":0.2446,"status":"passed"},"step":{"line":21,"prefix":"Given","index":0,"text":"url 'https:\/\/reqres.in\/api\/users?page=2'"}},{"result":{"nanos":162352700,"millis":162.3527,"status":"passed"},"step":{"line":22,"prefix":"When","index":1,"text":"method GET"},"stepLog":"21:51:32.777 request:\n1 > GET https:\/\/reqres.in\/api\/users?page=2\n1 > Host: reqres.in\n1 > Connection: Keep-Alive\n1 > User-Agent: Apache-HttpClient\/4.5.13 (Java\/17.0.1)\n1 > Accept-Encoding: gzip,deflate\n\n\n21:51:32.937 response time in milliseconds: 160\n1 < 200\n1 < Date: Sun, 13 Feb 2022 20:51:29 GMT\n1 < Content-Type: application\/json; charset=utf-8\n1 < Transfer-Encoding: chunked\n1 < Connection: keep-alive\n1 < X-Powered-By: Express\n1 < Access-Control-Allow-Origin: *\n1 < Etag: W\/\"406-ut0vzoCuidvyMf8arZpMpJ6ZRDw\"\n1 < Via: 1.1 vegur\n1 < Cache-Control: max-age=14400\n1 < CF-Cache-Status: HIT\n1 < Age: 1596\n1 < Expect-CT: max-age=604800, report-uri=\"https:\/\/report-uri.cloudflare.com\/cdn-cgi\/beacon\/expect-ct\"\n1 < Report-To: {\"endpoints\":[{\"url\":\"https:\\\/\\\/a.nel.cloudflare.com\\\/report\\\/v3?s=J7Vbs0bfoCfwFkvgzEqwee9O5zMp%2BCh2IF%2Fpm8IMNw6aXx2Q%2FsMC%2FONHkLIE2K5SU3AKjaktJzL7e71PxlvU0mRy4OmmU0LxZY7%2F3NatJu42QIEm559GFU45pyU%3D\"}],\"group\":\"cf-nel\",\"max_age\":604800}\n1 < NEL: {\"success_fraction\":0,\"report_to\":\"cf-nel\",\"max_age\":604800}\n1 < Vary: Accept-Encoding\n1 < Server: cloudflare\n1 < CF-RAY: 6dd0ef5d3eba73af-MRS\n1 < alt-svc: h3=\":443\"; ma=86400, h3-29=\":443\"; ma=86400\n{\"page\":2,\"per_page\":6,\"total\":12,\"total_pages\":2,\"data\":[{\"id\":7,\"email\":\"michael.lawson@reqres.in\",\"first_name\":\"Michael\",\"last_name\":\"Lawson\",\"avatar\":\"https:\/\/reqres.in\/img\/faces\/7-image.jpg\"},{\"id\":8,\"email\":\"lindsay.ferguson@reqres.in\",\"first_name\":\"Lindsay\",\"last_name\":\"Ferguson\",\"avatar\":\"https:\/\/reqres.in\/img\/faces\/8-image.jpg\"},{\"id\":9,\"email\":\"tobias.funke@reqres.in\",\"first_name\":\"Tobias\",\"last_name\":\"Funke\",\"avatar\":\"https:\/\/reqres.in\/img\/faces\/9-image.jpg\"},{\"id\":10,\"email\":\"byron.fields@reqres.in\",\"first_name\":\"Byron\",\"last_name\":\"Fields\",\"avatar\":\"https:\/\/reqres.in\/img\/faces\/10-image.jpg\"},{\"id\":11,\"email\":\"george.edwards@reqres.in\",\"first_name\":\"George\",\"last_name\":\"Edwards\",\"avatar\":\"https:\/\/reqres.in\/img\/faces\/11-image.jpg\"},{\"id\":12,\"email\":\"rachel.howell@reqres.in\",\"first_name\":\"Rachel\",\"last_name\":\"Howell\",\"avatar\":\"https:\/\/reqres.in\/img\/faces\/12-image.jpg\"}],\"support\":{\"url\":\"https:\/\/reqres.in\/#support-heading\",\"text\":\"To keep ReqRes free, contributions towards server costs are appreciated!\"}}\n"},{"result":{"nanos":14200,"millis":0.0142,"status":"passed"},"step":{"line":23,"prefix":"Then","index":2,"text":"status 200"}},{"result":{"nanos":372500,"millis":0.3725,"status":"passed"},"step":{"line":24,"prefix":"And","index":3,"text":"def acc = response"}},{"result":{"nanos":854600,"millis":0.8546,"status":"passed"},"step":{"line":25,"prefix":"*","index":4,"text":"match acc.data[*] contains deep exp1"}}],"executorName":"main","line":20,"name":"check if response contains csv values emails","description":"","durationMillis":165.0714,"startTime":1644785492773,"failed":false,"refId":"[2:20]","endTime":1644785492940,"exampleIndex":-1}],"callDepth":0,"name":"verify if elements exists in csv file","description":"","resultDate":"2022-02-13 09:51:32 PM","durationMillis":1038.4104,"passedCount":1}