{"failedCount":1,"prefixedPath":"src\/test\/java\/test_ResIsReq.feature","packageQualifiedName":"src.test.java.test_ResIsReq","loopIndex":-1,"relativePath":"src\/test\/java\/test_ResIsReq.feature","scenarioResults":[{"sectionIndex":0,"stepResults":[{"result":{"nanos":78147200,"millis":78.1472,"status":"passed"},"step":{"background":true,"line":4,"prefix":"*","index":0,"text":"url 'https:\/\/reqres.in\/api'"}},{"result":{"nanos":561099,"millis":0.561099,"status":"passed"},"step":{"line":7,"prefix":"Given","index":0,"text":"path '\/users?page=2'"}},{"result":{"nanos":730845201,"millis":730.845201,"status":"passed"},"step":{"line":8,"prefix":"When","index":1,"text":"method GET"},"stepLog":"15:03:14.348 request:\n1 > GET https:\/\/reqres.in\/api\/users%3Fpage=2\n1 > Host: reqres.in\n1 > Connection: Keep-Alive\n1 > User-Agent: Apache-HttpClient\/4.5.13 (Java\/17.0.1)\n1 > Accept-Encoding: gzip,deflate\n\n\n15:03:14.767 response time in milliseconds: 417\n1 < 200\n1 < Date: Sun, 13 Feb 2022 14:03:11 GMT\n1 < Content-Type: application\/json; charset=utf-8\n1 < Transfer-Encoding: chunked\n1 < Connection: keep-alive\n1 < X-Powered-By: Express\n1 < Access-Control-Allow-Origin: *\n1 < Etag: W\/\"2c1-N6Rqerxquq2kgQhL51EiSg4x0R8\"\n1 < Via: 1.1 vegur\n1 < Cache-Control: max-age=14400\n1 < CF-Cache-Status: HIT\n1 < Age: 178\n1 < Expect-CT: max-age=604800, report-uri=\"https:\/\/report-uri.cloudflare.com\/cdn-cgi\/beacon\/expect-ct\"\n1 < Report-To: {\"endpoints\":[{\"url\":\"https:\\\/\\\/a.nel.cloudflare.com\\\/report\\\/v3?s=Q2HHBq%2BJSEatjNxBgD1dEWf6BxXzxNupYWAVAAqHKBH%2FLdhhvxY4CdBEWVlIVZf60T3P7WOr1wdqHdRNQR7bxoncTz5qMWjTnm8tYO5CAj28JFox6LpVjUQJt9A%3D\"}],\"group\":\"cf-nel\",\"max_age\":604800}\n1 < NEL: {\"success_fraction\":0,\"report_to\":\"cf-nel\",\"max_age\":604800}\n1 < Vary: Accept-Encoding\n1 < Server: cloudflare\n1 < CF-RAY: 6dce99474dea2dd6-BRU\n1 < alt-svc: h3=\":443\"; ma=86400, h3-29=\":443\"; ma=86400\n{\"page\":1,\"per_page\":6,\"total\":12,\"total_pages\":2,\"data\":[{\"id\":1,\"name\":\"cerulean\",\"year\":2000,\"color\":\"#98B2D1\",\"pantone_value\":\"15-4020\"},{\"id\":2,\"name\":\"fuchsia rose\",\"year\":2001,\"color\":\"#C74375\",\"pantone_value\":\"17-2031\"},{\"id\":3,\"name\":\"true red\",\"year\":2002,\"color\":\"#BF1932\",\"pantone_value\":\"19-1664\"},{\"id\":4,\"name\":\"aqua sky\",\"year\":2003,\"color\":\"#7BC4C4\",\"pantone_value\":\"14-4811\"},{\"id\":5,\"name\":\"tigerlily\",\"year\":2004,\"color\":\"#E2583E\",\"pantone_value\":\"17-1456\"},{\"id\":6,\"name\":\"blue turquoise\",\"year\":2005,\"color\":\"#53B0AE\",\"pantone_value\":\"15-5217\"}],\"support\":{\"url\":\"https:\/\/reqres.in\/#support-heading\",\"text\":\"To keep ReqRes free, contributions towards server costs are appreciated!\"}}\n"},{"result":{"nanos":18900,"millis":0.0189,"status":"passed"},"step":{"line":9,"prefix":"Then","index":2,"text":"status 200"}},{"result":{"nanos":21061100,"millis":21.0611,"status":"passed"},"step":{"line":10,"prefix":"And","index":3,"text":"def uResponse = response"}},{"result":{"nanos":49711301,"millis":49.711301,"status":"passed"},"step":{"line":11,"prefix":"And","index":4,"text":"print uResponse"},"stepLog":"15:03:14.861 [print] {\n  \"page\": 1,\n  \"per_page\": 6,\n  \"total\": 12,\n  \"total_pages\": 2,\n  \"data\": [\n    {\n      \"id\": 1,\n      \"name\": \"cerulean\",\n      \"year\": 2000,\n      \"color\": \"#98B2D1\",\n      \"pantone_value\": \"15-4020\"\n    },\n    {\n      \"id\": 2,\n      \"name\": \"fuchsia rose\",\n      \"year\": 2001,\n      \"color\": \"#C74375\",\n      \"pantone_value\": \"17-2031\"\n    },\n    {\n      \"id\": 3,\n      \"name\": \"true red\",\n      \"year\": 2002,\n      \"color\": \"#BF1932\",\n      \"pantone_value\": \"19-1664\"\n    },\n    {\n      \"id\": 4,\n      \"name\": \"aqua sky\",\n      \"year\": 2003,\n      \"color\": \"#7BC4C4\",\n      \"pantone_value\": \"14-4811\"\n    },\n    {\n      \"id\": 5,\n      \"name\": \"tigerlily\",\n      \"year\": 2004,\n      \"color\": \"#E2583E\",\n      \"pantone_value\": \"17-1456\"\n    },\n    {\n      \"id\": 6,\n      \"name\": \"blue turquoise\",\n      \"year\": 2005,\n      \"color\": \"#53B0AE\",\n      \"pantone_value\": \"15-5217\"\n    }\n  ],\n  \"support\": {\n    \"url\": \"https:\/\/reqres.in\/#support-heading\",\n    \"text\": \"To keep ReqRes free, contributions towards server costs are appreciated!\"\n  }\n}\n \n"},{"result":{"nanos":19417099,"millis":19.417099,"status":"passed"},"step":{"line":12,"prefix":"Then","index":5,"text":"match uResponse.data[*].name contains  ['cerulean']"}},{"result":{"nanos":2877700,"millis":2.8777,"status":"passed"},"step":{"line":13,"prefix":"Then","index":6,"text":"def rec = uResponse.data.name = 'cerulean'"}}],"executorName":"main","line":6,"name":"get if cerulean exist","description":"","durationMillis":902.6396,"startTime":1644760993973,"failed":false,"refId":"[1:6]","endTime":1644760994884,"exampleIndex":-1},{"sectionIndex":1,"stepResults":[{"result":{"nanos":545301,"millis":0.545301,"status":"passed"},"step":{"background":true,"line":4,"prefix":"*","index":0,"text":"url 'https:\/\/reqres.in\/api'"}},{"result":{"nanos":376201,"millis":0.376201,"status":"passed"},"step":{"line":16,"prefix":"Given","index":0,"text":"path '\/users\/2'"}},{"result":{"nanos":244254100,"millis":244.2541,"status":"passed"},"step":{"line":17,"prefix":"When","index":1,"text":"method GET"},"stepLog":"15:03:14.892 request:\n1 > GET https:\/\/reqres.in\/api\/users\/2\n1 > Host: reqres.in\n1 > Connection: Keep-Alive\n1 > User-Agent: Apache-HttpClient\/4.5.13 (Java\/17.0.1)\n1 > Accept-Encoding: gzip,deflate\n\n\n15:03:15.135 response time in milliseconds: 243\n1 < 200\n1 < Date: Sun, 13 Feb 2022 14:03:12 GMT\n1 < Content-Type: application\/json; charset=utf-8\n1 < Transfer-Encoding: chunked\n1 < Connection: keep-alive\n1 < X-Powered-By: Express\n1 < Access-Control-Allow-Origin: *\n1 < Etag: W\/\"118-pbdwwFo9SKNhD3Lx5iHJyngpq00\"\n1 < Via: 1.1 vegur\n1 < Cache-Control: max-age=14400\n1 < CF-Cache-Status: HIT\n1 < Age: 6981\n1 < Expect-CT: max-age=604800, report-uri=\"https:\/\/report-uri.cloudflare.com\/cdn-cgi\/beacon\/expect-ct\"\n1 < Report-To: {\"endpoints\":[{\"url\":\"https:\\\/\\\/a.nel.cloudflare.com\\\/report\\\/v3?s=NGDiO8XsM14Kc%2FNMBk5EXBgimz7QZ11ZmZRFk9xUBrymKZQmbTsDVawkodsAWuLUL1%2BS5SIt9vPvVN2dPsVH0TuxNsChbfuA6umOMiEZO0HWVgHlUarpe9aCu7I%3D\"}],\"group\":\"cf-nel\",\"max_age\":604800}\n1 < NEL: {\"success_fraction\":0,\"report_to\":\"cf-nel\",\"max_age\":604800}\n1 < Vary: Accept-Encoding\n1 < Server: cloudflare\n1 < CF-RAY: 6dce99499bf62e62-BRU\n1 < alt-svc: h3=\":443\"; ma=86400, h3-29=\":443\"; ma=86400\n{\"data\":{\"id\":2,\"email\":\"janet.weaver@reqres.in\",\"first_name\":\"Janet\",\"last_name\":\"Weaver\",\"avatar\":\"https:\/\/reqres.in\/img\/faces\/2-image.jpg\"},\"support\":{\"url\":\"https:\/\/reqres.in\/#support-heading\",\"text\":\"To keep ReqRes free, contributions towards server costs are appreciated!\"}}\n"},{"result":{"nanos":7401,"millis":0.007401,"status":"passed"},"step":{"line":18,"prefix":"Then","index":2,"text":"status 200"}},{"result":{"nanos":280800,"millis":0.2808,"status":"passed"},"step":{"line":19,"prefix":"And","index":3,"text":"def u1Response = response"}},{"result":{"nanos":922799,"millis":0.922799,"status":"passed"},"step":{"line":20,"prefix":"And","index":4,"text":"print u1Response"},"stepLog":"15:03:15.137 [print] {\n  \"data\": {\n    \"id\": 2,\n    \"email\": \"janet.weaver@reqres.in\",\n    \"first_name\": \"Janet\",\n    \"last_name\": \"Weaver\",\n    \"avatar\": \"https:\/\/reqres.in\/img\/faces\/2-image.jpg\"\n  },\n  \"support\": {\n    \"url\": \"https:\/\/reqres.in\/#support-heading\",\n    \"text\": \"To keep ReqRes free, contributions towards server costs are appreciated!\"\n  }\n}\n \n"},{"result":{"nanos":1232500,"errorMessage":"match failed: CONTAINS\n  $ | actual does not contain expected | actual array length is less than expected - 0:1 (LIST:LIST)\n  []\n  [\"cerulean\"]\n\n\nsrc\/test\/java\/test_ResIsReq.feature:21","millis":1.2325,"status":"failed"},"step":{"line":21,"prefix":"Then","index":5,"text":"match u1Response.data[*].name contains  ['cerulean']"},"stepLog":"15:03:15.139 src\/test\/java\/test_ResIsReq.feature:21\nThen match u1Response.data[*].name contains  ['cerulean']\nmatch failed: CONTAINS\n  $ | actual does not contain expected | actual array length is less than expected - 0:1 (LIST:LIST)\n  []\n  [\"cerulean\"]\n\n\nsrc\/test\/java\/test_ResIsReq.feature:21\n"}],"line":15,"description":"","durationMillis":247.619102,"failed":true,"error":"match failed: CONTAINS\n  $ | actual does not contain expected | actual array length is less than expected - 0:1 (LIST:LIST)\n  []\n  [\"cerulean\"]\n\n\nsrc\/test\/java\/test_ResIsReq.feature:21","executorName":"main","name":"","startTime":1644760994890,"refId":"[2:15]","endTime":1644760995139,"exampleIndex":-1},{"sectionIndex":2,"stepResults":[{"result":{"nanos":177200,"millis":0.1772,"status":"passed"},"step":{"background":true,"line":4,"prefix":"*","index":0,"text":"url 'https:\/\/reqres.in\/api'"}},{"result":{"nanos":336400,"millis":0.3364,"status":"passed"},"step":{"line":24,"prefix":"Given","index":0,"text":"path '\/users?page=2'"}},{"result":{"nanos":214606299,"millis":214.606299,"status":"passed"},"step":{"line":25,"prefix":"When","index":1,"text":"method GET"},"stepLog":"15:03:15.144 request:\n1 > GET https:\/\/reqres.in\/api\/users%3Fpage=2\n1 > Host: reqres.in\n1 > Connection: Keep-Alive\n1 > User-Agent: Apache-HttpClient\/4.5.13 (Java\/17.0.1)\n1 > Accept-Encoding: gzip,deflate\n\n\n15:03:15.356 response time in milliseconds: 212\n1 < 200\n1 < Date: Sun, 13 Feb 2022 14:03:12 GMT\n1 < Content-Type: application\/json; charset=utf-8\n1 < Transfer-Encoding: chunked\n1 < Connection: keep-alive\n1 < X-Powered-By: Express\n1 < Access-Control-Allow-Origin: *\n1 < Etag: W\/\"2c1-N6Rqerxquq2kgQhL51EiSg4x0R8\"\n1 < Via: 1.1 vegur\n1 < Cache-Control: max-age=14400\n1 < CF-Cache-Status: HIT\n1 < Age: 179\n1 < Expect-CT: max-age=604800, report-uri=\"https:\/\/report-uri.cloudflare.com\/cdn-cgi\/beacon\/expect-ct\"\n1 < Report-To: {\"endpoints\":[{\"url\":\"https:\\\/\\\/a.nel.cloudflare.com\\\/report\\\/v3?s=yGGcHn%2FIFu2AzW4bU1kMpmEJkQ6cMnGJ9rPln1qawlE5e2EbhvtlNZg2RMspSnz%2BY6X6HkEPM76paPFEAZ2oV4%2FAnI0%2FgCPAbl0l8cYQ3At2axRu8pSGMEzuNpM%3D\"}],\"group\":\"cf-nel\",\"max_age\":604800}\n1 < NEL: {\"success_fraction\":0,\"report_to\":\"cf-nel\",\"max_age\":604800}\n1 < Vary: Accept-Encoding\n1 < Server: cloudflare\n1 < CF-RAY: 6dce994b2f7683d7-BRU\n1 < alt-svc: h3=\":443\"; ma=86400, h3-29=\":443\"; ma=86400\n{\"page\":1,\"per_page\":6,\"total\":12,\"total_pages\":2,\"data\":[{\"id\":1,\"name\":\"cerulean\",\"year\":2000,\"color\":\"#98B2D1\",\"pantone_value\":\"15-4020\"},{\"id\":2,\"name\":\"fuchsia rose\",\"year\":2001,\"color\":\"#C74375\",\"pantone_value\":\"17-2031\"},{\"id\":3,\"name\":\"true red\",\"year\":2002,\"color\":\"#BF1932\",\"pantone_value\":\"19-1664\"},{\"id\":4,\"name\":\"aqua sky\",\"year\":2003,\"color\":\"#7BC4C4\",\"pantone_value\":\"14-4811\"},{\"id\":5,\"name\":\"tigerlily\",\"year\":2004,\"color\":\"#E2583E\",\"pantone_value\":\"17-1456\"},{\"id\":6,\"name\":\"blue turquoise\",\"year\":2005,\"color\":\"#53B0AE\",\"pantone_value\":\"15-5217\"}],\"support\":{\"url\":\"https:\/\/reqres.in\/#support-heading\",\"text\":\"To keep ReqRes free, contributions towards server costs are appreciated!\"}}\n"},{"result":{"nanos":10600,"millis":0.0106,"status":"passed"},"step":{"line":26,"prefix":"Then","index":2,"text":"status 200"}},{"result":{"nanos":530100,"millis":0.5301,"status":"passed"},"step":{"line":27,"prefix":"*","index":3,"text":"def name = 'ceruleann'"}},{"result":{"nanos":638900,"millis":0.6389,"status":"passed"},"step":{"line":28,"prefix":"*","index":4,"text":"def response = response.data"}},{"result":{"nanos":397300,"millis":0.3973,"status":"passed"},"step":{"line":29,"prefix":"*","index":5,"text":"def names = $[*].name"}},{"result":{"nanos":21117900,"millis":21.1179,"status":"passed"},"step":{"line":30,"prefix":"*","index":6,"text":"def index = names.indexOf(name)"}},{"result":{"nanos":932700,"millis":0.9327,"status":"passed"},"step":{"line":31,"prefix":"*","index":7,"text":"print index"},"stepLog":"15:03:15.381 [print] -1 \n"}],"executorName":"main","line":23,"name":"get index cerulean","description":"","durationMillis":238.747399,"startTime":1644760995142,"failed":false,"refId":"[3:23]","endTime":1644760995381,"exampleIndex":-1}],"callDepth":0,"name":"test request is response","description":"","resultDate":"2022-02-13 03:03:15 PM","durationMillis":1389.006101,"passedCount":2}