{"failedCount":1,"prefixedPath":"classpath:testRunner\/verifiInCsv.feature","packageQualifiedName":"testRunner.verifiInCsv","loopIndex":-1,"relativePath":"testRunner\/verifiInCsv.feature","scenarioResults":[{"sectionIndex":0,"stepResults":[{"result":{"nanos":245100,"millis":0.2451,"status":"passed"},"step":{"background":true,"line":4,"prefix":"*","index":0,"text":"url BaseURL"},"stepLog":"21:51:10.871 qa \n"},{"result":{"nanos":21219200,"millis":21.2192,"status":"passed"},"step":{"background":true,"line":5,"prefix":"*","index":1,"text":"def exp = read('data.csv')"}},{"result":{"nanos":2019400,"millis":2.0194,"status":"passed"},"step":{"background":true,"line":6,"prefix":"*","index":2,"text":"def exp1 = read('data1.csv')"}},{"result":{"nanos":156900,"millis":0.1569,"status":"passed"},"step":{"comments":["# Given url 'https:\/\/reqres.in\/api\/users?page=2'"],"line":10,"prefix":"Given","index":0,"text":"path '\/users?page=2'"}},{"result":{"nanos":147289700,"millis":147.2897,"status":"passed"},"step":{"line":11,"prefix":"When","index":1,"text":"method GET"},"stepLog":"21:51:10.898 request:\n1 > GET https:\/\/reqres.in\/api\/qa\/users%3Fpage=2\n1 > Host: reqres.in\n1 > Connection: Keep-Alive\n1 > User-Agent: Apache-HttpClient\/4.5.13 (Java\/17.0.1)\n1 > Accept-Encoding: gzip,deflate\n\n\n21:51:11.042 response time in milliseconds: 143\n1 < 404\n1 < Date: Sun, 13 Feb 2022 20:51:07 GMT\n1 < Content-Type: application\/json; charset=utf-8\n1 < Content-Length: 2\n1 < Connection: keep-alive\n1 < X-Powered-By: Express\n1 < Access-Control-Allow-Origin: *\n1 < Etag: W\/\"2-vyGp6PvFo4RvsFtPoIWeCReyIC8\"\n1 < Via: 1.1 vegur\n1 < Cache-Control: max-age=14400\n1 < CF-Cache-Status: HIT\n1 < Age: 57\n1 < Expect-CT: max-age=604800, report-uri=\"https:\/\/report-uri.cloudflare.com\/cdn-cgi\/beacon\/expect-ct\"\n1 < Report-To: {\"endpoints\":[{\"url\":\"https:\\\/\\\/a.nel.cloudflare.com\\\/report\\\/v3?s=rw3AKh47aEEea0bcUj7OvB6Mf%2BOHt4PE%2FMBq9%2FQJxxn8y%2Fob8BF43N2mKgEISpTim8vF%2FT7wwo5FmENXa7BassGIGTCBlSAuUTUT6fuC6bPgDHUHW7PrqqW8nDs%3D\"}],\"group\":\"cf-nel\",\"max_age\":604800}\n1 < NEL: {\"success_fraction\":0,\"report_to\":\"cf-nel\",\"max_age\":604800}\n1 < Vary: Accept-Encoding\n1 < Server: cloudflare\n1 < CF-RAY: 6dd0eed46fea5fe2-MRS\n1 < alt-svc: h3=\":443\"; ma=86400, h3-29=\":443\"; ma=86400\n{}\n"},{"result":{"nanos":185700,"errorMessage":"status code was: 404, expected: 200, response time in milliseconds: 143, url: https:\/\/reqres.in\/api\/qa\/users%3Fpage=2, response: \n{}\nclasspath:testRunner\/verifiInCsv.feature:12","millis":0.1857,"status":"failed"},"step":{"line":12,"prefix":"Then","index":2,"text":"status 200"},"stepLog":"21:51:11.044 classpath:testRunner\/verifiInCsv.feature:12\nThen status 200\nstatus code was: 404, expected: 200, response time in milliseconds: 143, url: https:\/\/reqres.in\/api\/qa\/users%3Fpage=2, response: \n{}\nclasspath:testRunner\/verifiInCsv.feature:12\n"},{"result":{"nanos":0,"millis":0.0,"status":"skipped"},"step":{"comments":["#i used this fuction to convert string to number"],"line":14,"prefix":"*","index":3,"text":"def fun = function(x){ x.id = ~~x.id; return x }"}},{"result":{"nanos":0,"millis":0.0,"status":"skipped"},"step":{"line":15,"prefix":"*","index":4,"text":"def exp = karate.map(exp, fun)"}},{"result":{"nanos":0,"millis":0.0,"status":"skipped"},"step":{"line":16,"prefix":"And","index":5,"text":"def acc = response"}},{"result":{"nanos":0,"millis":0.0,"status":"skipped"},"step":{"comments":["#i used deep to check 2 arrays"],"line":18,"prefix":"*","index":6,"text":"match acc.data[*] contains deep exp"}}],"line":8,"description":"","durationMillis":171.116,"failed":true,"error":"status code was: 404, expected: 200, response time in milliseconds: 143, url: https:\/\/reqres.in\/api\/qa\/users%3Fpage=2, response: \n{}\nclasspath:testRunner\/verifiInCsv.feature:12","executorName":"main","name":"check if response contains csv values ids","startTime":1644785470870,"refId":"[1:8]","endTime":1644785471044,"exampleIndex":-1},{"sectionIndex":1,"stepResults":[{"result":{"nanos":241000,"millis":0.241,"status":"passed"},"step":{"background":true,"line":4,"prefix":"*","index":0,"text":"url BaseURL"},"stepLog":"21:51:11.063 qa \n"},{"result":{"nanos":1297900,"millis":1.2979,"status":"passed"},"step":{"background":true,"line":5,"prefix":"*","index":1,"text":"def exp = read('data.csv')"}},{"result":{"nanos":1055500,"millis":1.0555,"status":"passed"},"step":{"background":true,"line":6,"prefix":"*","index":2,"text":"def exp1 = read('data1.csv')"}},{"result":{"nanos":716300,"millis":0.7163,"status":"passed"},"step":{"line":21,"prefix":"Given","index":0,"text":"url 'https:\/\/reqres.in\/api\/users?page=2'"}},{"result":{"nanos":154570100,"millis":154.5701,"status":"passed"},"step":{"line":22,"prefix":"When","index":1,"text":"method GET"},"stepLog":"21:51:11.071 request:\n1 > GET https:\/\/reqres.in\/api\/users?page=2\n1 > Host: reqres.in\n1 > Connection: Keep-Alive\n1 > User-Agent: Apache-HttpClient\/4.5.13 (Java\/17.0.1)\n1 > Accept-Encoding: gzip,deflate\n\n\n21:51:11.221 response time in milliseconds: 150\n1 < 200\n1 < Date: Sun, 13 Feb 2022 20:51:07 GMT\n1 < Content-Type: application\/json; charset=utf-8\n1 < Transfer-Encoding: chunked\n1 < Connection: keep-alive\n1 < X-Powered-By: Express\n1 < Access-Control-Allow-Origin: *\n1 < Etag: W\/\"406-ut0vzoCuidvyMf8arZpMpJ6ZRDw\"\n1 < Via: 1.1 vegur\n1 < Cache-Control: max-age=14400\n1 < CF-Cache-Status: HIT\n1 < Age: 1574\n1 < Expect-CT: max-age=604800, report-uri=\"https:\/\/report-uri.cloudflare.com\/cdn-cgi\/beacon\/expect-ct\"\n1 < Report-To: {\"endpoints\":[{\"url\":\"https:\\\/\\\/a.nel.cloudflare.com\\\/report\\\/v3?s=tLCu85VK50TOGUDDpc6%2FAeb0LcabuxqG%2B8vIN15D%2FR7QEP2%2FP48tI6ibB63OlFLR4dCGWBmB1WZ8iYiMlXpSKD5BKBBYioZq5ga%2FKeKZ3opSQ8cqhAA89sM8IXo%3D\"}],\"group\":\"cf-nel\",\"max_age\":604800}\n1 < NEL: {\"success_fraction\":0,\"report_to\":\"cf-nel\",\"max_age\":604800}\n1 < Vary: Accept-Encoding\n1 < Server: cloudflare\n1 < CF-RAY: 6dd0eed57eb741dd-MRS\n1 < alt-svc: h3=\":443\"; ma=86400, h3-29=\":443\"; ma=86400\n{\"page\":2,\"per_page\":6,\"total\":12,\"total_pages\":2,\"data\":[{\"id\":7,\"email\":\"michael.lawson@reqres.in\",\"first_name\":\"Michael\",\"last_name\":\"Lawson\",\"avatar\":\"https:\/\/reqres.in\/img\/faces\/7-image.jpg\"},{\"id\":8,\"email\":\"lindsay.ferguson@reqres.in\",\"first_name\":\"Lindsay\",\"last_name\":\"Ferguson\",\"avatar\":\"https:\/\/reqres.in\/img\/faces\/8-image.jpg\"},{\"id\":9,\"email\":\"tobias.funke@reqres.in\",\"first_name\":\"Tobias\",\"last_name\":\"Funke\",\"avatar\":\"https:\/\/reqres.in\/img\/faces\/9-image.jpg\"},{\"id\":10,\"email\":\"byron.fields@reqres.in\",\"first_name\":\"Byron\",\"last_name\":\"Fields\",\"avatar\":\"https:\/\/reqres.in\/img\/faces\/10-image.jpg\"},{\"id\":11,\"email\":\"george.edwards@reqres.in\",\"first_name\":\"George\",\"last_name\":\"Edwards\",\"avatar\":\"https:\/\/reqres.in\/img\/faces\/11-image.jpg\"},{\"id\":12,\"email\":\"rachel.howell@reqres.in\",\"first_name\":\"Rachel\",\"last_name\":\"Howell\",\"avatar\":\"https:\/\/reqres.in\/img\/faces\/12-image.jpg\"}],\"support\":{\"url\":\"https:\/\/reqres.in\/#support-heading\",\"text\":\"To keep ReqRes free, contributions towards server costs are appreciated!\"}}\n"},{"result":{"nanos":11900,"millis":0.0119,"status":"passed"},"step":{"line":23,"prefix":"Then","index":2,"text":"status 200"}},{"result":{"nanos":358300,"millis":0.3583,"status":"passed"},"step":{"line":24,"prefix":"And","index":3,"text":"def acc = response"}},{"result":{"nanos":1908500,"millis":1.9085,"status":"passed"},"step":{"line":25,"prefix":"*","index":4,"text":"match acc.data[*] contains deep exp1"}}],"executorName":"main","line":20,"name":"check if response contains csv values emails","description":"","durationMillis":160.1595,"startTime":1644785471062,"failed":false,"refId":"[2:20]","endTime":1644785471225,"exampleIndex":-1}],"callDepth":0,"name":"verify if elements exists in csv file","description":"","resultDate":"2022-02-13 09:51:11 PM","durationMillis":331.2755,"passedCount":1}