{"failedCount":1,"prefixedPath":"src\/test\/java\/testapi.feature","packageQualifiedName":"src.test.java.testapi","loopIndex":-1,"relativePath":"src\/test\/java\/testapi.feature","scenarioResults":[{"sectionIndex":0,"stepResults":[{"result":{"nanos":60185300,"millis":60.1853,"status":"passed"},"step":{"background":true,"line":4,"prefix":"*","index":0,"text":"url 'https:\/\/reqres.in\/api'"}},{"result":{"nanos":81428100,"millis":81.4281,"status":"passed"},"step":{"background":true,"line":5,"prefix":"*","index":1,"text":"def output = read('response1.json')"}},{"result":{"nanos":1119300,"millis":1.1193,"status":"passed"},"step":{"background":true,"line":6,"prefix":"*","index":2,"text":"def request1 = read('request1.json')"}},{"result":{"nanos":330300,"millis":0.3303,"status":"passed"},"step":{"line":9,"prefix":"Given","index":0,"text":"path '\/users?page=2'"}},{"result":{"nanos":612642900,"millis":612.6429,"status":"passed"},"step":{"line":10,"prefix":"When","index":1,"text":"method GET"},"stepLog":"19:08:08.267 request:\n1 > GET https:\/\/reqres.in\/api\/users%3Fpage=2\n1 > Host: reqres.in\n1 > Connection: Keep-Alive\n1 > User-Agent: Apache-HttpClient\/4.5.13 (Java\/17.0.1)\n1 > Accept-Encoding: gzip,deflate\n\n\n19:08:08.690 response time in milliseconds: 422\n1 < 200\n1 < Date: Sat, 05 Feb 2022 18:08:03 GMT\n1 < Content-Type: application\/json; charset=utf-8\n1 < Transfer-Encoding: chunked\n1 < Connection: keep-alive\n1 < x-powered-by: Express\n1 < access-control-allow-origin: *\n1 < etag: W\/\"2c1-N6Rqerxquq2kgQhL51EiSg4x0R8\"\n1 < via: 1.1 vegur\n1 < Cache-Control: max-age=14400\n1 < CF-Cache-Status: HIT\n1 < Age: 1037\n1 < Expect-CT: max-age=604800, report-uri=\"https:\/\/report-uri.cloudflare.com\/cdn-cgi\/beacon\/expect-ct\"\n1 < Report-To: {\"endpoints\":[{\"url\":\"https:\\\/\\\/a.nel.cloudflare.com\\\/report\\\/v3?s=VoEX44PsUUSmXHrHvsx3Fenn9yWYVYBmAdRkJXq%2FfzSNjBw5zIhPN35ezxlfcEWB6we9YONBvi55j7HE4SpzWPRLvrc6YqjhZtKIpHxuKKulPAjDMXwTHTT1TaY%3D\"}],\"group\":\"cf-nel\",\"max_age\":604800}\n1 < NEL: {\"success_fraction\":0,\"report_to\":\"cf-nel\",\"max_age\":604800}\n1 < Vary: Accept-Encoding\n1 < Server: cloudflare\n1 < CF-RAY: 6d8e14f5cea82dd6-BRU\n1 < alt-svc: h3=\":443\"; ma=86400, h3-29=\":443\"; ma=86400\n{\"page\":1,\"per_page\":6,\"total\":12,\"total_pages\":2,\"data\":[{\"id\":1,\"name\":\"cerulean\",\"year\":2000,\"color\":\"#98B2D1\",\"pantone_value\":\"15-4020\"},{\"id\":2,\"name\":\"fuchsia rose\",\"year\":2001,\"color\":\"#C74375\",\"pantone_value\":\"17-2031\"},{\"id\":3,\"name\":\"true red\",\"year\":2002,\"color\":\"#BF1932\",\"pantone_value\":\"19-1664\"},{\"id\":4,\"name\":\"aqua sky\",\"year\":2003,\"color\":\"#7BC4C4\",\"pantone_value\":\"14-4811\"},{\"id\":5,\"name\":\"tigerlily\",\"year\":2004,\"color\":\"#E2583E\",\"pantone_value\":\"17-1456\"},{\"id\":6,\"name\":\"blue turquoise\",\"year\":2005,\"color\":\"#53B0AE\",\"pantone_value\":\"15-5217\"}],\"support\":{\"url\":\"https:\/\/reqres.in\/#support-heading\",\"text\":\"To keep ReqRes free, contributions towards server costs are appreciated!\"}}\n"},{"result":{"nanos":15300,"millis":0.0153,"status":"passed"},"step":{"line":11,"prefix":"Then","index":2,"text":"status 200"}},{"result":{"nanos":6547400,"millis":6.5474,"status":"passed"},"step":{"line":12,"prefix":"And","index":3,"text":"assert response.data.length == 6"}},{"result":{"nanos":12739200,"millis":12.7392,"status":"passed"},"step":{"line":13,"prefix":"And","index":4,"text":"print response.data[1].id"},"stepLog":"19:08:08.712 [print] 2 \n"},{"result":{"nanos":10151400,"millis":10.1514,"status":"passed"},"step":{"line":14,"prefix":"And","index":5,"text":"match $.data[1].id == 2"}},{"result":{"nanos":875600,"errorMessage":"match failed: EQUALS\n  $ | actual path does not exist (STRING:STRING)\n  '#notpresent'\n  'michael.lawson@reqres.in'\n\nsrc\/test\/java\/testapi.feature:15","millis":0.8756,"status":"failed"},"step":{"line":15,"prefix":"And","index":6,"text":"match $.data[0].email == 'michael.lawson@reqres.in'"},"stepLog":"19:08:08.724 src\/test\/java\/testapi.feature:15\nAnd match $.data[0].email == 'michael.lawson@reqres.in'\nmatch failed: EQUALS\n  $ | actual path does not exist (STRING:STRING)\n  '#notpresent'\n  'michael.lawson@reqres.in'\n\nsrc\/test\/java\/testapi.feature:15\n"}],"line":8,"description":"","durationMillis":786.0348,"failed":true,"error":"match failed: EQUALS\n  $ | actual path does not exist (STRING:STRING)\n  '#notpresent'\n  'michael.lawson@reqres.in'\n\nsrc\/test\/java\/testapi.feature:15","executorName":"main","name":"test API get 1","startTime":1644084487930,"refId":"[1:8]","endTime":1644084488724,"exampleIndex":-1},{"sectionIndex":1,"stepResults":[{"result":{"nanos":325500,"millis":0.3255,"status":"passed"},"step":{"background":true,"line":4,"prefix":"*","index":0,"text":"url 'https:\/\/reqres.in\/api'"}},{"result":{"nanos":809500,"millis":0.8095,"status":"passed"},"step":{"background":true,"line":5,"prefix":"*","index":1,"text":"def output = read('response1.json')"}},{"result":{"nanos":665400,"millis":0.6654,"status":"passed"},"step":{"background":true,"line":6,"prefix":"*","index":2,"text":"def request1 = read('request1.json')"}},{"result":{"nanos":192300,"millis":0.1923,"status":"passed"},"step":{"comments":["#Given path '\/users'"],"line":19,"prefix":"Given","index":0,"text":"path '\/users'"}},{"result":{"nanos":107500,"millis":0.1075,"status":"passed"},"step":{"line":20,"prefix":"And","index":1,"text":"request {\"name\": \"Mouad\" , \"job\": \"tester\" , \"age\": 25}"}},{"result":{"nanos":397989700,"millis":397.9897,"status":"passed"},"step":{"line":21,"prefix":"When","index":2,"text":"method POST"},"stepLog":"19:08:08.760 request:\n1 > POST https:\/\/reqres.in\/api\/users\n1 > Content-Type: application\/json; charset=UTF-8\n1 > Content-Length: 40\n1 > Host: reqres.in\n1 > Connection: Keep-Alive\n1 > User-Agent: Apache-HttpClient\/4.5.13 (Java\/17.0.1)\n1 > Accept-Encoding: gzip,deflate\n{\"name\":\"Mouad\",\"job\":\"tester\",\"age\":25}\n\n19:08:09.127 response time in milliseconds: 367\n1 < 201\n1 < Date: Sat, 05 Feb 2022 18:08:03 GMT\n1 < Content-Type: application\/json; charset=utf-8\n1 < Content-Length: 90\n1 < Connection: keep-alive\n1 < x-powered-by: Express\n1 < access-control-allow-origin: *\n1 < etag: W\/\"5a-oFGlOgDYxkZEG0SmRzJ9SfFRe7U\"\n1 < via: 1.1 vegur\n1 < CF-Cache-Status: DYNAMIC\n1 < Expect-CT: max-age=604800, report-uri=\"https:\/\/report-uri.cloudflare.com\/cdn-cgi\/beacon\/expect-ct\"\n1 < Report-To: {\"endpoints\":[{\"url\":\"https:\\\/\\\/a.nel.cloudflare.com\\\/report\\\/v3?s=h%2Fyu%2BLRiiTgSxO7d29MR45v59H9tgSiqxpR3ogkcFYTAej3KW92HHw4clis9%2Ff17%2FRmB3pYt38AX9z3jf%2BINfBXrDzA7K1F3irOBQuzL5boCSuR5Agfe0mChOWI%3D\"}],\"group\":\"cf-nel\",\"max_age\":604800}\n1 < NEL: {\"success_fraction\":0,\"report_to\":\"cf-nel\",\"max_age\":604800}\n1 < Server: cloudflare\n1 < CF-RAY: 6d8e14f7be6383e3-BRU\n1 < alt-svc: h3=\":443\"; ma=86400, h3-29=\":443\"; ma=86400\n{\"name\":\"Mouad\",\"job\":\"tester\",\"age\":25,\"id\":\"798\",\"createdAt\":\"2022-02-05T18:08:03.870Z\"}\n"},{"result":{"nanos":9500,"millis":0.0095,"status":"passed"},"step":{"line":22,"prefix":"Then","index":3,"text":"status 201"}},{"result":{"nanos":678000,"millis":0.678,"status":"passed"},"step":{"line":23,"prefix":"And","index":4,"text":"match response == {\"name\":\"Mouad\",\"job\":\"tester\",\"age\":25,\"id\":\"#string\",\"createdAt\":\"#ignore\"}"}},{"result":{"nanos":1632800,"millis":1.6328,"status":"passed"},"step":{"line":24,"prefix":"And","index":5,"text":"print response"},"stepLog":"19:08:09.131 [print] {\n  \"name\": \"Mouad\",\n  \"job\": \"tester\",\n  \"age\": 25,\n  \"id\": \"798\",\n  \"createdAt\": \"2022-02-05T18:08:03.870Z\"\n}\n \n"}],"executorName":"main","line":17,"name":"test API post 2","description":"","durationMillis":402.4102,"startTime":1644084488728,"failed":false,"refId":"[2:17]","endTime":1644084489131,"exampleIndex":-1},{"sectionIndex":2,"stepResults":[{"result":{"nanos":129400,"millis":0.1294,"status":"passed"},"step":{"background":true,"line":4,"prefix":"*","index":0,"text":"url 'https:\/\/reqres.in\/api'"}},{"result":{"nanos":421800,"millis":0.4218,"status":"passed"},"step":{"background":true,"line":5,"prefix":"*","index":1,"text":"def output = read('response1.json')"}},{"result":{"nanos":313300,"millis":0.3133,"status":"passed"},"step":{"background":true,"line":6,"prefix":"*","index":2,"text":"def request1 = read('request1.json')"}},{"result":{"nanos":65900,"millis":0.0659,"status":"passed"},"step":{"comments":["#Given path '\/users'"],"line":28,"prefix":"Given","index":0,"text":"path '\/users'"}},{"result":{"nanos":85200,"millis":0.0852,"status":"passed"},"step":{"line":29,"prefix":"And","index":1,"text":"request {\"name\": \"Mouad\" , \"job\": \"tester\" }"}},{"result":{"nanos":282281100,"millis":282.2811,"status":"passed"},"step":{"line":30,"prefix":"When","index":2,"text":"method POST"},"stepLog":"19:08:09.136 request:\n1 > POST https:\/\/reqres.in\/api\/users\n1 > Content-Type: application\/json; charset=UTF-8\n1 > Content-Length: 31\n1 > Host: reqres.in\n1 > Connection: Keep-Alive\n1 > User-Agent: Apache-HttpClient\/4.5.13 (Java\/17.0.1)\n1 > Accept-Encoding: gzip,deflate\n{\"name\":\"Mouad\",\"job\":\"tester\"}\n\n19:08:09.416 response time in milliseconds: 279\n1 < 201\n1 < Date: Sat, 05 Feb 2022 18:08:04 GMT\n1 < Content-Type: application\/json; charset=utf-8\n1 < Content-Length: 81\n1 < Connection: keep-alive\n1 < x-powered-by: Express\n1 < access-control-allow-origin: *\n1 < etag: W\/\"51-d+M\/SDXdgyJp0HPHtmXombWp6dg\"\n1 < via: 1.1 vegur\n1 < CF-Cache-Status: DYNAMIC\n1 < Expect-CT: max-age=604800, report-uri=\"https:\/\/report-uri.cloudflare.com\/cdn-cgi\/beacon\/expect-ct\"\n1 < Report-To: {\"endpoints\":[{\"url\":\"https:\\\/\\\/a.nel.cloudflare.com\\\/report\\\/v3?s=wFuqSnQRzVEs0kUuZrvEl5rKotWdtlpwUNKAOTbC3nINYC4%2Fxd8VAnwJ3KyFcorZfI%2FzE4GKVRYLyHyNDS6RHX0zUb9xnSE2FDZuoepgctO71BAxAxaFP7vcW5s%3D\"}],\"group\":\"cf-nel\",\"max_age\":604800}\n1 < NEL: {\"success_fraction\":0,\"report_to\":\"cf-nel\",\"max_age\":604800}\n1 < Server: cloudflare\n1 < CF-RAY: 6d8e14fa188d83c7-BRU\n1 < alt-svc: h3=\":443\"; ma=86400, h3-29=\":443\"; ma=86400\n{\"name\":\"Mouad\",\"job\":\"tester\",\"id\":\"637\",\"createdAt\":\"2022-02-05T18:08:04.236Z\"}\n"},{"result":{"nanos":22400,"millis":0.0224,"status":"passed"},"step":{"line":31,"prefix":"Then","index":3,"text":"status 201"}},{"result":{"nanos":705500,"millis":0.7055,"status":"passed"},"step":{"line":32,"prefix":"And","index":4,"text":"match response == output"}},{"result":{"nanos":322100,"millis":0.3221,"status":"passed"},"step":{"line":33,"prefix":"And","index":5,"text":"print response"},"stepLog":"19:08:09.419 [print] {\n  \"name\": \"Mouad\",\n  \"job\": \"tester\",\n  \"id\": \"637\",\n  \"createdAt\": \"2022-02-05T18:08:04.236Z\"\n}\n \n"}],"executorName":"main","line":26,"name":"test API post 3","description":"","durationMillis":284.3467,"startTime":1644084489134,"failed":false,"refId":"[3:26]","endTime":1644084489419,"exampleIndex":-1},{"sectionIndex":3,"stepResults":[{"result":{"nanos":129400,"millis":0.1294,"status":"passed"},"step":{"background":true,"line":4,"prefix":"*","index":0,"text":"url 'https:\/\/reqres.in\/api'"}},{"result":{"nanos":500800,"millis":0.5008,"status":"passed"},"step":{"background":true,"line":5,"prefix":"*","index":1,"text":"def output = read('response1.json')"}},{"result":{"nanos":377500,"millis":0.3775,"status":"passed"},"step":{"background":true,"line":6,"prefix":"*","index":2,"text":"def request1 = read('request1.json')"}},{"result":{"nanos":67900,"millis":0.0679,"status":"passed"},"step":{"comments":["#Given path '\/users'"],"line":37,"prefix":"Given","index":0,"text":"path '\/users'"}},{"result":{"nanos":456000,"millis":0.456,"status":"passed"},"step":{"line":38,"prefix":"And","index":1,"text":"request request1"}},{"result":{"nanos":262531600,"millis":262.5316,"status":"passed"},"step":{"line":39,"prefix":"When","index":2,"text":"method POST"},"stepLog":"19:08:09.425 request:\n1 > POST https:\/\/reqres.in\/api\/users\n1 > Content-Type: application\/json; charset=UTF-8\n1 > Content-Length: 31\n1 > Host: reqres.in\n1 > Connection: Keep-Alive\n1 > User-Agent: Apache-HttpClient\/4.5.13 (Java\/17.0.1)\n1 > Accept-Encoding: gzip,deflate\n{\"name\":\"Mouad\",\"job\":\"tester\"}\n\n19:08:09.685 response time in milliseconds: 260\n1 < 201\n1 < Date: Sat, 05 Feb 2022 18:08:04 GMT\n1 < Content-Type: application\/json; charset=utf-8\n1 < Content-Length: 80\n1 < Connection: keep-alive\n1 < x-powered-by: Express\n1 < access-control-allow-origin: *\n1 < etag: W\/\"50-1QImEDJqNHxUQd91SNSTQ0tIk4Y\"\n1 < via: 1.1 vegur\n1 < CF-Cache-Status: DYNAMIC\n1 < Expect-CT: max-age=604800, report-uri=\"https:\/\/report-uri.cloudflare.com\/cdn-cgi\/beacon\/expect-ct\"\n1 < Report-To: {\"endpoints\":[{\"url\":\"https:\\\/\\\/a.nel.cloudflare.com\\\/report\\\/v3?s=yxH659htsAROthg5gixoPAnLiY2n1hqR1%2BYvj0PBWmDubbNm6llDgwt%2F0qRIpeMSyuT3jMAdaF8vJU1fgmyY4SIhgFmpWWnTAVd%2FgSKVMKW2TnlDQhpO0dhDWew%3D\"}],\"group\":\"cf-nel\",\"max_age\":604800}\n1 < NEL: {\"success_fraction\":0,\"report_to\":\"cf-nel\",\"max_age\":604800}\n1 < Server: cloudflare\n1 < CF-RAY: 6d8e14fbcea083e1-BRU\n1 < alt-svc: h3=\":443\"; ma=86400, h3-29=\":443\"; ma=86400\n{\"name\":\"Mouad\",\"job\":\"tester\",\"id\":\"59\",\"createdAt\":\"2022-02-05T18:08:04.503Z\"}\n"},{"result":{"nanos":20100,"millis":0.0201,"status":"passed"},"step":{"line":40,"prefix":"Then","index":3,"text":"status 201"}},{"result":{"nanos":816800,"millis":0.8168,"status":"passed"},"step":{"line":41,"prefix":"And","index":4,"text":"match response == output"}},{"result":{"nanos":1086700,"millis":1.0867,"status":"passed"},"step":{"line":42,"prefix":"And","index":5,"text":"print response"},"stepLog":"19:08:09.689 [print] {\n  \"name\": \"Mouad\",\n  \"job\": \"tester\",\n  \"id\": \"59\",\n  \"createdAt\": \"2022-02-05T18:08:04.503Z\"\n}\n \n"}],"executorName":"main","line":35,"name":"test API post 3","description":"","durationMillis":265.9868,"startTime":1644084489422,"failed":false,"refId":"[4:35]","endTime":1644084489690,"exampleIndex":-1}],"callDepth":0,"name":"test sample API","description":"","resultDate":"2022-02-05 07:08:09 PM","durationMillis":1738.7785,"passedCount":3}