{"failedCount":1,"prefixedPath":"src\/test\/java\/TestFeatures\/week3\/callGetPerson.feature","packageQualifiedName":"src.test.java.TestFeatures.week3.callGetPerson","loopIndex":-1,"relativePath":"src\/test\/java\/TestFeatures\/week3\/callGetPerson.feature","scenarioResults":[{"sectionIndex":0,"stepResults":[{"result":{"nanos":1621600,"millis":1.6216,"status":"passed"},"step":{"line":8,"prefix":"Given","index":0,"text":"url 'https:\/\/reqres.in\/api\/users?page=1'"},"stepLog":"00:52:37.670 \n"},{"result":{"nanos":1177028800,"millis":1177.0288,"status":"passed"},"step":{"line":9,"prefix":"When","index":1,"text":"method GET"},"stepLog":"00:52:38.006 request:\n1 > GET https:\/\/reqres.in\/api\/users?page=1\n1 > Host: reqres.in\n1 > Connection: Keep-Alive\n1 > User-Agent: Apache-HttpClient\/4.5.13 (Java\/17.0.1)\n1 > Accept-Encoding: gzip,deflate\n\n\n00:52:38.797 response time in milliseconds: 785\n1 < 200\n1 < Date: Sat, 19 Feb 2022 23:52:31 GMT\n1 < Content-Type: application\/json; charset=utf-8\n1 < Transfer-Encoding: chunked\n1 < Connection: keep-alive\n1 < x-powered-by: Express\n1 < access-control-allow-origin: *\n1 < etag: W\/\"3e4-2RLXvr5wTg9YQ6aH95CkYoFNuO8\"\n1 < via: 1.1 vegur\n1 < Cache-Control: max-age=14400\n1 < CF-Cache-Status: HIT\n1 < Age: 6287\n1 < Expect-CT: max-age=604800, report-uri=\"https:\/\/report-uri.cloudflare.com\/cdn-cgi\/beacon\/expect-ct\"\n1 < Report-To: {\"endpoints\":[{\"url\":\"https:\\\/\\\/a.nel.cloudflare.com\\\/report\\\/v3?s=0AgYH82sKl8UzZc05DT3BZiIT8MqCA9kJAJFvhBXAmuUt%2Fj73l%2F07n%2FIfDM4mk%2Bn7%2BPetbW6gPinVy50gkzyt6SDbuW7qJC7vL3MgBAQcnmNr21JZ90%2Bx%2FGCzdM%3D\"}],\"group\":\"cf-nel\",\"max_age\":604800}\n1 < NEL: {\"success_fraction\":0,\"report_to\":\"cf-nel\",\"max_age\":604800}\n1 < Vary: Accept-Encoding\n1 < Server: cloudflare\n1 < CF-RAY: 6e0368cfad1e2e2c-BRU\n1 < alt-svc: h3=\":443\"; ma=86400, h3-29=\":443\"; ma=86400\n{\"page\":1,\"per_page\":6,\"total\":12,\"total_pages\":2,\"data\":[{\"id\":1,\"email\":\"george.bluth@reqres.in\",\"first_name\":\"George\",\"last_name\":\"Bluth\",\"avatar\":\"https:\/\/reqres.in\/img\/faces\/1-image.jpg\"},{\"id\":2,\"email\":\"janet.weaver@reqres.in\",\"first_name\":\"Janet\",\"last_name\":\"Weaver\",\"avatar\":\"https:\/\/reqres.in\/img\/faces\/2-image.jpg\"},{\"id\":3,\"email\":\"emma.wong@reqres.in\",\"first_name\":\"Emma\",\"last_name\":\"Wong\",\"avatar\":\"https:\/\/reqres.in\/img\/faces\/3-image.jpg\"},{\"id\":4,\"email\":\"eve.holt@reqres.in\",\"first_name\":\"Eve\",\"last_name\":\"Holt\",\"avatar\":\"https:\/\/reqres.in\/img\/faces\/4-image.jpg\"},{\"id\":5,\"email\":\"charles.morris@reqres.in\",\"first_name\":\"Charles\",\"last_name\":\"Morris\",\"avatar\":\"https:\/\/reqres.in\/img\/faces\/5-image.jpg\"},{\"id\":6,\"email\":\"tracey.ramos@reqres.in\",\"first_name\":\"Tracey\",\"last_name\":\"Ramos\",\"avatar\":\"https:\/\/reqres.in\/img\/faces\/6-image.jpg\"}],\"support\":{\"url\":\"https:\/\/reqres.in\/#support-heading\",\"text\":\"To keep ReqRes free, contributions towards server costs are appreciated!\"}}\n"},{"result":{"nanos":68900,"millis":0.0689,"status":"passed"},"step":{"line":10,"prefix":"Then","index":2,"text":"status 200"}},{"result":{"nanos":33394700,"errorMessage":"js failed:\n>>>>\n01: karate.log('[print]',person.id == 1)\n<<<<\norg.graalvm.polyglot.PolyglotException: ReferenceError: \"person\" is not defined\n- <js>.:program(Unnamed:1)\n\nsrc\/test\/java\/TestFeatures\/week3\/callGetPerson.feature:11","millis":33.3947,"status":"failed"},"step":{"line":11,"prefix":"And","index":3,"text":"print person.id == 1"},"stepLog":"00:52:38.920 src\/test\/java\/TestFeatures\/week3\/callGetPerson.feature:11\nAnd print person.id == 1\njs failed:\n>>>>\n01: karate.log('[print]',person.id == 1)\n<<<<\norg.graalvm.polyglot.PolyglotException: ReferenceError: \"person\" is not defined\n- <js>.:program(Unnamed:1)\n\nsrc\/test\/java\/TestFeatures\/week3\/callGetPerson.feature:11\n"}],"line":7,"description":"","durationMillis":1212.114,"failed":true,"error":"js failed:\n>>>>\n01: karate.log('[print]',person.id == 1)\n<<<<\norg.graalvm.polyglot.PolyglotException: ReferenceError: \"person\" is not defined\n- <js>.:program(Unnamed:1)\n\nsrc\/test\/java\/TestFeatures\/week3\/callGetPerson.feature:11","tags":["tag1"],"executorName":"main","name":"Title of your scenario","startTime":1645314757378,"refId":"[1:7]","endTime":1645314758921,"exampleIndex":-1}],"callDepth":0,"name":"Title of your feature","description":"I want to use this template for my feature file","resultDate":"2022-02-20 12:52:38 AM","durationMillis":1212.114,"passedCount":0}