{"failedCount":1,"prefixedPath":"src\/test\/java\/TestFeatures\/week3\/matchFromAllData.feature","packageQualifiedName":"src.test.java.TestFeatures.week3.matchFromAllData","loopIndex":-1,"relativePath":"src\/test\/java\/TestFeatures\/week3\/matchFromAllData.feature","scenarioResults":[{"sectionIndex":0,"stepResults":[{"result":{"nanos":47077300,"millis":47.0773,"status":"passed"},"step":{"background":true,"line":4,"prefix":"*","index":0,"text":"def expectedFile = read('classpath:\/TestData\/AllDataCc.csv')"},"stepLog":"18:01:41.665 \n"},{"result":{"nanos":944000,"millis":0.944,"status":"passed"},"step":{"line":7,"prefix":"Given","index":0,"text":"url 'https:\/\/reqres.in\/api\/users?page=1'"}},{"result":{"nanos":1181872100,"millis":1181.8721,"status":"passed"},"step":{"line":8,"prefix":"When","index":1,"text":"method GET"},"stepLog":"18:01:42.051 request:\n1 > GET https:\/\/reqres.in\/api\/users?page=1\n1 > Host: reqres.in\n1 > Connection: Keep-Alive\n1 > User-Agent: Apache-HttpClient\/4.5.13 (Java\/17.0.1)\n1 > Accept-Encoding: gzip,deflate\n\n\n18:01:42.920 response time in milliseconds: 865\n1 < 200\n1 < Date: Sun, 20 Feb 2022 17:01:34 GMT\n1 < Content-Type: application\/json; charset=utf-8\n1 < Transfer-Encoding: chunked\n1 < Connection: keep-alive\n1 < x-powered-by: Express\n1 < access-control-allow-origin: *\n1 < etag: W\/\"3e4-2RLXvr5wTg9YQ6aH95CkYoFNuO8\"\n1 < via: 1.1 vegur\n1 < Cache-Control: max-age=14400\n1 < CF-Cache-Status: HIT\n1 < Age: 4428\n1 < Expect-CT: max-age=604800, report-uri=\"https:\/\/report-uri.cloudflare.com\/cdn-cgi\/beacon\/expect-ct\"\n1 < Report-To: {\"endpoints\":[{\"url\":\"https:\\\/\\\/a.nel.cloudflare.com\\\/report\\\/v3?s=fy%2BoQqkGupiC%2B9H1HeSbTZ%2FP4etQHrHIKUHqx3HTvVFaRx4v1N%2FS1gj9JKMTx%2Fi%2BYhsMaSci%2F4IxsiZTHjB0y5tW%2FdV5BFbZ%2Bm4RcwKRciKImdxLHhYi7Z910Vw%3D\"}],\"group\":\"cf-nel\",\"max_age\":604800}\n1 < NEL: {\"success_fraction\":0,\"report_to\":\"cf-nel\",\"max_age\":604800}\n1 < Vary: Accept-Encoding\n1 < Server: cloudflare\n1 < CF-RAY: 6e094c355dff2e44-BRU\n1 < alt-svc: h3=\":443\"; ma=86400, h3-29=\":443\"; ma=86400\n{\"page\":1,\"per_page\":6,\"total\":12,\"total_pages\":2,\"data\":[{\"id\":1,\"email\":\"george.bluth@reqres.in\",\"first_name\":\"George\",\"last_name\":\"Bluth\",\"avatar\":\"https:\/\/reqres.in\/img\/faces\/1-image.jpg\"},{\"id\":2,\"email\":\"janet.weaver@reqres.in\",\"first_name\":\"Janet\",\"last_name\":\"Weaver\",\"avatar\":\"https:\/\/reqres.in\/img\/faces\/2-image.jpg\"},{\"id\":3,\"email\":\"emma.wong@reqres.in\",\"first_name\":\"Emma\",\"last_name\":\"Wong\",\"avatar\":\"https:\/\/reqres.in\/img\/faces\/3-image.jpg\"},{\"id\":4,\"email\":\"eve.holt@reqres.in\",\"first_name\":\"Eve\",\"last_name\":\"Holt\",\"avatar\":\"https:\/\/reqres.in\/img\/faces\/4-image.jpg\"},{\"id\":5,\"email\":\"charles.morris@reqres.in\",\"first_name\":\"Charles\",\"last_name\":\"Morris\",\"avatar\":\"https:\/\/reqres.in\/img\/faces\/5-image.jpg\"},{\"id\":6,\"email\":\"tracey.ramos@reqres.in\",\"first_name\":\"Tracey\",\"last_name\":\"Ramos\",\"avatar\":\"https:\/\/reqres.in\/img\/faces\/6-image.jpg\"}],\"support\":{\"url\":\"https:\/\/reqres.in\/#support-heading\",\"text\":\"To keep ReqRes free, contributions towards server costs are appreciated!\"}}\n"},{"result":{"nanos":36500,"millis":0.0365,"status":"passed"},"step":{"line":9,"prefix":"Then","index":2,"text":"status 200"}},{"result":{"nanos":2708900,"millis":2.7089,"status":"passed"},"step":{"line":10,"prefix":"And","index":3,"text":"def acc = response"}},{"result":{"nanos":4805300,"millis":4.8053,"status":"passed"},"step":{"line":11,"prefix":"*","index":4,"text":"def fun = function(x){ x.id = ~~x.id; return x }"}},{"result":{"nanos":11510100,"millis":11.5101,"status":"passed"},"step":{"line":12,"prefix":"*","index":5,"text":"def expected = karate.map(expectedFile, fun)"}},{"result":{"nanos":12217400,"errorMessage":"js failed:\n>>>>\n01: karate.log('[print]',expected[$].email)\n<<<<\norg.graalvm.polyglot.PolyglotException: ReferenceError: \"$\" is not defined\n- <js>.:program(Unnamed:1)\n\nsrc\/test\/java\/TestFeatures\/week3\/matchFromAllData.feature:13","millis":12.2174,"status":"failed"},"step":{"line":13,"prefix":"*","index":6,"text":"print expected[$].email"},"stepLog":"18:01:42.958 src\/test\/java\/TestFeatures\/week3\/matchFromAllData.feature:13\n* print expected[$].email\njs failed:\n>>>>\n01: karate.log('[print]',expected[$].email)\n<<<<\norg.graalvm.polyglot.PolyglotException: ReferenceError: \"$\" is not defined\n- <js>.:program(Unnamed:1)\n\nsrc\/test\/java\/TestFeatures\/week3\/matchFromAllData.feature:13\n"},{"result":{"nanos":0,"millis":0.0,"status":"skipped"},"step":{"line":14,"prefix":"*","index":7,"text":"match  acc.data[*] contains deep expected"}}],"line":6,"description":"","durationMillis":1261.1716,"failed":true,"error":"js failed:\n>>>>\n01: karate.log('[print]',expected[$].email)\n<<<<\norg.graalvm.polyglot.PolyglotException: ReferenceError: \"$\" is not defined\n- <js>.:program(Unnamed:1)\n\nsrc\/test\/java\/TestFeatures\/week3\/matchFromAllData.feature:13","executorName":"main","name":"check if response contains csv values emails","startTime":1645376501512,"refId":"[1:6]","endTime":1645376502958,"exampleIndex":-1}],"callDepth":0,"name":"verify if elements exists in csv file","description":"","resultDate":"2022-02-20 06:01:42 PM","durationMillis":1261.1716,"passedCount":0}