{"failedCount":1,"prefixedPath":"src\/test\/java\/TestFeatures\/week3\/matchFromAllData.feature","packageQualifiedName":"src.test.java.TestFeatures.week3.matchFromAllData","loopIndex":-1,"relativePath":"src\/test\/java\/TestFeatures\/week3\/matchFromAllData.feature","scenarioResults":[{"sectionIndex":0,"stepResults":[{"result":{"nanos":45420800,"millis":45.4208,"status":"passed"},"step":{"background":true,"line":4,"prefix":"*","index":0,"text":"csv exp1 = read('classpath:\/TestData\/allData.csv')"},"stepLog":"17:27:03.577 \n"},{"result":{"nanos":519000,"millis":0.519,"status":"passed"},"step":{"line":8,"prefix":"Given","index":0,"text":"url 'https:\/\/reqres.in\/api\/users?page=1'"}},{"result":{"nanos":3190593500,"millis":3190.5935,"status":"passed"},"step":{"line":9,"prefix":"When","index":1,"text":"method GET"},"stepLog":"17:27:03.859 request:\n1 > GET https:\/\/reqres.in\/api\/users?page=1\n1 > Host: reqres.in\n1 > Connection: Keep-Alive\n1 > User-Agent: Apache-HttpClient\/4.5.13 (Java\/17.0.1)\n1 > Accept-Encoding: gzip,deflate\n\n\n17:27:06.836 response time in milliseconds: 2976\n1 < 200\n1 < Date: Sun, 20 Feb 2022 16:26:58 GMT\n1 < Content-Type: application\/json; charset=utf-8\n1 < Transfer-Encoding: chunked\n1 < Connection: keep-alive\n1 < X-Powered-By: Express\n1 < Access-Control-Allow-Origin: *\n1 < Etag: W\/\"3e4-2RLXvr5wTg9YQ6aH95CkYoFNuO8\"\n1 < Via: 1.1 vegur\n1 < Cache-Control: max-age=14400\n1 < CF-Cache-Status: REVALIDATED\n1 < Expect-CT: max-age=604800, report-uri=\"https:\/\/report-uri.cloudflare.com\/cdn-cgi\/beacon\/expect-ct\"\n1 < Report-To: {\"endpoints\":[{\"url\":\"https:\\\/\\\/a.nel.cloudflare.com\\\/report\\\/v3?s=UYA6IQkxn6u1nlHqzbOlZt%2BK%2BuXZtVvdJRqaha6gA6kY3t6CS4h2%2FPXgmc1csls%2BjyKtIBuuOPblgbkJMRARmVHvJoRDwNZSb%2FgvQykqogXotGPO2333CiB4lpA%3D\"}],\"group\":\"cf-nel\",\"max_age\":604800}\n1 < NEL: {\"success_fraction\":0,\"report_to\":\"cf-nel\",\"max_age\":604800}\n1 < Vary: Accept-Encoding\n1 < Server: cloudflare\n1 < CF-RAY: 6e0919838ce4d911-AMS\n1 < alt-svc: h3=\":443\"; ma=86400, h3-29=\":443\"; ma=86400\n{\"page\":1,\"per_page\":6,\"total\":12,\"total_pages\":2,\"data\":[{\"id\":1,\"email\":\"george.bluth@reqres.in\",\"first_name\":\"George\",\"last_name\":\"Bluth\",\"avatar\":\"https:\/\/reqres.in\/img\/faces\/1-image.jpg\"},{\"id\":2,\"email\":\"janet.weaver@reqres.in\",\"first_name\":\"Janet\",\"last_name\":\"Weaver\",\"avatar\":\"https:\/\/reqres.in\/img\/faces\/2-image.jpg\"},{\"id\":3,\"email\":\"emma.wong@reqres.in\",\"first_name\":\"Emma\",\"last_name\":\"Wong\",\"avatar\":\"https:\/\/reqres.in\/img\/faces\/3-image.jpg\"},{\"id\":4,\"email\":\"eve.holt@reqres.in\",\"first_name\":\"Eve\",\"last_name\":\"Holt\",\"avatar\":\"https:\/\/reqres.in\/img\/faces\/4-image.jpg\"},{\"id\":5,\"email\":\"charles.morris@reqres.in\",\"first_name\":\"Charles\",\"last_name\":\"Morris\",\"avatar\":\"https:\/\/reqres.in\/img\/faces\/5-image.jpg\"},{\"id\":6,\"email\":\"tracey.ramos@reqres.in\",\"first_name\":\"Tracey\",\"last_name\":\"Ramos\",\"avatar\":\"https:\/\/reqres.in\/img\/faces\/6-image.jpg\"}],\"support\":{\"url\":\"https:\/\/reqres.in\/#support-heading\",\"text\":\"To keep ReqRes free, contributions towards server costs are appreciated!\"}}\n"},{"result":{"nanos":14400,"millis":0.0144,"status":"passed"},"step":{"line":10,"prefix":"Then","index":2,"text":"status 200"}},{"result":{"nanos":10146000,"errorMessage":"js failed:\n>>>>\n01: karate.log('[print]',exp1[0])\n<<<<\norg.graalvm.polyglot.PolyglotException: Index 0 out of bounds for length 0\n- java.base\/jdk.internal.util.Preconditions.outOfBounds(Preconditions.java:64)\n- java.base\/jdk.internal.util.Preconditions.outOfBoundsCheckIndex(Preconditions.java:70)\n- java.base\/jdk.internal.util.Preconditions.checkIndex(Preconditions.java:266)\n- java.base\/java.util.Objects.checkIndex(Objects.java:359)\n- java.base\/java.util.ArrayList.get(ArrayList.java:427)\n- com.intuit.karate.graal.JsList.get(JsList.java:60)\n- com.oracle.truffle.host.GuestToHostCodeCache$6.boundaryGet(GuestToHostCodeCache.java:172)\n\nsrc\/test\/java\/TestFeatures\/week3\/matchFromAllData.feature:12","millis":10.146,"status":"failed"},"step":{"comments":["#And def acc = response"],"line":12,"prefix":"*","index":3,"text":"print exp1[0]"},"stepLog":"17:27:06.849 src\/test\/java\/TestFeatures\/week3\/matchFromAllData.feature:12\n* print exp1[0]\njs failed:\n>>>>\n01: karate.log('[print]',exp1[0])\n<<<<\norg.graalvm.polyglot.PolyglotException: Index 0 out of bounds for length 0\n- java.base\/jdk.internal.util.Preconditions.outOfBounds(Preconditions.java:64)\n- java.base\/jdk.internal.util.Preconditions.outOfBoundsCheckIndex(Preconditions.java:70)\n- java.base\/jdk.internal.util.Preconditions.checkIndex(Preconditions.java:266)\n- java.base\/java.util.Objects.checkIndex(Objects.java:359)\n- java.base\/java.util.ArrayList.get(ArrayList.java:427)\n- com.intuit.karate.graal.JsList.get(JsList.java:60)\n- com.oracle.truffle.host.GuestToHostCodeCache$6.boundaryGet(GuestToHostCodeCache.java:172)\n\nsrc\/test\/java\/TestFeatures\/week3\/matchFromAllData.feature:12\n"}],"line":7,"description":"","durationMillis":3246.6937,"failed":true,"error":"js failed:\n>>>>\n01: karate.log('[print]',exp1[0])\n<<<<\norg.graalvm.polyglot.PolyglotException: Index 0 out of bounds for length 0\n- java.base\/jdk.internal.util.Preconditions.outOfBounds(Preconditions.java:64)\n- java.base\/jdk.internal.util.Preconditions.outOfBoundsCheckIndex(Preconditions.java:70)\n- java.base\/jdk.internal.util.Preconditions.checkIndex(Preconditions.java:266)\n- java.base\/java.util.Objects.checkIndex(Objects.java:359)\n- java.base\/java.util.ArrayList.get(ArrayList.java:427)\n- com.intuit.karate.graal.JsList.get(JsList.java:60)\n- com.oracle.truffle.host.GuestToHostCodeCache$6.boundaryGet(GuestToHostCodeCache.java:172)\n\nsrc\/test\/java\/TestFeatures\/week3\/matchFromAllData.feature:12","executorName":"main","name":"check if response contains csv values emails","startTime":1645374423453,"refId":"[1:7]","endTime":1645374426849,"exampleIndex":-1}],"callDepth":0,"name":"verify if elements exists in csv file","description":"","resultDate":"2022-02-20 05:27:06 PM","durationMillis":3246.6937,"passedCount":0}