{"failedCount":1,"prefixedPath":"src\/main\/java\/first_test_k.feature","packageQualifiedName":"src.main.java.first_test_k","loopIndex":-1,"relativePath":"src\/main\/java\/first_test_k.feature","scenarioResults":[{"sectionIndex":0,"stepResults":[{"result":{"nanos":86000800,"millis":86.0008,"status":"passed"},"step":{"line":8,"prefix":"Given","index":0,"text":"url \"https:\/\/reqres.in\/api\/users?page=2\""}},{"result":{"nanos":793559500,"millis":793.5595,"status":"passed"},"step":{"line":9,"prefix":"When","index":1,"text":"method GET"},"stepLog":"18:29:33.397 request:\n1 > GET https:\/\/reqres.in\/api\/users?page=2\n1 > Host: reqres.in\n1 > Connection: Keep-Alive\n1 > User-Agent: Apache-HttpClient\/4.5.13 (Java\/17.0.1)\n1 > Accept-Encoding: gzip,deflate\n\n\n18:29:33.841 response time in milliseconds: 442\n1 < 200\n1 < Date: Fri, 28 Jan 2022 17:29:33 GMT\n1 < Content-Type: application\/json; charset=utf-8\n1 < Transfer-Encoding: chunked\n1 < Connection: keep-alive\n1 < x-powered-by: Express\n1 < access-control-allow-origin: *\n1 < etag: W\/\"406-ut0vzoCuidvyMf8arZpMpJ6ZRDw\"\n1 < via: 1.1 vegur\n1 < Cache-Control: max-age=14400\n1 < CF-Cache-Status: HIT\n1 < Age: 2471\n1 < Expect-CT: max-age=604800, report-uri=\"https:\/\/report-uri.cloudflare.com\/cdn-cgi\/beacon\/expect-ct\"\n1 < Report-To: {\"endpoints\":[{\"url\":\"https:\\\/\\\/a.nel.cloudflare.com\\\/report\\\/v3?s=QKSLFiH9TSWlUS%2F10tZgsQacbbrct5MztmZ1GdSaMG4CZIUPFivS%2BUomAOixiSrHEZ8lL08Rf23hQpyV%2BvvmeVLksmY2QMj89IVUt%2FW6xV2bqydx3RFTICp1TG4%3D\"}],\"group\":\"cf-nel\",\"max_age\":604800}\n1 < NEL: {\"success_fraction\":0,\"report_to\":\"cf-nel\",\"max_age\":604800}\n1 < Vary: Accept-Encoding\n1 < Server: cloudflare\n1 < CF-RAY: 6d4bf192392a7792-LHR\n1 < alt-svc: h3=\":443\"; ma=86400, h3-29=\":443\"; ma=86400\n{\"page\":2,\"per_page\":6,\"total\":12,\"total_pages\":2,\"data\":[{\"id\":7,\"email\":\"michael.lawson@reqres.in\",\"first_name\":\"Michael\",\"last_name\":\"Lawson\",\"avatar\":\"https:\/\/reqres.in\/img\/faces\/7-image.jpg\"},{\"id\":8,\"email\":\"lindsay.ferguson@reqres.in\",\"first_name\":\"Lindsay\",\"last_name\":\"Ferguson\",\"avatar\":\"https:\/\/reqres.in\/img\/faces\/8-image.jpg\"},{\"id\":9,\"email\":\"tobias.funke@reqres.in\",\"first_name\":\"Tobias\",\"last_name\":\"Funke\",\"avatar\":\"https:\/\/reqres.in\/img\/faces\/9-image.jpg\"},{\"id\":10,\"email\":\"byron.fields@reqres.in\",\"first_name\":\"Byron\",\"last_name\":\"Fields\",\"avatar\":\"https:\/\/reqres.in\/img\/faces\/10-image.jpg\"},{\"id\":11,\"email\":\"george.edwards@reqres.in\",\"first_name\":\"George\",\"last_name\":\"Edwards\",\"avatar\":\"https:\/\/reqres.in\/img\/faces\/11-image.jpg\"},{\"id\":12,\"email\":\"rachel.howell@reqres.in\",\"first_name\":\"Rachel\",\"last_name\":\"Howell\",\"avatar\":\"https:\/\/reqres.in\/img\/faces\/12-image.jpg\"}],\"support\":{\"url\":\"https:\/\/reqres.in\/#support-heading\",\"text\":\"To keep ReqRes free, contributions towards server costs are appreciated!\"}}\n"},{"result":{"nanos":23800,"millis":0.0238,"status":"passed"},"step":{"line":10,"prefix":"Then","index":2,"text":"status 200"}},{"result":{"nanos":31435000,"millis":31.435,"status":"passed"},"step":{"line":11,"prefix":"And","index":3,"text":"assert response.data.length == 6"}},{"result":{"nanos":38877000,"millis":38.877,"status":"passed"},"step":{"line":12,"prefix":"And","index":4,"text":"match $.data[0].id == 7"}},{"result":{"nanos":1281400,"millis":1.2814,"status":"passed"},"step":{"line":13,"prefix":"And","index":5,"text":"match $.data[0].email == 'michael.lawson@reqres.in'"}}],"executorName":"main","line":7,"name":"test API get","description":"","durationMillis":951.1775,"startTime":1643390972980,"failed":false,"refId":"[1:7]","endTime":1643390973942,"exampleIndex":-1},{"sectionIndex":1,"stepResults":[{"result":{"nanos":440700,"millis":0.4407,"status":"passed"},"step":{"comments":["#Given path '\/users'"],"line":17,"prefix":"Given","index":0,"text":"url \"https:\/\/reqres.in\/api\/users\""}},{"result":{"nanos":1849900,"millis":1.8499,"status":"passed"},"step":{"line":18,"prefix":"And","index":1,"text":"request {\"name\": \"Mouad\" , \"job\": \"tester\" , \"age\": \"25\"}"}},{"result":{"nanos":263265200,"millis":263.2652,"status":"passed"},"step":{"line":19,"prefix":"When","index":2,"text":"method POST"},"stepLog":"18:29:33.988 request:\n1 > POST https:\/\/reqres.in\/api\/users\n1 > Content-Type: application\/json; charset=UTF-8\n1 > Content-Length: 42\n1 > Host: reqres.in\n1 > Connection: Keep-Alive\n1 > User-Agent: Apache-HttpClient\/4.5.13 (Java\/17.0.1)\n1 > Accept-Encoding: gzip,deflate\n{\"name\":\"Mouad\",\"job\":\"tester\",\"age\":\"25\"}\n\n18:29:34.214 response time in milliseconds: 226\n1 < 201\n1 < Date: Fri, 28 Jan 2022 17:29:34 GMT\n1 < Content-Type: application\/json; charset=utf-8\n1 < Content-Length: 92\n1 < Connection: keep-alive\n1 < x-powered-by: Express\n1 < access-control-allow-origin: *\n1 < etag: W\/\"5c-EVUd+L1YfvqIl2ZcZr+ZM2QPL9U\"\n1 < via: 1.1 vegur\n1 < CF-Cache-Status: DYNAMIC\n1 < Expect-CT: max-age=604800, report-uri=\"https:\/\/report-uri.cloudflare.com\/cdn-cgi\/beacon\/expect-ct\"\n1 < Report-To: {\"endpoints\":[{\"url\":\"https:\\\/\\\/a.nel.cloudflare.com\\\/report\\\/v3?s=V11K6KfzxWL0a9UnZWWn5ryupN29GC4hOy5o1CO%2FWDlLbZSzU9nj9fewEEAZb2%2Bm6yHI8KQYOPs0qv9BCJ9HLKrC38V4m3VNqX%2FZ%2FYL0MbAfR9kNsbjpLAqYGdk%3D\"}],\"group\":\"cf-nel\",\"max_age\":604800}\n1 < NEL: {\"success_fraction\":0,\"report_to\":\"cf-nel\",\"max_age\":604800}\n1 < Server: cloudflare\n1 < CF-RAY: 6d4bf1946a3f88a1-LHR\n1 < alt-svc: h3=\":443\"; ma=86400, h3-29=\":443\"; ma=86400\n{\"name\":\"Mouad\",\"job\":\"tester\",\"age\":\"25\",\"id\":\"418\",\"createdAt\":\"2022-01-28T17:29:34.180Z\"}\n"},{"result":{"nanos":10500,"millis":0.0105,"status":"passed"},"step":{"line":20,"prefix":"Then","index":3,"text":"status 201"}},{"result":{"nanos":1916500,"errorMessage":"match failed: EQUALS\n  $ | not equal | match failed for name: 'age' (MAP:MAP)\n  {\"name\":\"Mouad\",\"job\":\"tester\",\"age\":\"25\",\"id\":\"418\",\"createdAt\":\"2022-01-28T17:29:34.180Z\"}\n  {\"name\":\"Mouad\",\"job\":\"tester\",\"age\":25,\"id\":\"#string\",\"createdAt\":\"#ignore\"}\n\n    $.age | data types don't match (STRING:NUMBER)\n    '25'\n    25\n\nsrc\/main\/java\/first_test_k.feature:21","millis":1.9165,"status":"failed"},"step":{"line":21,"prefix":"And","index":4,"text":"match response == {\"name\":\"Mouad\",\"job\":\"tester\",\"age\":25,\"id\":\"#string\",\"createdAt\":\"#ignore\"}"},"stepLog":"18:29:34.217 src\/main\/java\/first_test_k.feature:21\nAnd match response == {\"name\":\"Mouad\",\"job\":\"tester\",\"age\":25,\"id\":\"#string\",\"createdAt\":\"#ignore\"}\nmatch failed: EQUALS\n  $ | not equal | match failed for name: 'age' (MAP:MAP)\n  {\"name\":\"Mouad\",\"job\":\"tester\",\"age\":\"25\",\"id\":\"418\",\"createdAt\":\"2022-01-28T17:29:34.180Z\"}\n  {\"name\":\"Mouad\",\"job\":\"tester\",\"age\":25,\"id\":\"#string\",\"createdAt\":\"#ignore\"}\n\n    $.age | data types don't match (STRING:NUMBER)\n    '25'\n    25\n\nsrc\/main\/java\/first_test_k.feature:21\n"},{"result":{"nanos":0,"millis":0.0,"status":"skipped"},"step":{"line":22,"prefix":"And","index":5,"text":"print response"}}],"line":15,"description":"","durationMillis":267.4828,"failed":true,"error":"match failed: EQUALS\n  $ | not equal | match failed for name: 'age' (MAP:MAP)\n  {\"name\":\"Mouad\",\"job\":\"tester\",\"age\":\"25\",\"id\":\"418\",\"createdAt\":\"2022-01-28T17:29:34.180Z\"}\n  {\"name\":\"Mouad\",\"job\":\"tester\",\"age\":25,\"id\":\"#string\",\"createdAt\":\"#ignore\"}\n\n    $.age | data types don't match (STRING:NUMBER)\n    '25'\n    25\n\nsrc\/main\/java\/first_test_k.feature:21","executorName":"main","name":"test API post","startTime":1643390973949,"refId":"[2:15]","endTime":1643390974217,"exampleIndex":-1}],"callDepth":0,"name":"test sample API","description":"","resultDate":"2022-01-28 06:29:34 PM","durationMillis":1218.6603,"passedCount":1}