{"failedCount":1,"prefixedPath":"src\/test\/java\/testapi.feature","packageQualifiedName":"src.test.java.testapi","loopIndex":-1,"relativePath":"src\/test\/java\/testapi.feature","scenarioResults":[{"sectionIndex":0,"stepResults":[{"result":{"nanos":60041600,"millis":60.0416,"status":"passed"},"step":{"background":true,"line":4,"prefix":"*","index":0,"text":"url 'https:\/\/reqres.in\/api'"}},{"result":{"nanos":88933600,"millis":88.9336,"status":"passed"},"step":{"background":true,"line":5,"prefix":"*","index":1,"text":"def output = read('response1.json')"}},{"result":{"nanos":1103000,"millis":1.103,"status":"passed"},"step":{"background":true,"line":6,"prefix":"*","index":2,"text":"def request1 = read('request1.json')"}},{"result":{"nanos":328700,"millis":0.3287,"status":"passed"},"step":{"line":9,"prefix":"Given","index":0,"text":"path '\/users?page=2'"}},{"result":{"nanos":889537100,"millis":889.5371,"status":"passed"},"step":{"line":10,"prefix":"When","index":1,"text":"method GET"},"stepLog":"19:05:50.490 request:\n1 > GET https:\/\/reqres.in\/api\/users%3Fpage=2\n1 > Host: reqres.in\n1 > Connection: Keep-Alive\n1 > User-Agent: Apache-HttpClient\/4.5.13 (Java\/17.0.1)\n1 > Accept-Encoding: gzip,deflate\n\n\n19:05:51.187 response time in milliseconds: 695\n1 < 200\n1 < Date: Sat, 05 Feb 2022 18:05:46 GMT\n1 < Content-Type: application\/json; charset=utf-8\n1 < Transfer-Encoding: chunked\n1 < Connection: keep-alive\n1 < x-powered-by: Express\n1 < access-control-allow-origin: *\n1 < etag: W\/\"2c1-N6Rqerxquq2kgQhL51EiSg4x0R8\"\n1 < via: 1.1 vegur\n1 < Cache-Control: max-age=14400\n1 < CF-Cache-Status: HIT\n1 < Age: 289\n1 < Expect-CT: max-age=604800, report-uri=\"https:\/\/report-uri.cloudflare.com\/cdn-cgi\/beacon\/expect-ct\"\n1 < Report-To: {\"endpoints\":[{\"url\":\"https:\\\/\\\/a.nel.cloudflare.com\\\/report\\\/v3?s=ECHl4NS%2FLg7o44hS%2BNbwAqBNrDVOikmYrXQ1nZrzdPLOYQGAeMx%2BeHBf3oqrYkj4HpxCUJVqS2MetTPXM6eoKlBe77pF9V4PW3gM%2BFCDR9gkwxFiCZj1lfJUgCA%3D\"}],\"group\":\"cf-nel\",\"max_age\":604800}\n1 < NEL: {\"success_fraction\":0,\"report_to\":\"cf-nel\",\"max_age\":604800}\n1 < Vary: Accept-Encoding\n1 < Server: cloudflare\n1 < CF-RAY: 6d8e119a7bcef3f3-LHR\n1 < alt-svc: h3=\":443\"; ma=86400, h3-29=\":443\"; ma=86400\n{\"page\":1,\"per_page\":6,\"total\":12,\"total_pages\":2,\"data\":[{\"id\":1,\"name\":\"cerulean\",\"year\":2000,\"color\":\"#98B2D1\",\"pantone_value\":\"15-4020\"},{\"id\":2,\"name\":\"fuchsia rose\",\"year\":2001,\"color\":\"#C74375\",\"pantone_value\":\"17-2031\"},{\"id\":3,\"name\":\"true red\",\"year\":2002,\"color\":\"#BF1932\",\"pantone_value\":\"19-1664\"},{\"id\":4,\"name\":\"aqua sky\",\"year\":2003,\"color\":\"#7BC4C4\",\"pantone_value\":\"14-4811\"},{\"id\":5,\"name\":\"tigerlily\",\"year\":2004,\"color\":\"#E2583E\",\"pantone_value\":\"17-1456\"},{\"id\":6,\"name\":\"blue turquoise\",\"year\":2005,\"color\":\"#53B0AE\",\"pantone_value\":\"15-5217\"}],\"support\":{\"url\":\"https:\/\/reqres.in\/#support-heading\",\"text\":\"To keep ReqRes free, contributions towards server costs are appreciated!\"}}\n"},{"result":{"nanos":15600,"millis":0.0156,"status":"passed"},"step":{"line":11,"prefix":"Then","index":2,"text":"status 200"}},{"result":{"nanos":7722500,"millis":7.7225,"status":"passed"},"step":{"line":12,"prefix":"And","index":3,"text":"assert response.data.length == 6"}},{"result":{"nanos":14307900,"errorMessage":"match failed: EQUALS\n  $ | not equal (NUMBER:NUMBER)\n  2\n  8\n\nsrc\/test\/java\/testapi.feature:13","millis":14.3079,"status":"failed"},"step":{"line":13,"prefix":"And","index":4,"text":"match $.data[1].id == 8"},"stepLog":"19:05:51.213 src\/test\/java\/testapi.feature:13\nAnd match $.data[1].id == 8\nmatch failed: EQUALS\n  $ | not equal (NUMBER:NUMBER)\n  2\n  8\n\nsrc\/test\/java\/testapi.feature:13\n"},{"result":{"nanos":0,"millis":0.0,"status":"skipped"},"step":{"line":14,"prefix":"And","index":5,"text":"match $.data[0].email == 'michael.lawson@reqres.in'"}}],"line":8,"description":"","durationMillis":1061.99,"failed":true,"error":"match failed: EQUALS\n  $ | not equal (NUMBER:NUMBER)\n  2\n  8\n\nsrc\/test\/java\/testapi.feature:13","executorName":"main","name":"test API get 1","startTime":1644084350144,"refId":"[1:8]","endTime":1644084351213,"exampleIndex":-1},{"sectionIndex":1,"stepResults":[{"result":{"nanos":341700,"millis":0.3417,"status":"passed"},"step":{"background":true,"line":4,"prefix":"*","index":0,"text":"url 'https:\/\/reqres.in\/api'"}},{"result":{"nanos":830400,"millis":0.8304,"status":"passed"},"step":{"background":true,"line":5,"prefix":"*","index":1,"text":"def output = read('response1.json')"}},{"result":{"nanos":591000,"millis":0.591,"status":"passed"},"step":{"background":true,"line":6,"prefix":"*","index":2,"text":"def request1 = read('request1.json')"}},{"result":{"nanos":203600,"millis":0.2036,"status":"passed"},"step":{"comments":["#Given path '\/users'"],"line":18,"prefix":"Given","index":0,"text":"path '\/users'"}},{"result":{"nanos":135200,"millis":0.1352,"status":"passed"},"step":{"line":19,"prefix":"And","index":1,"text":"request {\"name\": \"Mouad\" , \"job\": \"tester\" , \"age\": 25}"}},{"result":{"nanos":289433000,"millis":289.433,"status":"passed"},"step":{"line":20,"prefix":"When","index":2,"text":"method POST"},"stepLog":"19:05:51.248 request:\n1 > POST https:\/\/reqres.in\/api\/users\n1 > Content-Type: application\/json; charset=UTF-8\n1 > Content-Length: 40\n1 > Host: reqres.in\n1 > Connection: Keep-Alive\n1 > User-Agent: Apache-HttpClient\/4.5.13 (Java\/17.0.1)\n1 > Accept-Encoding: gzip,deflate\n{\"name\":\"Mouad\",\"job\":\"tester\",\"age\":25}\n\n19:05:51.508 response time in milliseconds: 259\n1 < 201\n1 < Date: Sat, 05 Feb 2022 18:05:46 GMT\n1 < Content-Type: application\/json; charset=utf-8\n1 < Content-Length: 89\n1 < Connection: keep-alive\n1 < x-powered-by: Express\n1 < access-control-allow-origin: *\n1 < etag: W\/\"59-dGvWJJRnj+5G6dmvbo63pNz5tMU\"\n1 < via: 1.1 vegur\n1 < CF-Cache-Status: DYNAMIC\n1 < Expect-CT: max-age=604800, report-uri=\"https:\/\/report-uri.cloudflare.com\/cdn-cgi\/beacon\/expect-ct\"\n1 < Report-To: {\"endpoints\":[{\"url\":\"https:\\\/\\\/a.nel.cloudflare.com\\\/report\\\/v3?s=ZuPsI9gPSPojFn89Ms0iKX%2F9pRHNBqWP1Y1XBVYyC0G6qvTT%2BwCW%2F5llR9mDgAX9bxS6mHKhEpMg7NW0bQfkMY%2B4x4G4P9RGIw5uHNc2DffD235O1osnTx3%2BwBI%3D\"}],\"group\":\"cf-nel\",\"max_age\":604800}\n1 < NEL: {\"success_fraction\":0,\"report_to\":\"cf-nel\",\"max_age\":604800}\n1 < Server: cloudflare\n1 < CF-RAY: 6d8e119c5fc8008d-LHR\n1 < alt-svc: h3=\":443\"; ma=86400, h3-29=\":443\"; ma=86400\n{\"name\":\"Mouad\",\"job\":\"tester\",\"age\":25,\"id\":\"60\",\"createdAt\":\"2022-02-05T18:05:46.337Z\"}\n"},{"result":{"nanos":6400,"millis":0.0064,"status":"passed"},"step":{"line":21,"prefix":"Then","index":3,"text":"status 201"}},{"result":{"nanos":413800,"millis":0.4138,"status":"passed"},"step":{"line":22,"prefix":"And","index":4,"text":"match response == {\"name\":\"Mouad\",\"job\":\"tester\",\"age\":25,\"id\":\"#string\",\"createdAt\":\"#ignore\"}"}},{"result":{"nanos":7483000,"millis":7.483,"status":"passed"},"step":{"line":23,"prefix":"And","index":5,"text":"print response"},"stepLog":"19:05:51.516 [print] {\n  \"name\": \"Mouad\",\n  \"job\": \"tester\",\n  \"age\": 25,\n  \"id\": \"60\",\n  \"createdAt\": \"2022-02-05T18:05:46.337Z\"\n}\n \n"}],"executorName":"main","line":16,"name":"test API post 2","description":"","durationMillis":299.4381,"startTime":1644084351216,"failed":false,"refId":"[2:16]","endTime":1644084351516,"exampleIndex":-1},{"sectionIndex":2,"stepResults":[{"result":{"nanos":144600,"millis":0.1446,"status":"passed"},"step":{"background":true,"line":4,"prefix":"*","index":0,"text":"url 'https:\/\/reqres.in\/api'"}},{"result":{"nanos":538200,"millis":0.5382,"status":"passed"},"step":{"background":true,"line":5,"prefix":"*","index":1,"text":"def output = read('response1.json')"}},{"result":{"nanos":340700,"millis":0.3407,"status":"passed"},"step":{"background":true,"line":6,"prefix":"*","index":2,"text":"def request1 = read('request1.json')"}},{"result":{"nanos":63800,"millis":0.0638,"status":"passed"},"step":{"comments":["#Given path '\/users'"],"line":27,"prefix":"Given","index":0,"text":"path '\/users'"}},{"result":{"nanos":122000,"millis":0.122,"status":"passed"},"step":{"line":28,"prefix":"And","index":1,"text":"request {\"name\": \"Mouad\" , \"job\": \"tester\" }"}},{"result":{"nanos":278170300,"millis":278.1703,"status":"passed"},"step":{"line":29,"prefix":"When","index":2,"text":"method POST"},"stepLog":"19:05:51.521 request:\n1 > POST https:\/\/reqres.in\/api\/users\n1 > Content-Type: application\/json; charset=UTF-8\n1 > Content-Length: 31\n1 > Host: reqres.in\n1 > Connection: Keep-Alive\n1 > User-Agent: Apache-HttpClient\/4.5.13 (Java\/17.0.1)\n1 > Accept-Encoding: gzip,deflate\n{\"name\":\"Mouad\",\"job\":\"tester\"}\n\n19:05:51.798 response time in milliseconds: 277\n1 < 201\n1 < Date: Sat, 05 Feb 2022 18:05:46 GMT\n1 < Content-Type: application\/json; charset=utf-8\n1 < Content-Length: 81\n1 < Connection: keep-alive\n1 < x-powered-by: Express\n1 < access-control-allow-origin: *\n1 < etag: W\/\"51-tYXNWOQxFNkElrizo7zx7iulJWc\"\n1 < via: 1.1 vegur\n1 < CF-Cache-Status: DYNAMIC\n1 < Expect-CT: max-age=604800, report-uri=\"https:\/\/report-uri.cloudflare.com\/cdn-cgi\/beacon\/expect-ct\"\n1 < Report-To: {\"endpoints\":[{\"url\":\"https:\\\/\\\/a.nel.cloudflare.com\\\/report\\\/v3?s=haIcAyumQ7cn42o4SU5G59pUnV2RPMP3pMb63cG1QAap0sOQzzsxDH3wwEWmxl0SDMyu59F8U8xtFSbG9dnvho0yoBtI24yl9vA6KUeKc%2FbeWrIP%2Fq8r3724PMM%3D\"}],\"group\":\"cf-nel\",\"max_age\":604800}\n1 < NEL: {\"success_fraction\":0,\"report_to\":\"cf-nel\",\"max_age\":604800}\n1 < Server: cloudflare\n1 < CF-RAY: 6d8e119e1e64e68c-LHR\n1 < alt-svc: h3=\":443\"; ma=86400, h3-29=\":443\"; ma=86400\n{\"name\":\"Mouad\",\"job\":\"tester\",\"id\":\"216\",\"createdAt\":\"2022-02-05T18:05:46.619Z\"}\n"},{"result":{"nanos":8300,"millis":0.0083,"status":"passed"},"step":{"line":30,"prefix":"Then","index":3,"text":"status 201"}},{"result":{"nanos":308900,"millis":0.3089,"status":"passed"},"step":{"line":31,"prefix":"And","index":4,"text":"match response == output"}},{"result":{"nanos":344100,"millis":0.3441,"status":"passed"},"step":{"line":32,"prefix":"And","index":5,"text":"print response"},"stepLog":"19:05:51.800 [print] {\n  \"name\": \"Mouad\",\n  \"job\": \"tester\",\n  \"id\": \"216\",\n  \"createdAt\": \"2022-02-05T18:05:46.619Z\"\n}\n \n"}],"executorName":"main","line":25,"name":"test API post 3","description":"","durationMillis":280.0409,"startTime":1644084351519,"failed":false,"refId":"[3:25]","endTime":1644084351801,"exampleIndex":-1},{"sectionIndex":3,"stepResults":[{"result":{"nanos":107000,"millis":0.107,"status":"passed"},"step":{"background":true,"line":4,"prefix":"*","index":0,"text":"url 'https:\/\/reqres.in\/api'"}},{"result":{"nanos":457100,"millis":0.4571,"status":"passed"},"step":{"background":true,"line":5,"prefix":"*","index":1,"text":"def output = read('response1.json')"}},{"result":{"nanos":374800,"millis":0.3748,"status":"passed"},"step":{"background":true,"line":6,"prefix":"*","index":2,"text":"def request1 = read('request1.json')"}},{"result":{"nanos":61900,"millis":0.0619,"status":"passed"},"step":{"comments":["#Given path '\/users'"],"line":36,"prefix":"Given","index":0,"text":"path '\/users'"}},{"result":{"nanos":388400,"millis":0.3884,"status":"passed"},"step":{"line":37,"prefix":"And","index":1,"text":"request request1"}},{"result":{"nanos":275882100,"millis":275.8821,"status":"passed"},"step":{"line":38,"prefix":"When","index":2,"text":"method POST"},"stepLog":"19:05:51.805 request:\n1 > POST https:\/\/reqres.in\/api\/users\n1 > Content-Type: application\/json; charset=UTF-8\n1 > Content-Length: 31\n1 > Host: reqres.in\n1 > Connection: Keep-Alive\n1 > User-Agent: Apache-HttpClient\/4.5.13 (Java\/17.0.1)\n1 > Accept-Encoding: gzip,deflate\n{\"name\":\"Mouad\",\"job\":\"tester\"}\n\n19:05:52.080 response time in milliseconds: 275\n1 < 201\n1 < Date: Sat, 05 Feb 2022 18:05:46 GMT\n1 < Content-Type: application\/json; charset=utf-8\n1 < Content-Length: 81\n1 < Connection: keep-alive\n1 < x-powered-by: Express\n1 < access-control-allow-origin: *\n1 < etag: W\/\"51-EzwDcmWNQmdknC61M0+syKGTjD0\"\n1 < via: 1.1 vegur\n1 < CF-Cache-Status: DYNAMIC\n1 < Expect-CT: max-age=604800, report-uri=\"https:\/\/report-uri.cloudflare.com\/cdn-cgi\/beacon\/expect-ct\"\n1 < Report-To: {\"endpoints\":[{\"url\":\"https:\\\/\\\/a.nel.cloudflare.com\\\/report\\\/v3?s=fhWMSaED5LG28mRRUsPCriH7R98v%2BLuWGF1E2lbV%2FeLzmXBxji%2FPxdCCenIemmkesEbfTJHzopjRBAL1kbXzyrzYIgRs89dVmqWqvIGWDUhWk8ZSISIWfjShKhI%3D\"}],\"group\":\"cf-nel\",\"max_age\":604800}\n1 < NEL: {\"success_fraction\":0,\"report_to\":\"cf-nel\",\"max_age\":604800}\n1 < Server: cloudflare\n1 < CF-RAY: 6d8e119fe9e0005b-LHR\n1 < alt-svc: h3=\":443\"; ma=86400, h3-29=\":443\"; ma=86400\n{\"name\":\"Mouad\",\"job\":\"tester\",\"id\":\"416\",\"createdAt\":\"2022-02-05T18:05:46.900Z\"}\n"},{"result":{"nanos":7300,"millis":0.0073,"status":"passed"},"step":{"line":39,"prefix":"Then","index":3,"text":"status 201"}},{"result":{"nanos":251300,"millis":0.2513,"status":"passed"},"step":{"line":40,"prefix":"And","index":4,"text":"match response == output"}},{"result":{"nanos":346900,"millis":0.3469,"status":"passed"},"step":{"line":41,"prefix":"And","index":5,"text":"print response"},"stepLog":"19:05:52.081 [print] {\n  \"name\": \"Mouad\",\n  \"job\": \"tester\",\n  \"id\": \"416\",\n  \"createdAt\": \"2022-02-05T18:05:46.900Z\"\n}\n \n"}],"executorName":"main","line":34,"name":"test API post 3","description":"","durationMillis":277.8768,"startTime":1644084351803,"failed":false,"refId":"[4:34]","endTime":1644084352081,"exampleIndex":-1}],"callDepth":0,"name":"test sample API","description":"","resultDate":"2022-02-05 07:05:52 PM","durationMillis":1919.3458,"passedCount":3}