{"failedCount":1,"prefixedPath":"src\/test\/java\/TestFeatures\/week3\/CallJavaClass.feature","packageQualifiedName":"src.test.java.TestFeatures.week3.CallJavaClass","loopIndex":-1,"relativePath":"src\/test\/java\/TestFeatures\/week3\/CallJavaClass.feature","scenarioResults":[{"sectionIndex":0,"stepResults":[{"result":{"nanos":57079400,"millis":57.0794,"status":"passed"},"step":{"comments":["#* url BaseURL","#* def exp = read('classpath:\/TestData\/data.csv')"],"background":true,"line":6,"prefix":"*","index":0,"text":"def exp1 = read('classpath:\/TestData\/data1.csv')"},"stepLog":"18:41:10.865 \n"},{"result":{"nanos":20738100,"millis":20.7381,"status":"passed"},"step":{"background":true,"line":7,"prefix":"*","index":1,"text":"def exp = ['8', '9']"}},{"result":{"nanos":833400,"millis":0.8334,"status":"passed"},"step":{"line":10,"prefix":"Given","index":0,"text":"url 'https:\/\/reqres.in\/api\/users?page=2'"}},{"result":{"nanos":2723100,"millis":2.7231,"status":"passed"},"step":{"line":11,"prefix":"*","index":1,"text":"print exp"},"stepLog":"18:41:10.983 [print] [\n  \"8\",\n  \"9\"\n]\n \n"},{"result":{"nanos":9246600,"millis":9.2466,"status":"passed"},"step":{"line":12,"prefix":"*","index":2,"text":"def fun = Java.type('Functions.ConvertS2N')"}},{"result":{"nanos":14665000,"millis":14.665,"status":"passed"},"step":{"line":13,"prefix":"*","index":3,"text":"def exp = fun.castS2N(exp)"}},{"result":{"nanos":834900,"millis":0.8349,"status":"passed"},"step":{"line":14,"prefix":"*","index":4,"text":"print exp"},"stepLog":"18:41:11.009 [print] [\n  8,\n  9\n]\n \n"},{"result":{"nanos":822177200,"millis":822.1772,"status":"passed"},"step":{"comments":["# Given path '\/users?page=2'"],"line":16,"prefix":"When","index":5,"text":"method GET"},"stepLog":"18:41:11.297 request:\n1 > GET https:\/\/reqres.in\/api\/users?page=2\n1 > Host: reqres.in\n1 > Connection: Keep-Alive\n1 > User-Agent: Apache-HttpClient\/4.5.13 (Java\/17.0.1)\n1 > Accept-Encoding: gzip,deflate\n\n\n18:41:11.829 response time in milliseconds: 528\n1 < 200\n1 < Date: Sun, 20 Feb 2022 17:41:03 GMT\n1 < Content-Type: application\/json; charset=utf-8\n1 < Transfer-Encoding: chunked\n1 < Connection: keep-alive\n1 < X-Powered-By: Express\n1 < Access-Control-Allow-Origin: *\n1 < Etag: W\/\"406-ut0vzoCuidvyMf8arZpMpJ6ZRDw\"\n1 < Via: 1.1 vegur\n1 < Cache-Control: max-age=14400\n1 < CF-Cache-Status: HIT\n1 < Age: 4778\n1 < Expect-CT: max-age=604800, report-uri=\"https:\/\/report-uri.cloudflare.com\/cdn-cgi\/beacon\/expect-ct\"\n1 < Report-To: {\"endpoints\":[{\"url\":\"https:\\\/\\\/a.nel.cloudflare.com\\\/report\\\/v3?s=qk6Ej2pPpmTYPoNWetbV3MDTMAQ050weJdzQL%2F2brRtC6TKeRoODtJl8T1%2BG9wt2fWcjRQ6fe1ShR1JRmpKGIv60ec8Hq7chswd7MT5tNZzl8ce1hPG0NFO2%2F0I%3D\"}],\"group\":\"cf-nel\",\"max_age\":604800}\n1 < NEL: {\"success_fraction\":0,\"report_to\":\"cf-nel\",\"max_age\":604800}\n1 < Vary: Accept-Encoding\n1 < Server: cloudflare\n1 < CF-RAY: 6e09860b28122e56-BRU\n1 < alt-svc: h3=\":443\"; ma=86400, h3-29=\":443\"; ma=86400\n{\"page\":2,\"per_page\":6,\"total\":12,\"total_pages\":2,\"data\":[{\"id\":7,\"email\":\"michael.lawson@reqres.in\",\"first_name\":\"Michael\",\"last_name\":\"Lawson\",\"avatar\":\"https:\/\/reqres.in\/img\/faces\/7-image.jpg\"},{\"id\":8,\"email\":\"lindsay.ferguson@reqres.in\",\"first_name\":\"Lindsay\",\"last_name\":\"Ferguson\",\"avatar\":\"https:\/\/reqres.in\/img\/faces\/8-image.jpg\"},{\"id\":9,\"email\":\"tobias.funke@reqres.in\",\"first_name\":\"Tobias\",\"last_name\":\"Funke\",\"avatar\":\"https:\/\/reqres.in\/img\/faces\/9-image.jpg\"},{\"id\":10,\"email\":\"byron.fields@reqres.in\",\"first_name\":\"Byron\",\"last_name\":\"Fields\",\"avatar\":\"https:\/\/reqres.in\/img\/faces\/10-image.jpg\"},{\"id\":11,\"email\":\"george.edwards@reqres.in\",\"first_name\":\"George\",\"last_name\":\"Edwards\",\"avatar\":\"https:\/\/reqres.in\/img\/faces\/11-image.jpg\"},{\"id\":12,\"email\":\"rachel.howell@reqres.in\",\"first_name\":\"Rachel\",\"last_name\":\"Howell\",\"avatar\":\"https:\/\/reqres.in\/img\/faces\/12-image.jpg\"}],\"support\":{\"url\":\"https:\/\/reqres.in\/#support-heading\",\"text\":\"To keep ReqRes free, contributions towards server costs are appreciated!\"}}\n"},{"result":{"nanos":30100,"millis":0.0301,"status":"passed"},"step":{"line":17,"prefix":"Then","index":6,"text":"status 200"}},{"result":{"nanos":901500,"millis":0.9015,"status":"passed"},"step":{"comments":["#i used this fuction to convert string to number","#* def fun = function(x){ x.id = ~~x.id; return x }","#* def exp = karate.map(exp, fun)"],"line":22,"prefix":"And","index":7,"text":"def acc = response"}},{"result":{"nanos":13821100,"errorMessage":"match failed: CONTAINS_DEEP\n  $ | actual does not contain expected | actual array does not contain expected item - 8 (LIST:LIST)\n  [{\"id\":7,\"email\":\"michael.lawson@reqres.in\",\"first_name\":\"Michael\",\"last_name\":\"Lawson\",\"avatar\":\"https:\/\/reqres.in\/img\/faces\/7-image.jpg\"},{\"id\":8,\"email\":\"lindsay.ferguson@reqres.in\",\"first_name\":\"Lindsay\",\"last_name\":\"Ferguson\",\"avatar\":\"https:\/\/reqres.in\/img\/faces\/8-image.jpg\"},{\"id\":9,\"email\":\"tobias.funke@reqres.in\",\"first_name\":\"Tobias\",\"last_name\":\"Funke\",\"avatar\":\"https:\/\/reqres.in\/img\/faces\/9-image.jpg\"},{\"id\":10,\"email\":\"byron.fields@reqres.in\",\"first_name\":\"Byron\",\"last_name\":\"Fields\",\"avatar\":\"https:\/\/reqres.in\/img\/faces\/10-image.jpg\"},{\"id\":11,\"email\":\"george.edwards@reqres.in\",\"first_name\":\"George\",\"last_name\":\"Edwards\",\"avatar\":\"https:\/\/reqres.in\/img\/faces\/11-image.jpg\"},{\"id\":12,\"email\":\"rachel.howell@reqres.in\",\"first_name\":\"Rachel\",\"last_name\":\"Howell\",\"avatar\":\"https:\/\/reqres.in\/img\/faces\/12-image.jpg\"}]\n  [8,9]\n\n    $[5] | data types don't match (MAP:NUMBER)\n    {\"id\":12,\"email\":\"rachel.howell@reqres.in\",\"first_name\":\"Rachel\",\"last_name\":\"Howell\",\"avatar\":\"https:\/\/reqres.in\/img\/faces\/12-image.jpg\"}\n    8\n\n    $[4] | data types don't match (MAP:NUMBER)\n    {\"id\":11,\"email\":\"george.edwards@reqres.in\",\"first_name\":\"George\",\"last_name\":\"Edwards\",\"avatar\":\"https:\/\/reqres.in\/img\/faces\/11-image.jpg\"}\n    8\n\n    $[3] | data types don't match (MAP:NUMBER)\n    {\"id\":10,\"email\":\"byron.fields@reqres.in\",\"first_name\":\"Byron\",\"last_name\":\"Fields\",\"avatar\":\"https:\/\/reqres.in\/img\/faces\/10-image.jpg\"}\n    8\n\n    $[2] | data types don't match (MAP:NUMBER)\n    {\"id\":9,\"email\":\"tobias.funke@reqres.in\",\"first_name\":\"Tobias\",\"last_name\":\"Funke\",\"avatar\":\"https:\/\/reqres.in\/img\/faces\/9-image.jpg\"}\n    8\n\n    $[1] | data types don't match (MAP:NUMBER)\n    {\"id\":8,\"email\":\"lindsay.ferguson@reqres.in\",\"first_name\":\"Lindsay\",\"last_name\":\"Ferguson\",\"avatar\":\"https:\/\/reqres.in\/img\/faces\/8-image.jpg\"}\n    8\n\n    $[0] | data types don't match (MAP:NUMBER)\n    {\"id\":7,\"email\":\"michael.lawson@reqres.in\",\"first_name\":\"Michael\",\"last_name\":\"Lawson\",\"avatar\":\"https:\/\/reqres.in\/img\/faces\/7-image.jpg\"}\n    8\n\n\nsrc\/test\/java\/TestFeatures\/week3\/CallJavaClass.feature:24","millis":13.8211,"status":"failed"},"step":{"comments":["#i used deep to check 2 arrays"],"line":24,"prefix":"*","index":8,"text":"match acc.data[*] contains deep exp"},"stepLog":"18:41:11.846 src\/test\/java\/TestFeatures\/week3\/CallJavaClass.feature:24\n* match acc.data[*] contains deep exp\nmatch failed: CONTAINS_DEEP\n  $ | actual does not contain expected | actual array does not contain expected item - 8 (LIST:LIST)\n  [{\"id\":7,\"email\":\"michael.lawson@reqres.in\",\"first_name\":\"Michael\",\"last_name\":\"Lawson\",\"avatar\":\"https:\/\/reqres.in\/img\/faces\/7-image.jpg\"},{\"id\":8,\"email\":\"lindsay.ferguson@reqres.in\",\"first_name\":\"Lindsay\",\"last_name\":\"Ferguson\",\"avatar\":\"https:\/\/reqres.in\/img\/faces\/8-image.jpg\"},{\"id\":9,\"email\":\"tobias.funke@reqres.in\",\"first_name\":\"Tobias\",\"last_name\":\"Funke\",\"avatar\":\"https:\/\/reqres.in\/img\/faces\/9-image.jpg\"},{\"id\":10,\"email\":\"byron.fields@reqres.in\",\"first_name\":\"Byron\",\"last_name\":\"Fields\",\"avatar\":\"https:\/\/reqres.in\/img\/faces\/10-image.jpg\"},{\"id\":11,\"email\":\"george.edwards@reqres.in\",\"first_name\":\"George\",\"last_name\":\"Edwards\",\"avatar\":\"https:\/\/reqres.in\/img\/faces\/11-image.jpg\"},{\"id\":12,\"email\":\"rachel.howell@reqres.in\",\"first_name\":\"Rachel\",\"last_name\":\"Howell\",\"avatar\":\"https:\/\/reqres.in\/img\/faces\/12-image.jpg\"}]\n  [8,9]\n\n    $[5] | data types don't match (MAP:NUMBER)\n    {\"id\":12,\"email\":\"rachel.howell@reqres.in\",\"first_name\":\"Rachel\",\"last_name\":\"Howell\",\"avatar\":\"https:\/\/reqres.in\/img\/faces\/12-image.jpg\"}\n    8\n\n    $[4] | data types don't match (MAP:NUMBER)\n    {\"id\":11,\"email\":\"george.edwards@reqres.in\",\"first_name\":\"George\",\"last_name\":\"Edwards\",\"avatar\":\"https:\/\/reqres.in\/img\/faces\/11-image.jpg\"}\n    8\n\n    $[3] | data types don't match (MAP:NUMBER)\n    {\"id\":10,\"email\":\"byron.fields@reqres.in\",\"first_name\":\"Byron\",\"last_name\":\"Fields\",\"avatar\":\"https:\/\/reqres.in\/img\/faces\/10-image.jpg\"}\n    8\n\n    $[2] | data types don't match (MAP:NUMBER)\n    {\"id\":9,\"email\":\"tobias.funke@reqres.in\",\"first_name\":\"Tobias\",\"last_name\":\"Funke\",\"avatar\":\"https:\/\/reqres.in\/img\/faces\/9-image.jpg\"}\n    8\n\n    $[1] | data types don't match (MAP:NUMBER)\n    {\"id\":8,\"email\":\"lindsay.ferguson@reqres.in\",\"first_name\":\"Lindsay\",\"last_name\":\"Ferguson\",\"avatar\":\"https:\/\/reqres.in\/img\/faces\/8-image.jpg\"}\n    8\n\n    $[0] | data types don't match (MAP:NUMBER)\n    {\"id\":7,\"email\":\"michael.lawson@reqres.in\",\"first_name\":\"Michael\",\"last_name\":\"Lawson\",\"avatar\":\"https:\/\/reqres.in\/img\/faces\/7-image.jpg\"}\n    8\n\n\nsrc\/test\/java\/TestFeatures\/week3\/CallJavaClass.feature:24\n"}],"line":9,"description":"","durationMillis":943.0504,"failed":true,"error":"match failed: CONTAINS_DEEP\n  $ | actual does not contain expected | actual array does not contain expected item - 8 (LIST:LIST)\n  [{\"id\":7,\"email\":\"michael.lawson@reqres.in\",\"first_name\":\"Michael\",\"last_name\":\"Lawson\",\"avatar\":\"https:\/\/reqres.in\/img\/faces\/7-image.jpg\"},{\"id\":8,\"email\":\"lindsay.ferguson@reqres.in\",\"first_name\":\"Lindsay\",\"last_name\":\"Ferguson\",\"avatar\":\"https:\/\/reqres.in\/img\/faces\/8-image.jpg\"},{\"id\":9,\"email\":\"tobias.funke@reqres.in\",\"first_name\":\"Tobias\",\"last_name\":\"Funke\",\"avatar\":\"https:\/\/reqres.in\/img\/faces\/9-image.jpg\"},{\"id\":10,\"email\":\"byron.fields@reqres.in\",\"first_name\":\"Byron\",\"last_name\":\"Fields\",\"avatar\":\"https:\/\/reqres.in\/img\/faces\/10-image.jpg\"},{\"id\":11,\"email\":\"george.edwards@reqres.in\",\"first_name\":\"George\",\"last_name\":\"Edwards\",\"avatar\":\"https:\/\/reqres.in\/img\/faces\/11-image.jpg\"},{\"id\":12,\"email\":\"rachel.howell@reqres.in\",\"first_name\":\"Rachel\",\"last_name\":\"Howell\",\"avatar\":\"https:\/\/reqres.in\/img\/faces\/12-image.jpg\"}]\n  [8,9]\n\n    $[5] | data types don't match (MAP:NUMBER)\n    {\"id\":12,\"email\":\"rachel.howell@reqres.in\",\"first_name\":\"Rachel\",\"last_name\":\"Howell\",\"avatar\":\"https:\/\/reqres.in\/img\/faces\/12-image.jpg\"}\n    8\n\n    $[4] | data types don't match (MAP:NUMBER)\n    {\"id\":11,\"email\":\"george.edwards@reqres.in\",\"first_name\":\"George\",\"last_name\":\"Edwards\",\"avatar\":\"https:\/\/reqres.in\/img\/faces\/11-image.jpg\"}\n    8\n\n    $[3] | data types don't match (MAP:NUMBER)\n    {\"id\":10,\"email\":\"byron.fields@reqres.in\",\"first_name\":\"Byron\",\"last_name\":\"Fields\",\"avatar\":\"https:\/\/reqres.in\/img\/faces\/10-image.jpg\"}\n    8\n\n    $[2] | data types don't match (MAP:NUMBER)\n    {\"id\":9,\"email\":\"tobias.funke@reqres.in\",\"first_name\":\"Tobias\",\"last_name\":\"Funke\",\"avatar\":\"https:\/\/reqres.in\/img\/faces\/9-image.jpg\"}\n    8\n\n    $[1] | data types don't match (MAP:NUMBER)\n    {\"id\":8,\"email\":\"lindsay.ferguson@reqres.in\",\"first_name\":\"Lindsay\",\"last_name\":\"Ferguson\",\"avatar\":\"https:\/\/reqres.in\/img\/faces\/8-image.jpg\"}\n    8\n\n    $[0] | data types don't match (MAP:NUMBER)\n    {\"id\":7,\"email\":\"michael.lawson@reqres.in\",\"first_name\":\"Michael\",\"last_name\":\"Lawson\",\"avatar\":\"https:\/\/reqres.in\/img\/faces\/7-image.jpg\"}\n    8\n\n\nsrc\/test\/java\/TestFeatures\/week3\/CallJavaClass.feature:24","executorName":"main","name":"check if response contains csv values ids","startTime":1645378870712,"refId":"[1:9]","endTime":1645378871846,"exampleIndex":-1}],"callDepth":0,"name":"Call methode to string from java class","description":"","resultDate":"2022-02-20 06:41:11 PM","durationMillis":943.0504,"passedCount":0}