{"failedCount":0,"prefixedPath":"classpath:TestFeatures\/week3\/CallJavaClass.feature","packageQualifiedName":"TestFeatures.week3.CallJavaClass","loopIndex":-1,"relativePath":"TestFeatures\/week3\/CallJavaClass.feature","scenarioResults":[{"sectionIndex":0,"stepResults":[{"result":{"nanos":1428000,"millis":1.428,"status":"passed"},"step":{"comments":["#* url BaseURL"],"background":true,"line":5,"prefix":"*","index":0,"text":"def exp1 = read('classpath:\/TestData\/data.csv')"},"stepLog":"16:10:43.388 \n"},{"result":{"nanos":276000,"millis":0.276,"status":"passed"},"step":{"line":9,"prefix":"Given","index":0,"text":"url 'https:\/\/reqres.in\/api\/users?page=2'"}},{"result":{"nanos":17023200,"millis":17.0232,"status":"passed"},"step":{"comments":["#Given path '\/users?page=2'","#This function to get values without keys"],"line":12,"prefix":"*","index":1,"text":"def ids = karate.jsonPath(exp1,\"$..id\")"}},{"result":{"nanos":536400,"millis":0.5364,"status":"passed"},"step":{"line":13,"prefix":"*","index":2,"text":"print ids"},"stepLog":"16:10:43.408 [print] [\n  \"8\",\n  \"9\",\n  \"7\"\n]\n \n"},{"result":{"nanos":1758800,"millis":1.7588,"status":"passed"},"step":{"comments":["#call Convert java function"],"line":15,"prefix":"*","index":3,"text":"def fun = Java.type('Functions.ConvertS2N')"}},{"result":{"nanos":1495500,"millis":1.4955,"status":"passed"},"step":{"line":16,"prefix":"*","index":4,"text":"def exp = fun.castS2N(ids)"}},{"result":{"nanos":405400,"millis":0.4054,"status":"passed"},"step":{"line":17,"prefix":"*","index":5,"text":"print exp"},"stepLog":"16:10:43.411 [print] [\n  8,\n  9,\n  7\n]\n \n"},{"result":{"nanos":221476800,"millis":221.4768,"status":"passed"},"step":{"line":18,"prefix":"When","index":6,"text":"method GET"},"stepLog":"16:10:43.412 request:\n1 > GET https:\/\/reqres.in\/api\/users?page=2\n1 > Host: reqres.in\n1 > Connection: Keep-Alive\n1 > User-Agent: Apache-HttpClient\/4.5.13 (Java\/17.0.2)\n1 > Accept-Encoding: gzip,deflate\n\n\n16:10:43.631 response time in milliseconds: 219\n1 < 200\n1 < Date: Sun, 27 Feb 2022 15:10:30 GMT\n1 < Content-Type: application\/json; charset=utf-8\n1 < Transfer-Encoding: chunked\n1 < Connection: keep-alive\n1 < X-Powered-By: Express\n1 < Access-Control-Allow-Origin: *\n1 < Etag: W\/\"406-ut0vzoCuidvyMf8arZpMpJ6ZRDw\"\n1 < Via: 1.1 vegur\n1 < Cache-Control: max-age=14400\n1 < CF-Cache-Status: HIT\n1 < Age: 78\n1 < Expect-CT: max-age=604800, report-uri=\"https:\/\/report-uri.cloudflare.com\/cdn-cgi\/beacon\/expect-ct\"\n1 < Report-To: {\"endpoints\":[{\"url\":\"https:\\\/\\\/a.nel.cloudflare.com\\\/report\\\/v3?s=OARlXKcIZCgy5j8CJjKymMPsfIy2LJb5EugkqetK7HfUouXATTzyT9SPVxXVaP5bZXXhc7%2BEI7r2pypLYzgbKnYcuDP%2BCsM4m7uI9MNLXXgNE1aQ%2F%2BdzkNDLIPo%3D\"}],\"group\":\"cf-nel\",\"max_age\":604800}\n1 < NEL: {\"success_fraction\":0,\"report_to\":\"cf-nel\",\"max_age\":604800}\n1 < Vary: Accept-Encoding\n1 < Server: cloudflare\n1 < CF-RAY: 6e4257239ba11006-MRS\n1 < alt-svc: h3=\":443\"; ma=86400, h3-29=\":443\"; ma=86400\n{\"page\":2,\"per_page\":6,\"total\":12,\"total_pages\":2,\"data\":[{\"id\":7,\"email\":\"michael.lawson@reqres.in\",\"first_name\":\"Michael\",\"last_name\":\"Lawson\",\"avatar\":\"https:\/\/reqres.in\/img\/faces\/7-image.jpg\"},{\"id\":8,\"email\":\"lindsay.ferguson@reqres.in\",\"first_name\":\"Lindsay\",\"last_name\":\"Ferguson\",\"avatar\":\"https:\/\/reqres.in\/img\/faces\/8-image.jpg\"},{\"id\":9,\"email\":\"tobias.funke@reqres.in\",\"first_name\":\"Tobias\",\"last_name\":\"Funke\",\"avatar\":\"https:\/\/reqres.in\/img\/faces\/9-image.jpg\"},{\"id\":10,\"email\":\"byron.fields@reqres.in\",\"first_name\":\"Byron\",\"last_name\":\"Fields\",\"avatar\":\"https:\/\/reqres.in\/img\/faces\/10-image.jpg\"},{\"id\":11,\"email\":\"george.edwards@reqres.in\",\"first_name\":\"George\",\"last_name\":\"Edwards\",\"avatar\":\"https:\/\/reqres.in\/img\/faces\/11-image.jpg\"},{\"id\":12,\"email\":\"rachel.howell@reqres.in\",\"first_name\":\"Rachel\",\"last_name\":\"Howell\",\"avatar\":\"https:\/\/reqres.in\/img\/faces\/12-image.jpg\"}],\"support\":{\"url\":\"https:\/\/reqres.in\/#support-heading\",\"text\":\"To keep ReqRes free, contributions towards server costs are appreciated!\"}}\n"},{"result":{"nanos":22300,"millis":0.0223,"status":"passed"},"step":{"line":19,"prefix":"Then","index":7,"text":"status 200"}},{"result":{"nanos":334300,"millis":0.3343,"status":"passed"},"step":{"line":20,"prefix":"And","index":8,"text":"def acc = response"}},{"result":{"nanos":987600,"millis":0.9876,"status":"passed"},"step":{"line":21,"prefix":"*","index":9,"text":"match acc.data[*].id contains  exp"}}],"executorName":"main","line":8,"name":"check if response contains csv values ids","description":"","durationMillis":245.7443,"startTime":1645974643387,"failed":false,"refId":"[1:8]","endTime":1645974643635,"exampleIndex":-1}],"callDepth":0,"name":"Call methode to string from java class","description":"","resultDate":"2022-02-27 04:10:43 PM","durationMillis":245.7443,"passedCount":1}