{"failedCount":0,"prefixedPath":"src\/test\/java\/TestFeatures\/week3\/matchFromAllData.feature","packageQualifiedName":"src.test.java.TestFeatures.week3.matchFromAllData","loopIndex":-1,"relativePath":"src\/test\/java\/TestFeatures\/week3\/matchFromAllData.feature","scenarioResults":[{"sectionIndex":0,"stepResults":[{"result":{"nanos":56432800,"millis":56.4328,"status":"passed"},"step":{"background":true,"line":4,"prefix":"*","index":0,"text":"def expectedFile = read('classpath:\/TestData\/AllDataCc.csv')"},"stepLog":"18:08:05.455 \n"},{"result":{"nanos":833200,"millis":0.8332,"status":"passed"},"step":{"line":7,"prefix":"Given","index":0,"text":"url 'https:\/\/reqres.in\/api\/users?page=1'"}},{"result":{"nanos":3419111000,"millis":3419.111,"status":"passed"},"step":{"line":8,"prefix":"When","index":1,"text":"method GET"},"stepLog":"18:08:05.832 request:\n1 > GET https:\/\/reqres.in\/api\/users?page=1\n1 > Host: reqres.in\n1 > Connection: Keep-Alive\n1 > User-Agent: Apache-HttpClient\/4.5.13 (Java\/17.0.1)\n1 > Accept-Encoding: gzip,deflate\n\n\n18:08:08.956 response time in milliseconds: 3120\n1 < 200\n1 < Date: Sun, 20 Feb 2022 17:08:00 GMT\n1 < Content-Type: application\/json; charset=utf-8\n1 < Transfer-Encoding: chunked\n1 < Connection: keep-alive\n1 < x-powered-by: Express\n1 < access-control-allow-origin: *\n1 < etag: W\/\"3e4-2RLXvr5wTg9YQ6aH95CkYoFNuO8\"\n1 < via: 1.1 vegur\n1 < Cache-Control: max-age=14400\n1 < CF-Cache-Status: HIT\n1 < Age: 4814\n1 < Expect-CT: max-age=604800, report-uri=\"https:\/\/report-uri.cloudflare.com\/cdn-cgi\/beacon\/expect-ct\"\n1 < Report-To: {\"endpoints\":[{\"url\":\"https:\\\/\\\/a.nel.cloudflare.com\\\/report\\\/v3?s=T2yyGs81pH4XqpPEt%2FpHShrz7%2BPzVEN0zFvUfnk0uAzTN5SFJJlDZ%2BgGZYxdyx3heAr%2BirjsMNRaulgfrZV6FS2dl0p%2BIpTM2P5uFC7q%2BZ265R1JJpH47WWFINM%3D\"}],\"group\":\"cf-nel\",\"max_age\":604800}\n1 < NEL: {\"success_fraction\":0,\"report_to\":\"cf-nel\",\"max_age\":604800}\n1 < Vary: Accept-Encoding\n1 < Server: cloudflare\n1 < CF-RAY: 6e09559f5b7bd4a0-BRU\n1 < alt-svc: h3=\":443\"; ma=86400, h3-29=\":443\"; ma=86400\n{\"page\":1,\"per_page\":6,\"total\":12,\"total_pages\":2,\"data\":[{\"id\":1,\"email\":\"george.bluth@reqres.in\",\"first_name\":\"George\",\"last_name\":\"Bluth\",\"avatar\":\"https:\/\/reqres.in\/img\/faces\/1-image.jpg\"},{\"id\":2,\"email\":\"janet.weaver@reqres.in\",\"first_name\":\"Janet\",\"last_name\":\"Weaver\",\"avatar\":\"https:\/\/reqres.in\/img\/faces\/2-image.jpg\"},{\"id\":3,\"email\":\"emma.wong@reqres.in\",\"first_name\":\"Emma\",\"last_name\":\"Wong\",\"avatar\":\"https:\/\/reqres.in\/img\/faces\/3-image.jpg\"},{\"id\":4,\"email\":\"eve.holt@reqres.in\",\"first_name\":\"Eve\",\"last_name\":\"Holt\",\"avatar\":\"https:\/\/reqres.in\/img\/faces\/4-image.jpg\"},{\"id\":5,\"email\":\"charles.morris@reqres.in\",\"first_name\":\"Charles\",\"last_name\":\"Morris\",\"avatar\":\"https:\/\/reqres.in\/img\/faces\/5-image.jpg\"},{\"id\":6,\"email\":\"tracey.ramos@reqres.in\",\"first_name\":\"Tracey\",\"last_name\":\"Ramos\",\"avatar\":\"https:\/\/reqres.in\/img\/faces\/6-image.jpg\"}],\"support\":{\"url\":\"https:\/\/reqres.in\/#support-heading\",\"text\":\"To keep ReqRes free, contributions towards server costs are appreciated!\"}}\n"},{"result":{"nanos":45600,"millis":0.0456,"status":"passed"},"step":{"line":9,"prefix":"Then","index":2,"text":"status 200"}},{"result":{"nanos":2468000,"millis":2.468,"status":"passed"},"step":{"line":10,"prefix":"And","index":3,"text":"def acc = response"}},{"result":{"nanos":7207700,"millis":7.2077,"status":"passed"},"step":{"line":11,"prefix":"*","index":4,"text":"def fun = function(x){ x.id = ~~x.id; return x }"}},{"result":{"nanos":26113400,"millis":26.1134,"status":"passed"},"step":{"line":12,"prefix":"*","index":5,"text":"def expected = karate.map(expectedFile, fun)"}},{"result":{"nanos":1586700,"millis":1.5867,"status":"passed"},"step":{"line":13,"prefix":"*","index":6,"text":"def filt = function(x){ return x.email }"}},{"result":{"nanos":2798200,"millis":2.7982,"status":"passed"},"step":{"line":14,"prefix":"*","index":7,"text":"def expected = karate.map(expected, filt)"}},{"result":{"nanos":2943700,"millis":2.9437,"status":"passed"},"step":{"line":15,"prefix":"*","index":8,"text":"print expected"},"stepLog":"18:08:09.007 [print] [\n  \"george.bluth@reqres.in\",\n  \"janet.weaver@reqres.in\"\n]\n \n"},{"result":{"nanos":43972700,"millis":43.9727,"status":"passed"},"step":{"line":16,"prefix":"*","index":9,"text":"match  acc.data[*].email contains expected"}}],"executorName":"main","line":6,"name":"check if response contains csv values emails","description":"","durationMillis":3563.513,"startTime":1645376885296,"failed":false,"refId":"[1:6]","endTime":1645376889052,"exampleIndex":-1}],"callDepth":0,"name":"verify if elements exists in csv file","description":"","resultDate":"2022-02-20 06:08:09 PM","durationMillis":3563.513,"passedCount":1}