{"failedCount":0,"prefixedPath":"src\/test\/java\/TestFeatures\/week3\/CallJavaClass.feature","packageQualifiedName":"src.test.java.TestFeatures.week3.CallJavaClass","loopIndex":-1,"relativePath":"src\/test\/java\/TestFeatures\/week3\/CallJavaClass.feature","scenarioResults":[{"sectionIndex":0,"stepResults":[{"result":{"nanos":50421000,"millis":50.421,"status":"passed"},"step":{"comments":["#* url BaseURL"],"background":true,"line":5,"prefix":"*","index":0,"text":"def exp1 = read('classpath:\/TestData\/data.csv')"},"stepLog":"18:55:40.282 \n"},{"result":{"nanos":762300,"millis":0.7623,"status":"passed"},"step":{"line":10,"prefix":"Given","index":0,"text":"url 'https:\/\/reqres.in\/api\/users?page=2'"}},{"result":{"nanos":38604900,"millis":38.6049,"status":"passed"},"step":{"line":12,"prefix":"*","index":1,"text":"def ids = karate.jsonPath(exp1,\"$..id\")"}},{"result":{"nanos":8002600,"millis":8.0026,"status":"passed"},"step":{"comments":["#* print ids"],"line":14,"prefix":"*","index":2,"text":"def fun = Java.type('Functions.ConvertS2N')"}},{"result":{"nanos":2980300,"millis":2.9803,"status":"passed"},"step":{"line":15,"prefix":"*","index":3,"text":"def exp = fun.castS2N(ids)"}},{"result":{"nanos":829498800,"millis":829.4988,"status":"passed"},"step":{"comments":["#* print exp","# Given path '\/users?page=2'"],"line":18,"prefix":"When","index":4,"text":"method GET"},"stepLog":"18:55:40.724 request:\n1 > GET https:\/\/reqres.in\/api\/users?page=2\n1 > Host: reqres.in\n1 > Connection: Keep-Alive\n1 > User-Agent: Apache-HttpClient\/4.5.13 (Java\/17.0.1)\n1 > Accept-Encoding: gzip,deflate\n\n\n18:55:41.232 response time in milliseconds: 503\n1 < 200\n1 < Date: Sun, 20 Feb 2022 17:55:33 GMT\n1 < Content-Type: application\/json; charset=utf-8\n1 < Transfer-Encoding: chunked\n1 < Connection: keep-alive\n1 < X-Powered-By: Express\n1 < Access-Control-Allow-Origin: *\n1 < Etag: W\/\"406-ut0vzoCuidvyMf8arZpMpJ6ZRDw\"\n1 < Via: 1.1 vegur\n1 < Cache-Control: max-age=14400\n1 < CF-Cache-Status: HIT\n1 < Age: 5648\n1 < Expect-CT: max-age=604800, report-uri=\"https:\/\/report-uri.cloudflare.com\/cdn-cgi\/beacon\/expect-ct\"\n1 < Report-To: {\"endpoints\":[{\"url\":\"https:\\\/\\\/a.nel.cloudflare.com\\\/report\\\/v3?s=t2O2FEcVy5YB6X89Maj1b0Q%2BWOvHCFH7JPmHe8PpseWhfUyoi6CZAcUoLt%2FaPsGfJxxv5r8YCDvfi%2BRJ4p0MS7a9agHqZOeX4eJy9kzPnstBvqld8E78OjxEzF4%3D\"}],\"group\":\"cf-nel\",\"max_age\":604800}\n1 < NEL: {\"success_fraction\":0,\"report_to\":\"cf-nel\",\"max_age\":604800}\n1 < Vary: Accept-Encoding\n1 < Server: cloudflare\n1 < CF-RAY: 6e099b44ed5083cb-BRU\n1 < alt-svc: h3=\":443\"; ma=86400, h3-29=\":443\"; ma=86400\n{\"page\":2,\"per_page\":6,\"total\":12,\"total_pages\":2,\"data\":[{\"id\":7,\"email\":\"michael.lawson@reqres.in\",\"first_name\":\"Michael\",\"last_name\":\"Lawson\",\"avatar\":\"https:\/\/reqres.in\/img\/faces\/7-image.jpg\"},{\"id\":8,\"email\":\"lindsay.ferguson@reqres.in\",\"first_name\":\"Lindsay\",\"last_name\":\"Ferguson\",\"avatar\":\"https:\/\/reqres.in\/img\/faces\/8-image.jpg\"},{\"id\":9,\"email\":\"tobias.funke@reqres.in\",\"first_name\":\"Tobias\",\"last_name\":\"Funke\",\"avatar\":\"https:\/\/reqres.in\/img\/faces\/9-image.jpg\"},{\"id\":10,\"email\":\"byron.fields@reqres.in\",\"first_name\":\"Byron\",\"last_name\":\"Fields\",\"avatar\":\"https:\/\/reqres.in\/img\/faces\/10-image.jpg\"},{\"id\":11,\"email\":\"george.edwards@reqres.in\",\"first_name\":\"George\",\"last_name\":\"Edwards\",\"avatar\":\"https:\/\/reqres.in\/img\/faces\/11-image.jpg\"},{\"id\":12,\"email\":\"rachel.howell@reqres.in\",\"first_name\":\"Rachel\",\"last_name\":\"Howell\",\"avatar\":\"https:\/\/reqres.in\/img\/faces\/12-image.jpg\"}],\"support\":{\"url\":\"https:\/\/reqres.in\/#support-heading\",\"text\":\"To keep ReqRes free, contributions towards server costs are appreciated!\"}}\n"},{"result":{"nanos":31000,"millis":0.031,"status":"passed"},"step":{"line":19,"prefix":"Then","index":5,"text":"status 200"}},{"result":{"nanos":1946200,"millis":1.9462,"status":"passed"},"step":{"line":21,"prefix":"And","index":6,"text":"def acc = response"}},{"result":{"nanos":9041700,"millis":9.0417,"status":"passed"},"step":{"comments":["#i used deep to check 2 arrays"],"line":23,"prefix":"*","index":7,"text":"match acc.data[*].id contains  exp"}}],"executorName":"main","line":9,"name":"check if response contains csv values ids","description":"","durationMillis":941.2888,"startTime":1645379740135,"failed":false,"refId":"[1:9]","endTime":1645379741250,"exampleIndex":-1}],"callDepth":0,"name":"Call methode to string from java class","description":"","resultDate":"2022-02-20 06:55:41 PM","durationMillis":941.2888,"passedCount":1}