{"failedCount":2,"prefixedPath":"src\/test\/java\/test_ResIsReq.feature","packageQualifiedName":"src.test.java.test_ResIsReq","loopIndex":-1,"relativePath":"src\/test\/java\/test_ResIsReq.feature","scenarioResults":[{"sectionIndex":0,"stepResults":[{"result":{"nanos":98740100,"millis":98.7401,"status":"passed"},"step":{"background":true,"line":4,"prefix":"*","index":0,"text":"url 'https:\/\/reqres.in\/api'"}},{"result":{"nanos":593400,"millis":0.5934,"status":"passed"},"step":{"line":7,"prefix":"Given","index":0,"text":"path '\/users?page=2'"}},{"result":{"nanos":788962800,"millis":788.9628,"status":"passed"},"step":{"line":8,"prefix":"When","index":1,"text":"method GET"},"stepLog":"15:16:16.364 request:\n1 > GET https:\/\/reqres.in\/api\/users%3Fpage=2\n1 > Host: reqres.in\n1 > Connection: Keep-Alive\n1 > User-Agent: Apache-HttpClient\/4.5.13 (Java\/17.0.1)\n1 > Accept-Encoding: gzip,deflate\n\n\n15:16:16.748 response time in milliseconds: 381\n1 < 200\n1 < Date: Sun, 13 Feb 2022 14:16:13 GMT\n1 < Content-Type: application\/json; charset=utf-8\n1 < Transfer-Encoding: chunked\n1 < Connection: keep-alive\n1 < X-Powered-By: Express\n1 < Access-Control-Allow-Origin: *\n1 < Etag: W\/\"2c1-N6Rqerxquq2kgQhL51EiSg4x0R8\"\n1 < Via: 1.1 vegur\n1 < Cache-Control: max-age=14400\n1 < CF-Cache-Status: HIT\n1 < Age: 641\n1 < Expect-CT: max-age=604800, report-uri=\"https:\/\/report-uri.cloudflare.com\/cdn-cgi\/beacon\/expect-ct\"\n1 < Report-To: {\"endpoints\":[{\"url\":\"https:\\\/\\\/a.nel.cloudflare.com\\\/report\\\/v3?s=ZJBS9X8LS7FPUJY3NImzsMSl3Mh2CaveINoB1r7JRj%2FgCOotE%2BHObyRXPEu%2FApiUiftdDYn3Reo16%2BoEZnud5SumqQRXpQML6PxJw64g1pBq%2Bn7PGDprG%2FwdHx4%3D\"}],\"group\":\"cf-nel\",\"max_age\":604800}\n1 < NEL: {\"success_fraction\":0,\"report_to\":\"cf-nel\",\"max_age\":604800}\n1 < Vary: Accept-Encoding\n1 < Server: cloudflare\n1 < CF-RAY: 6dceac5ede1f73af-MRS\n1 < alt-svc: h3=\":443\"; ma=86400, h3-29=\":443\"; ma=86400\n{\"page\":1,\"per_page\":6,\"total\":12,\"total_pages\":2,\"data\":[{\"id\":1,\"name\":\"cerulean\",\"year\":2000,\"color\":\"#98B2D1\",\"pantone_value\":\"15-4020\"},{\"id\":2,\"name\":\"fuchsia rose\",\"year\":2001,\"color\":\"#C74375\",\"pantone_value\":\"17-2031\"},{\"id\":3,\"name\":\"true red\",\"year\":2002,\"color\":\"#BF1932\",\"pantone_value\":\"19-1664\"},{\"id\":4,\"name\":\"aqua sky\",\"year\":2003,\"color\":\"#7BC4C4\",\"pantone_value\":\"14-4811\"},{\"id\":5,\"name\":\"tigerlily\",\"year\":2004,\"color\":\"#E2583E\",\"pantone_value\":\"17-1456\"},{\"id\":6,\"name\":\"blue turquoise\",\"year\":2005,\"color\":\"#53B0AE\",\"pantone_value\":\"15-5217\"}],\"support\":{\"url\":\"https:\/\/reqres.in\/#support-heading\",\"text\":\"To keep ReqRes free, contributions towards server costs are appreciated!\"}}\n"},{"result":{"nanos":31900,"millis":0.0319,"status":"passed"},"step":{"line":9,"prefix":"Then","index":2,"text":"status 200"}},{"result":{"nanos":35775200,"millis":35.7752,"status":"passed"},"step":{"line":10,"prefix":"And","index":3,"text":"def uResponse = response"}},{"result":{"nanos":75543400,"millis":75.5434,"status":"passed"},"step":{"line":11,"prefix":"And","index":4,"text":"print uResponse"},"stepLog":"15:16:16.899 [print] {\n  \"page\": 1,\n  \"per_page\": 6,\n  \"total\": 12,\n  \"total_pages\": 2,\n  \"data\": [\n    {\n      \"id\": 1,\n      \"name\": \"cerulean\",\n      \"year\": 2000,\n      \"color\": \"#98B2D1\",\n      \"pantone_value\": \"15-4020\"\n    },\n    {\n      \"id\": 2,\n      \"name\": \"fuchsia rose\",\n      \"year\": 2001,\n      \"color\": \"#C74375\",\n      \"pantone_value\": \"17-2031\"\n    },\n    {\n      \"id\": 3,\n      \"name\": \"true red\",\n      \"year\": 2002,\n      \"color\": \"#BF1932\",\n      \"pantone_value\": \"19-1664\"\n    },\n    {\n      \"id\": 4,\n      \"name\": \"aqua sky\",\n      \"year\": 2003,\n      \"color\": \"#7BC4C4\",\n      \"pantone_value\": \"14-4811\"\n    },\n    {\n      \"id\": 5,\n      \"name\": \"tigerlily\",\n      \"year\": 2004,\n      \"color\": \"#E2583E\",\n      \"pantone_value\": \"17-1456\"\n    },\n    {\n      \"id\": 6,\n      \"name\": \"blue turquoise\",\n      \"year\": 2005,\n      \"color\": \"#53B0AE\",\n      \"pantone_value\": \"15-5217\"\n    }\n  ],\n  \"support\": {\n    \"url\": \"https:\/\/reqres.in\/#support-heading\",\n    \"text\": \"To keep ReqRes free, contributions towards server costs are appreciated!\"\n  }\n}\n \n"},{"result":{"nanos":28524100,"millis":28.5241,"status":"passed"},"step":{"line":12,"prefix":"Then","index":5,"text":"match uResponse.data[*].name contains  ['cerulean']"}},{"result":{"nanos":4616300,"millis":4.6163,"status":"passed"},"step":{"line":13,"prefix":"Then","index":6,"text":"def rec = uResponse.data.name = 'cerulean'"}}],"line":6,"description":"","durationMillis":1032.7872,"failed":false,"tags":["tag1"],"executorName":"main","name":"get if cerulean exist","startTime":1644761775885,"refId":"[1:6]","endTime":1644761776934,"exampleIndex":-1},{"sectionIndex":1,"stepResults":[{"result":{"nanos":620900,"millis":0.6209,"status":"passed"},"step":{"background":true,"line":4,"prefix":"*","index":0,"text":"url 'https:\/\/reqres.in\/api'"}},{"result":{"nanos":437500,"millis":0.4375,"status":"passed"},"step":{"line":16,"prefix":"Given","index":0,"text":"path '\/users?page=2'"}},{"result":{"nanos":139522500,"millis":139.5225,"status":"passed"},"step":{"line":17,"prefix":"When","index":1,"text":"method GET"},"stepLog":"15:16:16.944 request:\n1 > GET https:\/\/reqres.in\/api\/users%3Fpage=2\n1 > Host: reqres.in\n1 > Connection: Keep-Alive\n1 > User-Agent: Apache-HttpClient\/4.5.13 (Java\/17.0.1)\n1 > Accept-Encoding: gzip,deflate\n\n\n15:16:17.082 response time in milliseconds: 137\n1 < 200\n1 < Date: Sun, 13 Feb 2022 14:16:14 GMT\n1 < Content-Type: application\/json; charset=utf-8\n1 < Transfer-Encoding: chunked\n1 < Connection: keep-alive\n1 < X-Powered-By: Express\n1 < Access-Control-Allow-Origin: *\n1 < Etag: W\/\"2c1-N6Rqerxquq2kgQhL51EiSg4x0R8\"\n1 < Via: 1.1 vegur\n1 < Cache-Control: max-age=14400\n1 < CF-Cache-Status: HIT\n1 < Age: 642\n1 < Expect-CT: max-age=604800, report-uri=\"https:\/\/report-uri.cloudflare.com\/cdn-cgi\/beacon\/expect-ct\"\n1 < Report-To: {\"endpoints\":[{\"url\":\"https:\\\/\\\/a.nel.cloudflare.com\\\/report\\\/v3?s=z9N%2F62tMkJf%2F9wMwZff8XPU5uLPS8CX7TFh%2BkwGkH3Wf0qRsSyjLQzjlmkvWxXNU1e3SiCqeg0OBUaLn4CszKaa5j%2BsXKGEvKceRtHbq95LacJ5pwToiq8oXV%2B0%3D\"}],\"group\":\"cf-nel\",\"max_age\":604800}\n1 < NEL: {\"success_fraction\":0,\"report_to\":\"cf-nel\",\"max_age\":604800}\n1 < Vary: Accept-Encoding\n1 < Server: cloudflare\n1 < CF-RAY: 6dceac6109730ffa-MRS\n1 < alt-svc: h3=\":443\"; ma=86400, h3-29=\":443\"; ma=86400\n{\"page\":1,\"per_page\":6,\"total\":12,\"total_pages\":2,\"data\":[{\"id\":1,\"name\":\"cerulean\",\"year\":2000,\"color\":\"#98B2D1\",\"pantone_value\":\"15-4020\"},{\"id\":2,\"name\":\"fuchsia rose\",\"year\":2001,\"color\":\"#C74375\",\"pantone_value\":\"17-2031\"},{\"id\":3,\"name\":\"true red\",\"year\":2002,\"color\":\"#BF1932\",\"pantone_value\":\"19-1664\"},{\"id\":4,\"name\":\"aqua sky\",\"year\":2003,\"color\":\"#7BC4C4\",\"pantone_value\":\"14-4811\"},{\"id\":5,\"name\":\"tigerlily\",\"year\":2004,\"color\":\"#E2583E\",\"pantone_value\":\"17-1456\"},{\"id\":6,\"name\":\"blue turquoise\",\"year\":2005,\"color\":\"#53B0AE\",\"pantone_value\":\"15-5217\"}],\"support\":{\"url\":\"https:\/\/reqres.in\/#support-heading\",\"text\":\"To keep ReqRes free, contributions towards server costs are appreciated!\"}}\n"},{"result":{"nanos":9700,"millis":0.0097,"status":"passed"},"step":{"line":18,"prefix":"Then","index":2,"text":"status 200"}},{"result":{"nanos":323300,"millis":0.3233,"status":"passed"},"step":{"line":19,"prefix":"And","index":3,"text":"def uResponse = response"}},{"result":{"nanos":912600,"millis":0.9126,"status":"passed"},"step":{"line":20,"prefix":"And","index":4,"text":"print uResponse"},"stepLog":"15:16:17.084 [print] {\n  \"page\": 1,\n  \"per_page\": 6,\n  \"total\": 12,\n  \"total_pages\": 2,\n  \"data\": [\n    {\n      \"id\": 1,\n      \"name\": \"cerulean\",\n      \"year\": 2000,\n      \"color\": \"#98B2D1\",\n      \"pantone_value\": \"15-4020\"\n    },\n    {\n      \"id\": 2,\n      \"name\": \"fuchsia rose\",\n      \"year\": 2001,\n      \"color\": \"#C74375\",\n      \"pantone_value\": \"17-2031\"\n    },\n    {\n      \"id\": 3,\n      \"name\": \"true red\",\n      \"year\": 2002,\n      \"color\": \"#BF1932\",\n      \"pantone_value\": \"19-1664\"\n    },\n    {\n      \"id\": 4,\n      \"name\": \"aqua sky\",\n      \"year\": 2003,\n      \"color\": \"#7BC4C4\",\n      \"pantone_value\": \"14-4811\"\n    },\n    {\n      \"id\": 5,\n      \"name\": \"tigerlily\",\n      \"year\": 2004,\n      \"color\": \"#E2583E\",\n      \"pantone_value\": \"17-1456\"\n    },\n    {\n      \"id\": 6,\n      \"name\": \"blue turquoise\",\n      \"year\": 2005,\n      \"color\": \"#53B0AE\",\n      \"pantone_value\": \"15-5217\"\n    }\n  ],\n  \"support\": {\n    \"url\": \"https:\/\/reqres.in\/#support-heading\",\n    \"text\": \"To keep ReqRes free, contributions towards server costs are appreciated!\"\n  }\n}\n \n"},{"result":{"nanos":780000,"millis":0.78,"status":"passed"},"step":{"line":21,"prefix":"Then","index":5,"text":"match uResponse.data[*].id contains  [1]"}},{"result":{"nanos":1962500,"millis":1.9625,"status":"passed"},"step":{"line":22,"prefix":"Then","index":6,"text":"def idNumber = uResponse.data.id = 1"}}],"line":15,"description":"","durationMillis":144.569,"failed":false,"tags":["tag2"],"executorName":"main","name":"get if id 1 exist","startTime":1644761776941,"refId":"[2:15]","endTime":1644761777087,"exampleIndex":-1},{"sectionIndex":2,"stepResults":[{"result":{"nanos":258900,"millis":0.2589,"status":"passed"},"step":{"background":true,"line":4,"prefix":"*","index":0,"text":"url 'https:\/\/reqres.in\/api'"}},{"result":{"nanos":167143900,"millis":167.1439,"status":"passed"},"step":{"line":25,"prefix":"*","index":0,"text":"def getId = call read('test_ResIsReq.feature@tag2')"},"callResults":[{"failedCount":0,"prefixedPath":"src\/test\/java\/test_ResIsReq.feature","packageQualifiedName":"src.test.java.test_ResIsReq","loopIndex":-1,"relativePath":"src\/test\/java\/test_ResIsReq.feature","scenarioResults":[{"sectionIndex":1,"stepResults":[{"result":{"nanos":260900,"millis":0.2609,"status":"passed"},"step":{"background":true,"line":4,"prefix":"*","index":0,"text":"url 'https:\/\/reqres.in\/api'"}},{"result":{"nanos":124200,"millis":0.1242,"status":"passed"},"step":{"line":16,"prefix":"Given","index":0,"text":"path '\/users?page=2'"}},{"result":{"nanos":139086200,"millis":139.0862,"status":"passed"},"step":{"line":17,"prefix":"When","index":1,"text":"method GET"},"stepLog":"15:16:17.115 request:\n1 > GET https:\/\/reqres.in\/api\/users%3Fpage=2\n1 > Host: reqres.in\n1 > Connection: Keep-Alive\n1 > User-Agent: Apache-HttpClient\/4.5.13 (Java\/17.0.1)\n1 > Accept-Encoding: gzip,deflate\n\n\n15:16:17.251 response time in milliseconds: 135\n1 < 200\n1 < Date: Sun, 13 Feb 2022 14:16:14 GMT\n1 < Content-Type: application\/json; charset=utf-8\n1 < Transfer-Encoding: chunked\n1 < Connection: keep-alive\n1 < X-Powered-By: Express\n1 < Access-Control-Allow-Origin: *\n1 < Etag: W\/\"2c1-N6Rqerxquq2kgQhL51EiSg4x0R8\"\n1 < Via: 1.1 vegur\n1 < Cache-Control: max-age=14400\n1 < CF-Cache-Status: HIT\n1 < Age: 642\n1 < Expect-CT: max-age=604800, report-uri=\"https:\/\/report-uri.cloudflare.com\/cdn-cgi\/beacon\/expect-ct\"\n1 < Report-To: {\"endpoints\":[{\"url\":\"https:\\\/\\\/a.nel.cloudflare.com\\\/report\\\/v3?s=0yhQ9W5TmX4HUCjZBRVqvZ%2BKndG2voTi8V%2Bm1jvJ0c80Ktb%2FbYqqwPJ4HPOSAKZzOtUc%2BjQmgpxcsnO1usCccW%2BtvOZjAZedbkFNegSowUUrgi%2BmtVRbYMvwtxs%3D\"}],\"group\":\"cf-nel\",\"max_age\":604800}\n1 < NEL: {\"success_fraction\":0,\"report_to\":\"cf-nel\",\"max_age\":604800}\n1 < Vary: Accept-Encoding\n1 < Server: cloudflare\n1 < CF-RAY: 6dceac621afa7361-MRS\n1 < alt-svc: h3=\":443\"; ma=86400, h3-29=\":443\"; ma=86400\n{\"page\":1,\"per_page\":6,\"total\":12,\"total_pages\":2,\"data\":[{\"id\":1,\"name\":\"cerulean\",\"year\":2000,\"color\":\"#98B2D1\",\"pantone_value\":\"15-4020\"},{\"id\":2,\"name\":\"fuchsia rose\",\"year\":2001,\"color\":\"#C74375\",\"pantone_value\":\"17-2031\"},{\"id\":3,\"name\":\"true red\",\"year\":2002,\"color\":\"#BF1932\",\"pantone_value\":\"19-1664\"},{\"id\":4,\"name\":\"aqua sky\",\"year\":2003,\"color\":\"#7BC4C4\",\"pantone_value\":\"14-4811\"},{\"id\":5,\"name\":\"tigerlily\",\"year\":2004,\"color\":\"#E2583E\",\"pantone_value\":\"17-1456\"},{\"id\":6,\"name\":\"blue turquoise\",\"year\":2005,\"color\":\"#53B0AE\",\"pantone_value\":\"15-5217\"}],\"support\":{\"url\":\"https:\/\/reqres.in\/#support-heading\",\"text\":\"To keep ReqRes free, contributions towards server costs are appreciated!\"}}\n"},{"result":{"nanos":16000,"millis":0.016,"status":"passed"},"step":{"line":18,"prefix":"Then","index":2,"text":"status 200"}},{"result":{"nanos":512700,"millis":0.5127,"status":"passed"},"step":{"line":19,"prefix":"And","index":3,"text":"def uResponse = response"}},{"result":{"nanos":1217700,"millis":1.2177,"status":"passed"},"step":{"line":20,"prefix":"And","index":4,"text":"print uResponse"},"stepLog":"15:16:17.254 [print] {\n  \"page\": 1,\n  \"per_page\": 6,\n  \"total\": 12,\n  \"total_pages\": 2,\n  \"data\": [\n    {\n      \"id\": 1,\n      \"name\": \"cerulean\",\n      \"year\": 2000,\n      \"color\": \"#98B2D1\",\n      \"pantone_value\": \"15-4020\"\n    },\n    {\n      \"id\": 2,\n      \"name\": \"fuchsia rose\",\n      \"year\": 2001,\n      \"color\": \"#C74375\",\n      \"pantone_value\": \"17-2031\"\n    },\n    {\n      \"id\": 3,\n      \"name\": \"true red\",\n      \"year\": 2002,\n      \"color\": \"#BF1932\",\n      \"pantone_value\": \"19-1664\"\n    },\n    {\n      \"id\": 4,\n      \"name\": \"aqua sky\",\n      \"year\": 2003,\n      \"color\": \"#7BC4C4\",\n      \"pantone_value\": \"14-4811\"\n    },\n    {\n      \"id\": 5,\n      \"name\": \"tigerlily\",\n      \"year\": 2004,\n      \"color\": \"#E2583E\",\n      \"pantone_value\": \"17-1456\"\n    },\n    {\n      \"id\": 6,\n      \"name\": \"blue turquoise\",\n      \"year\": 2005,\n      \"color\": \"#53B0AE\",\n      \"pantone_value\": \"15-5217\"\n    }\n  ],\n  \"support\": {\n    \"url\": \"https:\/\/reqres.in\/#support-heading\",\n    \"text\": \"To keep ReqRes free, contributions towards server costs are appreciated!\"\n  }\n}\n \n"},{"result":{"nanos":1501900,"millis":1.5019,"status":"passed"},"step":{"line":21,"prefix":"Then","index":5,"text":"match uResponse.data[*].id contains  [1]"}},{"result":{"nanos":1146000,"millis":1.146,"status":"passed"},"step":{"line":22,"prefix":"Then","index":6,"text":"def idNumber = uResponse.data.id = 1"}}],"line":15,"description":"","durationMillis":143.8656,"failed":false,"tags":["tag2"],"executorName":"main","name":"get if id 1 exist","startTime":1644761777113,"refId":"[2:15]","endTime":1644761777257,"exampleIndex":-1}],"callDepth":1,"name":"test request is response","description":"","resultDate":"2022-02-13 03:16:17 PM","durationMillis":143.8656,"passedCount":1}]},{"result":{"nanos":3110600,"millis":3.1106,"status":"passed"},"step":{"line":26,"prefix":"*","index":1,"text":"print getId"},"stepLog":"15:16:17.263 [print] {\n  \"responseHeaders\": {\n    \"Date\": [\n      \"Sun, 13 Feb 2022 14:16:14 GMT\"\n    ],\n    \"Content-Type\": [\n      \"application\/json; charset=utf-8\"\n    ],\n    \"Transfer-Encoding\": [\n      \"chunked\"\n    ],\n    \"Connection\": [\n      \"keep-alive\"\n    ],\n    \"X-Powered-By\": [\n      \"Express\"\n    ],\n    \"Access-Control-Allow-Origin\": [\n      \"*\"\n    ],\n    \"Etag\": [\n      \"W\/\\\"2c1-N6Rqerxquq2kgQhL51EiSg4x0R8\\\"\"\n    ],\n    \"Via\": [\n      \"1.1 vegur\"\n    ],\n    \"Cache-Control\": [\n      \"max-age=14400\"\n    ],\n    \"CF-Cache-Status\": [\n      \"HIT\"\n    ],\n    \"Age\": [\n      \"642\"\n    ],\n    \"Expect-CT\": [\n      \"max-age=604800, report-uri=\\\"https:\/\/report-uri.cloudflare.com\/cdn-cgi\/beacon\/expect-ct\\\"\"\n    ],\n    \"Report-To\": [\n      \"{\\\"endpoints\\\":[{\\\"url\\\":\\\"https:\\\\\/\\\\\/a.nel.cloudflare.com\\\\\/report\\\\\/v3?s=0yhQ9W5TmX4HUCjZBRVqvZ%2BKndG2voTi8V%2Bm1jvJ0c80Ktb%2FbYqqwPJ4HPOSAKZzOtUc%2BjQmgpxcsnO1usCccW%2BtvOZjAZedbkFNegSowUUrgi%2BmtVRbYMvwtxs%3D\\\"}],\\\"group\\\":\\\"cf-nel\\\",\\\"max_age\\\":604800}\"\n    ],\n    \"NEL\": [\n      \"{\\\"success_fraction\\\":0,\\\"report_to\\\":\\\"cf-nel\\\",\\\"max_age\\\":604800}\"\n    ],\n    \"Vary\": [\n      \"Accept-Encoding\"\n    ],\n    \"Server\": [\n      \"cloudflare\"\n    ],\n    \"CF-RAY\": [\n      \"6dceac621afa7361-MRS\"\n    ],\n    \"alt-svc\": [\n      \"h3=\\\":443\\\"; ma=86400, h3-29=\\\":443\\\"; ma=86400\"\n    ]\n  },\n  \"responseStatus\": 200,\n  \"idNumber\": 1,\n  \"response\": {\n    \"page\": 1,\n    \"per_page\": 6,\n    \"total\": 12,\n    \"total_pages\": 2,\n    \"data\": [\n      {\n        \"id\": 1,\n        \"name\": \"cerulean\",\n        \"year\": 2000,\n        \"color\": \"#98B2D1\",\n        \"pantone_value\": \"15-4020\"\n      },\n      {\n        \"id\": 2,\n        \"name\": \"fuchsia rose\",\n        \"year\": 2001,\n        \"color\": \"#C74375\",\n        \"pantone_value\": \"17-2031\"\n      },\n      {\n        \"id\": 3,\n        \"name\": \"true red\",\n        \"year\": 2002,\n        \"color\": \"#BF1932\",\n        \"pantone_value\": \"19-1664\"\n      },\n      {\n        \"id\": 4,\n        \"name\": \"aqua sky\",\n        \"year\": 2003,\n        \"color\": \"#7BC4C4\",\n        \"pantone_value\": \"14-4811\"\n      },\n      {\n        \"id\": 5,\n        \"name\": \"tigerlily\",\n        \"year\": 2004,\n        \"color\": \"#E2583E\",\n        \"pantone_value\": \"17-1456\"\n      },\n      {\n        \"id\": 6,\n        \"name\": \"blue turquoise\",\n        \"year\": 2005,\n        \"color\": \"#53B0AE\",\n        \"pantone_value\": \"15-5217\"\n      }\n    ],\n    \"support\": {\n      \"url\": \"https:\/\/reqres.in\/#support-heading\",\n      \"text\": \"To keep ReqRes free, contributions towards server costs are appreciated!\"\n    }\n  },\n  \"uResponse\": \"#ref:java.util.LinkedHashMap\"\n}\n \n"},{"result":{"nanos":794100,"millis":0.7941,"status":"passed"},"step":{"line":27,"prefix":"Given","index":2,"text":"path '\/users\/2'"}},{"result":{"nanos":146078600,"millis":146.0786,"status":"passed"},"step":{"line":28,"prefix":"When","index":3,"text":"method GET"},"stepLog":"15:16:17.266 request:\n1 > GET https:\/\/reqres.in\/api\/users\/2\n1 > Host: reqres.in\n1 > Connection: Keep-Alive\n1 > User-Agent: Apache-HttpClient\/4.5.13 (Java\/17.0.1)\n1 > Accept-Encoding: gzip,deflate\n\n\n15:16:17.410 response time in milliseconds: 144\n1 < 200\n1 < Date: Sun, 13 Feb 2022 14:16:14 GMT\n1 < Content-Type: application\/json; charset=utf-8\n1 < Transfer-Encoding: chunked\n1 < Connection: keep-alive\n1 < X-Powered-By: Express\n1 < Access-Control-Allow-Origin: *\n1 < Etag: W\/\"118-pbdwwFo9SKNhD3Lx5iHJyngpq00\"\n1 < Via: 1.1 vegur\n1 < Cache-Control: max-age=14400\n1 < CF-Cache-Status: HIT\n1 < Age: 1266\n1 < Expect-CT: max-age=604800, report-uri=\"https:\/\/report-uri.cloudflare.com\/cdn-cgi\/beacon\/expect-ct\"\n1 < Report-To: {\"endpoints\":[{\"url\":\"https:\\\/\\\/a.nel.cloudflare.com\\\/report\\\/v3?s=TIMs4NbBFRyzRcLU552CtTG8clezRNCouCBTcORi6%2B0515OxSEFKImGln6TdbHVRcbCcHlLf0ms03vCSxhR7rX6vMCUdndsGMyeJRaYg1xlh9YhV9K69esYZU2U%3D\"}],\"group\":\"cf-nel\",\"max_age\":604800}\n1 < NEL: {\"success_fraction\":0,\"report_to\":\"cf-nel\",\"max_age\":604800}\n1 < Vary: Accept-Encoding\n1 < Server: cloudflare\n1 < CF-RAY: 6dceac631e4373af-MRS\n1 < alt-svc: h3=\":443\"; ma=86400, h3-29=\":443\"; ma=86400\n{\"data\":{\"id\":2,\"email\":\"janet.weaver@reqres.in\",\"first_name\":\"Janet\",\"last_name\":\"Weaver\",\"avatar\":\"https:\/\/reqres.in\/img\/faces\/2-image.jpg\"},\"support\":{\"url\":\"https:\/\/reqres.in\/#support-heading\",\"text\":\"To keep ReqRes free, contributions towards server costs are appreciated!\"}}\n"},{"result":{"nanos":11600,"millis":0.0116,"status":"passed"},"step":{"line":29,"prefix":"Then","index":4,"text":"status 200"}},{"result":{"nanos":276800,"millis":0.2768,"status":"passed"},"step":{"line":30,"prefix":"And","index":5,"text":"def u1Response = response"}},{"result":{"nanos":1331000,"millis":1.331,"status":"passed"},"step":{"line":31,"prefix":"And","index":6,"text":"print u1Response"},"stepLog":"15:16:17.413 [print] {\n  \"data\": {\n    \"id\": 2,\n    \"email\": \"janet.weaver@reqres.in\",\n    \"first_name\": \"Janet\",\n    \"last_name\": \"Weaver\",\n    \"avatar\": \"https:\/\/reqres.in\/img\/faces\/2-image.jpg\"\n  },\n  \"support\": {\n    \"url\": \"https:\/\/reqres.in\/#support-heading\",\n    \"text\": \"To keep ReqRes free, contributions towards server costs are appreciated!\"\n  }\n}\n \n"},{"result":{"nanos":1942400,"errorMessage":"match failed: CONTAINS\n  $ | actual does not contain expected | actual array length is less than expected - 0:1 (LIST:LIST)\n  []\n  [\"cerulean\"]\n\n\nsrc\/test\/java\/test_ResIsReq.feature:32","millis":1.9424,"status":"failed"},"step":{"line":32,"prefix":"Then","index":7,"text":"match u1Response.data[*].name contains  ['cerulean']"},"stepLog":"15:16:17.416 src\/test\/java\/test_ResIsReq.feature:32\nThen match u1Response.data[*].name contains  ['cerulean']\nmatch failed: CONTAINS\n  $ | actual does not contain expected | actual array length is less than expected - 0:1 (LIST:LIST)\n  []\n  [\"cerulean\"]\n\n\nsrc\/test\/java\/test_ResIsReq.feature:32\n"}],"line":24,"description":"","durationMillis":320.9479,"failed":true,"error":"match failed: CONTAINS\n  $ | actual does not contain expected | actual array length is less than expected - 0:1 (LIST:LIST)\n  []\n  [\"cerulean\"]\n\n\nsrc\/test\/java\/test_ResIsReq.feature:32","tags":["tag3"],"executorName":"main","name":"","startTime":1644761777093,"refId":"[3:24]","endTime":1644761777416,"exampleIndex":-1},{"sectionIndex":3,"stepResults":[{"result":{"nanos":224100,"millis":0.2241,"status":"passed"},"step":{"background":true,"line":4,"prefix":"*","index":0,"text":"url 'https:\/\/reqres.in\/api'"}},{"result":{"nanos":117300,"millis":0.1173,"status":"passed"},"step":{"line":35,"prefix":"Given","index":0,"text":"path '\/users?page=2'"}},{"result":{"nanos":180117300,"millis":180.1173,"status":"passed"},"step":{"line":36,"prefix":"When","index":1,"text":"method GET"},"stepLog":"15:16:17.422 request:\n1 > GET https:\/\/reqres.in\/api\/users%3Fpage=2\n1 > Host: reqres.in\n1 > Connection: Keep-Alive\n1 > User-Agent: Apache-HttpClient\/4.5.13 (Java\/17.0.1)\n1 > Accept-Encoding: gzip,deflate\n\n\n15:16:17.600 response time in milliseconds: 178\n1 < 200\n1 < Date: Sun, 13 Feb 2022 14:16:14 GMT\n1 < Content-Type: application\/json; charset=utf-8\n1 < Transfer-Encoding: chunked\n1 < Connection: keep-alive\n1 < X-Powered-By: Express\n1 < Access-Control-Allow-Origin: *\n1 < Etag: W\/\"2c1-N6Rqerxquq2kgQhL51EiSg4x0R8\"\n1 < Via: 1.1 vegur\n1 < Cache-Control: max-age=14400\n1 < CF-Cache-Status: HIT\n1 < Age: 642\n1 < Expect-CT: max-age=604800, report-uri=\"https:\/\/report-uri.cloudflare.com\/cdn-cgi\/beacon\/expect-ct\"\n1 < Report-To: {\"endpoints\":[{\"url\":\"https:\\\/\\\/a.nel.cloudflare.com\\\/report\\\/v3?s=x0S2iYulluP9n2Ilwe2u0Z%2FlW9AiZ6EFgZ0tRD4fVT3XdfAx%2BnUQ%2FolED8qpKIZ3IBJWmhOdqf5ofh1XHTdMa7qfRMvph3A%2BJDqV8PymoyDu0u3X5c%2FF8W0v0C0%3D\"}],\"group\":\"cf-nel\",\"max_age\":604800}\n1 < NEL: {\"success_fraction\":0,\"report_to\":\"cf-nel\",\"max_age\":604800}\n1 < Vary: Accept-Encoding\n1 < Server: cloudflare\n1 < CF-RAY: 6dceac640808e924-MRS\n1 < alt-svc: h3=\":443\"; ma=86400, h3-29=\":443\"; ma=86400\n{\"page\":1,\"per_page\":6,\"total\":12,\"total_pages\":2,\"data\":[{\"id\":1,\"name\":\"cerulean\",\"year\":2000,\"color\":\"#98B2D1\",\"pantone_value\":\"15-4020\"},{\"id\":2,\"name\":\"fuchsia rose\",\"year\":2001,\"color\":\"#C74375\",\"pantone_value\":\"17-2031\"},{\"id\":3,\"name\":\"true red\",\"year\":2002,\"color\":\"#BF1932\",\"pantone_value\":\"19-1664\"},{\"id\":4,\"name\":\"aqua sky\",\"year\":2003,\"color\":\"#7BC4C4\",\"pantone_value\":\"14-4811\"},{\"id\":5,\"name\":\"tigerlily\",\"year\":2004,\"color\":\"#E2583E\",\"pantone_value\":\"17-1456\"},{\"id\":6,\"name\":\"blue turquoise\",\"year\":2005,\"color\":\"#53B0AE\",\"pantone_value\":\"15-5217\"}],\"support\":{\"url\":\"https:\/\/reqres.in\/#support-heading\",\"text\":\"To keep ReqRes free, contributions towards server costs are appreciated!\"}}\n"},{"result":{"nanos":8700,"millis":0.0087,"status":"passed"},"step":{"line":37,"prefix":"Then","index":2,"text":"status 200"}},{"result":{"nanos":900400,"millis":0.9004,"status":"passed"},"step":{"comments":["# * def name = 'cerulean'"],"line":39,"prefix":"*","index":3,"text":"def response = response.data"}},{"result":{"nanos":476300,"millis":0.4763,"status":"passed"},"step":{"comments":["#* def names = $[*].name","#* def index = names.indexOf(name)"],"line":42,"prefix":"*","index":4,"text":"def indexes = []"}},{"result":{"nanos":14141700,"millis":14.1417,"status":"passed"},"step":{"line":43,"prefix":"*","index":5,"text":"def fun = function(x, i){ if (x.name == 'cerulean') karate.appendTo(indexes, i) }"}},{"result":{"nanos":13702500,"errorMessage":"js failed:\n>>>>\n01: karate.log('[print]',i)\n<<<<\norg.graalvm.polyglot.PolyglotException: ReferenceError: \"i\" is not defined\n- <js>.:program(Unnamed:1)\n\nsrc\/test\/java\/test_ResIsReq.feature:44","millis":13.7025,"status":"failed"},"step":{"line":44,"prefix":"*","index":6,"text":"print i"},"stepLog":"15:16:17.630 src\/test\/java\/test_ResIsReq.feature:44\n* print i\njs failed:\n>>>>\n01: karate.log('[print]',i)\n<<<<\norg.graalvm.polyglot.PolyglotException: ReferenceError: \"i\" is not defined\n- <js>.:program(Unnamed:1)\n\nsrc\/test\/java\/test_ResIsReq.feature:44\n"},{"result":{"nanos":0,"millis":0.0,"status":"skipped"},"step":{"line":45,"prefix":"*","index":7,"text":"karate.forEach(response.items, fun)"}}],"line":34,"description":"","durationMillis":209.6883,"failed":true,"error":"js failed:\n>>>>\n01: karate.log('[print]',i)\n<<<<\norg.graalvm.polyglot.PolyglotException: ReferenceError: \"i\" is not defined\n- <js>.:program(Unnamed:1)\n\nsrc\/test\/java\/test_ResIsReq.feature:44","executorName":"main","name":"get index cerulean","startTime":1644761777420,"refId":"[4:34]","endTime":1644761777631,"exampleIndex":-1}],"callDepth":0,"name":"test request is response","description":"","resultDate":"2022-02-13 03:16:17 PM","durationMillis":1707.9924,"passedCount":2}