{"failedCount":1,"prefixedPath":"src\/main\/java\/first_test_k.feature","packageQualifiedName":"src.main.java.first_test_k","loopIndex":-1,"relativePath":"src\/main\/java\/first_test_k.feature","scenarioResults":[{"sectionIndex":0,"stepResults":[{"result":{"nanos":66063000,"millis":66.063,"status":"passed"},"step":{"background":true,"line":4,"prefix":"*","index":0,"text":"url 'https:\/\/reqres.in\/api'"}},{"result":{"nanos":549200,"millis":0.5492,"status":"passed"},"step":{"line":8,"prefix":"Given","index":0,"text":"path '\/users?page=2'"}},{"result":{"nanos":886609200,"millis":886.6092,"status":"passed"},"step":{"line":9,"prefix":"When","index":1,"text":"method GET"},"stepLog":"21:32:21.008 request:\n1 > GET https:\/\/reqres.in\/api\/users%3Fpage=2\n1 > Host: reqres.in\n1 > Connection: Keep-Alive\n1 > User-Agent: Apache-HttpClient\/4.5.13 (Java\/17.0.1)\n1 > Accept-Encoding: gzip,deflate\n\n\n21:32:21.541 response time in milliseconds: 529\n1 < 200\n1 < Date: Fri, 28 Jan 2022 20:32:21 GMT\n1 < Content-Type: application\/json; charset=utf-8\n1 < Transfer-Encoding: chunked\n1 < Connection: keep-alive\n1 < x-powered-by: Express\n1 < access-control-allow-origin: *\n1 < etag: W\/\"2c1-N6Rqerxquq2kgQhL51EiSg4x0R8\"\n1 < via: 1.1 vegur\n1 < Cache-Control: max-age=14400\n1 < CF-Cache-Status: HIT\n1 < Age: 60\n1 < Expect-CT: max-age=604800, report-uri=\"https:\/\/report-uri.cloudflare.com\/cdn-cgi\/beacon\/expect-ct\"\n1 < Report-To: {\"endpoints\":[{\"url\":\"https:\\\/\\\/a.nel.cloudflare.com\\\/report\\\/v3?s=r9O7JXXrKxOcEHehAaKXc5vutONDGDj5JPwu5S4Jqs8d0AseWL0KyC6q2DU2JbNc4kF9Yu6b%2BgPzVHiTNCi4elTfTXpA3KNY5%2F6mLcpaUvVJBzMpCIIoHXRDSKI%3D\"}],\"group\":\"cf-nel\",\"max_age\":604800}\n1 < NEL: {\"success_fraction\":0,\"report_to\":\"cf-nel\",\"max_age\":604800}\n1 < Vary: Accept-Encoding\n1 < Server: cloudflare\n1 < CF-RAY: 6d4cfd559baa83c7-BRU\n1 < alt-svc: h3=\":443\"; ma=86400, h3-29=\":443\"; ma=86400\n{\"page\":1,\"per_page\":6,\"total\":12,\"total_pages\":2,\"data\":[{\"id\":1,\"name\":\"cerulean\",\"year\":2000,\"color\":\"#98B2D1\",\"pantone_value\":\"15-4020\"},{\"id\":2,\"name\":\"fuchsia rose\",\"year\":2001,\"color\":\"#C74375\",\"pantone_value\":\"17-2031\"},{\"id\":3,\"name\":\"true red\",\"year\":2002,\"color\":\"#BF1932\",\"pantone_value\":\"19-1664\"},{\"id\":4,\"name\":\"aqua sky\",\"year\":2003,\"color\":\"#7BC4C4\",\"pantone_value\":\"14-4811\"},{\"id\":5,\"name\":\"tigerlily\",\"year\":2004,\"color\":\"#E2583E\",\"pantone_value\":\"17-1456\"},{\"id\":6,\"name\":\"blue turquoise\",\"year\":2005,\"color\":\"#53B0AE\",\"pantone_value\":\"15-5217\"}],\"support\":{\"url\":\"https:\/\/reqres.in\/#support-heading\",\"text\":\"To keep ReqRes free, contributions towards server costs are appreciated!\"}}\n"},{"result":{"nanos":26100,"millis":0.0261,"status":"passed"},"step":{"line":10,"prefix":"Then","index":2,"text":"status 200"}},{"result":{"nanos":35600600,"millis":35.6006,"status":"passed"},"step":{"line":11,"prefix":"And","index":3,"text":"assert response.data.length == 6"}},{"result":{"nanos":29672600,"errorMessage":"match failed: EQUALS\n  $ | actual path does not exist (STRING:STRING)\n  '#notpresent'\n  'michael.lawson@reqres.in'\n\nsrc\/main\/java\/first_test_k.feature:13","millis":29.6726,"status":"failed"},"step":{"comments":["#And match $.data[0].id == 7"],"line":13,"prefix":"And","index":4,"text":"match $.data[0].email == 'michael.lawson@reqres.in'"},"stepLog":"21:32:21.649 src\/main\/java\/first_test_k.feature:13\nAnd match $.data[0].email == 'michael.lawson@reqres.in'\nmatch failed: EQUALS\n  $ | actual path does not exist (STRING:STRING)\n  '#notpresent'\n  'michael.lawson@reqres.in'\n\nsrc\/main\/java\/first_test_k.feature:13\n"}],"line":7,"description":"","durationMillis":1018.5207,"failed":true,"error":"match failed: EQUALS\n  $ | actual path does not exist (STRING:STRING)\n  '#notpresent'\n  'michael.lawson@reqres.in'\n\nsrc\/main\/java\/first_test_k.feature:13","executorName":"main","name":"test API get","startTime":1643401940621,"refId":"[1:7]","endTime":1643401941649,"exampleIndex":-1},{"sectionIndex":1,"stepResults":[{"result":{"nanos":583300,"millis":0.5833,"status":"passed"},"step":{"background":true,"line":4,"prefix":"*","index":0,"text":"url 'https:\/\/reqres.in\/api'"}},{"result":{"nanos":267200,"millis":0.2672,"status":"passed"},"step":{"comments":["#Given path '\/users'"],"line":17,"prefix":"Given","index":0,"text":"path '\/users'"}},{"result":{"nanos":2200200,"millis":2.2002,"status":"passed"},"step":{"line":18,"prefix":"And","index":1,"text":"request {\"name\": \"Mouad\" , \"job\": \"tester\" , \"age\": 25}"}},{"result":{"nanos":345474200,"millis":345.4742,"status":"passed"},"step":{"line":19,"prefix":"When","index":2,"text":"method POST"},"stepLog":"21:32:21.696 request:\n1 > POST https:\/\/reqres.in\/api\/users\n1 > Content-Type: application\/json; charset=UTF-8\n1 > Content-Length: 40\n1 > Host: reqres.in\n1 > Connection: Keep-Alive\n1 > User-Agent: Apache-HttpClient\/4.5.13 (Java\/17.0.1)\n1 > Accept-Encoding: gzip,deflate\n{\"name\":\"Mouad\",\"job\":\"tester\",\"age\":25}\n\n21:32:22.001 response time in milliseconds: 305\n1 < 201\n1 < Date: Fri, 28 Jan 2022 20:32:21 GMT\n1 < Content-Type: application\/json; charset=utf-8\n1 < Content-Length: 90\n1 < Connection: keep-alive\n1 < x-powered-by: Express\n1 < access-control-allow-origin: *\n1 < etag: W\/\"5a-IoS8y\/ReLI43eiXDQjepG7BrocQ\"\n1 < via: 1.1 vegur\n1 < CF-Cache-Status: DYNAMIC\n1 < Expect-CT: max-age=604800, report-uri=\"https:\/\/report-uri.cloudflare.com\/cdn-cgi\/beacon\/expect-ct\"\n1 < Report-To: {\"endpoints\":[{\"url\":\"https:\\\/\\\/a.nel.cloudflare.com\\\/report\\\/v3?s=Uoug3jXKBo60BJj%2F2SYfT%2F252c4lAz8R44sOpCBgd55vPNoA4zg1F4asJsV%2BC2odNh3%2BdV6Yr%2FKYN1NK0gWugkIw21DUqYLFjeKaUVk3ExZKLdmwhBUSklv8YN4%3D\"}],\"group\":\"cf-nel\",\"max_age\":604800}\n1 < NEL: {\"success_fraction\":0,\"report_to\":\"cf-nel\",\"max_age\":604800}\n1 < Server: cloudflare\n1 < CF-RAY: 6d4cfd585a7e2e2c-BRU\n1 < alt-svc: h3=\":443\"; ma=86400, h3-29=\":443\"; ma=86400\n{\"name\":\"Mouad\",\"job\":\"tester\",\"age\":25,\"id\":\"772\",\"createdAt\":\"2022-01-28T20:32:21.872Z\"}\n"},{"result":{"nanos":45900,"millis":0.0459,"status":"passed"},"step":{"line":20,"prefix":"Then","index":3,"text":"status 201"}},{"result":{"nanos":2021100,"millis":2.0211,"status":"passed"},"step":{"line":21,"prefix":"And","index":4,"text":"match response == {\"name\":\"Mouad\",\"job\":\"tester\",\"age\":25,\"id\":\"#string\",\"createdAt\":\"#ignore\"}"}},{"result":{"nanos":38955200,"millis":38.9552,"status":"passed"},"step":{"line":22,"prefix":"And","index":5,"text":"print response"},"stepLog":"21:32:22.046 [print] {\n  \"name\": \"Mouad\",\n  \"job\": \"tester\",\n  \"age\": 25,\n  \"id\": \"772\",\n  \"createdAt\": \"2022-01-28T20:32:21.872Z\"\n}\n \n"}],"executorName":"main","line":15,"name":"test API post","description":"","durationMillis":389.5471,"startTime":1643401941654,"failed":false,"refId":"[2:15]","endTime":1643401942046,"exampleIndex":-1}],"callDepth":0,"name":"test sample API","description":"","resultDate":"2022-01-28 09:32:22 PM","durationMillis":1408.0678,"passedCount":1}