{"failedCount":0,"prefixedPath":"src\/test\/java\/TestFeatures\/week3\/CallJavaClass.feature","packageQualifiedName":"src.test.java.TestFeatures.week3.CallJavaClass","loopIndex":-1,"relativePath":"src\/test\/java\/TestFeatures\/week3\/CallJavaClass.feature","scenarioResults":[{"sectionIndex":0,"stepResults":[{"result":{"nanos":47954300,"millis":47.9543,"status":"passed"},"step":{"comments":["#* url BaseURL","#* def exp = read('classpath:\/TestData\/data.csv')"],"background":true,"line":6,"prefix":"*","index":0,"text":"def exp1 = read('classpath:\/TestData\/data1.csv')"},"stepLog":"18:41:25.515 \n"},{"result":{"nanos":14355300,"millis":14.3553,"status":"passed"},"step":{"background":true,"line":7,"prefix":"*","index":1,"text":"def exp = ['8', '9']"}},{"result":{"nanos":721200,"millis":0.7212,"status":"passed"},"step":{"line":10,"prefix":"Given","index":0,"text":"url 'https:\/\/reqres.in\/api\/users?page=2'"}},{"result":{"nanos":1830600,"millis":1.8306,"status":"passed"},"step":{"line":11,"prefix":"*","index":1,"text":"print exp"},"stepLog":"18:41:25.610 [print] [\n  \"8\",\n  \"9\"\n]\n \n"},{"result":{"nanos":5495300,"millis":5.4953,"status":"passed"},"step":{"line":12,"prefix":"*","index":2,"text":"def fun = Java.type('Functions.ConvertS2N')"}},{"result":{"nanos":11522000,"millis":11.522,"status":"passed"},"step":{"line":13,"prefix":"*","index":3,"text":"def exp = fun.castS2N(exp)"}},{"result":{"nanos":519200,"millis":0.5192,"status":"passed"},"step":{"line":14,"prefix":"*","index":4,"text":"print exp"},"stepLog":"18:41:25.628 [print] [\n  8,\n  9\n]\n \n"},{"result":{"nanos":2088082900,"millis":2088.0829,"status":"passed"},"step":{"comments":["# Given path '\/users?page=2'"],"line":16,"prefix":"When","index":5,"text":"method GET"},"stepLog":"18:41:25.952 request:\n1 > GET https:\/\/reqres.in\/api\/users?page=2\n1 > Host: reqres.in\n1 > Connection: Keep-Alive\n1 > User-Agent: Apache-HttpClient\/4.5.13 (Java\/17.0.1)\n1 > Accept-Encoding: gzip,deflate\n\n\n18:41:27.714 response time in milliseconds: 1756\n1 < 200\n1 < Date: Sun, 20 Feb 2022 17:41:19 GMT\n1 < Content-Type: application\/json; charset=utf-8\n1 < Transfer-Encoding: chunked\n1 < Connection: keep-alive\n1 < X-Powered-By: Express\n1 < Access-Control-Allow-Origin: *\n1 < Etag: W\/\"406-ut0vzoCuidvyMf8arZpMpJ6ZRDw\"\n1 < Via: 1.1 vegur\n1 < Cache-Control: max-age=14400\n1 < CF-Cache-Status: HIT\n1 < Age: 4794\n1 < Expect-CT: max-age=604800, report-uri=\"https:\/\/report-uri.cloudflare.com\/cdn-cgi\/beacon\/expect-ct\"\n1 < Report-To: {\"endpoints\":[{\"url\":\"https:\\\/\\\/a.nel.cloudflare.com\\\/report\\\/v3?s=cktVo9DyfB0AZ7r2xSgcxUv%2FI%2Fo3Ddsa2hrab8%2FINRwaL%2BVjr8pV%2BPNyDA1cN9jtbSewGAHVxXcUc%2FPkvMJOorlOUvS4nAetBbRanLd4jUqzOM9Syg05EOfAnFA%3D\"}],\"group\":\"cf-nel\",\"max_age\":604800}\n1 < NEL: {\"success_fraction\":0,\"report_to\":\"cf-nel\",\"max_age\":604800}\n1 < Vary: Accept-Encoding\n1 < Server: cloudflare\n1 < CF-RAY: 6e09866e7f1f83dd-BRU\n1 < alt-svc: h3=\":443\"; ma=86400, h3-29=\":443\"; ma=86400\n{\"page\":2,\"per_page\":6,\"total\":12,\"total_pages\":2,\"data\":[{\"id\":7,\"email\":\"michael.lawson@reqres.in\",\"first_name\":\"Michael\",\"last_name\":\"Lawson\",\"avatar\":\"https:\/\/reqres.in\/img\/faces\/7-image.jpg\"},{\"id\":8,\"email\":\"lindsay.ferguson@reqres.in\",\"first_name\":\"Lindsay\",\"last_name\":\"Ferguson\",\"avatar\":\"https:\/\/reqres.in\/img\/faces\/8-image.jpg\"},{\"id\":9,\"email\":\"tobias.funke@reqres.in\",\"first_name\":\"Tobias\",\"last_name\":\"Funke\",\"avatar\":\"https:\/\/reqres.in\/img\/faces\/9-image.jpg\"},{\"id\":10,\"email\":\"byron.fields@reqres.in\",\"first_name\":\"Byron\",\"last_name\":\"Fields\",\"avatar\":\"https:\/\/reqres.in\/img\/faces\/10-image.jpg\"},{\"id\":11,\"email\":\"george.edwards@reqres.in\",\"first_name\":\"George\",\"last_name\":\"Edwards\",\"avatar\":\"https:\/\/reqres.in\/img\/faces\/11-image.jpg\"},{\"id\":12,\"email\":\"rachel.howell@reqres.in\",\"first_name\":\"Rachel\",\"last_name\":\"Howell\",\"avatar\":\"https:\/\/reqres.in\/img\/faces\/12-image.jpg\"}],\"support\":{\"url\":\"https:\/\/reqres.in\/#support-heading\",\"text\":\"To keep ReqRes free, contributions towards server costs are appreciated!\"}}\n"},{"result":{"nanos":34100,"millis":0.0341,"status":"passed"},"step":{"line":17,"prefix":"Then","index":6,"text":"status 200"}},{"result":{"nanos":1251100,"millis":1.2511,"status":"passed"},"step":{"comments":["#i used this fuction to convert string to number","#* def fun = function(x){ x.id = ~~x.id; return x }","#* def exp = karate.map(exp, fun)"],"line":22,"prefix":"And","index":7,"text":"def acc = response"}},{"result":{"nanos":15010800,"millis":15.0108,"status":"passed"},"step":{"comments":["#i used deep to check 2 arrays"],"line":24,"prefix":"*","index":8,"text":"match acc.data[*].id contains deep exp"}}],"executorName":"main","line":9,"name":"check if response contains csv values ids","description":"","durationMillis":2186.7768,"startTime":1645378885369,"failed":false,"refId":"[1:9]","endTime":1645378887734,"exampleIndex":-1}],"callDepth":0,"name":"Call methode to string from java class","description":"","resultDate":"2022-02-20 06:41:27 PM","durationMillis":2186.7768,"passedCount":1}