{"failedCount":0,"prefixedPath":"src\/test\/java\/testapi.feature","packageQualifiedName":"src.test.java.testapi","loopIndex":-1,"relativePath":"src\/test\/java\/testapi.feature","scenarioResults":[{"sectionIndex":0,"stepResults":[{"result":{"nanos":76091100,"millis":76.0911,"status":"passed"},"step":{"background":true,"line":4,"prefix":"*","index":0,"text":"url 'https:\/\/reqres.in\/api'"}},{"result":{"nanos":115984400,"millis":115.9844,"status":"passed"},"step":{"background":true,"line":5,"prefix":"*","index":1,"text":"def output = read('response1.json')"}},{"result":{"nanos":1764200,"millis":1.7642,"status":"passed"},"step":{"background":true,"line":6,"prefix":"*","index":2,"text":"def request1 = read('request1.json')"}},{"result":{"nanos":402000,"millis":0.402,"status":"passed"},"step":{"line":9,"prefix":"Given","index":0,"text":"path '\/users?page=2'"}},{"result":{"nanos":877535600,"millis":877.5356,"status":"passed"},"step":{"line":10,"prefix":"When","index":1,"text":"method GET"},"stepLog":"20:01:43.042 request:\n1 > GET https:\/\/reqres.in\/api\/users%3Fpage=2\n1 > Host: reqres.in\n1 > Connection: Keep-Alive\n1 > User-Agent: Apache-HttpClient\/4.5.13 (Java\/17.0.1)\n1 > Accept-Encoding: gzip,deflate\n\n\n20:01:43.654 response time in milliseconds: 608\n1 < 200\n1 < Date: Sat, 05 Feb 2022 19:01:38 GMT\n1 < Content-Type: application\/json; charset=utf-8\n1 < Transfer-Encoding: chunked\n1 < Connection: keep-alive\n1 < x-powered-by: Express\n1 < access-control-allow-origin: *\n1 < etag: W\/\"2c1-N6Rqerxquq2kgQhL51EiSg4x0R8\"\n1 < via: 1.1 vegur\n1 < Cache-Control: max-age=14400\n1 < CF-Cache-Status: HIT\n1 < Age: 3501\n1 < Expect-CT: max-age=604800, report-uri=\"https:\/\/report-uri.cloudflare.com\/cdn-cgi\/beacon\/expect-ct\"\n1 < Report-To: {\"endpoints\":[{\"url\":\"https:\\\/\\\/a.nel.cloudflare.com\\\/report\\\/v3?s=yGnL1K7FxRoc4lfJ2RHh9uIA4eem9wa%2BpoHkQzouZOidAZs8oB4bD7LfmQosNt3skElcL6MQgnFcigCujDRvCeYTfhmA0WTt%2FfZFOrqwtBuhuombOnQJbKTATq8%3D\"}],\"group\":\"cf-nel\",\"max_age\":604800}\n1 < NEL: {\"success_fraction\":0,\"report_to\":\"cf-nel\",\"max_age\":604800}\n1 < Vary: Accept-Encoding\n1 < Server: cloudflare\n1 < CF-RAY: 6d8e637338580ffe-MRS\n1 < alt-svc: h3=\":443\"; ma=86400, h3-29=\":443\"; ma=86400\n{\"page\":1,\"per_page\":6,\"total\":12,\"total_pages\":2,\"data\":[{\"id\":1,\"name\":\"cerulean\",\"year\":2000,\"color\":\"#98B2D1\",\"pantone_value\":\"15-4020\"},{\"id\":2,\"name\":\"fuchsia rose\",\"year\":2001,\"color\":\"#C74375\",\"pantone_value\":\"17-2031\"},{\"id\":3,\"name\":\"true red\",\"year\":2002,\"color\":\"#BF1932\",\"pantone_value\":\"19-1664\"},{\"id\":4,\"name\":\"aqua sky\",\"year\":2003,\"color\":\"#7BC4C4\",\"pantone_value\":\"14-4811\"},{\"id\":5,\"name\":\"tigerlily\",\"year\":2004,\"color\":\"#E2583E\",\"pantone_value\":\"17-1456\"},{\"id\":6,\"name\":\"blue turquoise\",\"year\":2005,\"color\":\"#53B0AE\",\"pantone_value\":\"15-5217\"}],\"support\":{\"url\":\"https:\/\/reqres.in\/#support-heading\",\"text\":\"To keep ReqRes free, contributions towards server costs are appreciated!\"}}\n"},{"result":{"nanos":29500,"millis":0.0295,"status":"passed"},"step":{"line":11,"prefix":"Then","index":2,"text":"status 200"}},{"result":{"nanos":11285100,"millis":11.2851,"status":"passed"},"step":{"line":12,"prefix":"And","index":3,"text":"assert response.data.length == 6"}},{"result":{"nanos":15785600,"millis":15.7856,"status":"passed"},"step":{"line":13,"prefix":"And","index":4,"text":"print response.data[1].id"},"stepLog":"20:01:43.687 [print] 2 \n"},{"result":{"nanos":12645200,"millis":12.6452,"status":"passed"},"step":{"line":14,"prefix":"And","index":5,"text":"match $.data[0].id == 1"}},{"result":{"nanos":3171000,"millis":3.171,"status":"passed"},"step":{"line":15,"prefix":"And","index":6,"text":"print response.data[1].email"},"stepLog":"20:01:43.705 [print] null \n"}],"executorName":"main","line":8,"name":"test API get 1","description":"","durationMillis":1114.6937,"startTime":1644087702578,"failed":false,"refId":"[1:8]","endTime":1644087703705,"exampleIndex":-1},{"sectionIndex":1,"stepResults":[{"result":{"nanos":341300,"millis":0.3413,"status":"passed"},"step":{"background":true,"line":4,"prefix":"*","index":0,"text":"url 'https:\/\/reqres.in\/api'"}},{"result":{"nanos":792800,"millis":0.7928,"status":"passed"},"step":{"background":true,"line":5,"prefix":"*","index":1,"text":"def output = read('response1.json')"}},{"result":{"nanos":763600,"millis":0.7636,"status":"passed"},"step":{"background":true,"line":6,"prefix":"*","index":2,"text":"def request1 = read('request1.json')"}},{"result":{"nanos":252600,"millis":0.2526,"status":"passed"},"step":{"comments":["#Given path '\/users'"],"line":20,"prefix":"Given","index":0,"text":"path '\/users'"}},{"result":{"nanos":148500,"millis":0.1485,"status":"passed"},"step":{"line":21,"prefix":"And","index":1,"text":"request {\"name\": \"Mouad\" , \"job\": \"tester\" , \"age\": 25}"}},{"result":{"nanos":357100200,"millis":357.1002,"status":"passed"},"step":{"line":22,"prefix":"When","index":2,"text":"method POST"},"stepLog":"20:01:43.743 request:\n1 > POST https:\/\/reqres.in\/api\/users\n1 > Content-Type: application\/json; charset=UTF-8\n1 > Content-Length: 40\n1 > Host: reqres.in\n1 > Connection: Keep-Alive\n1 > User-Agent: Apache-HttpClient\/4.5.13 (Java\/17.0.1)\n1 > Accept-Encoding: gzip,deflate\n{\"name\":\"Mouad\",\"job\":\"tester\",\"age\":25}\n\n20:01:44.066 response time in milliseconds: 323\n1 < 201\n1 < Date: Sat, 05 Feb 2022 19:01:38 GMT\n1 < Content-Type: application\/json; charset=utf-8\n1 < Content-Length: 90\n1 < Connection: keep-alive\n1 < x-powered-by: Express\n1 < access-control-allow-origin: *\n1 < etag: W\/\"5a-zwvpN0+RxeY3CHzGgNDnTRPpPLg\"\n1 < via: 1.1 vegur\n1 < CF-Cache-Status: DYNAMIC\n1 < Expect-CT: max-age=604800, report-uri=\"https:\/\/report-uri.cloudflare.com\/cdn-cgi\/beacon\/expect-ct\"\n1 < Report-To: {\"endpoints\":[{\"url\":\"https:\\\/\\\/a.nel.cloudflare.com\\\/report\\\/v3?s=TvqI0cwq%2FyUZ8SZF3o0lso0h4EtVXmIhm9khk%2BhtDWNePMu6lZWjvXchLZWITkPS%2F9hh4G%2BKreVdlkPN%2BsRj8BYr%2Fqyo1xT9IWEG8ef8mYikmBk%2FyAHGlQLo2ao%3D\"}],\"group\":\"cf-nel\",\"max_age\":604800}\n1 < NEL: {\"success_fraction\":0,\"report_to\":\"cf-nel\",\"max_age\":604800}\n1 < Server: cloudflare\n1 < CF-RAY: 6d8e6375cd0406ae-LHR\n1 < alt-svc: h3=\":443\"; ma=86400, h3-29=\":443\"; ma=86400\n{\"name\":\"Mouad\",\"job\":\"tester\",\"age\":25,\"id\":\"529\",\"createdAt\":\"2022-02-05T19:01:38.875Z\"}\n"},{"result":{"nanos":26900,"millis":0.0269,"status":"passed"},"step":{"line":23,"prefix":"Then","index":3,"text":"status 201"}},{"result":{"nanos":1754300,"millis":1.7543,"status":"passed"},"step":{"line":24,"prefix":"And","index":4,"text":"match response == {\"name\":\"Mouad\",\"job\":\"tester\",\"age\":25,\"id\":\"#string\",\"createdAt\":\"#ignore\"}"}},{"result":{"nanos":3840000,"millis":3.84,"status":"passed"},"step":{"line":25,"prefix":"And","index":5,"text":"print response"},"stepLog":"20:01:44.075 [print] {\n  \"name\": \"Mouad\",\n  \"job\": \"tester\",\n  \"age\": 25,\n  \"id\": \"529\",\n  \"createdAt\": \"2022-02-05T19:01:38.875Z\"\n}\n \n"}],"executorName":"main","line":18,"name":"test API post 2","description":"","durationMillis":365.0202,"startTime":1644087703708,"failed":false,"refId":"[2:18]","endTime":1644087704075,"exampleIndex":-1},{"sectionIndex":2,"stepResults":[{"result":{"nanos":653600,"millis":0.6536,"status":"passed"},"step":{"background":true,"line":4,"prefix":"*","index":0,"text":"url 'https:\/\/reqres.in\/api'"}},{"result":{"nanos":2044000,"millis":2.044,"status":"passed"},"step":{"background":true,"line":5,"prefix":"*","index":1,"text":"def output = read('response1.json')"}},{"result":{"nanos":1624000,"millis":1.624,"status":"passed"},"step":{"background":true,"line":6,"prefix":"*","index":2,"text":"def request1 = read('request1.json')"}},{"result":{"nanos":314400,"millis":0.3144,"status":"passed"},"step":{"comments":["#Given path '\/users'"],"line":29,"prefix":"Given","index":0,"text":"path '\/users'"}},{"result":{"nanos":543900,"millis":0.5439,"status":"passed"},"step":{"line":30,"prefix":"And","index":1,"text":"request {\"name\": \"Mouad\" , \"job\": \"tester\" }"}},{"result":{"nanos":315104000,"millis":315.104,"status":"passed"},"step":{"line":31,"prefix":"When","index":2,"text":"method POST"},"stepLog":"20:01:44.096 request:\n1 > POST https:\/\/reqres.in\/api\/users\n1 > Content-Type: application\/json; charset=UTF-8\n1 > Content-Length: 31\n1 > Host: reqres.in\n1 > Connection: Keep-Alive\n1 > User-Agent: Apache-HttpClient\/4.5.13 (Java\/17.0.1)\n1 > Accept-Encoding: gzip,deflate\n{\"name\":\"Mouad\",\"job\":\"tester\"}\n\n20:01:44.406 response time in milliseconds: 310\n1 < 201\n1 < Date: Sat, 05 Feb 2022 19:01:39 GMT\n1 < Content-Type: application\/json; charset=utf-8\n1 < Content-Length: 81\n1 < Connection: keep-alive\n1 < x-powered-by: Express\n1 < access-control-allow-origin: *\n1 < etag: W\/\"51-iF4X0MjKOjzClp95FRTi9SllTRY\"\n1 < via: 1.1 vegur\n1 < CF-Cache-Status: DYNAMIC\n1 < Expect-CT: max-age=604800, report-uri=\"https:\/\/report-uri.cloudflare.com\/cdn-cgi\/beacon\/expect-ct\"\n1 < Report-To: {\"endpoints\":[{\"url\":\"https:\\\/\\\/a.nel.cloudflare.com\\\/report\\\/v3?s=%2BO8lDfW7t0gsKBvVJA6%2FpcnqH%2Bntkg6palBcfv%2BEntyovk2yVoP7kHNlBh7nD3%2B7kzYAGBJfLrPOSGClkRYPw7pDbQUU8l0v9KC1DiYZg86dIuQpM1u5Q%2BcR8Ig%3D\"}],\"group\":\"cf-nel\",\"max_age\":604800}\n1 < NEL: {\"success_fraction\":0,\"report_to\":\"cf-nel\",\"max_age\":604800}\n1 < Server: cloudflare\n1 < CF-RAY: 6d8e6377ab531043-MRS\n1 < alt-svc: h3=\":443\"; ma=86400, h3-29=\":443\"; ma=86400\n{\"name\":\"Mouad\",\"job\":\"tester\",\"id\":\"800\",\"createdAt\":\"2022-02-05T19:01:39.207Z\"}\n"},{"result":{"nanos":21800,"millis":0.0218,"status":"passed"},"step":{"line":32,"prefix":"Then","index":3,"text":"status 201"}},{"result":{"nanos":1184600,"millis":1.1846,"status":"passed"},"step":{"line":33,"prefix":"And","index":4,"text":"match response == output"}},{"result":{"nanos":1224200,"millis":1.2242,"status":"passed"},"step":{"line":34,"prefix":"And","index":5,"text":"print response"},"stepLog":"20:01:44.411 [print] {\n  \"name\": \"Mouad\",\n  \"job\": \"tester\",\n  \"id\": \"800\",\n  \"createdAt\": \"2022-02-05T19:01:39.207Z\"\n}\n \n"}],"executorName":"main","line":27,"name":"test API post 3","description":"","durationMillis":322.7145,"startTime":1644087704086,"failed":false,"refId":"[3:27]","endTime":1644087704411,"exampleIndex":-1},{"sectionIndex":3,"stepResults":[{"result":{"nanos":455800,"millis":0.4558,"status":"passed"},"step":{"background":true,"line":4,"prefix":"*","index":0,"text":"url 'https:\/\/reqres.in\/api'"}},{"result":{"nanos":1666600,"millis":1.6666,"status":"passed"},"step":{"background":true,"line":5,"prefix":"*","index":1,"text":"def output = read('response1.json')"}},{"result":{"nanos":1448100,"millis":1.4481,"status":"passed"},"step":{"background":true,"line":6,"prefix":"*","index":2,"text":"def request1 = read('request1.json')"}},{"result":{"nanos":291200,"millis":0.2912,"status":"passed"},"step":{"comments":["#Given path '\/users'"],"line":38,"prefix":"Given","index":0,"text":"path '\/users'"}},{"result":{"nanos":1650800,"millis":1.6508,"status":"passed"},"step":{"line":39,"prefix":"And","index":1,"text":"request request1"}},{"result":{"nanos":403351200,"millis":403.3512,"status":"passed"},"step":{"line":40,"prefix":"When","index":2,"text":"method POST"},"stepLog":"20:01:44.431 request:\n1 > POST https:\/\/reqres.in\/api\/users\n1 > Content-Type: application\/json; charset=UTF-8\n1 > Content-Length: 31\n1 > Host: reqres.in\n1 > Connection: Keep-Alive\n1 > User-Agent: Apache-HttpClient\/4.5.13 (Java\/17.0.1)\n1 > Accept-Encoding: gzip,deflate\n{\"name\":\"Mouad\",\"job\":\"tester\"}\n\n20:01:44.830 response time in milliseconds: 399\n1 < 201\n1 < Date: Sat, 05 Feb 2022 19:01:39 GMT\n1 < Content-Type: application\/json; charset=utf-8\n1 < Content-Length: 81\n1 < Connection: keep-alive\n1 < x-powered-by: Express\n1 < access-control-allow-origin: *\n1 < etag: W\/\"51-LaLIoQegWE6GxMjokGv0pdjpIpM\"\n1 < via: 1.1 vegur\n1 < CF-Cache-Status: DYNAMIC\n1 < Expect-CT: max-age=604800, report-uri=\"https:\/\/report-uri.cloudflare.com\/cdn-cgi\/beacon\/expect-ct\"\n1 < Report-To: {\"endpoints\":[{\"url\":\"https:\\\/\\\/a.nel.cloudflare.com\\\/report\\\/v3?s=TFLvHo4xxxInY%2F7P%2FvJZ%2BRDnwjAxprw618tG9Sa0KJo%2FC8LB4%2BQ%2FTC5OY%2Fy1nykEl8gR9zrILNXWOmdHs%2BlMR7TWN1fyXpSqF97U%2FGvYnAVBznBloqQb%2BTHs72k%3D\"}],\"group\":\"cf-nel\",\"max_age\":604800}\n1 < NEL: {\"success_fraction\":0,\"report_to\":\"cf-nel\",\"max_age\":604800}\n1 < Server: cloudflare\n1 < CF-RAY: 6d8e63798b3941ca-MRS\n1 < alt-svc: h3=\":443\"; ma=86400, h3-29=\":443\"; ma=86400\n{\"name\":\"Mouad\",\"job\":\"tester\",\"id\":\"684\",\"createdAt\":\"2022-02-05T19:01:39.527Z\"}\n"},{"result":{"nanos":7700,"millis":0.0077,"status":"passed"},"step":{"line":41,"prefix":"Then","index":3,"text":"status 201"}},{"result":{"nanos":323500,"millis":0.3235,"status":"passed"},"step":{"line":42,"prefix":"And","index":4,"text":"match response == output"}},{"result":{"nanos":423100,"millis":0.4231,"status":"passed"},"step":{"line":43,"prefix":"And","index":5,"text":"print response"},"stepLog":"20:01:44.832 [print] {\n  \"name\": \"Mouad\",\n  \"job\": \"tester\",\n  \"id\": \"684\",\n  \"createdAt\": \"2022-02-05T19:01:39.527Z\"\n}\n \n"}],"executorName":"main","line":36,"name":"test API post 3","description":"","durationMillis":409.618,"startTime":1644087704420,"failed":false,"refId":"[4:36]","endTime":1644087704832,"exampleIndex":-1}],"callDepth":0,"name":"test sample API","description":"","resultDate":"2022-02-05 08:01:44 PM","durationMillis":2212.0464,"passedCount":4}