{"failedCount":1,"prefixedPath":"src\/main\/java\/first_test_k.feature","packageQualifiedName":"src.main.java.first_test_k","loopIndex":-1,"relativePath":"src\/main\/java\/first_test_k.feature","scenarioResults":[{"sectionIndex":0,"stepResults":[{"result":{"nanos":87458200,"millis":87.4582,"status":"passed"},"step":{"line":4,"prefix":"Given","index":0,"text":"url \"https:\/\/reqres.in\/api\/users?page=2\""}},{"result":{"nanos":858954300,"millis":858.9543,"status":"passed"},"step":{"line":5,"prefix":"When","index":1,"text":"method GET"},"stepLog":"18:22:40.394 request:\n1 > GET https:\/\/reqres.in\/api\/users?page=2\n1 > Host: reqres.in\n1 > Connection: Keep-Alive\n1 > User-Agent: Apache-HttpClient\/4.5.13 (Java\/17.0.1)\n1 > Accept-Encoding: gzip,deflate\n\n\n18:22:40.863 response time in milliseconds: 467\n1 < 200\n1 < Date: Fri, 28 Jan 2022 17:22:40 GMT\n1 < Content-Type: application\/json; charset=utf-8\n1 < Transfer-Encoding: chunked\n1 < Connection: keep-alive\n1 < x-powered-by: Express\n1 < access-control-allow-origin: *\n1 < etag: W\/\"406-ut0vzoCuidvyMf8arZpMpJ6ZRDw\"\n1 < via: 1.1 vegur\n1 < Cache-Control: max-age=14400\n1 < CF-Cache-Status: HIT\n1 < Age: 998\n1 < Expect-CT: max-age=604800, report-uri=\"https:\/\/report-uri.cloudflare.com\/cdn-cgi\/beacon\/expect-ct\"\n1 < Report-To: {\"endpoints\":[{\"url\":\"https:\\\/\\\/a.nel.cloudflare.com\\\/report\\\/v3?s=8Aa6Nw5%2Bcsqub5ccK4vo4v9bXMTyFbX6SCdfHGjwv%2BUdjFz1zRjGmJ%2FOD%2BnknwIAv5f0FWSwxxJPHfaBCztNOMWsCwiByD%2BDpgIdS9HFwqLVNcYxzhngUAo%2F9Jo%3D\"}],\"group\":\"cf-nel\",\"max_age\":604800}\n1 < NEL: {\"success_fraction\":0,\"report_to\":\"cf-nel\",\"max_age\":604800}\n1 < Vary: Accept-Encoding\n1 < Server: cloudflare\n1 < CF-RAY: 6d4be77d0dc611b7-BCN\n1 < alt-svc: h3=\":443\"; ma=86400, h3-29=\":443\"; ma=86400\n{\"page\":2,\"per_page\":6,\"total\":12,\"total_pages\":2,\"data\":[{\"id\":7,\"email\":\"michael.lawson@reqres.in\",\"first_name\":\"Michael\",\"last_name\":\"Lawson\",\"avatar\":\"https:\/\/reqres.in\/img\/faces\/7-image.jpg\"},{\"id\":8,\"email\":\"lindsay.ferguson@reqres.in\",\"first_name\":\"Lindsay\",\"last_name\":\"Ferguson\",\"avatar\":\"https:\/\/reqres.in\/img\/faces\/8-image.jpg\"},{\"id\":9,\"email\":\"tobias.funke@reqres.in\",\"first_name\":\"Tobias\",\"last_name\":\"Funke\",\"avatar\":\"https:\/\/reqres.in\/img\/faces\/9-image.jpg\"},{\"id\":10,\"email\":\"byron.fields@reqres.in\",\"first_name\":\"Byron\",\"last_name\":\"Fields\",\"avatar\":\"https:\/\/reqres.in\/img\/faces\/10-image.jpg\"},{\"id\":11,\"email\":\"george.edwards@reqres.in\",\"first_name\":\"George\",\"last_name\":\"Edwards\",\"avatar\":\"https:\/\/reqres.in\/img\/faces\/11-image.jpg\"},{\"id\":12,\"email\":\"rachel.howell@reqres.in\",\"first_name\":\"Rachel\",\"last_name\":\"Howell\",\"avatar\":\"https:\/\/reqres.in\/img\/faces\/12-image.jpg\"}],\"support\":{\"url\":\"https:\/\/reqres.in\/#support-heading\",\"text\":\"To keep ReqRes free, contributions towards server costs are appreciated!\"}}\n"},{"result":{"nanos":29600,"millis":0.0296,"status":"passed"},"step":{"line":6,"prefix":"Then","index":2,"text":"status 200"}},{"result":{"nanos":42142200,"millis":42.1422,"status":"passed"},"step":{"line":7,"prefix":"And","index":3,"text":"assert response.data.length == 6"}},{"result":{"nanos":39186600,"millis":39.1866,"status":"passed"},"step":{"line":8,"prefix":"And","index":4,"text":"match $.data[0].id == 7"}},{"result":{"nanos":1390200,"millis":1.3902,"status":"passed"},"step":{"line":9,"prefix":"And","index":5,"text":"match $.data[0].email == 'michael.lawson@reqres.in'"}}],"executorName":"main","line":3,"name":"test API get","description":"","durationMillis":1029.1611,"startTime":1643390559943,"failed":false,"refId":"[1:3]","endTime":1643390560983,"exampleIndex":-1},{"sectionIndex":1,"stepResults":[{"result":{"nanos":503400,"millis":0.5034,"status":"passed"},"step":{"line":12,"prefix":"Given","index":0,"text":"path \"\/users\""}},{"result":{"nanos":2291300,"millis":2.2913,"status":"passed"},"step":{"line":13,"prefix":"And","index":1,"text":"request {\"name\": \"Mouad\" , \"job\": \"tester\" , \"age\": 25}"}},{"result":{"nanos":40475000,"errorMessage":"http call failed after 5 milliseconds for url: \/users\nsrc\/main\/java\/first_test_k.feature:14","millis":40.475,"status":"failed"},"step":{"line":14,"prefix":"When","index":2,"text":"method POST"},"stepLog":"18:22:41.035 karate.org.apache.http.ProtocolException: Target host is not specified, http call failed after 5 milliseconds for url: \/users\n18:22:41.035 src\/main\/java\/first_test_k.feature:14\nWhen method POST\nhttp call failed after 5 milliseconds for url: \/users\nsrc\/main\/java\/first_test_k.feature:14\n"},{"result":{"nanos":0,"millis":0.0,"status":"skipped"},"step":{"line":15,"prefix":"Then","index":3,"text":"status 201"}},{"result":{"nanos":0,"millis":0.0,"status":"skipped"},"step":{"line":16,"prefix":"And","index":4,"text":"print response"}}],"line":11,"description":"","durationMillis":43.2697,"failed":true,"error":"http call failed after 5 milliseconds for url: \/users\nsrc\/main\/java\/first_test_k.feature:14","executorName":"main","name":"test API post","startTime":1643390560991,"refId":"[2:11]","endTime":1643390561035,"exampleIndex":-1}],"callDepth":0,"name":"test sample API","description":"","resultDate":"2022-01-28 06:22:41 PM","durationMillis":1072.4308,"passedCount":1}