{"failedCount":1,"prefixedPath":"src\/test\/java\/testRunner\/verifiInCsv.feature","packageQualifiedName":"src.test.java.testRunner.verifiInCsv","loopIndex":-1,"relativePath":"src\/test\/java\/testRunner\/verifiInCsv.feature","scenarioResults":[{"sectionIndex":0,"stepResults":[{"result":{"nanos":142449100,"millis":142.4491,"status":"passed"},"step":{"background":true,"line":4,"prefix":"*","index":0,"text":"def exp = read('data.csv')"}},{"result":{"nanos":2064700,"millis":2.0647,"status":"passed"},"step":{"line":7,"prefix":"Given","index":0,"text":"url 'https:\/\/reqres.in\/api\/users?page=2'"}},{"result":{"nanos":894761100,"millis":894.7611,"status":"passed"},"step":{"line":8,"prefix":"When","index":1,"text":"method GET"},"stepLog":"19:29:37.970 request:\n1 > GET https:\/\/reqres.in\/api\/users?page=2\n1 > Host: reqres.in\n1 > Connection: Keep-Alive\n1 > User-Agent: Apache-HttpClient\/4.5.13 (Java\/17.0.1)\n1 > Accept-Encoding: gzip,deflate\n\n\n19:29:38.587 response time in milliseconds: 613\n1 < 200\n1 < Date: Sun, 13 Feb 2022 18:29:35 GMT\n1 < Content-Type: application\/json; charset=utf-8\n1 < Transfer-Encoding: chunked\n1 < Connection: keep-alive\n1 < X-Powered-By: Express\n1 < Access-Control-Allow-Origin: *\n1 < Etag: W\/\"406-ut0vzoCuidvyMf8arZpMpJ6ZRDw\"\n1 < Via: 1.1 vegur\n1 < Cache-Control: max-age=14400\n1 < CF-Cache-Status: HIT\n1 < Age: 480\n1 < Expect-CT: max-age=604800, report-uri=\"https:\/\/report-uri.cloudflare.com\/cdn-cgi\/beacon\/expect-ct\"\n1 < Report-To: {\"endpoints\":[{\"url\":\"https:\\\/\\\/a.nel.cloudflare.com\\\/report\\\/v3?s=tz7AVG6MhTLsjpyhD%2BKyeLCmlGeZdzBJpbp%2FO%2FLPugbpo4HI0tafXfycvx%2BjuMoccdBKdZ1VSMxuW7NlBz%2Fk2Oh2OfGicZqZc1GVxfNLXAtJyG8JrXnKAVl3sKY%3D\"}],\"group\":\"cf-nel\",\"max_age\":604800}\n1 < NEL: {\"success_fraction\":0,\"report_to\":\"cf-nel\",\"max_age\":604800}\n1 < Vary: Accept-Encoding\n1 < Server: cloudflare\n1 < CF-RAY: 6dd01f7e383b41b8-MRS\n1 < alt-svc: h3=\":443\"; ma=86400, h3-29=\":443\"; ma=86400\n{\"page\":2,\"per_page\":6,\"total\":12,\"total_pages\":2,\"data\":[{\"id\":7,\"email\":\"michael.lawson@reqres.in\",\"first_name\":\"Michael\",\"last_name\":\"Lawson\",\"avatar\":\"https:\/\/reqres.in\/img\/faces\/7-image.jpg\"},{\"id\":8,\"email\":\"lindsay.ferguson@reqres.in\",\"first_name\":\"Lindsay\",\"last_name\":\"Ferguson\",\"avatar\":\"https:\/\/reqres.in\/img\/faces\/8-image.jpg\"},{\"id\":9,\"email\":\"tobias.funke@reqres.in\",\"first_name\":\"Tobias\",\"last_name\":\"Funke\",\"avatar\":\"https:\/\/reqres.in\/img\/faces\/9-image.jpg\"},{\"id\":10,\"email\":\"byron.fields@reqres.in\",\"first_name\":\"Byron\",\"last_name\":\"Fields\",\"avatar\":\"https:\/\/reqres.in\/img\/faces\/10-image.jpg\"},{\"id\":11,\"email\":\"george.edwards@reqres.in\",\"first_name\":\"George\",\"last_name\":\"Edwards\",\"avatar\":\"https:\/\/reqres.in\/img\/faces\/11-image.jpg\"},{\"id\":12,\"email\":\"rachel.howell@reqres.in\",\"first_name\":\"Rachel\",\"last_name\":\"Howell\",\"avatar\":\"https:\/\/reqres.in\/img\/faces\/12-image.jpg\"}],\"support\":{\"url\":\"https:\/\/reqres.in\/#support-heading\",\"text\":\"To keep ReqRes free, contributions towards server costs are appreciated!\"}}\n"},{"result":{"nanos":27600,"millis":0.0276,"status":"passed"},"step":{"line":9,"prefix":"Then","index":2,"text":"status 200"}},{"result":{"nanos":12771400,"millis":12.7714,"status":"passed"},"step":{"line":10,"prefix":"And","index":3,"text":"print exp"},"stepLog":"19:29:38.606 [print] [\n  {\n    \"id\": \"7\"\n  },\n  {\n    \"id\": \"8\"\n  },\n  {\n    \"id\": \"9\"\n  }\n]\n \n"},{"result":{"nanos":11814200,"millis":11.8142,"status":"passed"},"step":{"line":11,"prefix":"And","index":4,"text":"def acc = response"}},{"result":{"nanos":32071000,"errorMessage":"match failed: CONTAINS_DEEP\n  $ | actual does not contain expected | actual array does not contain expected item - null (LIST:NULL)\n  [7,8,9,10,11,12]\n  null\n\n    $[5] | data types don't match (NUMBER:NULL)\n    12\n    null\n\n    $[4] | data types don't match (NUMBER:NULL)\n    11\n    null\n\n    $[3] | data types don't match (NUMBER:NULL)\n    10\n    null\n\n    $[2] | data types don't match (NUMBER:NULL)\n    9\n    null\n\n    $[1] | data types don't match (NUMBER:NULL)\n    8\n    null\n\n    $[0] | data types don't match (NUMBER:NULL)\n    7\n    null\n\nsrc\/test\/java\/testRunner\/verifiInCsv.feature:14","millis":32.071,"status":"failed"},"step":{"comments":["#And print response.data[*].id","# * match response.data[*].id contains input[*].id"],"line":14,"prefix":"*","index":5,"text":"match acc.data[*].id contains deep exp.id"},"stepLog":"19:29:38.650 src\/test\/java\/testRunner\/verifiInCsv.feature:14\n* match acc.data[*].id contains deep exp.id\nmatch failed: CONTAINS_DEEP\n  $ | actual does not contain expected | actual array does not contain expected item - null (LIST:NULL)\n  [7,8,9,10,11,12]\n  null\n\n    $[5] | data types don't match (NUMBER:NULL)\n    12\n    null\n\n    $[4] | data types don't match (NUMBER:NULL)\n    11\n    null\n\n    $[3] | data types don't match (NUMBER:NULL)\n    10\n    null\n\n    $[2] | data types don't match (NUMBER:NULL)\n    9\n    null\n\n    $[1] | data types don't match (NUMBER:NULL)\n    8\n    null\n\n    $[0] | data types don't match (NUMBER:NULL)\n    7\n    null\n\nsrc\/test\/java\/testRunner\/verifiInCsv.feature:14\n"}],"line":6,"description":"","durationMillis":1095.9591,"failed":true,"error":"match failed: CONTAINS_DEEP\n  $ | actual does not contain expected | actual array does not contain expected item - null (LIST:NULL)\n  [7,8,9,10,11,12]\n  null\n\n    $[5] | data types don't match (NUMBER:NULL)\n    12\n    null\n\n    $[4] | data types don't match (NUMBER:NULL)\n    11\n    null\n\n    $[3] | data types don't match (NUMBER:NULL)\n    10\n    null\n\n    $[2] | data types don't match (NUMBER:NULL)\n    9\n    null\n\n    $[1] | data types don't match (NUMBER:NULL)\n    8\n    null\n\n    $[0] | data types don't match (NUMBER:NULL)\n    7\n    null\n\nsrc\/test\/java\/testRunner\/verifiInCsv.feature:14","executorName":"main","name":"GET request with CSV table","startTime":1644776977544,"refId":"[1:6]","endTime":1644776978650,"exampleIndex":-1}],"callDepth":0,"name":"verify if element exist in csv file","description":"","resultDate":"2022-02-13 07:29:38 PM","durationMillis":1095.9591,"passedCount":0}