{"failedCount":1,"prefixedPath":"src\/test\/java\/testapi.feature","packageQualifiedName":"src.test.java.testapi","loopIndex":-1,"relativePath":"src\/test\/java\/testapi.feature","scenarioResults":[{"sectionIndex":0,"stepResults":[{"result":{"nanos":52727600,"millis":52.7276,"status":"passed"},"step":{"background":true,"line":4,"prefix":"*","index":0,"text":"url 'https:\/\/reqres.in\/api'"}},{"result":{"nanos":79062200,"millis":79.0622,"status":"passed"},"step":{"background":true,"line":5,"prefix":"*","index":1,"text":"def output = read('response1.json')"}},{"result":{"nanos":974300,"millis":0.9743,"status":"passed"},"step":{"background":true,"line":6,"prefix":"*","index":2,"text":"def request1 = read('request1.json')"}},{"result":{"nanos":262300,"millis":0.2623,"status":"passed"},"step":{"line":9,"prefix":"Given","index":0,"text":"path '\/users?page=2'"}},{"result":{"nanos":658080300,"millis":658.0803,"status":"passed"},"step":{"line":10,"prefix":"When","index":1,"text":"method GET"},"stepLog":"19:07:41.431 request:\n1 > GET https:\/\/reqres.in\/api\/users%3Fpage=2\n1 > Host: reqres.in\n1 > Connection: Keep-Alive\n1 > User-Agent: Apache-HttpClient\/4.5.13 (Java\/17.0.1)\n1 > Accept-Encoding: gzip,deflate\n\n\n19:07:41.895 response time in milliseconds: 460\n1 < 200\n1 < Date: Sat, 05 Feb 2022 18:07:36 GMT\n1 < Content-Type: application\/json; charset=utf-8\n1 < Transfer-Encoding: chunked\n1 < Connection: keep-alive\n1 < x-powered-by: Express\n1 < access-control-allow-origin: *\n1 < etag: W\/\"2c1-N6Rqerxquq2kgQhL51EiSg4x0R8\"\n1 < via: 1.1 vegur\n1 < Cache-Control: max-age=14400\n1 < CF-Cache-Status: HIT\n1 < Age: 1010\n1 < Expect-CT: max-age=604800, report-uri=\"https:\/\/report-uri.cloudflare.com\/cdn-cgi\/beacon\/expect-ct\"\n1 < Report-To: {\"endpoints\":[{\"url\":\"https:\\\/\\\/a.nel.cloudflare.com\\\/report\\\/v3?s=RM3lLrduZl9ahYfVM3vzhXGuGVIVrhC8K0sZEpG%2BsCsbPVHs5VPGFQe0d0XKBP2F7s%2FCcyMZpP4enaLco10xHAj7Rm%2FUFe1Pfckb56m0va%2FZOAMIVW1xb50QfRo%3D\"}],\"group\":\"cf-nel\",\"max_age\":604800}\n1 < NEL: {\"success_fraction\":0,\"report_to\":\"cf-nel\",\"max_age\":604800}\n1 < Vary: Accept-Encoding\n1 < Server: cloudflare\n1 < CF-RAY: 6d8e144e6f9a83e1-BRU\n1 < alt-svc: h3=\":443\"; ma=86400, h3-29=\":443\"; ma=86400\n{\"page\":1,\"per_page\":6,\"total\":12,\"total_pages\":2,\"data\":[{\"id\":1,\"name\":\"cerulean\",\"year\":2000,\"color\":\"#98B2D1\",\"pantone_value\":\"15-4020\"},{\"id\":2,\"name\":\"fuchsia rose\",\"year\":2001,\"color\":\"#C74375\",\"pantone_value\":\"17-2031\"},{\"id\":3,\"name\":\"true red\",\"year\":2002,\"color\":\"#BF1932\",\"pantone_value\":\"19-1664\"},{\"id\":4,\"name\":\"aqua sky\",\"year\":2003,\"color\":\"#7BC4C4\",\"pantone_value\":\"14-4811\"},{\"id\":5,\"name\":\"tigerlily\",\"year\":2004,\"color\":\"#E2583E\",\"pantone_value\":\"17-1456\"},{\"id\":6,\"name\":\"blue turquoise\",\"year\":2005,\"color\":\"#53B0AE\",\"pantone_value\":\"15-5217\"}],\"support\":{\"url\":\"https:\/\/reqres.in\/#support-heading\",\"text\":\"To keep ReqRes free, contributions towards server costs are appreciated!\"}}\n"},{"result":{"nanos":15600,"millis":0.0156,"status":"passed"},"step":{"line":11,"prefix":"Then","index":2,"text":"status 200"}},{"result":{"nanos":6440000,"millis":6.44,"status":"passed"},"step":{"line":12,"prefix":"And","index":3,"text":"assert response.data.length == 6"}},{"result":{"nanos":12870000,"millis":12.87,"status":"passed"},"step":{"line":13,"prefix":"And","index":4,"text":"print response.data[1].id"},"stepLog":"19:07:41.916 [print] 2 \n"},{"result":{"nanos":11818000,"errorMessage":"match failed: EQUALS\n  $ | not equal (NUMBER:NUMBER)\n  2\n  8\n\nsrc\/test\/java\/testapi.feature:14","millis":11.818,"status":"failed"},"step":{"line":14,"prefix":"And","index":5,"text":"match $.data[1].id == 8"},"stepLog":"19:07:41.930 src\/test\/java\/testapi.feature:14\nAnd match $.data[1].id == 8\nmatch failed: EQUALS\n  $ | not equal (NUMBER:NUMBER)\n  2\n  8\n\nsrc\/test\/java\/testapi.feature:14\n"},{"result":{"nanos":0,"millis":0.0,"status":"skipped"},"step":{"line":15,"prefix":"And","index":6,"text":"match $.data[0].email == 'michael.lawson@reqres.in'"}}],"line":8,"description":"","durationMillis":822.2503,"failed":true,"error":"match failed: EQUALS\n  $ | not equal (NUMBER:NUMBER)\n  2\n  8\n\nsrc\/test\/java\/testapi.feature:14","executorName":"main","name":"test API get 1","startTime":1644084461099,"refId":"[1:8]","endTime":1644084461930,"exampleIndex":-1},{"sectionIndex":1,"stepResults":[{"result":{"nanos":321100,"millis":0.3211,"status":"passed"},"step":{"background":true,"line":4,"prefix":"*","index":0,"text":"url 'https:\/\/reqres.in\/api'"}},{"result":{"nanos":738000,"millis":0.738,"status":"passed"},"step":{"background":true,"line":5,"prefix":"*","index":1,"text":"def output = read('response1.json')"}},{"result":{"nanos":565800,"millis":0.5658,"status":"passed"},"step":{"background":true,"line":6,"prefix":"*","index":2,"text":"def request1 = read('request1.json')"}},{"result":{"nanos":170100,"millis":0.1701,"status":"passed"},"step":{"comments":["#Given path '\/users'"],"line":19,"prefix":"Given","index":0,"text":"path '\/users'"}},{"result":{"nanos":120500,"millis":0.1205,"status":"passed"},"step":{"line":20,"prefix":"And","index":1,"text":"request {\"name\": \"Mouad\" , \"job\": \"tester\" , \"age\": 25}"}},{"result":{"nanos":327500100,"millis":327.5001,"status":"passed"},"step":{"line":21,"prefix":"When","index":2,"text":"method POST"},"stepLog":"19:07:41.965 request:\n1 > POST https:\/\/reqres.in\/api\/users\n1 > Content-Type: application\/json; charset=UTF-8\n1 > Content-Length: 40\n1 > Host: reqres.in\n1 > Connection: Keep-Alive\n1 > User-Agent: Apache-HttpClient\/4.5.13 (Java\/17.0.1)\n1 > Accept-Encoding: gzip,deflate\n{\"name\":\"Mouad\",\"job\":\"tester\",\"age\":25}\n\n19:07:42.263 response time in milliseconds: 297\n1 < 201\n1 < Date: Sat, 05 Feb 2022 18:07:37 GMT\n1 < Content-Type: application\/json; charset=utf-8\n1 < Content-Length: 90\n1 < Connection: keep-alive\n1 < x-powered-by: Express\n1 < access-control-allow-origin: *\n1 < etag: W\/\"5a-j88dTw0CbfRKI1crZlcH9t4DtTo\"\n1 < via: 1.1 vegur\n1 < CF-Cache-Status: DYNAMIC\n1 < Expect-CT: max-age=604800, report-uri=\"https:\/\/report-uri.cloudflare.com\/cdn-cgi\/beacon\/expect-ct\"\n1 < Report-To: {\"endpoints\":[{\"url\":\"https:\\\/\\\/a.nel.cloudflare.com\\\/report\\\/v3?s=RM7Nlz082%2BLb63gYHgxc9Qwf1FPz2k74wgYcqWqOAyrOeRpvPafyMrS%2Fhnmipz4fGT0vPG1LpNoGpUEfH8BB4kFe4FPfQHbEeLOmqUE9U5B8x6%2BydKvq5VcU%2BnA%3D\"}],\"group\":\"cf-nel\",\"max_age\":604800}\n1 < NEL: {\"success_fraction\":0,\"report_to\":\"cf-nel\",\"max_age\":604800}\n1 < Server: cloudflare\n1 < CF-RAY: 6d8e14504c2b83e1-BRU\n1 < alt-svc: h3=\":443\"; ma=86400, h3-29=\":443\"; ma=86400\n{\"name\":\"Mouad\",\"job\":\"tester\",\"age\":25,\"id\":\"757\",\"createdAt\":\"2022-02-05T18:07:37.085Z\"}\n"},{"result":{"nanos":9000,"millis":0.009,"status":"passed"},"step":{"line":22,"prefix":"Then","index":3,"text":"status 201"}},{"result":{"nanos":629200,"millis":0.6292,"status":"passed"},"step":{"line":23,"prefix":"And","index":4,"text":"match response == {\"name\":\"Mouad\",\"job\":\"tester\",\"age\":25,\"id\":\"#string\",\"createdAt\":\"#ignore\"}"}},{"result":{"nanos":1487700,"millis":1.4877,"status":"passed"},"step":{"line":24,"prefix":"And","index":5,"text":"print response"},"stepLog":"19:07:42.266 [print] {\n  \"name\": \"Mouad\",\n  \"job\": \"tester\",\n  \"age\": 25,\n  \"id\": \"757\",\n  \"createdAt\": \"2022-02-05T18:07:37.085Z\"\n}\n \n"}],"executorName":"main","line":17,"name":"test API post 2","description":"","durationMillis":331.5415,"startTime":1644084461933,"failed":false,"refId":"[2:17]","endTime":1644084462266,"exampleIndex":-1},{"sectionIndex":2,"stepResults":[{"result":{"nanos":113900,"millis":0.1139,"status":"passed"},"step":{"background":true,"line":4,"prefix":"*","index":0,"text":"url 'https:\/\/reqres.in\/api'"}},{"result":{"nanos":414000,"millis":0.414,"status":"passed"},"step":{"background":true,"line":5,"prefix":"*","index":1,"text":"def output = read('response1.json')"}},{"result":{"nanos":304300,"millis":0.3043,"status":"passed"},"step":{"background":true,"line":6,"prefix":"*","index":2,"text":"def request1 = read('request1.json')"}},{"result":{"nanos":66200,"millis":0.0662,"status":"passed"},"step":{"comments":["#Given path '\/users'"],"line":28,"prefix":"Given","index":0,"text":"path '\/users'"}},{"result":{"nanos":107600,"millis":0.1076,"status":"passed"},"step":{"line":29,"prefix":"And","index":1,"text":"request {\"name\": \"Mouad\" , \"job\": \"tester\" }"}},{"result":{"nanos":452063900,"millis":452.0639,"status":"passed"},"step":{"line":30,"prefix":"When","index":2,"text":"method POST"},"stepLog":"19:07:42.271 request:\n1 > POST https:\/\/reqres.in\/api\/users\n1 > Content-Type: application\/json; charset=UTF-8\n1 > Content-Length: 31\n1 > Host: reqres.in\n1 > Connection: Keep-Alive\n1 > User-Agent: Apache-HttpClient\/4.5.13 (Java\/17.0.1)\n1 > Accept-Encoding: gzip,deflate\n{\"name\":\"Mouad\",\"job\":\"tester\"}\n\n19:07:42.720 response time in milliseconds: 449\n1 < 201\n1 < Date: Sat, 05 Feb 2022 18:07:37 GMT\n1 < Content-Type: application\/json; charset=utf-8\n1 < Content-Length: 81\n1 < Connection: keep-alive\n1 < x-powered-by: Express\n1 < access-control-allow-origin: *\n1 < etag: W\/\"51-BxYA39Y4yDHWn26kTJZfLREgvEg\"\n1 < via: 1.1 vegur\n1 < CF-Cache-Status: DYNAMIC\n1 < Expect-CT: max-age=604800, report-uri=\"https:\/\/report-uri.cloudflare.com\/cdn-cgi\/beacon\/expect-ct\"\n1 < Report-To: {\"endpoints\":[{\"url\":\"https:\\\/\\\/a.nel.cloudflare.com\\\/report\\\/v3?s=nC9gdRkH9hwImMQF70ZPpSqJTOkuF%2BG6jnkdB6FtzjSIwadKYGA7eF6hWmj6dRahmze9wSQPLnYv7qqyyqS4pxOTl781dSCuwRlf5QyYyjd6%2BRAxhDInCvAJ7oU%3D\"}],\"group\":\"cf-nel\",\"max_age\":604800}\n1 < NEL: {\"success_fraction\":0,\"report_to\":\"cf-nel\",\"max_age\":604800}\n1 < Server: cloudflare\n1 < CF-RAY: 6d8e14532f8af959-BRU\n1 < alt-svc: h3=\":443\"; ma=86400, h3-29=\":443\"; ma=86400\n{\"name\":\"Mouad\",\"job\":\"tester\",\"id\":\"723\",\"createdAt\":\"2022-02-05T18:07:37.521Z\"}\n"},{"result":{"nanos":25500,"millis":0.0255,"status":"passed"},"step":{"line":31,"prefix":"Then","index":3,"text":"status 201"}},{"result":{"nanos":316100,"millis":0.3161,"status":"passed"},"step":{"line":32,"prefix":"And","index":4,"text":"match response == output"}},{"result":{"nanos":305500,"millis":0.3055,"status":"passed"},"step":{"line":33,"prefix":"And","index":5,"text":"print response"},"stepLog":"19:07:42.723 [print] {\n  \"name\": \"Mouad\",\n  \"job\": \"tester\",\n  \"id\": \"723\",\n  \"createdAt\": \"2022-02-05T18:07:37.521Z\"\n}\n \n"}],"executorName":"main","line":26,"name":"test API post 3","description":"","durationMillis":453.717,"startTime":1644084462268,"failed":false,"refId":"[3:26]","endTime":1644084462723,"exampleIndex":-1},{"sectionIndex":3,"stepResults":[{"result":{"nanos":108500,"millis":0.1085,"status":"passed"},"step":{"background":true,"line":4,"prefix":"*","index":0,"text":"url 'https:\/\/reqres.in\/api'"}},{"result":{"nanos":439000,"millis":0.439,"status":"passed"},"step":{"background":true,"line":5,"prefix":"*","index":1,"text":"def output = read('response1.json')"}},{"result":{"nanos":493400,"millis":0.4934,"status":"passed"},"step":{"background":true,"line":6,"prefix":"*","index":2,"text":"def request1 = read('request1.json')"}},{"result":{"nanos":62200,"millis":0.0622,"status":"passed"},"step":{"comments":["#Given path '\/users'"],"line":37,"prefix":"Given","index":0,"text":"path '\/users'"}},{"result":{"nanos":505500,"millis":0.5055,"status":"passed"},"step":{"line":38,"prefix":"And","index":1,"text":"request request1"}},{"result":{"nanos":256787700,"millis":256.7877,"status":"passed"},"step":{"line":39,"prefix":"When","index":2,"text":"method POST"},"stepLog":"19:07:42.729 request:\n1 > POST https:\/\/reqres.in\/api\/users\n1 > Content-Type: application\/json; charset=UTF-8\n1 > Content-Length: 31\n1 > Host: reqres.in\n1 > Connection: Keep-Alive\n1 > User-Agent: Apache-HttpClient\/4.5.13 (Java\/17.0.1)\n1 > Accept-Encoding: gzip,deflate\n{\"name\":\"Mouad\",\"job\":\"tester\"}\n\n19:07:42.984 response time in milliseconds: 255\n1 < 201\n1 < Date: Sat, 05 Feb 2022 18:07:37 GMT\n1 < Content-Type: application\/json; charset=utf-8\n1 < Content-Length: 81\n1 < Connection: keep-alive\n1 < x-powered-by: Express\n1 < access-control-allow-origin: *\n1 < etag: W\/\"51-XUqAjWxvQgVM5q8ceFV7nyfWCa0\"\n1 < via: 1.1 vegur\n1 < CF-Cache-Status: DYNAMIC\n1 < Expect-CT: max-age=604800, report-uri=\"https:\/\/report-uri.cloudflare.com\/cdn-cgi\/beacon\/expect-ct\"\n1 < Report-To: {\"endpoints\":[{\"url\":\"https:\\\/\\\/a.nel.cloudflare.com\\\/report\\\/v3?s=Dts2F6%2F9q4f%2B8kJtMXjKNzKM2IDBzL4%2FX5pR9gi1lcLW9WooNgZzVkY24KOlyFLwhYZTjeeci8b3KxC%2B4pGaLDU635JKpp8wpn33QKmeAXSD%2FcasdAW8N7KF4I8%3D\"}],\"group\":\"cf-nel\",\"max_age\":604800}\n1 < NEL: {\"success_fraction\":0,\"report_to\":\"cf-nel\",\"max_age\":604800}\n1 < Server: cloudflare\n1 < CF-RAY: 6d8e1454e97ed4b0-BRU\n1 < alt-svc: h3=\":443\"; ma=86400, h3-29=\":443\"; ma=86400\n{\"name\":\"Mouad\",\"job\":\"tester\",\"id\":\"744\",\"createdAt\":\"2022-02-05T18:07:37.804Z\"}\n"},{"result":{"nanos":5500,"millis":0.0055,"status":"passed"},"step":{"line":40,"prefix":"Then","index":3,"text":"status 201"}},{"result":{"nanos":218900,"millis":0.2189,"status":"passed"},"step":{"line":41,"prefix":"And","index":4,"text":"match response == output"}},{"result":{"nanos":285600,"millis":0.2856,"status":"passed"},"step":{"line":42,"prefix":"And","index":5,"text":"print response"},"stepLog":"19:07:42.985 [print] {\n  \"name\": \"Mouad\",\n  \"job\": \"tester\",\n  \"id\": \"744\",\n  \"createdAt\": \"2022-02-05T18:07:37.804Z\"\n}\n \n"}],"executorName":"main","line":35,"name":"test API post 3","description":"","durationMillis":258.9063,"startTime":1644084462725,"failed":false,"refId":"[4:35]","endTime":1644084462985,"exampleIndex":-1}],"callDepth":0,"name":"test sample API","description":"","resultDate":"2022-02-05 07:07:42 PM","durationMillis":1866.4151,"passedCount":3}