{"failedCount":0,"prefixedPath":"src\/test\/java\/test_ResIsReq.feature","packageQualifiedName":"src.test.java.test_ResIsReq","loopIndex":-1,"relativePath":"src\/test\/java\/test_ResIsReq.feature","scenarioResults":[{"sectionIndex":0,"stepResults":[{"result":{"nanos":64716900,"millis":64.7169,"status":"passed"},"step":{"background":true,"line":4,"prefix":"*","index":0,"text":"def baseUrl = 'https:\/\/reqres.in\/api'"}},{"result":{"nanos":18890300,"millis":18.8903,"status":"passed"},"step":{"line":8,"prefix":"Given","index":0,"text":"url baseUrl"}},{"result":{"nanos":426100,"millis":0.4261,"status":"passed"},"step":{"line":9,"prefix":"And","index":1,"text":"path '\/users?page=2'"}},{"result":{"nanos":573782700,"millis":573.7827,"status":"passed"},"step":{"line":10,"prefix":"When","index":2,"text":"method GET"},"stepLog":"16:34:52.853 request:\n1 > GET https:\/\/reqres.in\/api\/users%3Fpage=2\n1 > Host: reqres.in\n1 > Connection: Keep-Alive\n1 > User-Agent: Apache-HttpClient\/4.5.13 (Java\/17.0.1)\n1 > Accept-Encoding: gzip,deflate\n\n\n16:34:53.185 response time in milliseconds: 331\n1 < 200\n1 < Date: Sun, 13 Feb 2022 15:34:50 GMT\n1 < Content-Type: application\/json; charset=utf-8\n1 < Transfer-Encoding: chunked\n1 < Connection: keep-alive\n1 < X-Powered-By: Express\n1 < Access-Control-Allow-Origin: *\n1 < Etag: W\/\"2c1-N6Rqerxquq2kgQhL51EiSg4x0R8\"\n1 < Via: 1.1 vegur\n1 < Cache-Control: max-age=14400\n1 < CF-Cache-Status: HIT\n1 < Age: 5358\n1 < Expect-CT: max-age=604800, report-uri=\"https:\/\/report-uri.cloudflare.com\/cdn-cgi\/beacon\/expect-ct\"\n1 < Report-To: {\"endpoints\":[{\"url\":\"https:\\\/\\\/a.nel.cloudflare.com\\\/report\\\/v3?s=v2TyiyUXLD%2F4MpGS%2FSwrmqFLu3pm%2FXlxb3pn8Kx5jGblQQxfK9CBcgB8LtaVyPCL2OhFuPtwWZPiOOkQ0Ui3HrkTmnGb3b9kLicL3IBRc5y9pn2MBT4HJX9YN70%3D\"}],\"group\":\"cf-nel\",\"max_age\":604800}\n1 < NEL: {\"success_fraction\":0,\"report_to\":\"cf-nel\",\"max_age\":604800}\n1 < Vary: Accept-Encoding\n1 < Server: cloudflare\n1 < CF-RAY: 6dcf1f847ba2d78d-MRS\n1 < alt-svc: h3=\":443\"; ma=86400, h3-29=\":443\"; ma=86400\n{\"page\":1,\"per_page\":6,\"total\":12,\"total_pages\":2,\"data\":[{\"id\":1,\"name\":\"cerulean\",\"year\":2000,\"color\":\"#98B2D1\",\"pantone_value\":\"15-4020\"},{\"id\":2,\"name\":\"fuchsia rose\",\"year\":2001,\"color\":\"#C74375\",\"pantone_value\":\"17-2031\"},{\"id\":3,\"name\":\"true red\",\"year\":2002,\"color\":\"#BF1932\",\"pantone_value\":\"19-1664\"},{\"id\":4,\"name\":\"aqua sky\",\"year\":2003,\"color\":\"#7BC4C4\",\"pantone_value\":\"14-4811\"},{\"id\":5,\"name\":\"tigerlily\",\"year\":2004,\"color\":\"#E2583E\",\"pantone_value\":\"17-1456\"},{\"id\":6,\"name\":\"blue turquoise\",\"year\":2005,\"color\":\"#53B0AE\",\"pantone_value\":\"15-5217\"}],\"support\":{\"url\":\"https:\/\/reqres.in\/#support-heading\",\"text\":\"To keep ReqRes free, contributions towards server costs are appreciated!\"}}\n"},{"result":{"nanos":15100,"millis":0.0151,"status":"passed"},"step":{"line":11,"prefix":"Then","index":3,"text":"status 200"}},{"result":{"nanos":4925200,"millis":4.9252,"status":"passed"},"step":{"line":12,"prefix":"And","index":4,"text":"def uResponse = response"}},{"result":{"nanos":42180900,"millis":42.1809,"status":"passed"},"step":{"line":13,"prefix":"And","index":5,"text":"print uResponse"},"stepLog":"16:34:53.254 [print] {\n  \"page\": 1,\n  \"per_page\": 6,\n  \"total\": 12,\n  \"total_pages\": 2,\n  \"data\": [\n    {\n      \"id\": 1,\n      \"name\": \"cerulean\",\n      \"year\": 2000,\n      \"color\": \"#98B2D1\",\n      \"pantone_value\": \"15-4020\"\n    },\n    {\n      \"id\": 2,\n      \"name\": \"fuchsia rose\",\n      \"year\": 2001,\n      \"color\": \"#C74375\",\n      \"pantone_value\": \"17-2031\"\n    },\n    {\n      \"id\": 3,\n      \"name\": \"true red\",\n      \"year\": 2002,\n      \"color\": \"#BF1932\",\n      \"pantone_value\": \"19-1664\"\n    },\n    {\n      \"id\": 4,\n      \"name\": \"aqua sky\",\n      \"year\": 2003,\n      \"color\": \"#7BC4C4\",\n      \"pantone_value\": \"14-4811\"\n    },\n    {\n      \"id\": 5,\n      \"name\": \"tigerlily\",\n      \"year\": 2004,\n      \"color\": \"#E2583E\",\n      \"pantone_value\": \"17-1456\"\n    },\n    {\n      \"id\": 6,\n      \"name\": \"blue turquoise\",\n      \"year\": 2005,\n      \"color\": \"#53B0AE\",\n      \"pantone_value\": \"15-5217\"\n    }\n  ],\n  \"support\": {\n    \"url\": \"https:\/\/reqres.in\/#support-heading\",\n    \"text\": \"To keep ReqRes free, contributions towards server costs are appreciated!\"\n  }\n}\n \n"},{"result":{"nanos":16366400,"millis":16.3664,"status":"passed"},"step":{"line":14,"prefix":"Then","index":6,"text":"match uResponse.data[*].name contains  ['cerulean']"}},{"result":{"nanos":2226800,"millis":2.2268,"status":"passed"},"step":{"line":15,"prefix":"Then","index":7,"text":"def rec = uResponse.data.name = 'cerulean'"}}],"line":7,"description":"","durationMillis":723.5304,"failed":false,"tags":["tag1"],"executorName":"main","name":"get if cerulean exist","startTime":1644766492542,"refId":"[1:7]","endTime":1644766493274,"exampleIndex":-1},{"sectionIndex":1,"stepResults":[{"result":{"nanos":369900,"millis":0.3699,"status":"passed"},"step":{"background":true,"line":4,"prefix":"*","index":0,"text":"def baseUrl = 'https:\/\/reqres.in\/api'"}},{"result":{"nanos":188900,"millis":0.1889,"status":"passed"},"step":{"line":19,"prefix":"Given","index":0,"text":"url baseUrl"}},{"result":{"nanos":200900,"millis":0.2009,"status":"passed"},"step":{"line":20,"prefix":"And","index":1,"text":"path '\/users?page=2'"}},{"result":{"nanos":140893500,"millis":140.8935,"status":"passed"},"step":{"line":21,"prefix":"When","index":2,"text":"method GET"},"stepLog":"16:34:53.281 request:\n1 > GET https:\/\/reqres.in\/api\/users%3Fpage=2\n1 > Host: reqres.in\n1 > Connection: Keep-Alive\n1 > User-Agent: Apache-HttpClient\/4.5.13 (Java\/17.0.1)\n1 > Accept-Encoding: gzip,deflate\n\n\n16:34:53.420 response time in milliseconds: 139\n1 < 200\n1 < Date: Sun, 13 Feb 2022 15:34:50 GMT\n1 < Content-Type: application\/json; charset=utf-8\n1 < Transfer-Encoding: chunked\n1 < Connection: keep-alive\n1 < X-Powered-By: Express\n1 < Access-Control-Allow-Origin: *\n1 < Etag: W\/\"2c1-N6Rqerxquq2kgQhL51EiSg4x0R8\"\n1 < Via: 1.1 vegur\n1 < Cache-Control: max-age=14400\n1 < CF-Cache-Status: HIT\n1 < Age: 5358\n1 < Expect-CT: max-age=604800, report-uri=\"https:\/\/report-uri.cloudflare.com\/cdn-cgi\/beacon\/expect-ct\"\n1 < Report-To: {\"endpoints\":[{\"url\":\"https:\\\/\\\/a.nel.cloudflare.com\\\/report\\\/v3?s=DWFR09ezKom7%2FsK%2BJEGe3j1XBvGDmfL1%2B2pm%2FacuFGQB3evU98DCiaWxJM2bpRiS3hZXODWm0cc6Y1D1JWaMlXOyY4FSZgmTJWHinKDXF6y0%2Fr4qi78H2ABp0ZA%3D\"}],\"group\":\"cf-nel\",\"max_age\":604800}\n1 < NEL: {\"success_fraction\":0,\"report_to\":\"cf-nel\",\"max_age\":604800}\n1 < Vary: Accept-Encoding\n1 < Server: cloudflare\n1 < CF-RAY: 6dcf1f85f85473bf-MRS\n1 < alt-svc: h3=\":443\"; ma=86400, h3-29=\":443\"; ma=86400\n{\"page\":1,\"per_page\":6,\"total\":12,\"total_pages\":2,\"data\":[{\"id\":1,\"name\":\"cerulean\",\"year\":2000,\"color\":\"#98B2D1\",\"pantone_value\":\"15-4020\"},{\"id\":2,\"name\":\"fuchsia rose\",\"year\":2001,\"color\":\"#C74375\",\"pantone_value\":\"17-2031\"},{\"id\":3,\"name\":\"true red\",\"year\":2002,\"color\":\"#BF1932\",\"pantone_value\":\"19-1664\"},{\"id\":4,\"name\":\"aqua sky\",\"year\":2003,\"color\":\"#7BC4C4\",\"pantone_value\":\"14-4811\"},{\"id\":5,\"name\":\"tigerlily\",\"year\":2004,\"color\":\"#E2583E\",\"pantone_value\":\"17-1456\"},{\"id\":6,\"name\":\"blue turquoise\",\"year\":2005,\"color\":\"#53B0AE\",\"pantone_value\":\"15-5217\"}],\"support\":{\"url\":\"https:\/\/reqres.in\/#support-heading\",\"text\":\"To keep ReqRes free, contributions towards server costs are appreciated!\"}}\n"},{"result":{"nanos":10300,"millis":0.0103,"status":"passed"},"step":{"line":22,"prefix":"Then","index":3,"text":"status 200"}},{"result":{"nanos":255000,"millis":0.255,"status":"passed"},"step":{"line":23,"prefix":"And","index":4,"text":"def uResponse = response"}},{"result":{"nanos":858600,"millis":0.8586,"status":"passed"},"step":{"line":24,"prefix":"And","index":5,"text":"print uResponse"},"stepLog":"16:34:53.422 [print] {\n  \"page\": 1,\n  \"per_page\": 6,\n  \"total\": 12,\n  \"total_pages\": 2,\n  \"data\": [\n    {\n      \"id\": 1,\n      \"name\": \"cerulean\",\n      \"year\": 2000,\n      \"color\": \"#98B2D1\",\n      \"pantone_value\": \"15-4020\"\n    },\n    {\n      \"id\": 2,\n      \"name\": \"fuchsia rose\",\n      \"year\": 2001,\n      \"color\": \"#C74375\",\n      \"pantone_value\": \"17-2031\"\n    },\n    {\n      \"id\": 3,\n      \"name\": \"true red\",\n      \"year\": 2002,\n      \"color\": \"#BF1932\",\n      \"pantone_value\": \"19-1664\"\n    },\n    {\n      \"id\": 4,\n      \"name\": \"aqua sky\",\n      \"year\": 2003,\n      \"color\": \"#7BC4C4\",\n      \"pantone_value\": \"14-4811\"\n    },\n    {\n      \"id\": 5,\n      \"name\": \"tigerlily\",\n      \"year\": 2004,\n      \"color\": \"#E2583E\",\n      \"pantone_value\": \"17-1456\"\n    },\n    {\n      \"id\": 6,\n      \"name\": \"blue turquoise\",\n      \"year\": 2005,\n      \"color\": \"#53B0AE\",\n      \"pantone_value\": \"15-5217\"\n    }\n  ],\n  \"support\": {\n    \"url\": \"https:\/\/reqres.in\/#support-heading\",\n    \"text\": \"To keep ReqRes free, contributions towards server costs are appreciated!\"\n  }\n}\n \n"},{"result":{"nanos":715200,"millis":0.7152,"status":"passed"},"step":{"line":25,"prefix":"Then","index":6,"text":"match uResponse.data[*].id contains  [2]"}},{"result":{"nanos":1689200,"millis":1.6892,"status":"passed"},"step":{"line":26,"prefix":"Then","index":7,"text":"def idNumber = uResponse.data.id = 2"}},{"result":{"nanos":1090800,"millis":1.0908,"status":"passed"},"step":{"line":27,"prefix":"And","index":8,"text":"print idNumber"},"stepLog":"16:34:53.426 [print] 2 \n"},{"result":{"nanos":420200,"millis":0.4202,"status":"passed"},"step":{"line":29,"prefix":"Given","index":9,"text":"url 'https:\/\/reqres.in\/api\/users\/'"}},{"result":{"nanos":367200,"millis":0.3672,"status":"passed"},"step":{"line":30,"prefix":"And","index":10,"text":"path idNumber"}},{"result":{"nanos":131085600,"millis":131.0856,"status":"passed"},"step":{"line":31,"prefix":"When","index":11,"text":"method GET"},"stepLog":"16:34:53.428 request:\n2 > GET https:\/\/reqres.in\/api\/users\/2\n2 > Host: reqres.in\n2 > Connection: Keep-Alive\n2 > User-Agent: Apache-HttpClient\/4.5.13 (Java\/17.0.1)\n2 > Accept-Encoding: gzip,deflate\n\n\n16:34:53.558 response time in milliseconds: 129\n2 < 200\n2 < Date: Sun, 13 Feb 2022 15:34:50 GMT\n2 < Content-Type: application\/json; charset=utf-8\n2 < Transfer-Encoding: chunked\n2 < Connection: keep-alive\n2 < X-Powered-By: Express\n2 < Access-Control-Allow-Origin: *\n2 < Etag: W\/\"118-pbdwwFo9SKNhD3Lx5iHJyngpq00\"\n2 < Via: 1.1 vegur\n2 < Cache-Control: max-age=14400\n2 < CF-Cache-Status: HIT\n2 < Age: 5982\n2 < Expect-CT: max-age=604800, report-uri=\"https:\/\/report-uri.cloudflare.com\/cdn-cgi\/beacon\/expect-ct\"\n2 < Report-To: {\"endpoints\":[{\"url\":\"https:\\\/\\\/a.nel.cloudflare.com\\\/report\\\/v3?s=FK8s1kfEJsYjJ7sbu2kYVIFsI4CG6V06x4CtJMXw3cR%2FW1Vch0JoADjrMXYinnqy0H9r7EG6TalAkpEwdZwrznqFsSOOWlZKycHrBvlcVgY1C6u4D%2BLwdzyZxac%3D\"}],\"group\":\"cf-nel\",\"max_age\":604800}\n2 < NEL: {\"success_fraction\":0,\"report_to\":\"cf-nel\",\"max_age\":604800}\n2 < Vary: Accept-Encoding\n2 < Server: cloudflare\n2 < CF-RAY: 6dcf1f86eca741e4-MRS\n2 < alt-svc: h3=\":443\"; ma=86400, h3-29=\":443\"; ma=86400\n{\"data\":{\"id\":2,\"email\":\"janet.weaver@reqres.in\",\"first_name\":\"Janet\",\"last_name\":\"Weaver\",\"avatar\":\"https:\/\/reqres.in\/img\/faces\/2-image.jpg\"},\"support\":{\"url\":\"https:\/\/reqres.in\/#support-heading\",\"text\":\"To keep ReqRes free, contributions towards server costs are appreciated!\"}}\n"},{"result":{"nanos":780600,"millis":0.7806,"status":"passed"},"step":{"line":32,"prefix":"Then","index":12,"text":"print response"},"stepLog":"16:34:53.559 [print] {\n  \"data\": {\n    \"id\": 2,\n    \"email\": \"janet.weaver@reqres.in\",\n    \"first_name\": \"Janet\",\n    \"last_name\": \"Weaver\",\n    \"avatar\": \"https:\/\/reqres.in\/img\/faces\/2-image.jpg\"\n  },\n  \"support\": {\n    \"url\": \"https:\/\/reqres.in\/#support-heading\",\n    \"text\": \"To keep ReqRes free, contributions towards server costs are appreciated!\"\n  }\n}\n \n"},{"result":{"nanos":450500,"millis":0.4505,"status":"passed"},"step":{"line":33,"prefix":"And","index":13,"text":"match $.data.last_name == 'Weaver'"}}],"line":18,"description":"","durationMillis":279.3764,"failed":false,"tags":["tag2"],"executorName":"main","name":"get if id 2 exist","startTime":1644766493279,"refId":"[2:18]","endTime":1644766493559,"exampleIndex":-1}],"callDepth":0,"name":"test request is response","description":"","resultDate":"2022-02-13 04:34:53 PM","durationMillis":1002.9068,"passedCount":2}