{"failedCount":0,"prefixedPath":"src\/main\/java\/first_test_k.feature","packageQualifiedName":"src.main.java.first_test_k","loopIndex":-1,"relativePath":"src\/main\/java\/first_test_k.feature","scenarioResults":[{"sectionIndex":0,"stepResults":[{"result":{"nanos":60898600,"millis":60.8986,"status":"passed"},"step":{"line":4,"prefix":"Given","index":0,"text":"url \"https:\/\/reqres.in\/api\/users?page=2\""}},{"result":{"nanos":678846900,"millis":678.8469,"status":"passed"},"step":{"line":5,"prefix":"When","index":1,"text":"method GET"},"stepLog":"18:07:28.629 request:\n1 > GET https:\/\/reqres.in\/api\/users?page=2\n1 > Host: reqres.in\n1 > Connection: Keep-Alive\n1 > User-Agent: Apache-HttpClient\/4.5.13 (Java\/17.0.1)\n1 > Accept-Encoding: gzip,deflate\n\n\n18:07:29.051 response time in milliseconds: 419\n1 < 200\n1 < Date: Fri, 28 Jan 2022 17:07:28 GMT\n1 < Content-Type: application\/json; charset=utf-8\n1 < Transfer-Encoding: chunked\n1 < Connection: keep-alive\n1 < x-powered-by: Express\n1 < access-control-allow-origin: *\n1 < etag: W\/\"406-ut0vzoCuidvyMf8arZpMpJ6ZRDw\"\n1 < via: 1.1 vegur\n1 < Cache-Control: max-age=14400\n1 < CF-Cache-Status: HIT\n1 < Age: 86\n1 < Expect-CT: max-age=604800, report-uri=\"https:\/\/report-uri.cloudflare.com\/cdn-cgi\/beacon\/expect-ct\"\n1 < Report-To: {\"endpoints\":[{\"url\":\"https:\\\/\\\/a.nel.cloudflare.com\\\/report\\\/v3?s=xW2BF5gxc58qsmvEU0ieGwhslV52ZtnqOJPMN4trCV9cvDMXMyy7pblUWPMOK%2BhHbDpcFmRqPRjPtmaA9ch%2FVwXPIIjph3e3TVJVGiTDcfh6%2Fup478Vr%2BWMNuKk%3D\"}],\"group\":\"cf-nel\",\"max_age\":604800}\n1 < NEL: {\"success_fraction\":0,\"report_to\":\"cf-nel\",\"max_age\":604800}\n1 < Vary: Accept-Encoding\n1 < Server: cloudflare\n1 < CF-RAY: 6d4bd139afd211b7-BCN\n1 < alt-svc: h3=\":443\"; ma=86400, h3-29=\":443\"; ma=86400\n{\"page\":2,\"per_page\":6,\"total\":12,\"total_pages\":2,\"data\":[{\"id\":7,\"email\":\"michael.lawson@reqres.in\",\"first_name\":\"Michael\",\"last_name\":\"Lawson\",\"avatar\":\"https:\/\/reqres.in\/img\/faces\/7-image.jpg\"},{\"id\":8,\"email\":\"lindsay.ferguson@reqres.in\",\"first_name\":\"Lindsay\",\"last_name\":\"Ferguson\",\"avatar\":\"https:\/\/reqres.in\/img\/faces\/8-image.jpg\"},{\"id\":9,\"email\":\"tobias.funke@reqres.in\",\"first_name\":\"Tobias\",\"last_name\":\"Funke\",\"avatar\":\"https:\/\/reqres.in\/img\/faces\/9-image.jpg\"},{\"id\":10,\"email\":\"byron.fields@reqres.in\",\"first_name\":\"Byron\",\"last_name\":\"Fields\",\"avatar\":\"https:\/\/reqres.in\/img\/faces\/10-image.jpg\"},{\"id\":11,\"email\":\"george.edwards@reqres.in\",\"first_name\":\"George\",\"last_name\":\"Edwards\",\"avatar\":\"https:\/\/reqres.in\/img\/faces\/11-image.jpg\"},{\"id\":12,\"email\":\"rachel.howell@reqres.in\",\"first_name\":\"Rachel\",\"last_name\":\"Howell\",\"avatar\":\"https:\/\/reqres.in\/img\/faces\/12-image.jpg\"}],\"support\":{\"url\":\"https:\/\/reqres.in\/#support-heading\",\"text\":\"To keep ReqRes free, contributions towards server costs are appreciated!\"}}\n"},{"result":{"nanos":17100,"millis":0.0171,"status":"passed"},"step":{"line":6,"prefix":"Then","index":2,"text":"status 200"}},{"result":{"nanos":31625900,"millis":31.6259,"status":"passed"},"step":{"line":7,"prefix":"And","index":3,"text":"assert response.data.length == 6"}}],"executorName":"main","line":3,"name":"test API get","description":"","durationMillis":771.3885,"startTime":1643389648330,"failed":false,"refId":"[1:3]","endTime":1643389649111,"exampleIndex":-1},{"sectionIndex":1,"stepResults":[{"result":{"nanos":750700,"millis":0.7507,"status":"passed"},"step":{"line":10,"prefix":"Given","index":0,"text":"url \"https:\/\/reqres.in\/api\/users\""}},{"result":{"nanos":349076600,"millis":349.0766,"status":"passed"},"step":{"line":11,"prefix":"When","index":1,"text":"method POST"},"stepLog":"18:07:29.116 request:\n1 > POST https:\/\/reqres.in\/api\/users\n1 > Host: reqres.in\n1 > Connection: Keep-Alive\n1 > User-Agent: Apache-HttpClient\/4.5.13 (Java\/17.0.1)\n1 > Accept-Encoding: gzip,deflate\n\n\n18:07:29.464 response time in milliseconds: 348\n1 < 201\n1 < Date: Fri, 28 Jan 2022 17:07:29 GMT\n1 < Content-Type: application\/json; charset=utf-8\n1 < Content-Length: 51\n1 < Connection: keep-alive\n1 < x-powered-by: Express\n1 < access-control-allow-origin: *\n1 < etag: W\/\"33-r53mgnXiXEthKjHUcqdvWneG\/TU\"\n1 < via: 1.1 vegur\n1 < CF-Cache-Status: DYNAMIC\n1 < Expect-CT: max-age=604800, report-uri=\"https:\/\/report-uri.cloudflare.com\/cdn-cgi\/beacon\/expect-ct\"\n1 < Report-To: {\"endpoints\":[{\"url\":\"https:\\\/\\\/a.nel.cloudflare.com\\\/report\\\/v3?s=RqcUTT59wIWnj0Yno80eabqXE%2FgyY6sGhFp5G5XKi7w1MYfpshUoAKRk%2BOM%2FpENU3fxBEdXU2XIWacTnTL4TnDipfE%2BGZMT3ea4ti6fd7f1G2AqiWqL%2FmM4neL4%3D\"}],\"group\":\"cf-nel\",\"max_age\":604800}\n1 < NEL: {\"success_fraction\":0,\"report_to\":\"cf-nel\",\"max_age\":604800}\n1 < Server: cloudflare\n1 < CF-RAY: 6d4bd13bbb79fefc-MAD\n1 < alt-svc: h3=\":443\"; ma=86400, h3-29=\":443\"; ma=86400\n{\"id\":\"791\",\"createdAt\":\"2022-01-28T17:07:29.344Z\"}\n"},{"result":{"nanos":6500,"millis":0.0065,"status":"passed"},"step":{"line":12,"prefix":"Then","index":2,"text":"status 201"}}],"executorName":"main","line":9,"name":"test API post","description":"","durationMillis":349.8338,"startTime":1643389649114,"failed":false,"refId":"[2:9]","endTime":1643389649465,"exampleIndex":-1}],"callDepth":0,"name":"test sample API","description":"","resultDate":"2022-01-28 06:07:29 PM","durationMillis":1121.2223,"passedCount":2}