{"failedCount":1,"prefixedPath":"src\/test\/java\/testRunner\/verifiInCsv.feature","packageQualifiedName":"src.test.java.testRunner.verifiInCsv","loopIndex":-1,"relativePath":"src\/test\/java\/testRunner\/verifiInCsv.feature","scenarioResults":[{"sectionIndex":0,"stepResults":[{"result":{"nanos":35038900,"millis":35.0389,"status":"passed"},"step":{"comments":["#* url BaseURL"],"background":true,"line":5,"prefix":"*","index":0,"text":"def exp = read('data.csv')"},"stepLog":"21:56:44.843 \n"},{"result":{"nanos":1117100,"millis":1.1171,"status":"passed"},"step":{"background":true,"line":6,"prefix":"*","index":1,"text":"def exp1 = read('data1.csv')"}},{"result":{"nanos":1157900,"millis":1.1579,"status":"passed"},"step":{"line":9,"prefix":"Given","index":0,"text":"url 'https:\/\/reqres.in\/api\/users?page=2'"}},{"result":{"nanos":863843200,"millis":863.8432,"status":"passed"},"step":{"comments":["# Given path '\/users?page=2'"],"line":11,"prefix":"When","index":1,"text":"method GET"},"stepLog":"21:56:45.194 request:\n1 > GET https:\/\/reqres.in\/api\/users?page=2\n1 > Host: reqres.in\n1 > Connection: Keep-Alive\n1 > User-Agent: Apache-HttpClient\/4.5.13 (Java\/17.0.1)\n1 > Accept-Encoding: gzip,deflate\n\n\n21:56:45.770 response time in milliseconds: 571\n1 < 200\n1 < Date: Sun, 13 Feb 2022 20:56:42 GMT\n1 < Content-Type: application\/json; charset=utf-8\n1 < Transfer-Encoding: chunked\n1 < Connection: keep-alive\n1 < X-Powered-By: Express\n1 < Access-Control-Allow-Origin: *\n1 < Etag: W\/\"406-ut0vzoCuidvyMf8arZpMpJ6ZRDw\"\n1 < Via: 1.1 vegur\n1 < Cache-Control: max-age=14400\n1 < CF-Cache-Status: HIT\n1 < Age: 1754\n1 < Expect-CT: max-age=604800, report-uri=\"https:\/\/report-uri.cloudflare.com\/cdn-cgi\/beacon\/expect-ct\"\n1 < Report-To: {\"endpoints\":[{\"url\":\"https:\\\/\\\/a.nel.cloudflare.com\\\/report\\\/v3?s=b5slFwENv7GTxLEj3JjwFBZpHYdxL9lukWp%2Bh6v5Rx%2BxBO9qjEgg2dgIQTdgv6fB04d4KcYJ8MKF%2FgP6VJ0IE7r%2FW2qwee8qBzCMBcZzK54O9Iwc%2FkarzLixWaI%3D\"}],\"group\":\"cf-nel\",\"max_age\":604800}\n1 < NEL: {\"success_fraction\":0,\"report_to\":\"cf-nel\",\"max_age\":604800}\n1 < Vary: Accept-Encoding\n1 < Server: cloudflare\n1 < CF-RAY: 6dd0f70028ea772b-LHR\n1 < alt-svc: h3=\":443\"; ma=86400, h3-29=\":443\"; ma=86400\n{\"page\":2,\"per_page\":6,\"total\":12,\"total_pages\":2,\"data\":[{\"id\":7,\"email\":\"michael.lawson@reqres.in\",\"first_name\":\"Michael\",\"last_name\":\"Lawson\",\"avatar\":\"https:\/\/reqres.in\/img\/faces\/7-image.jpg\"},{\"id\":8,\"email\":\"lindsay.ferguson@reqres.in\",\"first_name\":\"Lindsay\",\"last_name\":\"Ferguson\",\"avatar\":\"https:\/\/reqres.in\/img\/faces\/8-image.jpg\"},{\"id\":9,\"email\":\"tobias.funke@reqres.in\",\"first_name\":\"Tobias\",\"last_name\":\"Funke\",\"avatar\":\"https:\/\/reqres.in\/img\/faces\/9-image.jpg\"},{\"id\":10,\"email\":\"byron.fields@reqres.in\",\"first_name\":\"Byron\",\"last_name\":\"Fields\",\"avatar\":\"https:\/\/reqres.in\/img\/faces\/10-image.jpg\"},{\"id\":11,\"email\":\"george.edwards@reqres.in\",\"first_name\":\"George\",\"last_name\":\"Edwards\",\"avatar\":\"https:\/\/reqres.in\/img\/faces\/11-image.jpg\"},{\"id\":12,\"email\":\"rachel.howell@reqres.in\",\"first_name\":\"Rachel\",\"last_name\":\"Howell\",\"avatar\":\"https:\/\/reqres.in\/img\/faces\/12-image.jpg\"}],\"support\":{\"url\":\"https:\/\/reqres.in\/#support-heading\",\"text\":\"To keep ReqRes free, contributions towards server costs are appreciated!\"}}\n"},{"result":{"nanos":26600,"millis":0.0266,"status":"passed"},"step":{"line":12,"prefix":"Then","index":2,"text":"status 200"}},{"result":{"nanos":4136400,"millis":4.1364,"status":"passed"},"step":{"comments":["#i used this fuction to convert string to number"],"line":14,"prefix":"*","index":3,"text":"def fun = function(x){ x.id = ~~x.id; return x }"}},{"result":{"nanos":15410300,"millis":15.4103,"status":"passed"},"step":{"line":15,"prefix":"*","index":4,"text":"def exp = karate.map(exp, fun)"}},{"result":{"nanos":1632100,"millis":1.6321,"status":"passed"},"step":{"line":16,"prefix":"And","index":5,"text":"def acc = response"}},{"result":{"nanos":21686100,"errorMessage":"match failed: CONTAINS_DEEP\n  $ | actual does not contain expected | actual array does not contain expected item - {\"id\":2} (LIST:LIST)\n  [{\"id\":7,\"email\":\"michael.lawson@reqres.in\",\"first_name\":\"Michael\",\"last_name\":\"Lawson\",\"avatar\":\"https:\/\/reqres.in\/img\/faces\/7-image.jpg\"},{\"id\":8,\"email\":\"lindsay.ferguson@reqres.in\",\"first_name\":\"Lindsay\",\"last_name\":\"Ferguson\",\"avatar\":\"https:\/\/reqres.in\/img\/faces\/8-image.jpg\"},{\"id\":9,\"email\":\"tobias.funke@reqres.in\",\"first_name\":\"Tobias\",\"last_name\":\"Funke\",\"avatar\":\"https:\/\/reqres.in\/img\/faces\/9-image.jpg\"},{\"id\":10,\"email\":\"byron.fields@reqres.in\",\"first_name\":\"Byron\",\"last_name\":\"Fields\",\"avatar\":\"https:\/\/reqres.in\/img\/faces\/10-image.jpg\"},{\"id\":11,\"email\":\"george.edwards@reqres.in\",\"first_name\":\"George\",\"last_name\":\"Edwards\",\"avatar\":\"https:\/\/reqres.in\/img\/faces\/11-image.jpg\"},{\"id\":12,\"email\":\"rachel.howell@reqres.in\",\"first_name\":\"Rachel\",\"last_name\":\"Howell\",\"avatar\":\"https:\/\/reqres.in\/img\/faces\/12-image.jpg\"}]\n  [{\"id\":2},{\"id\":5},{\"id\":3}]\n\n    $[5] | actual does not contain expected | all key-values did not match, expected has un-matched keys - [id] (MAP:MAP)\n    {\"id\":12,\"email\":\"rachel.howell@reqres.in\",\"first_name\":\"Rachel\",\"last_name\":\"Howell\",\"avatar\":\"https:\/\/reqres.in\/img\/faces\/12-image.jpg\"}\n    {\"id\":2}\n\n      $[5].id | not equal (NUMBER:NUMBER)\n      12\n      2\n\n        $[4] | actual does not contain expected | all key-values did not match, expected has un-matched keys - [id] (MAP:MAP)\n        {\"id\":11,\"email\":\"george.edwards@reqres.in\",\"first_name\":\"George\",\"last_name\":\"Edwards\",\"avatar\":\"https:\/\/reqres.in\/img\/faces\/11-image.jpg\"}\n        {\"id\":2}\n\n          $[4].id | not equal (NUMBER:NUMBER)\n          11\n          2\n\n            $[3] | actual does not contain expected | all key-values did not match, expected has un-matched keys - [id] (MAP:MAP)\n            {\"id\":10,\"email\":\"byron.fields@reqres.in\",\"first_name\":\"Byron\",\"last_name\":\"Fields\",\"avatar\":\"https:\/\/reqres.in\/img\/faces\/10-image.jpg\"}\n            {\"id\":2}\n\n              $[3].id | not equal (NUMBER:NUMBER)\n              10\n              2\n\n                $[2] | actual does not contain expected | all key-values did not match, expected has un-matched keys - [id] (MAP:MAP)\n                {\"id\":9,\"email\":\"tobias.funke@reqres.in\",\"first_name\":\"Tobias\",\"last_name\":\"Funke\",\"avatar\":\"https:\/\/reqres.in\/img\/faces\/9-image.jpg\"}\n                {\"id\":2}\n\n                  $[2].id | not equal (NUMBER:NUMBER)\n                  9\n                  2\n\n                    $[1] | actual does not contain expected | all key-values did not match, expected has un-matched keys - [id] (MAP:MAP)\n                    {\"id\":8,\"email\":\"lindsay.ferguson@reqres.in\",\"first_name\":\"Lindsay\",\"last_name\":\"Ferguson\",\"avatar\":\"https:\/\/reqres.in\/img\/faces\/8-image.jpg\"}\n                    {\"id\":2}\n\n                      $[1].id | not equal (NUMBER:NUMBER)\n                      8\n                      2\n\n                        $[0] | actual does not contain expected | all key-values did not match, expected has un-matched keys - [id] (MAP:MAP)\n                        {\"id\":7,\"email\":\"michael.lawson@reqres.in\",\"first_name\":\"Michael\",\"last_name\":\"Lawson\",\"avatar\":\"https:\/\/reqres.in\/img\/faces\/7-image.jpg\"}\n                        {\"id\":2}\n\n                          $[0].id | not equal (NUMBER:NUMBER)\n                          7\n                          2\n\nsrc\/test\/java\/testRunner\/verifiInCsv.feature:18","millis":21.6861,"status":"failed"},"step":{"comments":["#i used deep to check 2 arrays"],"line":18,"prefix":"*","index":6,"text":"match acc.data[*] contains deep exp"},"stepLog":"21:56:45.819 src\/test\/java\/testRunner\/verifiInCsv.feature:18\n* match acc.data[*] contains deep exp\nmatch failed: CONTAINS_DEEP\n  $ | actual does not contain expected | actual array does not contain expected item - {\"id\":2} (LIST:LIST)\n  [{\"id\":7,\"email\":\"michael.lawson@reqres.in\",\"first_name\":\"Michael\",\"last_name\":\"Lawson\",\"avatar\":\"https:\/\/reqres.in\/img\/faces\/7-image.jpg\"},{\"id\":8,\"email\":\"lindsay.ferguson@reqres.in\",\"first_name\":\"Lindsay\",\"last_name\":\"Ferguson\",\"avatar\":\"https:\/\/reqres.in\/img\/faces\/8-image.jpg\"},{\"id\":9,\"email\":\"tobias.funke@reqres.in\",\"first_name\":\"Tobias\",\"last_name\":\"Funke\",\"avatar\":\"https:\/\/reqres.in\/img\/faces\/9-image.jpg\"},{\"id\":10,\"email\":\"byron.fields@reqres.in\",\"first_name\":\"Byron\",\"last_name\":\"Fields\",\"avatar\":\"https:\/\/reqres.in\/img\/faces\/10-image.jpg\"},{\"id\":11,\"email\":\"george.edwards@reqres.in\",\"first_name\":\"George\",\"last_name\":\"Edwards\",\"avatar\":\"https:\/\/reqres.in\/img\/faces\/11-image.jpg\"},{\"id\":12,\"email\":\"rachel.howell@reqres.in\",\"first_name\":\"Rachel\",\"last_name\":\"Howell\",\"avatar\":\"https:\/\/reqres.in\/img\/faces\/12-image.jpg\"}]\n  [{\"id\":2},{\"id\":5},{\"id\":3}]\n\n    $[5] | actual does not contain expected | all key-values did not match, expected has un-matched keys - [id] (MAP:MAP)\n    {\"id\":12,\"email\":\"rachel.howell@reqres.in\",\"first_name\":\"Rachel\",\"last_name\":\"Howell\",\"avatar\":\"https:\/\/reqres.in\/img\/faces\/12-image.jpg\"}\n    {\"id\":2}\n\n      $[5].id | not equal (NUMBER:NUMBER)\n      12\n      2\n\n        $[4] | actual does not contain expected | all key-values did not match, expected has un-matched keys - [id] (MAP:MAP)\n        {\"id\":11,\"email\":\"george.edwards@reqres.in\",\"first_name\":\"George\",\"last_name\":\"Edwards\",\"avatar\":\"https:\/\/reqres.in\/img\/faces\/11-image.jpg\"}\n        {\"id\":2}\n\n          $[4].id | not equal (NUMBER:NUMBER)\n          11\n          2\n\n            $[3] | actual does not contain expected | all key-values did not match, expected has un-matched keys - [id] (MAP:MAP)\n            {\"id\":10,\"email\":\"byron.fields@reqres.in\",\"first_name\":\"Byron\",\"last_name\":\"Fields\",\"avatar\":\"https:\/\/reqres.in\/img\/faces\/10-image.jpg\"}\n            {\"id\":2}\n\n              $[3].id | not equal (NUMBER:NUMBER)\n              10\n              2\n\n                $[2] | actual does not contain expected | all key-values did not match, expected has un-matched keys - [id] (MAP:MAP)\n                {\"id\":9,\"email\":\"tobias.funke@reqres.in\",\"first_name\":\"Tobias\",\"last_name\":\"Funke\",\"avatar\":\"https:\/\/reqres.in\/img\/faces\/9-image.jpg\"}\n                {\"id\":2}\n\n                  $[2].id | not equal (NUMBER:NUMBER)\n                  9\n                  2\n\n                    $[1] | actual does not contain expected | all key-values did not match, expected has un-matched keys - [id] (MAP:MAP)\n                    {\"id\":8,\"email\":\"lindsay.ferguson@reqres.in\",\"first_name\":\"Lindsay\",\"last_name\":\"Ferguson\",\"avatar\":\"https:\/\/reqres.in\/img\/faces\/8-image.jpg\"}\n                    {\"id\":2}\n\n                      $[1].id | not equal (NUMBER:NUMBER)\n                      8\n                      2\n\n                        $[0] | actual does not contain expected | all key-values did not match, expected has un-matched keys - [id] (MAP:MAP)\n                        {\"id\":7,\"email\":\"michael.lawson@reqres.in\",\"first_name\":\"Michael\",\"last_name\":\"Lawson\",\"avatar\":\"https:\/\/reqres.in\/img\/faces\/7-image.jpg\"}\n                        {\"id\":2}\n\n                          $[0].id | not equal (NUMBER:NUMBER)\n                          7\n                          2\n\nsrc\/test\/java\/testRunner\/verifiInCsv.feature:18\n"}],"line":8,"description":"","durationMillis":944.0486,"failed":true,"error":"match failed: CONTAINS_DEEP\n  $ | actual does not contain expected | actual array does not contain expected item - {\"id\":2} (LIST:LIST)\n  [{\"id\":7,\"email\":\"michael.lawson@reqres.in\",\"first_name\":\"Michael\",\"last_name\":\"Lawson\",\"avatar\":\"https:\/\/reqres.in\/img\/faces\/7-image.jpg\"},{\"id\":8,\"email\":\"lindsay.ferguson@reqres.in\",\"first_name\":\"Lindsay\",\"last_name\":\"Ferguson\",\"avatar\":\"https:\/\/reqres.in\/img\/faces\/8-image.jpg\"},{\"id\":9,\"email\":\"tobias.funke@reqres.in\",\"first_name\":\"Tobias\",\"last_name\":\"Funke\",\"avatar\":\"https:\/\/reqres.in\/img\/faces\/9-image.jpg\"},{\"id\":10,\"email\":\"byron.fields@reqres.in\",\"first_name\":\"Byron\",\"last_name\":\"Fields\",\"avatar\":\"https:\/\/reqres.in\/img\/faces\/10-image.jpg\"},{\"id\":11,\"email\":\"george.edwards@reqres.in\",\"first_name\":\"George\",\"last_name\":\"Edwards\",\"avatar\":\"https:\/\/reqres.in\/img\/faces\/11-image.jpg\"},{\"id\":12,\"email\":\"rachel.howell@reqres.in\",\"first_name\":\"Rachel\",\"last_name\":\"Howell\",\"avatar\":\"https:\/\/reqres.in\/img\/faces\/12-image.jpg\"}]\n  [{\"id\":2},{\"id\":5},{\"id\":3}]\n\n    $[5] | actual does not contain expected | all key-values did not match, expected has un-matched keys - [id] (MAP:MAP)\n    {\"id\":12,\"email\":\"rachel.howell@reqres.in\",\"first_name\":\"Rachel\",\"last_name\":\"Howell\",\"avatar\":\"https:\/\/reqres.in\/img\/faces\/12-image.jpg\"}\n    {\"id\":2}\n\n      $[5].id | not equal (NUMBER:NUMBER)\n      12\n      2\n\n        $[4] | actual does not contain expected | all key-values did not match, expected has un-matched keys - [id] (MAP:MAP)\n        {\"id\":11,\"email\":\"george.edwards@reqres.in\",\"first_name\":\"George\",\"last_name\":\"Edwards\",\"avatar\":\"https:\/\/reqres.in\/img\/faces\/11-image.jpg\"}\n        {\"id\":2}\n\n          $[4].id | not equal (NUMBER:NUMBER)\n          11\n          2\n\n            $[3] | actual does not contain expected | all key-values did not match, expected has un-matched keys - [id] (MAP:MAP)\n            {\"id\":10,\"email\":\"byron.fields@reqres.in\",\"first_name\":\"Byron\",\"last_name\":\"Fields\",\"avatar\":\"https:\/\/reqres.in\/img\/faces\/10-image.jpg\"}\n            {\"id\":2}\n\n              $[3].id | not equal (NUMBER:NUMBER)\n              10\n              2\n\n                $[2] | actual does not contain expected | all key-values did not match, expected has un-matched keys - [id] (MAP:MAP)\n                {\"id\":9,\"email\":\"tobias.funke@reqres.in\",\"first_name\":\"Tobias\",\"last_name\":\"Funke\",\"avatar\":\"https:\/\/reqres.in\/img\/faces\/9-image.jpg\"}\n                {\"id\":2}\n\n                  $[2].id | not equal (NUMBER:NUMBER)\n                  9\n                  2\n\n                    $[1] | actual does not contain expected | all key-values did not match, expected has un-matched keys - [id] (MAP:MAP)\n                    {\"id\":8,\"email\":\"lindsay.ferguson@reqres.in\",\"first_name\":\"Lindsay\",\"last_name\":\"Ferguson\",\"avatar\":\"https:\/\/reqres.in\/img\/faces\/8-image.jpg\"}\n                    {\"id\":2}\n\n                      $[1].id | not equal (NUMBER:NUMBER)\n                      8\n                      2\n\n                        $[0] | actual does not contain expected | all key-values did not match, expected has un-matched keys - [id] (MAP:MAP)\n                        {\"id\":7,\"email\":\"michael.lawson@reqres.in\",\"first_name\":\"Michael\",\"last_name\":\"Lawson\",\"avatar\":\"https:\/\/reqres.in\/img\/faces\/7-image.jpg\"}\n                        {\"id\":2}\n\n                          $[0].id | not equal (NUMBER:NUMBER)\n                          7\n                          2\n\nsrc\/test\/java\/testRunner\/verifiInCsv.feature:18","executorName":"main","name":"check if response contains csv values ids","startTime":1644785804707,"refId":"[1:8]","endTime":1644785805819,"exampleIndex":-1},{"sectionIndex":1,"stepResults":[{"result":{"nanos":1013100,"millis":1.0131,"status":"passed"},"step":{"comments":["#* url BaseURL"],"background":true,"line":5,"prefix":"*","index":0,"text":"def exp = read('data.csv')"},"stepLog":"21:56:45.826 \n"},{"result":{"nanos":876400,"millis":0.8764,"status":"passed"},"step":{"background":true,"line":6,"prefix":"*","index":1,"text":"def exp1 = read('data1.csv')"}},{"result":{"nanos":410500,"millis":0.4105,"status":"passed"},"step":{"line":21,"prefix":"Given","index":0,"text":"url 'https:\/\/reqres.in\/api\/users?page=2'"}},{"result":{"nanos":257447000,"millis":257.447,"status":"passed"},"step":{"line":22,"prefix":"When","index":1,"text":"method GET"},"stepLog":"21:56:45.831 request:\n1 > GET https:\/\/reqres.in\/api\/users?page=2\n1 > Host: reqres.in\n1 > Connection: Keep-Alive\n1 > User-Agent: Apache-HttpClient\/4.5.13 (Java\/17.0.1)\n1 > Accept-Encoding: gzip,deflate\n\n\n21:56:46.084 response time in milliseconds: 253\n1 < 200\n1 < Date: Sun, 13 Feb 2022 20:56:42 GMT\n1 < Content-Type: application\/json; charset=utf-8\n1 < Transfer-Encoding: chunked\n1 < Connection: keep-alive\n1 < x-powered-by: Express\n1 < access-control-allow-origin: *\n1 < etag: W\/\"406-ut0vzoCuidvyMf8arZpMpJ6ZRDw\"\n1 < via: 1.1 vegur\n1 < Cache-Control: max-age=14400\n1 < CF-Cache-Status: HIT\n1 < Age: 2382\n1 < Expect-CT: max-age=604800, report-uri=\"https:\/\/report-uri.cloudflare.com\/cdn-cgi\/beacon\/expect-ct\"\n1 < Report-To: {\"endpoints\":[{\"url\":\"https:\\\/\\\/a.nel.cloudflare.com\\\/report\\\/v3?s=zb2Sh9Tkny78g5xS7FTx8JsL7X0rUAkauegHlsnpY%2FYfnqH6UoRKvgqamfPcXGALYGUlZxx9cMR3%2Fp6FVIgzFTQs1VAbdMCglMy1P7lb%2F72znUs%2FBoHbkM9xK%2Fo%3D\"}],\"group\":\"cf-nel\",\"max_age\":604800}\n1 < NEL: {\"success_fraction\":0,\"report_to\":\"cf-nel\",\"max_age\":604800}\n1 < Vary: Accept-Encoding\n1 < Server: cloudflare\n1 < CF-RAY: 6dd0f7021ba7d498-BRU\n1 < alt-svc: h3=\":443\"; ma=86400, h3-29=\":443\"; ma=86400\n{\"page\":2,\"per_page\":6,\"total\":12,\"total_pages\":2,\"data\":[{\"id\":7,\"email\":\"michael.lawson@reqres.in\",\"first_name\":\"Michael\",\"last_name\":\"Lawson\",\"avatar\":\"https:\/\/reqres.in\/img\/faces\/7-image.jpg\"},{\"id\":8,\"email\":\"lindsay.ferguson@reqres.in\",\"first_name\":\"Lindsay\",\"last_name\":\"Ferguson\",\"avatar\":\"https:\/\/reqres.in\/img\/faces\/8-image.jpg\"},{\"id\":9,\"email\":\"tobias.funke@reqres.in\",\"first_name\":\"Tobias\",\"last_name\":\"Funke\",\"avatar\":\"https:\/\/reqres.in\/img\/faces\/9-image.jpg\"},{\"id\":10,\"email\":\"byron.fields@reqres.in\",\"first_name\":\"Byron\",\"last_name\":\"Fields\",\"avatar\":\"https:\/\/reqres.in\/img\/faces\/10-image.jpg\"},{\"id\":11,\"email\":\"george.edwards@reqres.in\",\"first_name\":\"George\",\"last_name\":\"Edwards\",\"avatar\":\"https:\/\/reqres.in\/img\/faces\/11-image.jpg\"},{\"id\":12,\"email\":\"rachel.howell@reqres.in\",\"first_name\":\"Rachel\",\"last_name\":\"Howell\",\"avatar\":\"https:\/\/reqres.in\/img\/faces\/12-image.jpg\"}],\"support\":{\"url\":\"https:\/\/reqres.in\/#support-heading\",\"text\":\"To keep ReqRes free, contributions towards server costs are appreciated!\"}}\n"},{"result":{"nanos":30000,"millis":0.03,"status":"passed"},"step":{"line":23,"prefix":"Then","index":2,"text":"status 200"}},{"result":{"nanos":938400,"millis":0.9384,"status":"passed"},"step":{"line":24,"prefix":"And","index":3,"text":"def acc = response"}},{"result":{"nanos":1694500,"millis":1.6945,"status":"passed"},"step":{"line":25,"prefix":"*","index":4,"text":"match acc.data[*] contains deep exp1"}}],"executorName":"main","line":20,"name":"check if response contains csv values emails","description":"","durationMillis":262.4099,"startTime":1644785805825,"failed":false,"refId":"[2:20]","endTime":1644785806091,"exampleIndex":-1}],"callDepth":0,"name":"verify if elements exists in csv file","description":"","resultDate":"2022-02-13 09:56:46 PM","durationMillis":1206.4585,"passedCount":1}