{"failedCount":0,"prefixedPath":"src\/main\/java\/first_test_k.feature","packageQualifiedName":"src.main.java.first_test_k","loopIndex":-1,"relativePath":"src\/main\/java\/first_test_k.feature","scenarioResults":[{"sectionIndex":0,"stepResults":[{"result":{"nanos":65313200,"millis":65.3132,"status":"passed"},"step":{"line":4,"prefix":"Given","index":0,"text":"url \"https:\/\/reqres.in\/api\/users?page=2\""}},{"result":{"nanos":1077156900,"millis":1077.1569,"status":"passed"},"step":{"line":5,"prefix":"When","index":1,"text":"method GET"},"stepLog":"18:15:49.413 request:\n1 > GET https:\/\/reqres.in\/api\/users?page=2\n1 > Host: reqres.in\n1 > Connection: Keep-Alive\n1 > User-Agent: Apache-HttpClient\/4.5.13 (Java\/17.0.1)\n1 > Accept-Encoding: gzip,deflate\n\n\n18:15:50.218 response time in milliseconds: 803\n1 < 200\n1 < Date: Fri, 28 Jan 2022 17:15:50 GMT\n1 < Content-Type: application\/json; charset=utf-8\n1 < Transfer-Encoding: chunked\n1 < Connection: keep-alive\n1 < x-powered-by: Express\n1 < access-control-allow-origin: *\n1 < etag: W\/\"406-ut0vzoCuidvyMf8arZpMpJ6ZRDw\"\n1 < via: 1.1 vegur\n1 < Cache-Control: max-age=14400\n1 < CF-Cache-Status: HIT\n1 < Age: 588\n1 < Expect-CT: max-age=604800, report-uri=\"https:\/\/report-uri.cloudflare.com\/cdn-cgi\/beacon\/expect-ct\"\n1 < Report-To: {\"endpoints\":[{\"url\":\"https:\\\/\\\/a.nel.cloudflare.com\\\/report\\\/v3?s=CDw4GDp6IR%2BlyLnvdrVmwKDFFOe2gf%2Fdbi3GqqJwkrZs452iCo7N0LdfxLs0Q77xl0Ady%2FUaLV1OdZjo%2FbyyqdkrkZjPs8LErke357X%2FOL%2FFPOhzrQZinQU5yDE%3D\"}],\"group\":\"cf-nel\",\"max_age\":604800}\n1 < NEL: {\"success_fraction\":0,\"report_to\":\"cf-nel\",\"max_age\":604800}\n1 < Vary: Accept-Encoding\n1 < Server: cloudflare\n1 < CF-RAY: 6d4bdd742bee11bf-BCN\n1 < alt-svc: h3=\":443\"; ma=86400, h3-29=\":443\"; ma=86400\n{\"page\":2,\"per_page\":6,\"total\":12,\"total_pages\":2,\"data\":[{\"id\":7,\"email\":\"michael.lawson@reqres.in\",\"first_name\":\"Michael\",\"last_name\":\"Lawson\",\"avatar\":\"https:\/\/reqres.in\/img\/faces\/7-image.jpg\"},{\"id\":8,\"email\":\"lindsay.ferguson@reqres.in\",\"first_name\":\"Lindsay\",\"last_name\":\"Ferguson\",\"avatar\":\"https:\/\/reqres.in\/img\/faces\/8-image.jpg\"},{\"id\":9,\"email\":\"tobias.funke@reqres.in\",\"first_name\":\"Tobias\",\"last_name\":\"Funke\",\"avatar\":\"https:\/\/reqres.in\/img\/faces\/9-image.jpg\"},{\"id\":10,\"email\":\"byron.fields@reqres.in\",\"first_name\":\"Byron\",\"last_name\":\"Fields\",\"avatar\":\"https:\/\/reqres.in\/img\/faces\/10-image.jpg\"},{\"id\":11,\"email\":\"george.edwards@reqres.in\",\"first_name\":\"George\",\"last_name\":\"Edwards\",\"avatar\":\"https:\/\/reqres.in\/img\/faces\/11-image.jpg\"},{\"id\":12,\"email\":\"rachel.howell@reqres.in\",\"first_name\":\"Rachel\",\"last_name\":\"Howell\",\"avatar\":\"https:\/\/reqres.in\/img\/faces\/12-image.jpg\"}],\"support\":{\"url\":\"https:\/\/reqres.in\/#support-heading\",\"text\":\"To keep ReqRes free, contributions towards server costs are appreciated!\"}}\n"},{"result":{"nanos":15600,"millis":0.0156,"status":"passed"},"step":{"line":6,"prefix":"Then","index":2,"text":"status 200"}},{"result":{"nanos":27919800,"millis":27.9198,"status":"passed"},"step":{"line":7,"prefix":"And","index":3,"text":"assert response.data.length == 6"}},{"result":{"nanos":24771700,"millis":24.7717,"status":"passed"},"step":{"line":8,"prefix":"And","index":4,"text":"match $.data[0].id == 7"}},{"result":{"nanos":741100,"millis":0.7411,"status":"passed"},"step":{"line":9,"prefix":"And","index":5,"text":"match $.data[0].email == 'michael.lawson@reqres.in'"}}],"executorName":"main","line":3,"name":"test API get","description":"","durationMillis":1195.9183,"startTime":1643390149087,"failed":false,"refId":"[1:3]","endTime":1643390150292,"exampleIndex":-1},{"sectionIndex":1,"stepResults":[{"result":{"nanos":321500,"millis":0.3215,"status":"passed"},"step":{"line":12,"prefix":"Given","index":0,"text":"url \"https:\/\/reqres.in\/api\/users\""}},{"result":{"nanos":1247900,"millis":1.2479,"status":"passed"},"step":{"line":13,"prefix":"And","index":1,"text":"request {\"name\": \"Mouad\" , \"job\": \"tester\"}"}},{"result":{"nanos":347667600,"millis":347.6676,"status":"passed"},"step":{"line":14,"prefix":"When","index":2,"text":"method POST"},"stepLog":"18:15:50.329 request:\n1 > POST https:\/\/reqres.in\/api\/users\n1 > Content-Type: application\/json; charset=UTF-8\n1 > Content-Length: 31\n1 > Host: reqres.in\n1 > Connection: Keep-Alive\n1 > User-Agent: Apache-HttpClient\/4.5.13 (Java\/17.0.1)\n1 > Accept-Encoding: gzip,deflate\n{\"name\":\"Mouad\",\"job\":\"tester\"}\n\n18:15:50.645 response time in milliseconds: 316\n1 < 201\n1 < Date: Fri, 28 Jan 2022 17:15:50 GMT\n1 < Content-Type: application\/json; charset=utf-8\n1 < Content-Length: 81\n1 < Connection: keep-alive\n1 < x-powered-by: Express\n1 < access-control-allow-origin: *\n1 < etag: W\/\"51-jRFPo5K9Ew\/oSBYjU9g941\/LuaA\"\n1 < via: 1.1 vegur\n1 < CF-Cache-Status: DYNAMIC\n1 < Expect-CT: max-age=604800, report-uri=\"https:\/\/report-uri.cloudflare.com\/cdn-cgi\/beacon\/expect-ct\"\n1 < Report-To: {\"endpoints\":[{\"url\":\"https:\\\/\\\/a.nel.cloudflare.com\\\/report\\\/v3?s=U3jhpBH62YZRmg0TLdgV1tzOeJCqPEsn%2FPfQOWNhRXFP87feYKJt0a%2BkJn3r%2FGM9MncYqKsSe8w%2FPrVzIopDWoloHfBr3wpGwAw0CNNMO5fCdWSISlrS26OkTOE%3D\"}],\"group\":\"cf-nel\",\"max_age\":604800}\n1 < NEL: {\"success_fraction\":0,\"report_to\":\"cf-nel\",\"max_age\":604800}\n1 < Server: cloudflare\n1 < CF-RAY: 6d4bdd789b5ed66d-MAD\n1 < alt-svc: h3=\":443\"; ma=86400, h3-29=\":443\"; ma=86400\n{\"name\":\"Mouad\",\"job\":\"tester\",\"id\":\"722\",\"createdAt\":\"2022-01-28T17:15:50.593Z\"}\n"},{"result":{"nanos":6200,"millis":0.0062,"status":"passed"},"step":{"line":15,"prefix":"Then","index":3,"text":"status 201"}},{"result":{"nanos":30102000,"millis":30.102,"status":"passed"},"step":{"line":16,"prefix":"And","index":4,"text":"print response"},"stepLog":"18:15:50.676 [print] {\n  \"name\": \"Mouad\",\n  \"job\": \"tester\",\n  \"id\": \"722\",\n  \"createdAt\": \"2022-01-28T17:15:50.593Z\"\n}\n \n"}],"executorName":"main","line":11,"name":"test API post","description":"","durationMillis":379.3452,"startTime":1643390150296,"failed":false,"refId":"[2:11]","endTime":1643390150676,"exampleIndex":-1}],"callDepth":0,"name":"test sample API","description":"","resultDate":"2022-01-28 06:15:50 PM","durationMillis":1575.2635,"passedCount":2}