{"failedCount":1,"prefixedPath":"src\/test\/java\/test_ResIsReq.feature","packageQualifiedName":"src.test.java.test_ResIsReq","loopIndex":-1,"relativePath":"src\/test\/java\/test_ResIsReq.feature","scenarioResults":[{"sectionIndex":0,"stepResults":[{"result":{"nanos":104767700,"millis":104.7677,"status":"passed"},"step":{"background":true,"line":4,"prefix":"*","index":0,"text":"url 'https:\/\/reqres.in\/api'"}},{"result":{"nanos":609800,"millis":0.6098,"status":"passed"},"step":{"line":7,"prefix":"Given","index":0,"text":"path '\/users?page=2'"}},{"result":{"nanos":1143916800,"millis":1143.9168,"status":"passed"},"step":{"line":8,"prefix":"When","index":1,"text":"method GET"},"stepLog":"00:39:59.999 request:\n1 > GET https:\/\/reqres.in\/api\/users%3Fpage=2\n1 > Host: reqres.in\n1 > Connection: Keep-Alive\n1 > User-Agent: Apache-HttpClient\/4.5.13 (Java\/17.0.1)\n1 > Accept-Encoding: gzip,deflate\n\n\n00:40:00.737 response time in milliseconds: 734\n1 < 200\n1 < Date: Sat, 12 Feb 2022 23:39:58 GMT\n1 < Content-Type: application\/json; charset=utf-8\n1 < Transfer-Encoding: chunked\n1 < Connection: keep-alive\n1 < X-Powered-By: Express\n1 < Access-Control-Allow-Origin: *\n1 < Etag: W\/\"2c1-N6Rqerxquq2kgQhL51EiSg4x0R8\"\n1 < Via: 1.1 vegur\n1 < Cache-Control: max-age=14400\n1 < CF-Cache-Status: HIT\n1 < Age: 194\n1 < Expect-CT: max-age=604800, report-uri=\"https:\/\/report-uri.cloudflare.com\/cdn-cgi\/beacon\/expect-ct\"\n1 < Report-To: {\"endpoints\":[{\"url\":\"https:\\\/\\\/a.nel.cloudflare.com\\\/report\\\/v3?s=frA0maqsckJhJss%2FLHSIInqhJzaiE5ubh%2FvsHtoL6%2Fl2AFOkWT6innZO6x8o9LrwaHsY7SbvUomXXOp3nbrNpoDp37SC87Noavki0Iijn5XqptYwwrBXoOApjM0%3D\"}],\"group\":\"cf-nel\",\"max_age\":604800}\n1 < NEL: {\"success_fraction\":0,\"report_to\":\"cf-nel\",\"max_age\":604800}\n1 < Vary: Accept-Encoding\n1 < Server: cloudflare\n1 < CF-RAY: 6dc9a8c8bff741b1-MRS\n1 < alt-svc: h3=\":443\"; ma=86400, h3-29=\":443\"; ma=86400\n{\"page\":1,\"per_page\":6,\"total\":12,\"total_pages\":2,\"data\":[{\"id\":1,\"name\":\"cerulean\",\"year\":2000,\"color\":\"#98B2D1\",\"pantone_value\":\"15-4020\"},{\"id\":2,\"name\":\"fuchsia rose\",\"year\":2001,\"color\":\"#C74375\",\"pantone_value\":\"17-2031\"},{\"id\":3,\"name\":\"true red\",\"year\":2002,\"color\":\"#BF1932\",\"pantone_value\":\"19-1664\"},{\"id\":4,\"name\":\"aqua sky\",\"year\":2003,\"color\":\"#7BC4C4\",\"pantone_value\":\"14-4811\"},{\"id\":5,\"name\":\"tigerlily\",\"year\":2004,\"color\":\"#E2583E\",\"pantone_value\":\"17-1456\"},{\"id\":6,\"name\":\"blue turquoise\",\"year\":2005,\"color\":\"#53B0AE\",\"pantone_value\":\"15-5217\"}],\"support\":{\"url\":\"https:\/\/reqres.in\/#support-heading\",\"text\":\"To keep ReqRes free, contributions towards server costs are appreciated!\"}}\n"},{"result":{"nanos":33400,"millis":0.0334,"status":"passed"},"step":{"line":9,"prefix":"Then","index":2,"text":"status 200"}},{"result":{"nanos":52340800,"millis":52.3408,"status":"passed"},"step":{"comments":["# * def response = JSON.parse(response)","# And match response.id  == '#null'"],"line":12,"prefix":"And","index":3,"text":"def uResponse = response"}},{"result":{"nanos":156197800,"millis":156.1978,"status":"passed"},"step":{"line":13,"prefix":"And","index":4,"text":"print uResponse"},"stepLog":"00:40:00.991 [print] {\n  \"page\": 1,\n  \"per_page\": 6,\n  \"total\": 12,\n  \"total_pages\": 2,\n  \"data\": [\n    {\n      \"id\": 1,\n      \"name\": \"cerulean\",\n      \"year\": 2000,\n      \"color\": \"#98B2D1\",\n      \"pantone_value\": \"15-4020\"\n    },\n    {\n      \"id\": 2,\n      \"name\": \"fuchsia rose\",\n      \"year\": 2001,\n      \"color\": \"#C74375\",\n      \"pantone_value\": \"17-2031\"\n    },\n    {\n      \"id\": 3,\n      \"name\": \"true red\",\n      \"year\": 2002,\n      \"color\": \"#BF1932\",\n      \"pantone_value\": \"19-1664\"\n    },\n    {\n      \"id\": 4,\n      \"name\": \"aqua sky\",\n      \"year\": 2003,\n      \"color\": \"#7BC4C4\",\n      \"pantone_value\": \"14-4811\"\n    },\n    {\n      \"id\": 5,\n      \"name\": \"tigerlily\",\n      \"year\": 2004,\n      \"color\": \"#E2583E\",\n      \"pantone_value\": \"17-1456\"\n    },\n    {\n      \"id\": 6,\n      \"name\": \"blue turquoise\",\n      \"year\": 2005,\n      \"color\": \"#53B0AE\",\n      \"pantone_value\": \"15-5217\"\n    }\n  ],\n  \"support\": {\n    \"url\": \"https:\/\/reqres.in\/#support-heading\",\n    \"text\": \"To keep ReqRes free, contributions towards server costs are appreciated!\"\n  }\n}\n \n"},{"result":{"nanos":59308200,"errorMessage":"match failed: CONTAINS\n  $ | actual does not contain expected | actual array does not contain expected item - 1 (LIST:LIST)\n  [1,2,3,4,5,6]\n  [\"1\"]\n\n    $[5] | data types don't match (NUMBER:STRING)\n    6\n    '1'\n\n    $[4] | data types don't match (NUMBER:STRING)\n    5\n    '1'\n\n    $[3] | data types don't match (NUMBER:STRING)\n    4\n    '1'\n\n    $[2] | data types don't match (NUMBER:STRING)\n    3\n    '1'\n\n    $[1] | data types don't match (NUMBER:STRING)\n    2\n    '1'\n\n    $[0] | data types don't match (NUMBER:STRING)\n    1\n    '1'\n\nsrc\/test\/java\/test_ResIsReq.feature:14","millis":59.3082,"status":"failed"},"step":{"line":14,"prefix":"Then","index":5,"text":"match uResponse.data[*].id contains  ['1']"},"stepLog":"00:40:01.053 src\/test\/java\/test_ResIsReq.feature:14\nThen match uResponse.data[*].id contains  ['1']\nmatch failed: CONTAINS\n  $ | actual does not contain expected | actual array does not contain expected item - 1 (LIST:LIST)\n  [1,2,3,4,5,6]\n  [\"1\"]\n\n    $[5] | data types don't match (NUMBER:STRING)\n    6\n    '1'\n\n    $[4] | data types don't match (NUMBER:STRING)\n    5\n    '1'\n\n    $[3] | data types don't match (NUMBER:STRING)\n    4\n    '1'\n\n    $[2] | data types don't match (NUMBER:STRING)\n    3\n    '1'\n\n    $[1] | data types don't match (NUMBER:STRING)\n    2\n    '1'\n\n    $[0] | data types don't match (NUMBER:STRING)\n    1\n    '1'\n\nsrc\/test\/java\/test_ResIsReq.feature:14\n"}],"line":6,"description":"","durationMillis":1517.1745,"failed":true,"error":"match failed: CONTAINS\n  $ | actual does not contain expected | actual array does not contain expected item - 1 (LIST:LIST)\n  [1,2,3,4,5,6]\n  [\"1\"]\n\n    $[5] | data types don't match (NUMBER:STRING)\n    6\n    '1'\n\n    $[4] | data types don't match (NUMBER:STRING)\n    5\n    '1'\n\n    $[3] | data types don't match (NUMBER:STRING)\n    4\n    '1'\n\n    $[2] | data types don't match (NUMBER:STRING)\n    3\n    '1'\n\n    $[1] | data types don't match (NUMBER:STRING)\n    2\n    '1'\n\n    $[0] | data types don't match (NUMBER:STRING)\n    1\n    '1'\n\nsrc\/test\/java\/test_ResIsReq.feature:14","executorName":"main","name":"","startTime":1644709199512,"refId":"[1:6]","endTime":1644709201053,"exampleIndex":-1}],"callDepth":0,"name":"test request is response","description":"","resultDate":"2022-02-13 12:40:01 AM","durationMillis":1517.1745,"passedCount":0}