{"failedCount":1,"prefixedPath":"src\/main\/java\/first_test_k.feature","packageQualifiedName":"src.main.java.first_test_k","loopIndex":-1,"relativePath":"src\/main\/java\/first_test_k.feature","scenarioResults":[{"sectionIndex":0,"stepResults":[{"result":{"nanos":115280200,"millis":115.2802,"status":"passed"},"step":{"line":8,"prefix":"Given","index":0,"text":"url \"https:\/\/reqres.in\/api\/users?page=2\""}},{"result":{"nanos":910710400,"millis":910.7104,"status":"passed"},"step":{"line":9,"prefix":"When","index":1,"text":"method GET"},"stepLog":"18:25:39.079 request:\n1 > GET https:\/\/reqres.in\/api\/users?page=2\n1 > Host: reqres.in\n1 > Connection: Keep-Alive\n1 > User-Agent: Apache-HttpClient\/4.5.13 (Java\/17.0.1)\n1 > Accept-Encoding: gzip,deflate\n\n\n18:25:39.569 response time in milliseconds: 487\n1 < 200\n1 < Date: Fri, 28 Jan 2022 17:25:39 GMT\n1 < Content-Type: application\/json; charset=utf-8\n1 < Transfer-Encoding: chunked\n1 < Connection: keep-alive\n1 < x-powered-by: Express\n1 < access-control-allow-origin: *\n1 < etag: W\/\"406-ut0vzoCuidvyMf8arZpMpJ6ZRDw\"\n1 < via: 1.1 vegur\n1 < Cache-Control: max-age=14400\n1 < CF-Cache-Status: HIT\n1 < Age: 1177\n1 < Expect-CT: max-age=604800, report-uri=\"https:\/\/report-uri.cloudflare.com\/cdn-cgi\/beacon\/expect-ct\"\n1 < Report-To: {\"endpoints\":[{\"url\":\"https:\\\/\\\/a.nel.cloudflare.com\\\/report\\\/v3?s=H%2BYpwqhHzGmqTFoQxwkQizSix7QeKfl5MMT28H2wES43pkXdPqqNrI3F2z5IAnC8O%2BIhqB41AjDVJUPW2ZBKWh1nTWrbelP4E7sQhY%2FIDILaPe%2B9bfh9zok30MY%3D\"}],\"group\":\"cf-nel\",\"max_age\":604800}\n1 < NEL: {\"success_fraction\":0,\"report_to\":\"cf-nel\",\"max_age\":604800}\n1 < Vary: Accept-Encoding\n1 < Server: cloudflare\n1 < CF-RAY: 6d4bebd9ff7111bb-BCN\n1 < alt-svc: h3=\":443\"; ma=86400, h3-29=\":443\"; ma=86400\n{\"page\":2,\"per_page\":6,\"total\":12,\"total_pages\":2,\"data\":[{\"id\":7,\"email\":\"michael.lawson@reqres.in\",\"first_name\":\"Michael\",\"last_name\":\"Lawson\",\"avatar\":\"https:\/\/reqres.in\/img\/faces\/7-image.jpg\"},{\"id\":8,\"email\":\"lindsay.ferguson@reqres.in\",\"first_name\":\"Lindsay\",\"last_name\":\"Ferguson\",\"avatar\":\"https:\/\/reqres.in\/img\/faces\/8-image.jpg\"},{\"id\":9,\"email\":\"tobias.funke@reqres.in\",\"first_name\":\"Tobias\",\"last_name\":\"Funke\",\"avatar\":\"https:\/\/reqres.in\/img\/faces\/9-image.jpg\"},{\"id\":10,\"email\":\"byron.fields@reqres.in\",\"first_name\":\"Byron\",\"last_name\":\"Fields\",\"avatar\":\"https:\/\/reqres.in\/img\/faces\/10-image.jpg\"},{\"id\":11,\"email\":\"george.edwards@reqres.in\",\"first_name\":\"George\",\"last_name\":\"Edwards\",\"avatar\":\"https:\/\/reqres.in\/img\/faces\/11-image.jpg\"},{\"id\":12,\"email\":\"rachel.howell@reqres.in\",\"first_name\":\"Rachel\",\"last_name\":\"Howell\",\"avatar\":\"https:\/\/reqres.in\/img\/faces\/12-image.jpg\"}],\"support\":{\"url\":\"https:\/\/reqres.in\/#support-heading\",\"text\":\"To keep ReqRes free, contributions towards server costs are appreciated!\"}}\n"},{"result":{"nanos":21300,"millis":0.0213,"status":"passed"},"step":{"line":10,"prefix":"Then","index":2,"text":"status 200"}},{"result":{"nanos":49715500,"millis":49.7155,"status":"passed"},"step":{"line":11,"prefix":"And","index":3,"text":"assert response.data.length == 6"}},{"result":{"nanos":38650600,"millis":38.6506,"status":"passed"},"step":{"line":12,"prefix":"And","index":4,"text":"match $.data[0].id == 7"}},{"result":{"nanos":1069400,"millis":1.0694,"status":"passed"},"step":{"line":13,"prefix":"And","index":5,"text":"match $.data[0].email == 'michael.lawson@reqres.in'"}}],"executorName":"main","line":7,"name":"test API get","description":"","durationMillis":1115.4474,"startTime":1643390738558,"failed":false,"refId":"[1:7]","endTime":1643390739689,"exampleIndex":-1},{"sectionIndex":1,"stepResults":[{"result":{"nanos":543500,"millis":0.5435,"status":"passed"},"step":{"line":16,"prefix":"Given","index":0,"text":"path '\/users'"}},{"result":{"nanos":2206000,"millis":2.206,"status":"passed"},"step":{"line":17,"prefix":"And","index":1,"text":"request {\"name\": \"Mouad\" , \"job\": \"tester\" , \"age\": 25}"}},{"result":{"nanos":41423400,"errorMessage":"http call failed after 4 milliseconds for url: \/users\nsrc\/main\/java\/first_test_k.feature:18","millis":41.4234,"status":"failed"},"step":{"line":18,"prefix":"When","index":2,"text":"method POST"},"stepLog":"18:25:39.740 karate.org.apache.http.ProtocolException: Target host is not specified, http call failed after 4 milliseconds for url: \/users\n18:25:39.740 src\/main\/java\/first_test_k.feature:18\nWhen method POST\nhttp call failed after 4 milliseconds for url: \/users\nsrc\/main\/java\/first_test_k.feature:18\n"},{"result":{"nanos":0,"millis":0.0,"status":"skipped"},"step":{"line":19,"prefix":"Then","index":3,"text":"status 201"}},{"result":{"nanos":0,"millis":0.0,"status":"skipped"},"step":{"line":20,"prefix":"And","index":4,"text":"print response"}}],"line":15,"description":"","durationMillis":44.1729,"failed":true,"error":"http call failed after 4 milliseconds for url: \/users\nsrc\/main\/java\/first_test_k.feature:18","executorName":"main","name":"test API post","startTime":1643390739695,"refId":"[2:15]","endTime":1643390739740,"exampleIndex":-1}],"callDepth":0,"name":"test sample API","description":"","resultDate":"2022-01-28 06:25:39 PM","durationMillis":1159.6203,"passedCount":1}