{"failedCount":0,"prefixedPath":"src\/test\/java\/TestFeatures\/week3\/CallJavaClass.feature","packageQualifiedName":"src.test.java.TestFeatures.week3.CallJavaClass","loopIndex":-1,"relativePath":"src\/test\/java\/TestFeatures\/week3\/CallJavaClass.feature","scenarioResults":[{"sectionIndex":0,"stepResults":[{"result":{"nanos":52076600,"millis":52.0766,"status":"passed"},"step":{"comments":["#* url BaseURL"],"background":true,"line":5,"prefix":"*","index":0,"text":"def exp1 = read('classpath:\/TestData\/data.csv')"},"stepLog":"21:17:51.934 \n"},{"result":{"nanos":976600,"millis":0.9766,"status":"passed"},"step":{"line":9,"prefix":"Given","index":0,"text":"url 'https:\/\/reqres.in\/api\/users?page=2'"}},{"result":{"nanos":35784300,"millis":35.7843,"status":"passed"},"step":{"comments":["#Given path '\/users?page=2'","#This function to get values without keys"],"line":12,"prefix":"*","index":1,"text":"def ids = karate.jsonPath(exp1,\"$..id\")"}},{"result":{"nanos":1997200,"millis":1.9972,"status":"passed"},"step":{"line":13,"prefix":"*","index":2,"text":"print ids"},"stepLog":"21:17:52.052 [print] [\n  \"8\",\n  \"9\",\n  \"7\"\n]\n \n"},{"result":{"nanos":4962200,"millis":4.9622,"status":"passed"},"step":{"comments":["#call Convert java function"],"line":15,"prefix":"*","index":3,"text":"def fun = Java.type('Functions.ConvertS2N')"}},{"result":{"nanos":2738500,"millis":2.7385,"status":"passed"},"step":{"line":16,"prefix":"*","index":4,"text":"def exp = fun.castS2N(ids)"}},{"result":{"nanos":912400,"millis":0.9124,"status":"passed"},"step":{"line":17,"prefix":"*","index":5,"text":"print exp"},"stepLog":"21:17:52.061 [print] [\n  8,\n  9,\n  7\n]\n \n"},{"result":{"nanos":990802500,"millis":990.8025,"status":"passed"},"step":{"line":18,"prefix":"When","index":6,"text":"method GET"},"stepLog":"21:17:52.412 request:\n1 > GET https:\/\/reqres.in\/api\/users?page=2\n1 > Host: reqres.in\n1 > Connection: Keep-Alive\n1 > User-Agent: Apache-HttpClient\/4.5.13 (Java\/17.0.1)\n1 > Accept-Encoding: gzip,deflate\n\n\n21:17:53.047 response time in milliseconds: 629\n1 < 200\n1 < Date: Sun, 20 Feb 2022 20:17:45 GMT\n1 < Content-Type: application\/json; charset=utf-8\n1 < Transfer-Encoding: chunked\n1 < Connection: keep-alive\n1 < X-Powered-By: Express\n1 < Access-Control-Allow-Origin: *\n1 < Etag: W\/\"406-ut0vzoCuidvyMf8arZpMpJ6ZRDw\"\n1 < Via: 1.1 vegur\n1 < Cache-Control: max-age=14400\n1 < CF-Cache-Status: HIT\n1 < Age: 6179\n1 < Expect-CT: max-age=604800, report-uri=\"https:\/\/report-uri.cloudflare.com\/cdn-cgi\/beacon\/expect-ct\"\n1 < Report-To: {\"endpoints\":[{\"url\":\"https:\\\/\\\/a.nel.cloudflare.com\\\/report\\\/v3?s=Clx4cXXydqAZJp4%2F1vGpniTUV%2BP6yr9nll4vZtMDvxVEmIAxxKwd7%2BH5ifAKcUcz%2FUaoWSAoRk0ZjOJMP5DdaKFn4OB1riJbVrTOfZI9zPOIqEpoOC5mm84C4EE%3D\"}],\"group\":\"cf-nel\",\"max_age\":604800}\n1 < NEL: {\"success_fraction\":0,\"report_to\":\"cf-nel\",\"max_age\":604800}\n1 < Vary: Accept-Encoding\n1 < Server: cloudflare\n1 < CF-RAY: 6e0a6b906c18737d-MRS\n1 < alt-svc: h3=\":443\"; ma=86400, h3-29=\":443\"; ma=86400\n{\"page\":2,\"per_page\":6,\"total\":12,\"total_pages\":2,\"data\":[{\"id\":7,\"email\":\"michael.lawson@reqres.in\",\"first_name\":\"Michael\",\"last_name\":\"Lawson\",\"avatar\":\"https:\/\/reqres.in\/img\/faces\/7-image.jpg\"},{\"id\":8,\"email\":\"lindsay.ferguson@reqres.in\",\"first_name\":\"Lindsay\",\"last_name\":\"Ferguson\",\"avatar\":\"https:\/\/reqres.in\/img\/faces\/8-image.jpg\"},{\"id\":9,\"email\":\"tobias.funke@reqres.in\",\"first_name\":\"Tobias\",\"last_name\":\"Funke\",\"avatar\":\"https:\/\/reqres.in\/img\/faces\/9-image.jpg\"},{\"id\":10,\"email\":\"byron.fields@reqres.in\",\"first_name\":\"Byron\",\"last_name\":\"Fields\",\"avatar\":\"https:\/\/reqres.in\/img\/faces\/10-image.jpg\"},{\"id\":11,\"email\":\"george.edwards@reqres.in\",\"first_name\":\"George\",\"last_name\":\"Edwards\",\"avatar\":\"https:\/\/reqres.in\/img\/faces\/11-image.jpg\"},{\"id\":12,\"email\":\"rachel.howell@reqres.in\",\"first_name\":\"Rachel\",\"last_name\":\"Howell\",\"avatar\":\"https:\/\/reqres.in\/img\/faces\/12-image.jpg\"}],\"support\":{\"url\":\"https:\/\/reqres.in\/#support-heading\",\"text\":\"To keep ReqRes free, contributions towards server costs are appreciated!\"}}\n"},{"result":{"nanos":24100,"millis":0.0241,"status":"passed"},"step":{"line":19,"prefix":"Then","index":7,"text":"status 200"}},{"result":{"nanos":1544100,"millis":1.5441,"status":"passed"},"step":{"line":20,"prefix":"And","index":8,"text":"def acc = response"}},{"result":{"nanos":13654500,"millis":13.6545,"status":"passed"},"step":{"line":21,"prefix":"*","index":9,"text":"match acc.data[*].id contains  exp"}}],"executorName":"main","line":8,"name":"check if response contains csv values ids","description":"","durationMillis":1105.473,"startTime":1645388271789,"failed":false,"refId":"[1:8]","endTime":1645388273068,"exampleIndex":-1}],"callDepth":0,"name":"Call methode to string from java class","description":"","resultDate":"2022-02-20 09:17:53 PM","durationMillis":1105.473,"passedCount":1}