{"failedCount":2,"prefixedPath":"src\/test\/java\/test_ResIsReq.feature","packageQualifiedName":"src.test.java.test_ResIsReq","loopIndex":-1,"relativePath":"src\/test\/java\/test_ResIsReq.feature","scenarioResults":[{"sectionIndex":0,"stepResults":[{"result":{"nanos":56891600,"millis":56.8916,"status":"passed"},"step":{"background":true,"line":4,"prefix":"*","index":0,"text":"url 'https:\/\/reqres.in\/api'"}},{"result":{"nanos":772300,"millis":0.7723,"status":"passed"},"step":{"line":7,"prefix":"Given","index":0,"text":"path '\/users?page=2'"}},{"result":{"nanos":736499500,"millis":736.4995,"status":"passed"},"step":{"line":8,"prefix":"When","index":1,"text":"method GET"},"stepLog":"15:06:52.974 request:\n1 > GET https:\/\/reqres.in\/api\/users%3Fpage=2\n1 > Host: reqres.in\n1 > Connection: Keep-Alive\n1 > User-Agent: Apache-HttpClient\/4.5.13 (Java\/17.0.1)\n1 > Accept-Encoding: gzip,deflate\n\n\n15:06:53.459 response time in milliseconds: 484\n1 < 200\n1 < Date: Sun, 13 Feb 2022 14:06:50 GMT\n1 < Content-Type: application\/json; charset=utf-8\n1 < Transfer-Encoding: chunked\n1 < Connection: keep-alive\n1 < X-Powered-By: Express\n1 < Access-Control-Allow-Origin: *\n1 < Etag: W\/\"2c1-N6Rqerxquq2kgQhL51EiSg4x0R8\"\n1 < Via: 1.1 vegur\n1 < Cache-Control: max-age=14400\n1 < CF-Cache-Status: HIT\n1 < Age: 78\n1 < Expect-CT: max-age=604800, report-uri=\"https:\/\/report-uri.cloudflare.com\/cdn-cgi\/beacon\/expect-ct\"\n1 < Report-To: {\"endpoints\":[{\"url\":\"https:\\\/\\\/a.nel.cloudflare.com\\\/report\\\/v3?s=%2Bji3PFw69TTk2n3JS05qiKzIO82D2gJzTMQ784fHqP3ZBHdNKA%2FVMtmi2UcgCi6UVjNI%2FVMAK%2F9zAUMPuUea5deuIyJ53hgB5sccepRCzpojmdfTFH0auP2aDJ8%3D\"}],\"group\":\"cf-nel\",\"max_age\":604800}\n1 < NEL: {\"success_fraction\":0,\"report_to\":\"cf-nel\",\"max_age\":604800}\n1 < Vary: Accept-Encoding\n1 < Server: cloudflare\n1 < CF-RAY: 6dce9e9e6c0741bf-MRS\n1 < alt-svc: h3=\":443\"; ma=86400, h3-29=\":443\"; ma=86400\n{\"page\":1,\"per_page\":6,\"total\":12,\"total_pages\":2,\"data\":[{\"id\":1,\"name\":\"cerulean\",\"year\":2000,\"color\":\"#98B2D1\",\"pantone_value\":\"15-4020\"},{\"id\":2,\"name\":\"fuchsia rose\",\"year\":2001,\"color\":\"#C74375\",\"pantone_value\":\"17-2031\"},{\"id\":3,\"name\":\"true red\",\"year\":2002,\"color\":\"#BF1932\",\"pantone_value\":\"19-1664\"},{\"id\":4,\"name\":\"aqua sky\",\"year\":2003,\"color\":\"#7BC4C4\",\"pantone_value\":\"14-4811\"},{\"id\":5,\"name\":\"tigerlily\",\"year\":2004,\"color\":\"#E2583E\",\"pantone_value\":\"17-1456\"},{\"id\":6,\"name\":\"blue turquoise\",\"year\":2005,\"color\":\"#53B0AE\",\"pantone_value\":\"15-5217\"}],\"support\":{\"url\":\"https:\/\/reqres.in\/#support-heading\",\"text\":\"To keep ReqRes free, contributions towards server costs are appreciated!\"}}\n"},{"result":{"nanos":16800,"millis":0.0168,"status":"passed"},"step":{"line":9,"prefix":"Then","index":2,"text":"status 200"}},{"result":{"nanos":21884200,"millis":21.8842,"status":"passed"},"step":{"line":10,"prefix":"And","index":3,"text":"def uResponse = response"}},{"result":{"nanos":43254100,"millis":43.2541,"status":"passed"},"step":{"line":11,"prefix":"And","index":4,"text":"print uResponse"},"stepLog":"15:06:53.546 [print] {\n  \"page\": 1,\n  \"per_page\": 6,\n  \"total\": 12,\n  \"total_pages\": 2,\n  \"data\": [\n    {\n      \"id\": 1,\n      \"name\": \"cerulean\",\n      \"year\": 2000,\n      \"color\": \"#98B2D1\",\n      \"pantone_value\": \"15-4020\"\n    },\n    {\n      \"id\": 2,\n      \"name\": \"fuchsia rose\",\n      \"year\": 2001,\n      \"color\": \"#C74375\",\n      \"pantone_value\": \"17-2031\"\n    },\n    {\n      \"id\": 3,\n      \"name\": \"true red\",\n      \"year\": 2002,\n      \"color\": \"#BF1932\",\n      \"pantone_value\": \"19-1664\"\n    },\n    {\n      \"id\": 4,\n      \"name\": \"aqua sky\",\n      \"year\": 2003,\n      \"color\": \"#7BC4C4\",\n      \"pantone_value\": \"14-4811\"\n    },\n    {\n      \"id\": 5,\n      \"name\": \"tigerlily\",\n      \"year\": 2004,\n      \"color\": \"#E2583E\",\n      \"pantone_value\": \"17-1456\"\n    },\n    {\n      \"id\": 6,\n      \"name\": \"blue turquoise\",\n      \"year\": 2005,\n      \"color\": \"#53B0AE\",\n      \"pantone_value\": \"15-5217\"\n    }\n  ],\n  \"support\": {\n    \"url\": \"https:\/\/reqres.in\/#support-heading\",\n    \"text\": \"To keep ReqRes free, contributions towards server costs are appreciated!\"\n  }\n}\n \n"},{"result":{"nanos":14490400,"millis":14.4904,"status":"passed"},"step":{"line":12,"prefix":"Then","index":5,"text":"match uResponse.data[*].name contains  ['cerulean']"}},{"result":{"nanos":2419500,"millis":2.4195,"status":"passed"},"step":{"line":13,"prefix":"Then","index":6,"text":"def rec = uResponse.data.name = 'cerulean'"}}],"executorName":"main","line":6,"name":"get if cerulean exist","description":"","durationMillis":876.2284,"startTime":1644761212679,"failed":false,"refId":"[1:6]","endTime":1644761213564,"exampleIndex":-1},{"sectionIndex":1,"stepResults":[{"result":{"nanos":343300,"millis":0.3433,"status":"passed"},"step":{"background":true,"line":4,"prefix":"*","index":0,"text":"url 'https:\/\/reqres.in\/api'"}},{"result":{"nanos":198200,"millis":0.1982,"status":"passed"},"step":{"line":16,"prefix":"Given","index":0,"text":"path '\/users\/2'"}},{"result":{"nanos":170723300,"millis":170.7233,"status":"passed"},"step":{"line":17,"prefix":"When","index":1,"text":"method GET"},"stepLog":"15:06:53.569 request:\n1 > GET https:\/\/reqres.in\/api\/users\/2\n1 > Host: reqres.in\n1 > Connection: Keep-Alive\n1 > User-Agent: Apache-HttpClient\/4.5.13 (Java\/17.0.1)\n1 > Accept-Encoding: gzip,deflate\n\n\n15:06:53.738 response time in milliseconds: 169\n1 < 200\n1 < Date: Sun, 13 Feb 2022 14:06:50 GMT\n1 < Content-Type: application\/json; charset=utf-8\n1 < Transfer-Encoding: chunked\n1 < Connection: keep-alive\n1 < X-Powered-By: Express\n1 < Access-Control-Allow-Origin: *\n1 < Etag: W\/\"118-pbdwwFo9SKNhD3Lx5iHJyngpq00\"\n1 < Via: 1.1 vegur\n1 < Cache-Control: max-age=14400\n1 < CF-Cache-Status: HIT\n1 < Age: 702\n1 < Expect-CT: max-age=604800, report-uri=\"https:\/\/report-uri.cloudflare.com\/cdn-cgi\/beacon\/expect-ct\"\n1 < Report-To: {\"endpoints\":[{\"url\":\"https:\\\/\\\/a.nel.cloudflare.com\\\/report\\\/v3?s=AAVuz1jIKo7xSeFW4ZIJ5n%2BIaQKWo3OpMVBo3cO05zNRqPh2%2B5dgFxR0z3TdQqG8m3Ba4aNIk6sTjwuDpHMegkSjmJ5gbx2jh69754fi8rExJQJZZGt6PXfoNQs%3D\"}],\"group\":\"cf-nel\",\"max_age\":604800}\n1 < NEL: {\"success_fraction\":0,\"report_to\":\"cf-nel\",\"max_age\":604800}\n1 < Vary: Accept-Encoding\n1 < Server: cloudflare\n1 < CF-RAY: 6dce9ea0285ae920-MRS\n1 < alt-svc: h3=\":443\"; ma=86400, h3-29=\":443\"; ma=86400\n{\"data\":{\"id\":2,\"email\":\"janet.weaver@reqres.in\",\"first_name\":\"Janet\",\"last_name\":\"Weaver\",\"avatar\":\"https:\/\/reqres.in\/img\/faces\/2-image.jpg\"},\"support\":{\"url\":\"https:\/\/reqres.in\/#support-heading\",\"text\":\"To keep ReqRes free, contributions towards server costs are appreciated!\"}}\n"},{"result":{"nanos":9100,"millis":0.0091,"status":"passed"},"step":{"line":18,"prefix":"Then","index":2,"text":"status 200"}},{"result":{"nanos":323200,"millis":0.3232,"status":"passed"},"step":{"line":19,"prefix":"And","index":3,"text":"def u1Response = response"}},{"result":{"nanos":1000800,"millis":1.0008,"status":"passed"},"step":{"line":20,"prefix":"And","index":4,"text":"print u1Response"},"stepLog":"15:06:53.741 [print] {\n  \"data\": {\n    \"id\": 2,\n    \"email\": \"janet.weaver@reqres.in\",\n    \"first_name\": \"Janet\",\n    \"last_name\": \"Weaver\",\n    \"avatar\": \"https:\/\/reqres.in\/img\/faces\/2-image.jpg\"\n  },\n  \"support\": {\n    \"url\": \"https:\/\/reqres.in\/#support-heading\",\n    \"text\": \"To keep ReqRes free, contributions towards server costs are appreciated!\"\n  }\n}\n \n"},{"result":{"nanos":1738900,"errorMessage":"match failed: CONTAINS\n  $ | actual does not contain expected | actual array length is less than expected - 0:1 (LIST:LIST)\n  []\n  [\"cerulean\"]\n\n\nsrc\/test\/java\/test_ResIsReq.feature:21","millis":1.7389,"status":"failed"},"step":{"line":21,"prefix":"Then","index":5,"text":"match u1Response.data[*].name contains  ['cerulean']"},"stepLog":"15:06:53.743 src\/test\/java\/test_ResIsReq.feature:21\nThen match u1Response.data[*].name contains  ['cerulean']\nmatch failed: CONTAINS\n  $ | actual does not contain expected | actual array length is less than expected - 0:1 (LIST:LIST)\n  []\n  [\"cerulean\"]\n\n\nsrc\/test\/java\/test_ResIsReq.feature:21\n"}],"line":15,"description":"","durationMillis":174.3368,"failed":true,"error":"match failed: CONTAINS\n  $ | actual does not contain expected | actual array length is less than expected - 0:1 (LIST:LIST)\n  []\n  [\"cerulean\"]\n\n\nsrc\/test\/java\/test_ResIsReq.feature:21","executorName":"main","name":"","startTime":1644761213567,"refId":"[2:15]","endTime":1644761213743,"exampleIndex":-1},{"sectionIndex":2,"stepResults":[{"result":{"nanos":187800,"millis":0.1878,"status":"passed"},"step":{"background":true,"line":4,"prefix":"*","index":0,"text":"url 'https:\/\/reqres.in\/api'"}},{"result":{"nanos":319000,"millis":0.319,"status":"passed"},"step":{"line":24,"prefix":"Given","index":0,"text":"path '\/users?page=2'"}},{"result":{"nanos":136534000,"millis":136.534,"status":"passed"},"step":{"line":25,"prefix":"When","index":1,"text":"method GET"},"stepLog":"15:06:53.748 request:\n1 > GET https:\/\/reqres.in\/api\/users%3Fpage=2\n1 > Host: reqres.in\n1 > Connection: Keep-Alive\n1 > User-Agent: Apache-HttpClient\/4.5.13 (Java\/17.0.1)\n1 > Accept-Encoding: gzip,deflate\n\n\n15:06:53.883 response time in milliseconds: 135\n1 < 200\n1 < Date: Sun, 13 Feb 2022 14:06:51 GMT\n1 < Content-Type: application\/json; charset=utf-8\n1 < Transfer-Encoding: chunked\n1 < Connection: keep-alive\n1 < X-Powered-By: Express\n1 < Access-Control-Allow-Origin: *\n1 < Etag: W\/\"2c1-N6Rqerxquq2kgQhL51EiSg4x0R8\"\n1 < Via: 1.1 vegur\n1 < Cache-Control: max-age=14400\n1 < CF-Cache-Status: HIT\n1 < Age: 79\n1 < Expect-CT: max-age=604800, report-uri=\"https:\/\/report-uri.cloudflare.com\/cdn-cgi\/beacon\/expect-ct\"\n1 < Report-To: {\"endpoints\":[{\"url\":\"https:\\\/\\\/a.nel.cloudflare.com\\\/report\\\/v3?s=mj1hXGtnvp7dpB24BskoAVBnyh05nv3tuNgB3KGtAaC7WXJ28%2BDJ75fcP6BAyPsNFAgdIQRigEzsjV1qniJMO8GY3ZaaN9w16OxDXyJqAQi0DZ8mojOyqPqQ9Wg%3D\"}],\"group\":\"cf-nel\",\"max_age\":604800}\n1 < NEL: {\"success_fraction\":0,\"report_to\":\"cf-nel\",\"max_age\":604800}\n1 < Vary: Accept-Encoding\n1 < Server: cloudflare\n1 < CF-RAY: 6dce9ea10f2a0fe2-MRS\n1 < alt-svc: h3=\":443\"; ma=86400, h3-29=\":443\"; ma=86400\n{\"page\":1,\"per_page\":6,\"total\":12,\"total_pages\":2,\"data\":[{\"id\":1,\"name\":\"cerulean\",\"year\":2000,\"color\":\"#98B2D1\",\"pantone_value\":\"15-4020\"},{\"id\":2,\"name\":\"fuchsia rose\",\"year\":2001,\"color\":\"#C74375\",\"pantone_value\":\"17-2031\"},{\"id\":3,\"name\":\"true red\",\"year\":2002,\"color\":\"#BF1932\",\"pantone_value\":\"19-1664\"},{\"id\":4,\"name\":\"aqua sky\",\"year\":2003,\"color\":\"#7BC4C4\",\"pantone_value\":\"14-4811\"},{\"id\":5,\"name\":\"tigerlily\",\"year\":2004,\"color\":\"#E2583E\",\"pantone_value\":\"17-1456\"},{\"id\":6,\"name\":\"blue turquoise\",\"year\":2005,\"color\":\"#53B0AE\",\"pantone_value\":\"15-5217\"}],\"support\":{\"url\":\"https:\/\/reqres.in\/#support-heading\",\"text\":\"To keep ReqRes free, contributions towards server costs are appreciated!\"}}\n"},{"result":{"nanos":8200,"millis":0.0082,"status":"passed"},"step":{"line":26,"prefix":"Then","index":2,"text":"status 200"}},{"result":{"nanos":638300,"millis":0.6383,"status":"passed"},"step":{"comments":["# * def name = 'cerulean'"],"line":28,"prefix":"*","index":3,"text":"def response = response.data"}},{"result":{"nanos":215800,"millis":0.2158,"status":"passed"},"step":{"comments":["#* def names = $[*].name","#* def index = names.indexOf(name)"],"line":31,"prefix":"*","index":4,"text":"def indexes = []"}},{"result":{"nanos":8478000,"millis":8.478,"status":"passed"},"step":{"line":32,"prefix":"*","index":5,"text":"def fun = function(x, i){ if (x.name == 'cerulean') karate.appendTo(indexes, i) }"}},{"result":{"nanos":10316300,"errorMessage":"js failed:\n>>>>\n01: karate.log('[print]',i)\n<<<<\norg.graalvm.polyglot.PolyglotException: ReferenceError: \"i\" is not defined\n- <js>.:program(Unnamed:1)\n\nsrc\/test\/java\/test_ResIsReq.feature:33","millis":10.3163,"status":"failed"},"step":{"line":33,"prefix":"*","index":6,"text":"print i"},"stepLog":"15:06:53.904 src\/test\/java\/test_ResIsReq.feature:33\n* print i\njs failed:\n>>>>\n01: karate.log('[print]',i)\n<<<<\norg.graalvm.polyglot.PolyglotException: ReferenceError: \"i\" is not defined\n- <js>.:program(Unnamed:1)\n\nsrc\/test\/java\/test_ResIsReq.feature:33\n"},{"result":{"nanos":0,"millis":0.0,"status":"skipped"},"step":{"line":34,"prefix":"*","index":7,"text":"karate.forEach(response.items, fun)"}}],"line":23,"description":"","durationMillis":156.6974,"failed":true,"error":"js failed:\n>>>>\n01: karate.log('[print]',i)\n<<<<\norg.graalvm.polyglot.PolyglotException: ReferenceError: \"i\" is not defined\n- <js>.:program(Unnamed:1)\n\nsrc\/test\/java\/test_ResIsReq.feature:33","executorName":"main","name":"get index cerulean","startTime":1644761213746,"refId":"[3:23]","endTime":1644761213904,"exampleIndex":-1}],"callDepth":0,"name":"test request is response","description":"","resultDate":"2022-02-13 03:06:53 PM","durationMillis":1207.2626,"passedCount":1}