{"failedCount":0,"prefixedPath":"classpath:TestFeatures\/Week1\/testapi.feature","packageQualifiedName":"TestFeatures.Week1.testapi","loopIndex":-1,"relativePath":"TestFeatures\/Week1\/testapi.feature","scenarioResults":[{"sectionIndex":0,"stepResults":[{"result":{"nanos":1076100,"millis":1.0761,"status":"passed"},"step":{"background":true,"line":4,"prefix":"*","index":0,"text":"url 'https:\/\/reqres.in\/api'"},"stepLog":"17:37:50.521 \n"},{"result":{"nanos":45814100,"millis":45.8141,"status":"passed"},"step":{"background":true,"line":5,"prefix":"*","index":1,"text":"def output = read('classpath:\/TestData\/response1.json')"}},{"result":{"nanos":4262500,"millis":4.2625,"status":"passed"},"step":{"background":true,"line":6,"prefix":"*","index":2,"text":"def request1 = read('classpath:\/TestData\/request1.json')"}},{"result":{"nanos":410200,"millis":0.4102,"status":"passed"},"step":{"line":9,"prefix":"Given","index":0,"text":"path '\/users?page=2'"}},{"result":{"nanos":847199500,"millis":847.1995,"status":"passed"},"step":{"line":10,"prefix":"When","index":1,"text":"method GET"},"stepLog":"17:37:50.787 request:\n1 > GET https:\/\/reqres.in\/api\/users%3Fpage=2\n1 > Host: reqres.in\n1 > Connection: Keep-Alive\n1 > User-Agent: Apache-HttpClient\/4.5.13 (Java\/17.0.1)\n1 > Accept-Encoding: gzip,deflate\n\n\n17:37:51.439 response time in milliseconds: 649\n1 < 200\n1 < Date: Sun, 20 Feb 2022 16:37:43 GMT\n1 < Content-Type: application\/json; charset=utf-8\n1 < Transfer-Encoding: chunked\n1 < Connection: keep-alive\n1 < X-Powered-By: Express\n1 < Access-Control-Allow-Origin: *\n1 < Etag: W\/\"2c1-N6Rqerxquq2kgQhL51EiSg4x0R8\"\n1 < Via: 1.1 vegur\n1 < Cache-Control: max-age=14400\n1 < CF-Cache-Status: HIT\n1 < Age: 4298\n1 < Expect-CT: max-age=604800, report-uri=\"https:\/\/report-uri.cloudflare.com\/cdn-cgi\/beacon\/expect-ct\"\n1 < Report-To: {\"endpoints\":[{\"url\":\"https:\\\/\\\/a.nel.cloudflare.com\\\/report\\\/v3?s=2hA%2F33EXnD7x6ey1X2Mpt0LCncgiEbptfnoI%2BtX8LQIQHP%2Bh2Aah3LSpm%2Bl0FdBjmAOEk1fFwupJM0lorJ2albZ%2BgZ9iOduojbM11FQ5mUr64%2BJK2tMHTc4efes%3D\"}],\"group\":\"cf-nel\",\"max_age\":604800}\n1 < NEL: {\"success_fraction\":0,\"report_to\":\"cf-nel\",\"max_age\":604800}\n1 < Vary: Accept-Encoding\n1 < Server: cloudflare\n1 < CF-RAY: 6e092942feb84202-MRS\n1 < alt-svc: h3=\":443\"; ma=86400, h3-29=\":443\"; ma=86400\n{\"page\":1,\"per_page\":6,\"total\":12,\"total_pages\":2,\"data\":[{\"id\":1,\"name\":\"cerulean\",\"year\":2000,\"color\":\"#98B2D1\",\"pantone_value\":\"15-4020\"},{\"id\":2,\"name\":\"fuchsia rose\",\"year\":2001,\"color\":\"#C74375\",\"pantone_value\":\"17-2031\"},{\"id\":3,\"name\":\"true red\",\"year\":2002,\"color\":\"#BF1932\",\"pantone_value\":\"19-1664\"},{\"id\":4,\"name\":\"aqua sky\",\"year\":2003,\"color\":\"#7BC4C4\",\"pantone_value\":\"14-4811\"},{\"id\":5,\"name\":\"tigerlily\",\"year\":2004,\"color\":\"#E2583E\",\"pantone_value\":\"17-1456\"},{\"id\":6,\"name\":\"blue turquoise\",\"year\":2005,\"color\":\"#53B0AE\",\"pantone_value\":\"15-5217\"}],\"support\":{\"url\":\"https:\/\/reqres.in\/#support-heading\",\"text\":\"To keep ReqRes free, contributions towards server costs are appreciated!\"}}\n"},{"result":{"nanos":22000,"millis":0.022,"status":"passed"},"step":{"line":11,"prefix":"Then","index":2,"text":"status 200"}},{"result":{"nanos":1947400,"millis":1.9474,"status":"passed"},"step":{"line":12,"prefix":"And","index":3,"text":"assert response.data.length == 6"}},{"result":{"nanos":3488600,"millis":3.4886,"status":"passed"},"step":{"line":13,"prefix":"And","index":4,"text":"print response.data[1].id"},"stepLog":"17:37:51.450 [print] 2 \n"},{"result":{"nanos":8016600,"millis":8.0166,"status":"passed"},"step":{"line":14,"prefix":"And","index":5,"text":"match $.data[0].id == 1"}},{"result":{"nanos":911800,"millis":0.9118,"status":"passed"},"step":{"line":15,"prefix":"And","index":6,"text":"print response.data[0].year"},"stepLog":"17:37:51.459 [print] 2000 \n"},{"result":{"nanos":1381900,"millis":1.3819,"status":"passed"},"step":{"line":16,"prefix":"And","index":7,"text":"match $.data[0].year == 2000"}}],"executorName":"main","line":8,"name":"test API get 1","description":"","durationMillis":914.5307,"startTime":1645375070398,"failed":false,"refId":"[1:8]","endTime":1645375071460,"exampleIndex":-1},{"sectionIndex":1,"stepResults":[{"result":{"nanos":406300,"millis":0.4063,"status":"passed"},"step":{"background":true,"line":4,"prefix":"*","index":0,"text":"url 'https:\/\/reqres.in\/api'"},"stepLog":"17:37:51.469 \n"},{"result":{"nanos":12477800,"millis":12.4778,"status":"passed"},"step":{"background":true,"line":5,"prefix":"*","index":1,"text":"def output = read('classpath:\/TestData\/response1.json')"}},{"result":{"nanos":1675600,"millis":1.6756,"status":"passed"},"step":{"background":true,"line":6,"prefix":"*","index":2,"text":"def request1 = read('classpath:\/TestData\/request1.json')"}},{"result":{"nanos":289100,"millis":0.2891,"status":"passed"},"step":{"line":19,"prefix":"Given","index":0,"text":"path '\/users'"}},{"result":{"nanos":187900,"millis":0.1879,"status":"passed"},"step":{"line":20,"prefix":"And","index":1,"text":"request {\"name\": \"Mouad\" , \"job\": \"tester\" , \"age\": 25}"}},{"result":{"nanos":5355265700,"millis":5355.2657,"status":"passed"},"step":{"line":21,"prefix":"When","index":2,"text":"method POST"},"stepLog":"17:37:51.543 request:\n1 > POST https:\/\/reqres.in\/api\/users\n1 > Content-Type: application\/json; charset=UTF-8\n1 > Content-Length: 40\n1 > Host: reqres.in\n1 > Connection: Keep-Alive\n1 > User-Agent: Apache-HttpClient\/4.5.13 (Java\/17.0.1)\n1 > Accept-Encoding: gzip,deflate\n{\"name\":\"Mouad\",\"job\":\"tester\",\"age\":25}\n\n17:37:56.839 response time in milliseconds: 5296\n1 < 201\n1 < Date: Sun, 20 Feb 2022 16:37:48 GMT\n1 < Content-Type: application\/json; charset=utf-8\n1 < Content-Length: 90\n1 < Connection: keep-alive\n1 < X-Powered-By: Express\n1 < Access-Control-Allow-Origin: *\n1 < Etag: W\/\"5a-jZwvbG0JDoSGIDWOljZzJeE2Omw\"\n1 < Via: 1.1 vegur\n1 < CF-Cache-Status: DYNAMIC\n1 < Expect-CT: max-age=604800, report-uri=\"https:\/\/report-uri.cloudflare.com\/cdn-cgi\/beacon\/expect-ct\"\n1 < Report-To: {\"endpoints\":[{\"url\":\"https:\\\/\\\/a.nel.cloudflare.com\\\/report\\\/v3?s=Qku%2FXqwrVumb1GaEa%2FiPtGlaoz5OmSg%2Baq42UN6ChyNNL7wK8tPirKuOikcV01XsUxlq%2F8ZDRxdAVXbqzIYVlc3rZsfJgpGYsNDUE3pGcvj4jStzjzB0jFMdKdM%3D\"}],\"group\":\"cf-nel\",\"max_age\":604800}\n1 < NEL: {\"success_fraction\":0,\"report_to\":\"cf-nel\",\"max_age\":604800}\n1 < Server: cloudflare\n1 < CF-RAY: 6e0929645d2b100a-MRS\n1 < alt-svc: h3=\":443\"; ma=86400, h3-29=\":443\"; ma=86400\n{\"name\":\"Mouad\",\"job\":\"tester\",\"age\":25,\"id\":\"729\",\"createdAt\":\"2022-02-20T16:37:48.922Z\"}\n"},{"result":{"nanos":5700,"millis":0.0057,"status":"passed"},"step":{"line":22,"prefix":"Then","index":3,"text":"status 201"}},{"result":{"nanos":508900,"millis":0.5089,"status":"passed"},"step":{"line":23,"prefix":"And","index":4,"text":"match response == {\"name\":\"Mouad\",\"job\":\"tester\",\"age\":25,\"id\":\"#string\",\"createdAt\":\"#ignore\"}"}},{"result":{"nanos":1020900,"millis":1.0209,"status":"passed"},"step":{"line":24,"prefix":"And","index":5,"text":"print response"},"stepLog":"17:37:56.843 [print] {\n  \"name\": \"Mouad\",\n  \"job\": \"tester\",\n  \"age\": 25,\n  \"id\": \"729\",\n  \"createdAt\": \"2022-02-20T16:37:48.922Z\"\n}\n \n"}],"executorName":"main","line":18,"name":"test API post 2","description":"","durationMillis":5371.8379,"startTime":1645375071467,"failed":false,"refId":"[2:18]","endTime":1645375076843,"exampleIndex":-1},{"sectionIndex":2,"stepResults":[{"result":{"nanos":141300,"millis":0.1413,"status":"passed"},"step":{"background":true,"line":4,"prefix":"*","index":0,"text":"url 'https:\/\/reqres.in\/api'"},"stepLog":"17:37:56.847 \n"},{"result":{"nanos":1229000,"millis":1.229,"status":"passed"},"step":{"background":true,"line":5,"prefix":"*","index":1,"text":"def output = read('classpath:\/TestData\/response1.json')"}},{"result":{"nanos":988300,"millis":0.9883,"status":"passed"},"step":{"background":true,"line":6,"prefix":"*","index":2,"text":"def request1 = read('classpath:\/TestData\/request1.json')"}},{"result":{"nanos":88000,"millis":0.088,"status":"passed"},"step":{"line":27,"prefix":"Given","index":0,"text":"path '\/users'"}},{"result":{"nanos":117300,"millis":0.1173,"status":"passed"},"step":{"line":28,"prefix":"And","index":1,"text":"request {\"name\": \"Mouad\" , \"job\": \"tester\" }"}},{"result":{"nanos":3217997700,"millis":3217.9977,"status":"passed"},"step":{"line":29,"prefix":"When","index":2,"text":"method POST"},"stepLog":"17:37:56.851 request:\n1 > POST https:\/\/reqres.in\/api\/users\n1 > Content-Type: application\/json; charset=UTF-8\n1 > Content-Length: 31\n1 > Host: reqres.in\n1 > Connection: Keep-Alive\n1 > User-Agent: Apache-HttpClient\/4.5.13 (Java\/17.0.1)\n1 > Accept-Encoding: gzip,deflate\n{\"name\":\"Mouad\",\"job\":\"tester\"}\n\n17:38:00.068 response time in milliseconds: 3217\n1 < 201\n1 < Date: Sun, 20 Feb 2022 16:37:49 GMT\n1 < Content-Type: application\/json; charset=utf-8\n1 < Content-Length: 81\n1 < Connection: keep-alive\n1 < X-Powered-By: Express\n1 < Access-Control-Allow-Origin: *\n1 < Etag: W\/\"51-LNF2O7SaUqoZu1BtubSXLXT4fxI\"\n1 < Via: 1.1 vegur\n1 < CF-Cache-Status: DYNAMIC\n1 < Expect-CT: max-age=604800, report-uri=\"https:\/\/report-uri.cloudflare.com\/cdn-cgi\/beacon\/expect-ct\"\n1 < Report-To: {\"endpoints\":[{\"url\":\"https:\\\/\\\/a.nel.cloudflare.com\\\/report\\\/v3?s=iHjkUE5iMELHcYhULG157z87wcM3X%2BOO1xvp3du1GR2fGzoznkYS1fzs8xssyo97dm4T%2FY9UboKiHNLgJD9weo4guMnSSYKRhy%2BTCxnRhbq7oRLSU6triZfwAdg%3D\"}],\"group\":\"cf-nel\",\"max_age\":604800}\n1 < NEL: {\"success_fraction\":0,\"report_to\":\"cf-nel\",\"max_age\":604800}\n1 < Server: cloudflare\n1 < CF-RAY: 6e0929688cc2d769-MRS\n1 < alt-svc: h3=\":443\"; ma=86400, h3-29=\":443\"; ma=86400\n{\"name\":\"Mouad\",\"job\":\"tester\",\"id\":\"393\",\"createdAt\":\"2022-02-20T16:37:49.582Z\"}\n"},{"result":{"nanos":8200,"millis":0.0082,"status":"passed"},"step":{"line":30,"prefix":"Then","index":3,"text":"status 201"}},{"result":{"nanos":494000,"millis":0.494,"status":"passed"},"step":{"line":31,"prefix":"And","index":4,"text":"match response == output"}},{"result":{"nanos":428600,"millis":0.4286,"status":"passed"},"step":{"line":32,"prefix":"And","index":5,"text":"print response"},"stepLog":"17:38:00.070 [print] {\n  \"name\": \"Mouad\",\n  \"job\": \"tester\",\n  \"id\": \"393\",\n  \"createdAt\": \"2022-02-20T16:37:49.582Z\"\n}\n \n"}],"executorName":"main","line":26,"name":"test API post 3","description":"","durationMillis":3221.4924,"startTime":1645375076846,"failed":false,"refId":"[3:26]","endTime":1645375080070,"exampleIndex":-1},{"sectionIndex":3,"stepResults":[{"result":{"nanos":123100,"millis":0.1231,"status":"passed"},"step":{"background":true,"line":4,"prefix":"*","index":0,"text":"url 'https:\/\/reqres.in\/api'"},"stepLog":"17:38:00.073 \n"},{"result":{"nanos":1058500,"millis":1.0585,"status":"passed"},"step":{"background":true,"line":5,"prefix":"*","index":1,"text":"def output = read('classpath:\/TestData\/response1.json')"}},{"result":{"nanos":844900,"millis":0.8449,"status":"passed"},"step":{"background":true,"line":6,"prefix":"*","index":2,"text":"def request1 = read('classpath:\/TestData\/request1.json')"}},{"result":{"nanos":77100,"millis":0.0771,"status":"passed"},"step":{"line":35,"prefix":"Given","index":0,"text":"path '\/users'"}},{"result":{"nanos":472100,"millis":0.4721,"status":"passed"},"step":{"line":36,"prefix":"And","index":1,"text":"request request1"}},{"result":{"nanos":447358200,"millis":447.3582,"status":"passed"},"step":{"line":37,"prefix":"When","index":2,"text":"method POST"},"stepLog":"17:38:00.077 request:\n1 > POST https:\/\/reqres.in\/api\/users\n1 > Content-Type: application\/json; charset=UTF-8\n1 > Content-Length: 31\n1 > Host: reqres.in\n1 > Connection: Keep-Alive\n1 > User-Agent: Apache-HttpClient\/4.5.13 (Java\/17.0.1)\n1 > Accept-Encoding: gzip,deflate\n{\"name\":\"Mouad\",\"job\":\"tester\"}\n\n17:38:00.522 response time in milliseconds: 445\n1 < 201\n1 < Date: Sun, 20 Feb 2022 16:37:52 GMT\n1 < Content-Type: application\/json; charset=utf-8\n1 < Content-Length: 81\n1 < Connection: keep-alive\n1 < X-Powered-By: Express\n1 < Access-Control-Allow-Origin: *\n1 < Etag: W\/\"51-5uPfsDbacKFjiireLdGWzYvlGNY\"\n1 < Via: 1.1 vegur\n1 < CF-Cache-Status: DYNAMIC\n1 < Expect-CT: max-age=604800, report-uri=\"https:\/\/report-uri.cloudflare.com\/cdn-cgi\/beacon\/expect-ct\"\n1 < Report-To: {\"endpoints\":[{\"url\":\"https:\\\/\\\/a.nel.cloudflare.com\\\/report\\\/v3?s=X2fKeXLLhPNWA8qHU4ievDTjF6og5xkwcniNeYGnZAHisyLlH0e4gj8t4UFisKoexX%2BVnBKok0i%2FShdQ30fwbgbnTqpKFXNbNkWSdfqVQIbqufEVuhuGlJfxa2k%3D\"}],\"group\":\"cf-nel\",\"max_age\":604800}\n1 < NEL: {\"success_fraction\":0,\"report_to\":\"cf-nel\",\"max_age\":604800}\n1 < Server: cloudflare\n1 < CF-RAY: 6e09297b8b8241f7-MRS\n1 < alt-svc: h3=\":443\"; ma=86400, h3-29=\":443\"; ma=86400\n{\"name\":\"Mouad\",\"job\":\"tester\",\"id\":\"694\",\"createdAt\":\"2022-02-20T16:37:52.623Z\"}\n"},{"result":{"nanos":6600,"millis":0.0066,"status":"passed"},"step":{"line":38,"prefix":"Then","index":3,"text":"status 201"}},{"result":{"nanos":275000,"millis":0.275,"status":"passed"},"step":{"line":39,"prefix":"And","index":4,"text":"match response == output"}},{"result":{"nanos":347100,"millis":0.3471,"status":"passed"},"step":{"line":40,"prefix":"And","index":5,"text":"print response"},"stepLog":"17:38:00.524 [print] {\n  \"name\": \"Mouad\",\n  \"job\": \"tester\",\n  \"id\": \"694\",\n  \"createdAt\": \"2022-02-20T16:37:52.623Z\"\n}\n \n"}],"executorName":"main","line":34,"name":"test API post 3","description":"","durationMillis":450.5626,"startTime":1645375080073,"failed":false,"refId":"[4:34]","endTime":1645375080524,"exampleIndex":-1}],"callDepth":0,"name":"test sample API","description":"","resultDate":"2022-02-20 05:38:00 PM","durationMillis":9958.4236,"passedCount":4}