{"failedCount":2,"prefixedPath":"src\/test\/java\/test_ResIsReq.feature","packageQualifiedName":"src.test.java.test_ResIsReq","loopIndex":-1,"relativePath":"src\/test\/java\/test_ResIsReq.feature","scenarioResults":[{"sectionIndex":0,"stepResults":[{"result":{"nanos":57225200,"millis":57.2252,"status":"passed"},"step":{"background":true,"line":4,"prefix":"*","index":0,"text":"def baseUrl = 'https:\/\/reqres.in\/api'"}},{"result":{"nanos":16926000,"millis":16.926,"status":"passed"},"step":{"line":8,"prefix":"Given","index":0,"text":"url baseUrl"}},{"result":{"nanos":400300,"millis":0.4003,"status":"passed"},"step":{"line":9,"prefix":"And","index":1,"text":"path '\/users?page=2'"}},{"result":{"nanos":683470200,"millis":683.4702,"status":"passed"},"step":{"line":10,"prefix":"When","index":2,"text":"method GET"},"stepLog":"15:45:49.729 request:\n1 > GET https:\/\/reqres.in\/api\/users%3Fpage=2\n1 > Host: reqres.in\n1 > Connection: Keep-Alive\n1 > User-Agent: Apache-HttpClient\/4.5.13 (Java\/17.0.1)\n1 > Accept-Encoding: gzip,deflate\n\n\n15:45:50.200 response time in milliseconds: 468\n1 < 200\n1 < Date: Sun, 13 Feb 2022 14:45:47 GMT\n1 < Content-Type: application\/json; charset=utf-8\n1 < Transfer-Encoding: chunked\n1 < Connection: keep-alive\n1 < X-Powered-By: Express\n1 < Access-Control-Allow-Origin: *\n1 < Etag: W\/\"2c1-N6Rqerxquq2kgQhL51EiSg4x0R8\"\n1 < Via: 1.1 vegur\n1 < Cache-Control: max-age=14400\n1 < CF-Cache-Status: HIT\n1 < Age: 2734\n1 < Expect-CT: max-age=604800, report-uri=\"https:\/\/report-uri.cloudflare.com\/cdn-cgi\/beacon\/expect-ct\"\n1 < Report-To: {\"endpoints\":[{\"url\":\"https:\\\/\\\/a.nel.cloudflare.com\\\/report\\\/v3?s=3eFp7VfC5ZYruQqeTc5bSXpfVR10gbaz97mTpRxs1niUxkvI5GDbhtRUl8NDQOUQ2CES%2BYx4EYVvQ7bfOLS%2F7o%2BLbYYXC7CydEzraRQq4NjTXBOHoIWQu7UQOeg%3D\"}],\"group\":\"cf-nel\",\"max_age\":604800}\n1 < NEL: {\"success_fraction\":0,\"report_to\":\"cf-nel\",\"max_age\":604800}\n1 < Vary: Accept-Encoding\n1 < Server: cloudflare\n1 < CF-RAY: 6dced7aa4fb92dd6-BRU\n1 < alt-svc: h3=\":443\"; ma=86400, h3-29=\":443\"; ma=86400\n{\"page\":1,\"per_page\":6,\"total\":12,\"total_pages\":2,\"data\":[{\"id\":1,\"name\":\"cerulean\",\"year\":2000,\"color\":\"#98B2D1\",\"pantone_value\":\"15-4020\"},{\"id\":2,\"name\":\"fuchsia rose\",\"year\":2001,\"color\":\"#C74375\",\"pantone_value\":\"17-2031\"},{\"id\":3,\"name\":\"true red\",\"year\":2002,\"color\":\"#BF1932\",\"pantone_value\":\"19-1664\"},{\"id\":4,\"name\":\"aqua sky\",\"year\":2003,\"color\":\"#7BC4C4\",\"pantone_value\":\"14-4811\"},{\"id\":5,\"name\":\"tigerlily\",\"year\":2004,\"color\":\"#E2583E\",\"pantone_value\":\"17-1456\"},{\"id\":6,\"name\":\"blue turquoise\",\"year\":2005,\"color\":\"#53B0AE\",\"pantone_value\":\"15-5217\"}],\"support\":{\"url\":\"https:\/\/reqres.in\/#support-heading\",\"text\":\"To keep ReqRes free, contributions towards server costs are appreciated!\"}}\n"},{"result":{"nanos":16200,"millis":0.0162,"status":"passed"},"step":{"line":11,"prefix":"Then","index":3,"text":"status 200"}},{"result":{"nanos":2722400,"millis":2.7224,"status":"passed"},"step":{"line":12,"prefix":"And","index":4,"text":"def uResponse = response"}},{"result":{"nanos":37273100,"millis":37.2731,"status":"passed"},"step":{"line":13,"prefix":"And","index":5,"text":"print uResponse"},"stepLog":"15:45:50.259 [print] {\n  \"page\": 1,\n  \"per_page\": 6,\n  \"total\": 12,\n  \"total_pages\": 2,\n  \"data\": [\n    {\n      \"id\": 1,\n      \"name\": \"cerulean\",\n      \"year\": 2000,\n      \"color\": \"#98B2D1\",\n      \"pantone_value\": \"15-4020\"\n    },\n    {\n      \"id\": 2,\n      \"name\": \"fuchsia rose\",\n      \"year\": 2001,\n      \"color\": \"#C74375\",\n      \"pantone_value\": \"17-2031\"\n    },\n    {\n      \"id\": 3,\n      \"name\": \"true red\",\n      \"year\": 2002,\n      \"color\": \"#BF1932\",\n      \"pantone_value\": \"19-1664\"\n    },\n    {\n      \"id\": 4,\n      \"name\": \"aqua sky\",\n      \"year\": 2003,\n      \"color\": \"#7BC4C4\",\n      \"pantone_value\": \"14-4811\"\n    },\n    {\n      \"id\": 5,\n      \"name\": \"tigerlily\",\n      \"year\": 2004,\n      \"color\": \"#E2583E\",\n      \"pantone_value\": \"17-1456\"\n    },\n    {\n      \"id\": 6,\n      \"name\": \"blue turquoise\",\n      \"year\": 2005,\n      \"color\": \"#53B0AE\",\n      \"pantone_value\": \"15-5217\"\n    }\n  ],\n  \"support\": {\n    \"url\": \"https:\/\/reqres.in\/#support-heading\",\n    \"text\": \"To keep ReqRes free, contributions towards server costs are appreciated!\"\n  }\n}\n \n"},{"result":{"nanos":15032300,"millis":15.0323,"status":"passed"},"step":{"line":14,"prefix":"Then","index":6,"text":"match uResponse.data[*].name contains  ['cerulean']"}},{"result":{"nanos":2223900,"millis":2.2239,"status":"passed"},"step":{"line":15,"prefix":"Then","index":7,"text":"def rec = uResponse.data.name = 'cerulean'"}}],"line":7,"description":"","durationMillis":815.2896,"failed":false,"tags":["tag1"],"executorName":"main","name":"get if cerulean exist","startTime":1644763549455,"refId":"[1:7]","endTime":1644763550277,"exampleIndex":-1},{"sectionIndex":1,"stepResults":[{"result":{"nanos":338800,"millis":0.3388,"status":"passed"},"step":{"background":true,"line":4,"prefix":"*","index":0,"text":"def baseUrl = 'https:\/\/reqres.in\/api'"}},{"result":{"nanos":156600,"millis":0.1566,"status":"passed"},"step":{"line":19,"prefix":"Given","index":0,"text":"url baseUrl"}},{"result":{"nanos":212600,"millis":0.2126,"status":"passed"},"step":{"line":20,"prefix":"And","index":1,"text":"path '\/users?page=2'"}},{"result":{"nanos":205237500,"millis":205.2375,"status":"passed"},"step":{"line":21,"prefix":"When","index":2,"text":"method GET"},"stepLog":"15:45:50.283 request:\n1 > GET https:\/\/reqres.in\/api\/users%3Fpage=2\n1 > Host: reqres.in\n1 > Connection: Keep-Alive\n1 > User-Agent: Apache-HttpClient\/4.5.13 (Java\/17.0.1)\n1 > Accept-Encoding: gzip,deflate\n\n\n15:45:50.486 response time in milliseconds: 203\n1 < 200\n1 < Date: Sun, 13 Feb 2022 14:45:47 GMT\n1 < Content-Type: application\/json; charset=utf-8\n1 < Transfer-Encoding: chunked\n1 < Connection: keep-alive\n1 < X-Powered-By: Express\n1 < Access-Control-Allow-Origin: *\n1 < Etag: W\/\"2c1-N6Rqerxquq2kgQhL51EiSg4x0R8\"\n1 < Via: 1.1 vegur\n1 < Cache-Control: max-age=14400\n1 < CF-Cache-Status: HIT\n1 < Age: 2734\n1 < Expect-CT: max-age=604800, report-uri=\"https:\/\/report-uri.cloudflare.com\/cdn-cgi\/beacon\/expect-ct\"\n1 < Report-To: {\"endpoints\":[{\"url\":\"https:\\\/\\\/a.nel.cloudflare.com\\\/report\\\/v3?s=DaTJUdwagJ46kcz4OW8KiGD32axxgSQ9%2B5bfsi2PXODdeIh9R0bQe3N2CKuZUiupUe97xXl6IkZV40RRWQZ5mfkkAfOfijJ5Z2Mcsfg9gzPd0BwhVQ0Nl42O3aI%3D\"}],\"group\":\"cf-nel\",\"max_age\":604800}\n1 < NEL: {\"success_fraction\":0,\"report_to\":\"cf-nel\",\"max_age\":604800}\n1 < Vary: Accept-Encoding\n1 < Server: cloudflare\n1 < CF-RAY: 6dced7acada02dd6-BRU\n1 < alt-svc: h3=\":443\"; ma=86400, h3-29=\":443\"; ma=86400\n{\"page\":1,\"per_page\":6,\"total\":12,\"total_pages\":2,\"data\":[{\"id\":1,\"name\":\"cerulean\",\"year\":2000,\"color\":\"#98B2D1\",\"pantone_value\":\"15-4020\"},{\"id\":2,\"name\":\"fuchsia rose\",\"year\":2001,\"color\":\"#C74375\",\"pantone_value\":\"17-2031\"},{\"id\":3,\"name\":\"true red\",\"year\":2002,\"color\":\"#BF1932\",\"pantone_value\":\"19-1664\"},{\"id\":4,\"name\":\"aqua sky\",\"year\":2003,\"color\":\"#7BC4C4\",\"pantone_value\":\"14-4811\"},{\"id\":5,\"name\":\"tigerlily\",\"year\":2004,\"color\":\"#E2583E\",\"pantone_value\":\"17-1456\"},{\"id\":6,\"name\":\"blue turquoise\",\"year\":2005,\"color\":\"#53B0AE\",\"pantone_value\":\"15-5217\"}],\"support\":{\"url\":\"https:\/\/reqres.in\/#support-heading\",\"text\":\"To keep ReqRes free, contributions towards server costs are appreciated!\"}}\n"},{"result":{"nanos":11800,"millis":0.0118,"status":"passed"},"step":{"line":22,"prefix":"Then","index":3,"text":"status 200"}},{"result":{"nanos":292800,"millis":0.2928,"status":"passed"},"step":{"line":23,"prefix":"And","index":4,"text":"def uResponse = response"}},{"result":{"nanos":995500,"millis":0.9955,"status":"passed"},"step":{"line":24,"prefix":"And","index":5,"text":"print uResponse"},"stepLog":"15:45:50.489 [print] {\n  \"page\": 1,\n  \"per_page\": 6,\n  \"total\": 12,\n  \"total_pages\": 2,\n  \"data\": [\n    {\n      \"id\": 1,\n      \"name\": \"cerulean\",\n      \"year\": 2000,\n      \"color\": \"#98B2D1\",\n      \"pantone_value\": \"15-4020\"\n    },\n    {\n      \"id\": 2,\n      \"name\": \"fuchsia rose\",\n      \"year\": 2001,\n      \"color\": \"#C74375\",\n      \"pantone_value\": \"17-2031\"\n    },\n    {\n      \"id\": 3,\n      \"name\": \"true red\",\n      \"year\": 2002,\n      \"color\": \"#BF1932\",\n      \"pantone_value\": \"19-1664\"\n    },\n    {\n      \"id\": 4,\n      \"name\": \"aqua sky\",\n      \"year\": 2003,\n      \"color\": \"#7BC4C4\",\n      \"pantone_value\": \"14-4811\"\n    },\n    {\n      \"id\": 5,\n      \"name\": \"tigerlily\",\n      \"year\": 2004,\n      \"color\": \"#E2583E\",\n      \"pantone_value\": \"17-1456\"\n    },\n    {\n      \"id\": 6,\n      \"name\": \"blue turquoise\",\n      \"year\": 2005,\n      \"color\": \"#53B0AE\",\n      \"pantone_value\": \"15-5217\"\n    }\n  ],\n  \"support\": {\n    \"url\": \"https:\/\/reqres.in\/#support-heading\",\n    \"text\": \"To keep ReqRes free, contributions towards server costs are appreciated!\"\n  }\n}\n \n"},{"result":{"nanos":800900,"millis":0.8009,"status":"passed"},"step":{"line":25,"prefix":"Then","index":6,"text":"match uResponse.data[*].id contains  [1]"}},{"result":{"nanos":1903400,"millis":1.9034,"status":"passed"},"step":{"line":26,"prefix":"Then","index":7,"text":"def idNumber = uResponse.data.id = 1"}},{"result":{"nanos":1323300,"millis":1.3233,"status":"passed"},"step":{"line":27,"prefix":"And","index":8,"text":"print idNumber"},"stepLog":"15:45:50.494 [print] 1 \n"},{"result":{"nanos":145200,"millis":0.1452,"status":"passed"},"step":{"line":28,"prefix":"Given","index":9,"text":"url baseUrl"}},{"result":{"nanos":423400,"millis":0.4234,"status":"passed"},"step":{"line":29,"prefix":"And","index":10,"text":"path '\/users\/'"}},{"result":{"nanos":971400,"millis":0.9714,"status":"passed"},"step":{"line":30,"prefix":"And","index":11,"text":"param q = 2"}},{"result":{"nanos":267587000,"millis":267.587,"status":"passed"},"step":{"line":31,"prefix":"When","index":12,"text":"method GET"},"stepLog":"15:45:50.498 request:\n2 > GET https:\/\/reqres.in\/api\/users?q=2\n2 > Host: reqres.in\n2 > Connection: Keep-Alive\n2 > User-Agent: Apache-HttpClient\/4.5.13 (Java\/17.0.1)\n2 > Accept-Encoding: gzip,deflate\n\n\n15:45:50.763 response time in milliseconds: 265\n2 < 200\n2 < Date: Sun, 13 Feb 2022 14:45:47 GMT\n2 < Content-Type: application\/json; charset=utf-8\n2 < Transfer-Encoding: chunked\n2 < Connection: keep-alive\n2 < X-Powered-By: Express\n2 < Access-Control-Allow-Origin: *\n2 < Etag: W\/\"3e4-2RLXvr5wTg9YQ6aH95CkYoFNuO8\"\n2 < Via: 1.1 vegur\n2 < Cache-Control: max-age=14400\n2 < CF-Cache-Status: MISS\n2 < Expect-CT: max-age=604800, report-uri=\"https:\/\/report-uri.cloudflare.com\/cdn-cgi\/beacon\/expect-ct\"\n2 < Report-To: {\"endpoints\":[{\"url\":\"https:\\\/\\\/a.nel.cloudflare.com\\\/report\\\/v3?s=BIOoWoSWPJpnKhHuEsj24TgsbCG2UCcasuyc62%2FxHNUDiAKLsRN9t00P3rHPXPesS53ztgrU3gkLjxqjwKZ2MjZE6EvR0AmzaAaUkDhRcOIY8acdFp7MuzJseSk%3D\"}],\"group\":\"cf-nel\",\"max_age\":604800}\n2 < NEL: {\"success_fraction\":0,\"report_to\":\"cf-nel\",\"max_age\":604800}\n2 < Vary: Accept-Encoding\n2 < Server: cloudflare\n2 < CF-RAY: 6dced7adffe62e44-BRU\n2 < alt-svc: h3=\":443\"; ma=86400, h3-29=\":443\"; ma=86400\n{\"page\":1,\"per_page\":6,\"total\":12,\"total_pages\":2,\"data\":[{\"id\":1,\"email\":\"george.bluth@reqres.in\",\"first_name\":\"George\",\"last_name\":\"Bluth\",\"avatar\":\"https:\/\/reqres.in\/img\/faces\/1-image.jpg\"},{\"id\":2,\"email\":\"janet.weaver@reqres.in\",\"first_name\":\"Janet\",\"last_name\":\"Weaver\",\"avatar\":\"https:\/\/reqres.in\/img\/faces\/2-image.jpg\"},{\"id\":3,\"email\":\"emma.wong@reqres.in\",\"first_name\":\"Emma\",\"last_name\":\"Wong\",\"avatar\":\"https:\/\/reqres.in\/img\/faces\/3-image.jpg\"},{\"id\":4,\"email\":\"eve.holt@reqres.in\",\"first_name\":\"Eve\",\"last_name\":\"Holt\",\"avatar\":\"https:\/\/reqres.in\/img\/faces\/4-image.jpg\"},{\"id\":5,\"email\":\"charles.morris@reqres.in\",\"first_name\":\"Charles\",\"last_name\":\"Morris\",\"avatar\":\"https:\/\/reqres.in\/img\/faces\/5-image.jpg\"},{\"id\":6,\"email\":\"tracey.ramos@reqres.in\",\"first_name\":\"Tracey\",\"last_name\":\"Ramos\",\"avatar\":\"https:\/\/reqres.in\/img\/faces\/6-image.jpg\"}],\"support\":{\"url\":\"https:\/\/reqres.in\/#support-heading\",\"text\":\"To keep ReqRes free, contributions towards server costs are appreciated!\"}}\n"},{"result":{"nanos":1042500,"millis":1.0425,"status":"passed"},"step":{"line":32,"prefix":"Then","index":13,"text":"print response"},"stepLog":"15:45:50.765 [print] {\n  \"page\": 1,\n  \"per_page\": 6,\n  \"total\": 12,\n  \"total_pages\": 2,\n  \"data\": [\n    {\n      \"id\": 1,\n      \"email\": \"george.bluth@reqres.in\",\n      \"first_name\": \"George\",\n      \"last_name\": \"Bluth\",\n      \"avatar\": \"https:\/\/reqres.in\/img\/faces\/1-image.jpg\"\n    },\n    {\n      \"id\": 2,\n      \"email\": \"janet.weaver@reqres.in\",\n      \"first_name\": \"Janet\",\n      \"last_name\": \"Weaver\",\n      \"avatar\": \"https:\/\/reqres.in\/img\/faces\/2-image.jpg\"\n    },\n    {\n      \"id\": 3,\n      \"email\": \"emma.wong@reqres.in\",\n      \"first_name\": \"Emma\",\n      \"last_name\": \"Wong\",\n      \"avatar\": \"https:\/\/reqres.in\/img\/faces\/3-image.jpg\"\n    },\n    {\n      \"id\": 4,\n      \"email\": \"eve.holt@reqres.in\",\n      \"first_name\": \"Eve\",\n      \"last_name\": \"Holt\",\n      \"avatar\": \"https:\/\/reqres.in\/img\/faces\/4-image.jpg\"\n    },\n    {\n      \"id\": 5,\n      \"email\": \"charles.morris@reqres.in\",\n      \"first_name\": \"Charles\",\n      \"last_name\": \"Morris\",\n      \"avatar\": \"https:\/\/reqres.in\/img\/faces\/5-image.jpg\"\n    },\n    {\n      \"id\": 6,\n      \"email\": \"tracey.ramos@reqres.in\",\n      \"first_name\": \"Tracey\",\n      \"last_name\": \"Ramos\",\n      \"avatar\": \"https:\/\/reqres.in\/img\/faces\/6-image.jpg\"\n    }\n  ],\n  \"support\": {\n    \"url\": \"https:\/\/reqres.in\/#support-heading\",\n    \"text\": \"To keep ReqRes free, contributions towards server costs are appreciated!\"\n  }\n}\n \n"}],"line":18,"description":"","durationMillis":481.4427,"failed":false,"tags":["tag2"],"executorName":"main","name":"get if id 1 exist","startTime":1644763550281,"refId":"[2:18]","endTime":1644763550765,"exampleIndex":-1},{"sectionIndex":2,"stepResults":[{"result":{"nanos":237300,"millis":0.2373,"status":"passed"},"step":{"background":true,"line":4,"prefix":"*","index":0,"text":"def baseUrl = 'https:\/\/reqres.in\/api'"}},{"result":{"nanos":301600,"millis":0.3016,"status":"passed"},"step":{"comments":["#* def getId = call read('test_ResIsReq.feature@tag2')","#* print getId"],"line":38,"prefix":"Given","index":0,"text":"path '\/users\/2'"}},{"result":{"nanos":900900,"errorMessage":"http call failed after 1 milliseconds for url: \/users\/2\nsrc\/test\/java\/test_ResIsReq.feature:39","millis":0.9009,"status":"failed"},"step":{"line":39,"prefix":"When","index":1,"text":"method GET"},"stepLog":"15:45:50.770 karate.org.apache.http.ProtocolException: Target host is not specified, http call failed after 1 milliseconds for url: \/users\/2\n15:45:50.770 src\/test\/java\/test_ResIsReq.feature:39\nWhen method GET\nhttp call failed after 1 milliseconds for url: \/users\/2\nsrc\/test\/java\/test_ResIsReq.feature:39\n"},{"result":{"nanos":0,"millis":0.0,"status":"skipped"},"step":{"line":40,"prefix":"Then","index":2,"text":"status 200"}},{"result":{"nanos":0,"millis":0.0,"status":"skipped"},"step":{"line":41,"prefix":"And","index":3,"text":"def u1Response = response"}},{"result":{"nanos":0,"millis":0.0,"status":"skipped"},"step":{"line":42,"prefix":"And","index":4,"text":"print u1Response"}},{"result":{"nanos":0,"millis":0.0,"status":"skipped"},"step":{"line":43,"prefix":"Then","index":5,"text":"match u1Response.data[*].name contains  ['cerulean']"}}],"line":35,"description":"","durationMillis":1.4398,"failed":true,"error":"http call failed after 1 milliseconds for url: \/users\/2\nsrc\/test\/java\/test_ResIsReq.feature:39","tags":["tag3"],"executorName":"main","name":"","startTime":1644763550768,"refId":"[3:35]","endTime":1644763550770,"exampleIndex":-1},{"sectionIndex":3,"stepResults":[{"result":{"nanos":162500,"millis":0.1625,"status":"passed"},"step":{"background":true,"line":4,"prefix":"*","index":0,"text":"def baseUrl = 'https:\/\/reqres.in\/api'"}},{"result":{"nanos":60100,"millis":0.0601,"status":"passed"},"step":{"line":46,"prefix":"Given","index":0,"text":"path '\/users?page=2'"}},{"result":{"nanos":506800,"errorMessage":"http call failed after 0 milliseconds for url: \/users%3Fpage=2\nsrc\/test\/java\/test_ResIsReq.feature:47","millis":0.5068,"status":"failed"},"step":{"line":47,"prefix":"When","index":1,"text":"method GET"},"stepLog":"15:45:50.773 karate.org.apache.http.ProtocolException: Target host is not specified, http call failed after 0 milliseconds for url: \/users%3Fpage=2\n15:45:50.773 src\/test\/java\/test_ResIsReq.feature:47\nWhen method GET\nhttp call failed after 0 milliseconds for url: \/users%3Fpage=2\nsrc\/test\/java\/test_ResIsReq.feature:47\n"},{"result":{"nanos":0,"millis":0.0,"status":"skipped"},"step":{"line":48,"prefix":"Then","index":2,"text":"status 200"}},{"result":{"nanos":0,"millis":0.0,"status":"skipped"},"step":{"comments":["# * def name = 'cerulean'"],"line":50,"prefix":"*","index":3,"text":"def response = response.data"}},{"result":{"nanos":0,"millis":0.0,"status":"skipped"},"step":{"comments":["#* def names = $[*].name","#* def index = names.indexOf(name)"],"line":53,"prefix":"*","index":4,"text":"def indexes = []"}},{"result":{"nanos":0,"millis":0.0,"status":"skipped"},"step":{"line":54,"prefix":"*","index":5,"text":"def fun = function(x, i){ if (x.name == 'cerulean') karate.appendTo(indexes, i) }"}},{"result":{"nanos":0,"millis":0.0,"status":"skipped"},"step":{"line":55,"prefix":"*","index":6,"text":"print i"}},{"result":{"nanos":0,"millis":0.0,"status":"skipped"},"step":{"line":56,"prefix":"*","index":7,"text":"karate.forEach(response.items, fun)"}}],"line":45,"description":"","durationMillis":0.7294,"failed":true,"error":"http call failed after 0 milliseconds for url: \/users%3Fpage=2\nsrc\/test\/java\/test_ResIsReq.feature:47","executorName":"main","name":"get index cerulean","startTime":1644763550772,"refId":"[4:45]","endTime":1644763550773,"exampleIndex":-1}],"callDepth":0,"name":"test request is response","description":"","resultDate":"2022-02-13 03:45:50 PM","durationMillis":1298.9015,"passedCount":2}