{"failedCount":1,"prefixedPath":"src\/test\/java\/TestFeatures\/week3\/matchFromAllData.feature","packageQualifiedName":"src.test.java.TestFeatures.week3.matchFromAllData","loopIndex":-1,"relativePath":"src\/test\/java\/TestFeatures\/week3\/matchFromAllData.feature","scenarioResults":[{"sectionIndex":0,"stepResults":[{"result":{"nanos":40185600,"millis":40.1856,"status":"passed"},"step":{"background":true,"line":4,"prefix":"*","index":0,"text":"def exp1 = read('classpath:\/TestData\/allData.csv')"},"stepLog":"17:29:33.126 \n"},{"result":{"nanos":764600,"millis":0.7646,"status":"passed"},"step":{"line":8,"prefix":"Given","index":0,"text":"url 'https:\/\/reqres.in\/api\/users?page=1'"}},{"result":{"nanos":2390278100,"millis":2390.2781,"status":"passed"},"step":{"line":9,"prefix":"When","index":1,"text":"method GET"},"stepLog":"17:29:33.383 request:\n1 > GET https:\/\/reqres.in\/api\/users?page=1\n1 > Host: reqres.in\n1 > Connection: Keep-Alive\n1 > User-Agent: Apache-HttpClient\/4.5.13 (Java\/17.0.1)\n1 > Accept-Encoding: gzip,deflate\n\n\n17:29:35.576 response time in milliseconds: 2192\n1 < 200\n1 < Date: Sun, 20 Feb 2022 16:29:26 GMT\n1 < Content-Type: application\/json; charset=utf-8\n1 < Transfer-Encoding: chunked\n1 < Connection: keep-alive\n1 < X-Powered-By: Express\n1 < Access-Control-Allow-Origin: *\n1 < Etag: W\/\"3e4-2RLXvr5wTg9YQ6aH95CkYoFNuO8\"\n1 < Via: 1.1 vegur\n1 < Cache-Control: max-age=14400\n1 < CF-Cache-Status: HIT\n1 < Age: 657\n1 < Expect-CT: max-age=604800, report-uri=\"https:\/\/report-uri.cloudflare.com\/cdn-cgi\/beacon\/expect-ct\"\n1 < Report-To: {\"endpoints\":[{\"url\":\"https:\\\/\\\/a.nel.cloudflare.com\\\/report\\\/v3?s=ZdWU1qZweczDZzYv%2FZIkO8jXXfXEWxKfTs3rGHBpfQ1b04VgE1%2BuHOjgXwRqMdvyoAr0xrnffmy9qRukv4ByX3%2F%2FNeN2bLxouPHP1zT6IMLywAxod3x6U%2BfbG20%3D\"}],\"group\":\"cf-nel\",\"max_age\":604800}\n1 < NEL: {\"success_fraction\":0,\"report_to\":\"cf-nel\",\"max_age\":604800}\n1 < Vary: Accept-Encoding\n1 < Server: cloudflare\n1 < CF-RAY: 6e091d1fa80873d3-MRS\n1 < alt-svc: h3=\":443\"; ma=86400, h3-29=\":443\"; ma=86400\n{\"page\":1,\"per_page\":6,\"total\":12,\"total_pages\":2,\"data\":[{\"id\":1,\"email\":\"george.bluth@reqres.in\",\"first_name\":\"George\",\"last_name\":\"Bluth\",\"avatar\":\"https:\/\/reqres.in\/img\/faces\/1-image.jpg\"},{\"id\":2,\"email\":\"janet.weaver@reqres.in\",\"first_name\":\"Janet\",\"last_name\":\"Weaver\",\"avatar\":\"https:\/\/reqres.in\/img\/faces\/2-image.jpg\"},{\"id\":3,\"email\":\"emma.wong@reqres.in\",\"first_name\":\"Emma\",\"last_name\":\"Wong\",\"avatar\":\"https:\/\/reqres.in\/img\/faces\/3-image.jpg\"},{\"id\":4,\"email\":\"eve.holt@reqres.in\",\"first_name\":\"Eve\",\"last_name\":\"Holt\",\"avatar\":\"https:\/\/reqres.in\/img\/faces\/4-image.jpg\"},{\"id\":5,\"email\":\"charles.morris@reqres.in\",\"first_name\":\"Charles\",\"last_name\":\"Morris\",\"avatar\":\"https:\/\/reqres.in\/img\/faces\/5-image.jpg\"},{\"id\":6,\"email\":\"tracey.ramos@reqres.in\",\"first_name\":\"Tracey\",\"last_name\":\"Ramos\",\"avatar\":\"https:\/\/reqres.in\/img\/faces\/6-image.jpg\"}],\"support\":{\"url\":\"https:\/\/reqres.in\/#support-heading\",\"text\":\"To keep ReqRes free, contributions towards server costs are appreciated!\"}}\n"},{"result":{"nanos":14500,"millis":0.0145,"status":"passed"},"step":{"line":10,"prefix":"Then","index":2,"text":"status 200"}},{"result":{"nanos":1186100,"millis":1.1861,"status":"passed"},"step":{"line":11,"prefix":"And","index":3,"text":"def acc = response"}},{"result":{"nanos":1776600,"millis":1.7766,"status":"passed"},"step":{"line":12,"prefix":"*","index":4,"text":"print exp1"},"stepLog":"17:29:35.581 [print] [\n  {\n    \"﻿id;email;first_name;last_name;avatar\": \"1;george.bluth@reqres.in;George;Bluth;https:\/\/reqres.in\/img\/faces\/1-image.jpg\"\n  }\n]\n \n"},{"result":{"nanos":16554200,"errorMessage":"match failed: CONTAINS_DEEP\n  $ | actual does not contain expected | actual array does not contain expected item - {\"﻿id;email;first_name;last_name;avatar\":\"1;george.bluth@reqres.in;George;Bluth;https:\/\/reqres.in\/img\/faces\/1-image.jpg\"} (LIST:LIST)\n  [\"george.bluth@reqres.in\",\"janet.weaver@reqres.in\",\"emma.wong@reqres.in\",\"eve.holt@reqres.in\",\"charles.morris@reqres.in\",\"tracey.ramos@reqres.in\"]\n  [{\"﻿id;email;first_name;last_name;avatar\":\"1;george.bluth@reqres.in;George;Bluth;https:\/\/reqres.in\/img\/faces\/1-image.jpg\"}]\n\n    $[5] | data types don't match (STRING:MAP)\n    'tracey.ramos@reqres.in'\n    {\"﻿id;email;first_name;last_name;avatar\":\"1;george.bluth@reqres.in;George;Bluth;https:\/\/reqres.in\/img\/faces\/1-image.jpg\"}\n\n    $[4] | data types don't match (STRING:MAP)\n    'charles.morris@reqres.in'\n    {\"﻿id;email;first_name;last_name;avatar\":\"1;george.bluth@reqres.in;George;Bluth;https:\/\/reqres.in\/img\/faces\/1-image.jpg\"}\n\n    $[3] | data types don't match (STRING:MAP)\n    'eve.holt@reqres.in'\n    {\"﻿id;email;first_name;last_name;avatar\":\"1;george.bluth@reqres.in;George;Bluth;https:\/\/reqres.in\/img\/faces\/1-image.jpg\"}\n\n    $[2] | data types don't match (STRING:MAP)\n    'emma.wong@reqres.in'\n    {\"﻿id;email;first_name;last_name;avatar\":\"1;george.bluth@reqres.in;George;Bluth;https:\/\/reqres.in\/img\/faces\/1-image.jpg\"}\n\n    $[1] | data types don't match (STRING:MAP)\n    'janet.weaver@reqres.in'\n    {\"﻿id;email;first_name;last_name;avatar\":\"1;george.bluth@reqres.in;George;Bluth;https:\/\/reqres.in\/img\/faces\/1-image.jpg\"}\n\n    $[0] | data types don't match (STRING:MAP)\n    'george.bluth@reqres.in'\n    {\"﻿id;email;first_name;last_name;avatar\":\"1;george.bluth@reqres.in;George;Bluth;https:\/\/reqres.in\/img\/faces\/1-image.jpg\"}\n\nsrc\/test\/java\/TestFeatures\/week3\/matchFromAllData.feature:13","millis":16.5542,"status":"failed"},"step":{"line":13,"prefix":"*","index":5,"text":"match  acc.data[*].email contains deep exp1"},"stepLog":"17:29:35.599 src\/test\/java\/TestFeatures\/week3\/matchFromAllData.feature:13\n* match  acc.data[*].email contains deep exp1\nmatch failed: CONTAINS_DEEP\n  $ | actual does not contain expected | actual array does not contain expected item - {\"﻿id;email;first_name;last_name;avatar\":\"1;george.bluth@reqres.in;George;Bluth;https:\/\/reqres.in\/img\/faces\/1-image.jpg\"} (LIST:LIST)\n  [\"george.bluth@reqres.in\",\"janet.weaver@reqres.in\",\"emma.wong@reqres.in\",\"eve.holt@reqres.in\",\"charles.morris@reqres.in\",\"tracey.ramos@reqres.in\"]\n  [{\"﻿id;email;first_name;last_name;avatar\":\"1;george.bluth@reqres.in;George;Bluth;https:\/\/reqres.in\/img\/faces\/1-image.jpg\"}]\n\n    $[5] | data types don't match (STRING:MAP)\n    'tracey.ramos@reqres.in'\n    {\"﻿id;email;first_name;last_name;avatar\":\"1;george.bluth@reqres.in;George;Bluth;https:\/\/reqres.in\/img\/faces\/1-image.jpg\"}\n\n    $[4] | data types don't match (STRING:MAP)\n    'charles.morris@reqres.in'\n    {\"﻿id;email;first_name;last_name;avatar\":\"1;george.bluth@reqres.in;George;Bluth;https:\/\/reqres.in\/img\/faces\/1-image.jpg\"}\n\n    $[3] | data types don't match (STRING:MAP)\n    'eve.holt@reqres.in'\n    {\"﻿id;email;first_name;last_name;avatar\":\"1;george.bluth@reqres.in;George;Bluth;https:\/\/reqres.in\/img\/faces\/1-image.jpg\"}\n\n    $[2] | data types don't match (STRING:MAP)\n    'emma.wong@reqres.in'\n    {\"﻿id;email;first_name;last_name;avatar\":\"1;george.bluth@reqres.in;George;Bluth;https:\/\/reqres.in\/img\/faces\/1-image.jpg\"}\n\n    $[1] | data types don't match (STRING:MAP)\n    'janet.weaver@reqres.in'\n    {\"﻿id;email;first_name;last_name;avatar\":\"1;george.bluth@reqres.in;George;Bluth;https:\/\/reqres.in\/img\/faces\/1-image.jpg\"}\n\n    $[0] | data types don't match (STRING:MAP)\n    'george.bluth@reqres.in'\n    {\"﻿id;email;first_name;last_name;avatar\":\"1;george.bluth@reqres.in;George;Bluth;https:\/\/reqres.in\/img\/faces\/1-image.jpg\"}\n\nsrc\/test\/java\/TestFeatures\/week3\/matchFromAllData.feature:13\n"}],"line":7,"description":"","durationMillis":2450.7597,"failed":true,"error":"match failed: CONTAINS_DEEP\n  $ | actual does not contain expected | actual array does not contain expected item - {\"﻿id;email;first_name;last_name;avatar\":\"1;george.bluth@reqres.in;George;Bluth;https:\/\/reqres.in\/img\/faces\/1-image.jpg\"} (LIST:LIST)\n  [\"george.bluth@reqres.in\",\"janet.weaver@reqres.in\",\"emma.wong@reqres.in\",\"eve.holt@reqres.in\",\"charles.morris@reqres.in\",\"tracey.ramos@reqres.in\"]\n  [{\"﻿id;email;first_name;last_name;avatar\":\"1;george.bluth@reqres.in;George;Bluth;https:\/\/reqres.in\/img\/faces\/1-image.jpg\"}]\n\n    $[5] | data types don't match (STRING:MAP)\n    'tracey.ramos@reqres.in'\n    {\"﻿id;email;first_name;last_name;avatar\":\"1;george.bluth@reqres.in;George;Bluth;https:\/\/reqres.in\/img\/faces\/1-image.jpg\"}\n\n    $[4] | data types don't match (STRING:MAP)\n    'charles.morris@reqres.in'\n    {\"﻿id;email;first_name;last_name;avatar\":\"1;george.bluth@reqres.in;George;Bluth;https:\/\/reqres.in\/img\/faces\/1-image.jpg\"}\n\n    $[3] | data types don't match (STRING:MAP)\n    'eve.holt@reqres.in'\n    {\"﻿id;email;first_name;last_name;avatar\":\"1;george.bluth@reqres.in;George;Bluth;https:\/\/reqres.in\/img\/faces\/1-image.jpg\"}\n\n    $[2] | data types don't match (STRING:MAP)\n    'emma.wong@reqres.in'\n    {\"﻿id;email;first_name;last_name;avatar\":\"1;george.bluth@reqres.in;George;Bluth;https:\/\/reqres.in\/img\/faces\/1-image.jpg\"}\n\n    $[1] | data types don't match (STRING:MAP)\n    'janet.weaver@reqres.in'\n    {\"﻿id;email;first_name;last_name;avatar\":\"1;george.bluth@reqres.in;George;Bluth;https:\/\/reqres.in\/img\/faces\/1-image.jpg\"}\n\n    $[0] | data types don't match (STRING:MAP)\n    'george.bluth@reqres.in'\n    {\"﻿id;email;first_name;last_name;avatar\":\"1;george.bluth@reqres.in;George;Bluth;https:\/\/reqres.in\/img\/faces\/1-image.jpg\"}\n\nsrc\/test\/java\/TestFeatures\/week3\/matchFromAllData.feature:13","executorName":"main","name":"check if response contains csv values emails","startTime":1645374573007,"refId":"[1:7]","endTime":1645374575599,"exampleIndex":-1}],"callDepth":0,"name":"verify if elements exists in csv file","description":"","resultDate":"2022-02-20 05:29:35 PM","durationMillis":2450.7597,"passedCount":0}