{"failedCount":2,"prefixedPath":"src\/test\/java\/test_ResIsReq.feature","packageQualifiedName":"src.test.java.test_ResIsReq","loopIndex":-1,"relativePath":"src\/test\/java\/test_ResIsReq.feature","scenarioResults":[{"sectionIndex":0,"stepResults":[{"result":{"nanos":61610500,"millis":61.6105,"status":"passed"},"step":{"background":true,"line":4,"prefix":"*","index":0,"text":"url 'https:\/\/reqres.in\/api'"}},{"result":{"nanos":442900,"millis":0.4429,"status":"passed"},"step":{"line":7,"prefix":"Given","index":0,"text":"path '\/users?page=2'"}},{"result":{"nanos":1214821300,"millis":1214.8213,"status":"passed"},"step":{"line":8,"prefix":"When","index":1,"text":"method GET"},"stepLog":"15:00:15.541 request:\n1 > GET https:\/\/reqres.in\/api\/users%3Fpage=2\n1 > Host: reqres.in\n1 > Connection: Keep-Alive\n1 > User-Agent: Apache-HttpClient\/4.5.13 (Java\/17.0.1)\n1 > Accept-Encoding: gzip,deflate\n\n\n15:00:16.502 response time in milliseconds: 958\n1 < 200\n1 < Date: Sun, 13 Feb 2022 14:00:13 GMT\n1 < Content-Type: application\/json; charset=utf-8\n1 < Transfer-Encoding: chunked\n1 < Connection: keep-alive\n1 < X-Powered-By: Express\n1 < Access-Control-Allow-Origin: *\n1 < Etag: W\/\"2c1-N6Rqerxquq2kgQhL51EiSg4x0R8\"\n1 < Via: 1.1 vegur\n1 < Cache-Control: max-age=14400\n1 < CF-Cache-Status: REVALIDATED\n1 < Expect-CT: max-age=604800, report-uri=\"https:\/\/report-uri.cloudflare.com\/cdn-cgi\/beacon\/expect-ct\"\n1 < Report-To: {\"endpoints\":[{\"url\":\"https:\\\/\\\/a.nel.cloudflare.com\\\/report\\\/v3?s=aR62%2FcRHKp9CYfwe%2FqPO4cri3kNvU1c0aKb%2FFzrk1nIVkboRiZmp3ai0%2BUNqTi782PpFX2Jykmhdq8Byh1ep6KMYl0hgDwbdHbo5gHC1jn5%2BTccp05X4iEFadGo%3D\"}],\"group\":\"cf-nel\",\"max_age\":604800}\n1 < NEL: {\"success_fraction\":0,\"report_to\":\"cf-nel\",\"max_age\":604800}\n1 < Vary: Accept-Encoding\n1 < Server: cloudflare\n1 < CF-RAY: 6dce94ec6c662e3e-BRU\n1 < alt-svc: h3=\":443\"; ma=86400, h3-29=\":443\"; ma=86400\n{\"page\":1,\"per_page\":6,\"total\":12,\"total_pages\":2,\"data\":[{\"id\":1,\"name\":\"cerulean\",\"year\":2000,\"color\":\"#98B2D1\",\"pantone_value\":\"15-4020\"},{\"id\":2,\"name\":\"fuchsia rose\",\"year\":2001,\"color\":\"#C74375\",\"pantone_value\":\"17-2031\"},{\"id\":3,\"name\":\"true red\",\"year\":2002,\"color\":\"#BF1932\",\"pantone_value\":\"19-1664\"},{\"id\":4,\"name\":\"aqua sky\",\"year\":2003,\"color\":\"#7BC4C4\",\"pantone_value\":\"14-4811\"},{\"id\":5,\"name\":\"tigerlily\",\"year\":2004,\"color\":\"#E2583E\",\"pantone_value\":\"17-1456\"},{\"id\":6,\"name\":\"blue turquoise\",\"year\":2005,\"color\":\"#53B0AE\",\"pantone_value\":\"15-5217\"}],\"support\":{\"url\":\"https:\/\/reqres.in\/#support-heading\",\"text\":\"To keep ReqRes free, contributions towards server costs are appreciated!\"}}\n"},{"result":{"nanos":17400,"millis":0.0174,"status":"passed"},"step":{"line":9,"prefix":"Then","index":2,"text":"status 200"}},{"result":{"nanos":24156700,"millis":24.1567,"status":"passed"},"step":{"line":10,"prefix":"And","index":3,"text":"def uResponse = response"}},{"result":{"nanos":43203700,"millis":43.2037,"status":"passed"},"step":{"line":11,"prefix":"And","index":4,"text":"print uResponse"},"stepLog":"15:00:16.595 [print] {\n  \"page\": 1,\n  \"per_page\": 6,\n  \"total\": 12,\n  \"total_pages\": 2,\n  \"data\": [\n    {\n      \"id\": 1,\n      \"name\": \"cerulean\",\n      \"year\": 2000,\n      \"color\": \"#98B2D1\",\n      \"pantone_value\": \"15-4020\"\n    },\n    {\n      \"id\": 2,\n      \"name\": \"fuchsia rose\",\n      \"year\": 2001,\n      \"color\": \"#C74375\",\n      \"pantone_value\": \"17-2031\"\n    },\n    {\n      \"id\": 3,\n      \"name\": \"true red\",\n      \"year\": 2002,\n      \"color\": \"#BF1932\",\n      \"pantone_value\": \"19-1664\"\n    },\n    {\n      \"id\": 4,\n      \"name\": \"aqua sky\",\n      \"year\": 2003,\n      \"color\": \"#7BC4C4\",\n      \"pantone_value\": \"14-4811\"\n    },\n    {\n      \"id\": 5,\n      \"name\": \"tigerlily\",\n      \"year\": 2004,\n      \"color\": \"#E2583E\",\n      \"pantone_value\": \"17-1456\"\n    },\n    {\n      \"id\": 6,\n      \"name\": \"blue turquoise\",\n      \"year\": 2005,\n      \"color\": \"#53B0AE\",\n      \"pantone_value\": \"15-5217\"\n    }\n  ],\n  \"support\": {\n    \"url\": \"https:\/\/reqres.in\/#support-heading\",\n    \"text\": \"To keep ReqRes free, contributions towards server costs are appreciated!\"\n  }\n}\n \n"},{"result":{"nanos":20914200,"millis":20.9142,"status":"passed"},"step":{"line":12,"prefix":"Then","index":5,"text":"match uResponse.data[*].name contains  ['cerulean']"}},{"result":{"nanos":2406800,"millis":2.4068,"status":"passed"},"step":{"line":13,"prefix":"Then","index":6,"text":"def rec = uResponse.data.name = 'cerulean'"}}],"executorName":"main","line":6,"name":"get if cerulean exist","description":"","durationMillis":1367.5735,"startTime":1644760815243,"failed":false,"refId":"[1:6]","endTime":1644760816620,"exampleIndex":-1},{"sectionIndex":1,"stepResults":[{"result":{"nanos":336100,"millis":0.3361,"status":"passed"},"step":{"background":true,"line":4,"prefix":"*","index":0,"text":"url 'https:\/\/reqres.in\/api'"}},{"result":{"nanos":188900,"millis":0.1889,"status":"passed"},"step":{"line":16,"prefix":"Given","index":0,"text":"path '\/users\/2'"}},{"result":{"nanos":275641500,"millis":275.6415,"status":"passed"},"step":{"line":17,"prefix":"When","index":1,"text":"method GET"},"stepLog":"15:00:16.625 request:\n1 > GET https:\/\/reqres.in\/api\/users\/2\n1 > Host: reqres.in\n1 > Connection: Keep-Alive\n1 > User-Agent: Apache-HttpClient\/4.5.13 (Java\/17.0.1)\n1 > Accept-Encoding: gzip,deflate\n\n\n15:00:16.899 response time in milliseconds: 274\n1 < 200\n1 < Date: Sun, 13 Feb 2022 14:00:14 GMT\n1 < Content-Type: application\/json; charset=utf-8\n1 < Transfer-Encoding: chunked\n1 < Connection: keep-alive\n1 < X-Powered-By: Express\n1 < Access-Control-Allow-Origin: *\n1 < Etag: W\/\"118-pbdwwFo9SKNhD3Lx5iHJyngpq00\"\n1 < Via: 1.1 vegur\n1 < Cache-Control: max-age=14400\n1 < CF-Cache-Status: HIT\n1 < Age: 6803\n1 < Expect-CT: max-age=604800, report-uri=\"https:\/\/report-uri.cloudflare.com\/cdn-cgi\/beacon\/expect-ct\"\n1 < Report-To: {\"endpoints\":[{\"url\":\"https:\\\/\\\/a.nel.cloudflare.com\\\/report\\\/v3?s=w3obIY4znlC8%2BnExmLf9Vii%2Foiylvq8wD5oZ8b2GlBQQ2mXE7FZ%2Fs1LSR2%2BdpUxZXyQAnDcpd3MFii7C7WPq8UG3vHA%2BDVvTqwo0P2HpEaM4Ulg6jsnTCcn0rVY%3D\"}],\"group\":\"cf-nel\",\"max_age\":604800}\n1 < NEL: {\"success_fraction\":0,\"report_to\":\"cf-nel\",\"max_age\":604800}\n1 < Vary: Accept-Encoding\n1 < Server: cloudflare\n1 < CF-RAY: 6dce94ef7a4c2e56-BRU\n1 < alt-svc: h3=\":443\"; ma=86400, h3-29=\":443\"; ma=86400\n{\"data\":{\"id\":2,\"email\":\"janet.weaver@reqres.in\",\"first_name\":\"Janet\",\"last_name\":\"Weaver\",\"avatar\":\"https:\/\/reqres.in\/img\/faces\/2-image.jpg\"},\"support\":{\"url\":\"https:\/\/reqres.in\/#support-heading\",\"text\":\"To keep ReqRes free, contributions towards server costs are appreciated!\"}}\n"},{"result":{"nanos":7200,"millis":0.0072,"status":"passed"},"step":{"line":18,"prefix":"Then","index":2,"text":"status 200"}},{"result":{"nanos":237100,"millis":0.2371,"status":"passed"},"step":{"line":19,"prefix":"And","index":3,"text":"def u1Response = response"}},{"result":{"nanos":867500,"millis":0.8675,"status":"passed"},"step":{"line":20,"prefix":"And","index":4,"text":"print u1Response"},"stepLog":"15:00:16.901 [print] {\n  \"data\": {\n    \"id\": 2,\n    \"email\": \"janet.weaver@reqres.in\",\n    \"first_name\": \"Janet\",\n    \"last_name\": \"Weaver\",\n    \"avatar\": \"https:\/\/reqres.in\/img\/faces\/2-image.jpg\"\n  },\n  \"support\": {\n    \"url\": \"https:\/\/reqres.in\/#support-heading\",\n    \"text\": \"To keep ReqRes free, contributions towards server costs are appreciated!\"\n  }\n}\n \n"},{"result":{"nanos":1351300,"errorMessage":"match failed: CONTAINS\n  $ | actual does not contain expected | actual array length is less than expected - 0:1 (LIST:LIST)\n  []\n  [\"cerulean\"]\n\n\nsrc\/test\/java\/test_ResIsReq.feature:21","millis":1.3513,"status":"failed"},"step":{"line":21,"prefix":"Then","index":5,"text":"match u1Response.data[*].name contains  ['cerulean']"},"stepLog":"15:00:16.903 src\/test\/java\/test_ResIsReq.feature:21\nThen match u1Response.data[*].name contains  ['cerulean']\nmatch failed: CONTAINS\n  $ | actual does not contain expected | actual array length is less than expected - 0:1 (LIST:LIST)\n  []\n  [\"cerulean\"]\n\n\nsrc\/test\/java\/test_ResIsReq.feature:21\n"}],"line":15,"description":"","durationMillis":278.6296,"failed":true,"error":"match failed: CONTAINS\n  $ | actual does not contain expected | actual array length is less than expected - 0:1 (LIST:LIST)\n  []\n  [\"cerulean\"]\n\n\nsrc\/test\/java\/test_ResIsReq.feature:21","executorName":"main","name":"","startTime":1644760816623,"refId":"[2:15]","endTime":1644760816903,"exampleIndex":-1},{"sectionIndex":2,"stepResults":[{"result":{"nanos":238200,"millis":0.2382,"status":"passed"},"step":{"background":true,"line":4,"prefix":"*","index":0,"text":"url 'https:\/\/reqres.in\/api'"}},{"result":{"nanos":341300,"millis":0.3413,"status":"passed"},"step":{"line":24,"prefix":"Given","index":0,"text":"path '\/users?page=2'"}},{"result":{"nanos":271913800,"millis":271.9138,"status":"passed"},"step":{"line":25,"prefix":"When","index":1,"text":"method GET"},"stepLog":"15:00:16.908 request:\n1 > GET https:\/\/reqres.in\/api\/users%3Fpage=2\n1 > Host: reqres.in\n1 > Connection: Keep-Alive\n1 > User-Agent: Apache-HttpClient\/4.5.13 (Java\/17.0.1)\n1 > Accept-Encoding: gzip,deflate\n\n\n15:00:17.179 response time in milliseconds: 270\n1 < 200\n1 < Date: Sun, 13 Feb 2022 14:00:14 GMT\n1 < Content-Type: application\/json; charset=utf-8\n1 < Transfer-Encoding: chunked\n1 < Connection: keep-alive\n1 < X-Powered-By: Express\n1 < Access-Control-Allow-Origin: *\n1 < Etag: W\/\"2c1-N6Rqerxquq2kgQhL51EiSg4x0R8\"\n1 < Via: 1.1 vegur\n1 < Cache-Control: max-age=14400\n1 < CF-Cache-Status: HIT\n1 < Age: 1\n1 < Expect-CT: max-age=604800, report-uri=\"https:\/\/report-uri.cloudflare.com\/cdn-cgi\/beacon\/expect-ct\"\n1 < Report-To: {\"endpoints\":[{\"url\":\"https:\\\/\\\/a.nel.cloudflare.com\\\/report\\\/v3?s=JPWilx1HVHR%2FzWYfL7SUe%2FEZ%2F6%2Br%2B7XdExIecI8fJkL7dUqp7BpGMnxvzj2ANDPQfEZKBhpRPDfWMb3tqT2mWW529CizokRU6JP48%2Fe3t7SILriWhthisNejdIM%3D\"}],\"group\":\"cf-nel\",\"max_age\":604800}\n1 < NEL: {\"success_fraction\":0,\"report_to\":\"cf-nel\",\"max_age\":604800}\n1 < Vary: Accept-Encoding\n1 < Server: cloudflare\n1 < CF-RAY: 6dce94f17cc7f961-BRU\n1 < alt-svc: h3=\":443\"; ma=86400, h3-29=\":443\"; ma=86400\n{\"page\":1,\"per_page\":6,\"total\":12,\"total_pages\":2,\"data\":[{\"id\":1,\"name\":\"cerulean\",\"year\":2000,\"color\":\"#98B2D1\",\"pantone_value\":\"15-4020\"},{\"id\":2,\"name\":\"fuchsia rose\",\"year\":2001,\"color\":\"#C74375\",\"pantone_value\":\"17-2031\"},{\"id\":3,\"name\":\"true red\",\"year\":2002,\"color\":\"#BF1932\",\"pantone_value\":\"19-1664\"},{\"id\":4,\"name\":\"aqua sky\",\"year\":2003,\"color\":\"#7BC4C4\",\"pantone_value\":\"14-4811\"},{\"id\":5,\"name\":\"tigerlily\",\"year\":2004,\"color\":\"#E2583E\",\"pantone_value\":\"17-1456\"},{\"id\":6,\"name\":\"blue turquoise\",\"year\":2005,\"color\":\"#53B0AE\",\"pantone_value\":\"15-5217\"}],\"support\":{\"url\":\"https:\/\/reqres.in\/#support-heading\",\"text\":\"To keep ReqRes free, contributions towards server costs are appreciated!\"}}\n"},{"result":{"nanos":6500,"millis":0.0065,"status":"passed"},"step":{"line":26,"prefix":"Then","index":2,"text":"status 200"}},{"result":{"nanos":436100,"millis":0.4361,"status":"passed"},"step":{"line":27,"prefix":"*","index":3,"text":"def name = 'cerulean'"}},{"result":{"nanos":8692500,"errorMessage":"js failed:\n>>>>\n01: result.data\n<<<<\norg.graalvm.polyglot.PolyglotException: ReferenceError: \"result\" is not defined\n- <js>.:program(Unnamed:1)\n\nsrc\/test\/java\/test_ResIsReq.feature:28","millis":8.6925,"status":"failed"},"step":{"line":28,"prefix":"*","index":4,"text":"def response = result.data"},"stepLog":"15:00:17.189 src\/test\/java\/test_ResIsReq.feature:28\n* def response = result.data\njs failed:\n>>>>\n01: result.data\n<<<<\norg.graalvm.polyglot.PolyglotException: ReferenceError: \"result\" is not defined\n- <js>.:program(Unnamed:1)\n\nsrc\/test\/java\/test_ResIsReq.feature:28\n"},{"result":{"nanos":0,"millis":0.0,"status":"skipped"},"step":{"line":29,"prefix":"*","index":5,"text":"def names = $[*].name"}},{"result":{"nanos":0,"millis":0.0,"status":"skipped"},"step":{"line":30,"prefix":"*","index":6,"text":"def index = names.indexOf(name)"}},{"result":{"nanos":0,"millis":0.0,"status":"skipped"},"step":{"line":31,"prefix":"*","index":7,"text":"print index"}}],"line":23,"description":"","durationMillis":281.6284,"failed":true,"error":"js failed:\n>>>>\n01: result.data\n<<<<\norg.graalvm.polyglot.PolyglotException: ReferenceError: \"result\" is not defined\n- <js>.:program(Unnamed:1)\n\nsrc\/test\/java\/test_ResIsReq.feature:28","executorName":"main","name":"get index cerulean","startTime":1644760816907,"refId":"[3:23]","endTime":1644760817189,"exampleIndex":-1}],"callDepth":0,"name":"test request is response","description":"","resultDate":"2022-02-13 03:00:17 PM","durationMillis":1927.8315,"passedCount":1}